161.62
162.1
164.65
168.43
171.46
171.34
167.12
160.72
155.79
154.57
156.56
159.02
158.34
152.36
142.14
131.19
122.3
116.16
112.46
110.95
112.25
120.93
190.69
257.43
266.94
270.26
271.97
272.97
273.38
273.21
273.09
273.42
274.09
275.1
276.64
279.07
282.82
288.07
293.89
298.36
300.84
302.64
305.59
311.26
320.63
331.9
337.37
328.51
309.55
294.9
287.89
286.26
289.09
296.1
304.53
310.24
312.92
314.47
316.08
317.86
319.32
320.03
320.29
320.94
321.65
319.47
311.38
299.97
290.4
283.9
279.2
274.3
263.67
203.44
138.48
132.48
138.31
151.98
171.55
190.6
203.84
211.42
215.28
216.97
217.2
214.32
204.66
191.37
180.88
174.48
171.49
170.82
170.97
170.36
168.29
166.08
167.21
174.9
185.55
185.77
166.01
140.49
127.53
125.28
133.16
161.85
212.38
238.53
248.8
255.2
267.26
320.05
0.40892
357.83
348.61
342.49
341
342.91
346.28
349.19
350.14
348.1
342.42
333.04
320.72
305.26
275.55
192.32
159.29
154.01
158.87
173.88
200.12
227.41
245.57
256.69
264.67
271.99
280.3
290.43
301.77
312.29
320.73
328.46
342.64
91.938
136.18
146.64
153.93
160.03
164.61
166.89
166.37
163.36
159.05
154.87
151.65
149.42
147.67
145.94
144.25
143.36
144.93
153.39
191.24
266.82
290.55
300.77
307.5
311.81
311.6
274.97
173.17
167.65
167.83
166.7
162.3
155.12
147.52
141.95
139.48
140.04
142.77
146.18
148.67
149.4
148.55
146.67
144.23
141.92
140.96
143.16
150.96
166.5
186.15
199.53
202.09
195.23
182.96
171.29
163.64
159.77
158.41
158.73
160.27
162.55
164.61
165.11
163.08
158.93
154.37
150.92
148.78
147.19
145.34
143.07
140.82
139.21
138.74
139.83
143.27
150.83
166.04
191.27
216.99
232.69
240.14
244.31
280.62
11.009
1.6126
352
349.6
352.58
357.7
1.9545
3.2693
0.68432
354.31
345.41
335.74
325.58
310.3
267.86
202.86
173.83
155.22
140.95
131.63
127.17
127.35
133.58
151.95
194.18
236.98
262.8
289.32
323.85
346.82
351.8
347.17
340.12
335.43
335.1
339.09
345.82
352.44
356.34
356.55
353.43
347.89
340.87
333.24
325.93
320.21
126.8
131.03
132.01
136.64
147.61
169.55
202.44
232.5
256.38
283.31
316.95
342.53
354.67
359.22
0.33827
0.030549
359.2
0.29824
167.11
163.9
156.84
148.64
141
135.22
132.06
132.17
137.09
151.13
182.26
219.71
241.26
252.54
260.5
268.59
278.83
292.55
310.32
329.96
345.96
355.03
358.03
357.3
355.15
353.25
352.43
352.78
353.9
355.32
356.66
357.65
357.97
357.2
354.89
350.86
345.6
340.48
337.9
342.71
14.249
82.702
108.38
121.41
135.85
157.98
190.67
227.27
260.32
285.35
300.01
307.81
313.45
320.45
331.53
347.77
5.3202
16.852
19.563
15.971
11.003
7.4439
4.4585
0.4114
354.7
347.9
341.15
335.43
331.21
328.62
327.81
329.22
333.35
339.98
347.05
351.46
351.99
350.15
348.3
347.79
348.61
350.05
351.39
352.45
353.68
355.96
0.01358
5.654
11.432
15.736
18.173
19.331
19.763
19.557
18.457
16.155
13.153
179.32
175.24
167.71
161.21
157.17
156.21
158.33
162.9
168.36
172.49
173.48
170.99
166.57
163.28
164.66
174.73
196.94
224.96
246.49
262.13
278.33
303.12
337.96
2.8806
11.53
7.5911
346.4
293.56
236.41
189.24
153.5
134.54
125.63
122.18
122.55
126.86
136.64
153.92
175.7
191.7
196.99
192.46
179.98
163.47
144.56
41.307
348.13
346.1
349.96
354.81
358.13
358.75
356.87
353.51
350.01
347.33
345.83
345.4
345.68
346.26
346.64
346.15
344.13
340.57
336.59
334.12
334.72
338.81
345.35
352.09
357.05
359.63
0.052998
358.25
353.53
345.34
334.91
325.72
321.35
324.19
334.68
346.36
349.43
344.06
336.8
332.27
331.56
334.1
338.77
344.11
348.76
351.96
353.62
353.83
352.24
348.01
340.98
332.92
326.62
323.78
324.8
329.63
338.09
349.42
1.9026
14.576
117.04
187.23
185.29
176.43
164.72
154.65
149.3
150.08
158.55
176.32
199.23
217.21
227.49
232.73
234.93
233.73
227.28
213.25
191.77
171.14
158.79
153.89
153.41
154.99
157.18
160.08
165.61
177.41
198.27
222.45
240.21
250.97
257.21
253.62
145.32
142.24
155.26
162.84
164.95
164.55
163.48
162
159.1
152.6
138.36
109
65.848
33.869
17.976
15.437
36.34
93.333
122.91
134.34
141.26
146.44
150
151.25
149.74
146.38
143.68
143.9
147.64
153.73
159.63
162.72
161.95
158.34
154.09
151.27
151.14
154.09
159.75
166.55
171.83
173.15
169.85
163.7
157.79
154.2
153.09
153.44
154.02
153.93
152.56
149.19
141.63
120.35
61.422
25.182
145.37
171.31
166.82
160.72
154.61
149.67
146.71
146.26
148.8
155.32
167.9
189.91
221.11
251.79
277.81
303.74
330.16
350.31
1.0212
4.8238
5.2259
5.3662
7.1864
9.8536
9.0452
0.040807
344.68
331.76
325.39
324.35
327.01
332.24
339.06
346.27
352.54
356.61
357.5
354.64
348.18
339.59
331.48
326.13
324.53
326.83
332.7
340.85
348.75
353.73
354.59
351.77
346.79
341.72
338.37
337.63
339.39
342.81
346.68
349.94
351.93
352.51
351.81
350.15
347.88
345.46
343.38
342.13
341.94
342.53
342.95
342.08
339.67
336.73
334.61
334.22
335.9
339.5
344.02
347.39
347.06
341.84
333.72
326.93
324.23
325.8
330.07
334.56
337.29
337.83
336.89
335.37
334
333.28
333.76
335.98
340.21
345.52
348.86
346.55
338.75
330.76
326.81
327.28
331.06
336.9
343.77
350.89
357.6
3.1023
6.5516
7.4441
6.281
4.5425
3.0906
0.87673
356.29
349.19
341.26
334.72
330.86
329.84
330.93
332.33
330.98
324.05
312.56
301.85
295.42
293.52
295.81
301.83
308.62
311.04
308.97
306.72
307.47
313.29
326.79
347.9
6.3235
13.956
13.419
9.545
5.2677
1.1187
356.46
350.74
344.13
337.65
332.7
330.53
332.05
337.77
347.38
358.65
8.1536
13.776
15.409
13.923
10.597
6.9883
4.4509
3.4062
3.2275
2.96
2.1926
1.3632
1.378
2.9176
5.8778
9.253
11.633
12.071
10.711
8.773
7.7862
8.4397
9.9514
10.377
7.4439
359.42
346.69
334.36
341.75
103.18
110.25
111.89
118.2
150.08
215.65
206.75
141.67
119.76
116.18
118.37
124.41
133.48
142.91
148.5
148.4
144.38
139.36
135.25
132.59
131.24
130.84
131.02
131.5
132.22
133.55
136.66
144.29
162.56
194.9
218.21
217.05
186.79
155.21
146.48
148.66
154.63
160.82
165.94
170.59
176.17
183.7
192.7
200.52
202.58
192.37
168.84
152.53
150.09
153.2
155.83
155.9
154.05
152.02
151.68
155.19
165.82
185.59
205.05
212.07
204.98
184.83
161.02
145.74
139.51
139.61
144.68
153.79
164.55
172.87
175.83
173.8
169.93
167.91
169.42
173.3
176.45
176.09
171.92
166.91
166.57
179.04
212.99
246.14
262.29
270.58
275.96
279.22
273.85
207.53
168.12
165.67
166.13
165.85
165.01
164.29
164.13
164.51
165.08
165.36
165.07
164.34
163.64
163.38
163.61
163.93
163.67
161.99
158.24
152.46
145.79
140.02
136.63
136.47
140.12
147.96
159.12
170.2
177
177.96
174.31
169.03
165.62
166.68
172.78
180.79
184.36
179.48
168.41
157.48
150.06
144.24
130.54
61.694
17.666
10.419
8.6807
7.5793
5.6269
1.8953
355.64
346.83
337.01
329.12
325.91
329.34
340.38
355.48
6.4356
10.067
8.8107
5.9364
3.5234
