%!PS-Adobe-3.0 EPSF-3.0
%%Creator: MATLAB, The MathWorks, Inc. Version 8.1.0.604 (R2013a). Operating System: Darwin 12.5.0 Darwin Kernel Version 12.5.0: Sun Sep 29 13:33:47 PDT 2013; root:xnu-2050.48.12~1/RELEASE_X86_64 x86_64.
%%Title: /Users/bamdadhosseini/Work/Courses/apma990-machinelearning/MATLAB/wx_fit.eps
%%CreationDate: 01/06/2015  17:19:46
%%DocumentNeededFonts: Times-Roman
%%DocumentProcessColors: Cyan Magenta Yellow Black
%%LanguageLevel: 2
%%Pages: 1
%%BoundingBox:   -61   227   672   564
%%EndComments

%%BeginProlog
% MathWorks dictionary
/MathWorks 160 dict begin
% definition operators
/bdef {bind def} bind def
/ldef {load def} bind def
/xdef {exch def} bdef
/xstore {exch store} bdef
% operator abbreviations
/c  /clip ldef
/cc /concat ldef
/cp /closepath ldef
/gr /grestore ldef
/gs /gsave ldef
/mt /moveto ldef
/np /newpath ldef
/cm /currentmatrix ldef
/sm /setmatrix ldef
/rm /rmoveto ldef
/rl /rlineto ldef
/s {show newpath} bdef
/sc {setcmykcolor} bdef
/sr /setrgbcolor ldef
/sg /setgray ldef
/w /setlinewidth ldef
/j /setlinejoin ldef
/cap /setlinecap ldef
/rc {rectclip} bdef
/rf {rectfill} bdef
% page state control
/pgsv () def
/bpage {/pgsv save def} bdef
/epage {pgsv restore} bdef
/bplot /gsave ldef
/eplot {stroke grestore} bdef
% orientation switch
/portraitMode 0 def /landscapeMode 1 def /rotateMode 2 def
% coordinate system mappings
/dpi2point 0 def
% font control
/FontSize 0 def
/FMS {/FontSize xstore findfont [FontSize 0 0 FontSize neg 0 0]
  makefont setfont} bdef
/reencode {exch dup where {pop load} {pop StandardEncoding} ifelse
  exch dup 3 1 roll findfont dup length dict begin
  { 1 index /FID ne {def}{pop pop} ifelse } forall
  /Encoding exch def currentdict end definefont pop} bdef
/isroman {findfont /CharStrings get /Agrave known} bdef
/FMSR {3 1 roll 1 index dup isroman {reencode} {pop pop} ifelse
  exch FMS} bdef
/csm {1 dpi2point div -1 dpi2point div scale neg translate
 dup landscapeMode eq {pop -90 rotate}
  {rotateMode eq {90 rotate} if} ifelse} bdef
% line types: solid, dotted, dashed, dotdash
/SO { [] 0 setdash } bdef
/DO { [.5 dpi2point mul 4 dpi2point mul] 0 setdash } bdef
/DA { [6 dpi2point mul] 0 setdash } bdef
/DD { [.5 dpi2point mul 4 dpi2point mul 6 dpi2point mul 4
  dpi2point mul] 0 setdash } bdef
% macros for lines and objects
/L {lineto stroke} bdef
/MP {3 1 roll moveto 1 sub {rlineto} repeat} bdef
/AP {{rlineto} repeat} bdef
/PDlw -1 def
/W {/PDlw currentlinewidth def setlinewidth} def
/PP {closepath eofill} bdef
/DP {closepath stroke} bdef
/MR {4 -2 roll moveto dup  0 exch rlineto exch 0 rlineto
  neg 0 exch rlineto closepath} bdef
/FR {MR stroke} bdef
/PR {MR fill} bdef
/L1i {{currentfile picstr readhexstring pop} image} bdef
/tMatrix matrix def
/MakeOval {newpath tMatrix currentmatrix pop translate scale
0 0 1 0 360 arc tMatrix setmatrix} bdef
/FO {MakeOval stroke} bdef
/PO {MakeOval fill} bdef
/PD {currentlinewidth 2 div 0 360 arc fill
   PDlw -1 eq not {PDlw w /PDlw -1 def} if} def
/FA {newpath tMatrix currentmatrix pop translate scale
  0 0 1 5 -2 roll arc tMatrix setmatrix stroke} bdef
/PA {newpath tMatrix currentmatrix pop	translate 0 0 moveto scale
  0 0 1 5 -2 roll arc closepath tMatrix setmatrix fill} bdef
/FAn {newpath tMatrix currentmatrix pop translate scale
  0 0 1 5 -2 roll arcn tMatrix setmatrix stroke} bdef
/PAn {newpath tMatrix currentmatrix pop translate 0 0 moveto scale
  0 0 1 5 -2 roll arcn closepath tMatrix setmatrix fill} bdef
/vradius 0 def /hradius 0 def /lry 0 def
/lrx 0 def /uly 0 def /ulx 0 def /rad 0 def
/MRR {/vradius xdef /hradius xdef /lry xdef /lrx xdef /uly xdef
  /ulx xdef newpath tMatrix currentmatrix pop ulx hradius add uly
  vradius add translate hradius vradius scale 0 0 1 180 270 arc 
  tMatrix setmatrix lrx hradius sub uly vradius add translate
  hradius vradius scale 0 0 1 270 360 arc tMatrix setmatrix
  lrx hradius sub lry vradius sub translate hradius vradius scale
  0 0 1 0 90 arc tMatrix setmatrix ulx hradius add lry vradius sub
  translate hradius vradius scale 0 0 1 90 180 arc tMatrix setmatrix
  closepath} bdef
/FRR {MRR stroke } bdef
/PRR {MRR fill } bdef
/MlrRR {/lry xdef /lrx xdef /uly xdef /ulx xdef /rad lry uly sub 2 div def
  newpath tMatrix currentmatrix pop ulx rad add uly rad add translate
  rad rad scale 0 0 1 90 270 arc tMatrix setmatrix lrx rad sub lry rad
  sub translate rad rad scale 0 0 1 270 90 arc tMatrix setmatrix
  closepath} bdef
/FlrRR {MlrRR stroke } bdef
/PlrRR {MlrRR fill } bdef
/MtbRR {/lry xdef /lrx xdef /uly xdef /ulx xdef /rad lrx ulx sub 2 div def
  newpath tMatrix currentmatrix pop ulx rad add uly rad add translate
  rad rad scale 0 0 1 180 360 arc tMatrix setmatrix lrx rad sub lry rad
  sub translate rad rad scale 0 0 1 0 180 arc tMatrix setmatrix
  closepath} bdef
/FtbRR {MtbRR stroke } bdef
/PtbRR {MtbRR fill } bdef
/stri 6 array def /dtri 6 array def
/smat 6 array def /dmat 6 array def
/tmat1 6 array def /tmat2 6 array def /dif 3 array def
/asub {/ind2 exch def /ind1 exch def dup dup
  ind1 get exch ind2 get sub exch } bdef
/tri_to_matrix {
  2 0 asub 3 1 asub 4 0 asub 5 1 asub
  dup 0 get exch 1 get 7 -1 roll astore } bdef
/compute_transform {
  dmat dtri tri_to_matrix tmat1 invertmatrix 
  smat stri tri_to_matrix tmat2 concatmatrix } bdef
/ds {stri astore pop} bdef
/dt {dtri astore pop} bdef
/db {2 copy /cols xdef /rows xdef mul dup 3 mul string
  currentfile 
  3 index 0 eq {/ASCIIHexDecode filter}
  {/ASCII85Decode filter 3 index 2 eq {/RunLengthDecode filter} if }
  ifelse exch readstring pop
  dup 0 3 index getinterval /rbmap xdef
  dup 2 index dup getinterval /gbmap xdef
  1 index dup 2 mul exch getinterval /bbmap xdef pop pop}bdef
/it {gs np dtri aload pop moveto lineto lineto cp c
  cols rows 8 compute_transform 
  rbmap gbmap bbmap true 3 colorimage gr}bdef
/il {newpath moveto lineto stroke}bdef
currentdict end def
%%EndProlog

%%BeginSetup
MathWorks begin

0 cap

end
%%EndSetup

%%Page: 1 1
%%BeginPageSetup
%%PageBoundingBox:   -61   227   672   564
MathWorks begin
bpage
%%EndPageSetup

%%BeginObject: obj1
bplot

/dpi2point 12 def
portraitMode -0732 6768 csm

    0     0  8807  4033 rc
85 dict begin %Colortable dictionary
/c0 { 0.000000 0.000000 0.000000 sr} bdef
/c1 { 1.000000 1.000000 1.000000 sr} bdef
/c2 { 0.900000 0.000000 0.000000 sr} bdef
/c3 { 0.000000 0.820000 0.000000 sr} bdef
/c4 { 0.000000 0.000000 0.800000 sr} bdef
/c5 { 0.910000 0.820000 0.320000 sr} bdef
/c6 { 1.000000 0.260000 0.820000 sr} bdef
/c7 { 0.000000 0.820000 0.820000 sr} bdef
c0
1 j
1 sg
   0    0 8808 4034 rf
6 w
0 3211 6825 0 0 -3211 1145 3513 4 MP
PP
-6825 0 0 3211 6825 0 0 -3211 1145 3513 5 MP stroke
4 w
DO
SO
6 w
0 sg
1145 3513 mt 7970 3513 L
1145 3513 mt 1145  302 L
1145 3513 mt 1145 3444 L
%%IncludeResource: font Times-Roman
/Times-Roman /ISOLatin1Encoding 240 FMSR

1085 3762 mt 
(0) s
2510 3513 mt 2510 3444 L
2270 3762 mt 
(1000) s
3875 3513 mt 3875 3444 L
3635 3762 mt 
(2000) s
5240 3513 mt 5240 3444 L
5000 3762 mt 
(3000) s
6605 3513 mt 6605 3444 L
6365 3762 mt 
(4000) s
7970 3513 mt 7970 3444 L
7730 3762 mt 
(5000) s
1145 3513 mt 1213 3513 L
 735 3599 mt 
(-10) s
1145 2710 mt 1213 2710 L
 855 2796 mt 
(-5) s
1145 1907 mt 1213 1907 L
 990 1993 mt 
(0) s
1145 1104 mt 1213 1104 L
 990 1190 mt 
(5) s
1145  302 mt 1213  302 L
 870  388 mt 
(10) s
gs 1145 302 6826 3212 rc
48 w
gr

48 w
40 W
/c8 { 0.000000 0.000000 1.000000 sr} bdef
c8
1149 1907 PD
40 W
1153 1924 PD
40 W
1154 1932 PD
40 W
1160 1986 PD
40 W
1164 1907 PD
40 W
1166 1907 PD
40 W
1168 1907 PD
40 W
1175 1907 PD
40 W
1183 1907 PD
40 W
1185 1907 PD
40 W
1188 1907 PD
40 W
1190 1924 PD
40 W
1191 1907 PD
40 W
1192 1907 PD
40 W
1196 1907 PD
40 W
1199 1907 PD
40 W
1200 1907 PD
40 W
1202 1907 PD
40 W
1206 1907 PD
40 W
1207 1935 PD
40 W
1209 1981 PD
40 W
1214 2163 PD
40 W
1218 2188 PD
40 W
1220 2212 PD
40 W
1224 2306 PD
40 W
1226 2241 PD
40 W
1229 2084 PD
40 W
1237 2110 PD
40 W
1239 2213 PD
40 W
1240 2058 PD
40 W
1243 1920 PD
40 W
1246 1789 PD
40 W
1248 1767 PD
40 W
1250 1907 PD
40 W
1251 2159 PD
40 W
1254 1869 PD
40 W
1255 2009 PD
40 W
1262 1810 PD
40 W
1266 1998 PD
40 W
1269 1762 PD
40 W
1270 1801 PD
40 W
1276 1749 PD
40 W
1278 2003 PD
40 W
1280 1940 PD
40 W
1281 1980 PD
40 W
1282 1910 PD
40 W
1285 2153 PD
40 W
1288 1828 PD
40 W
1291 2022 PD
40 W
1296 1925 PD
40 W
1297 1911 PD
40 W
1299 2078 PD
40 W
1301 2036 PD
40 W
1307 1840 PD
40 W
1308 1848 PD
40 W
1310 2001 PD
40 W
1312 1928 PD
40 W
1318 1950 PD
40 W
1319 1924 PD
40 W
1321 1937 PD
40 W
1323 1907 PD
40 W
1326 1958 PD
40 W
1327 1898 PD
40 W
1329 1876 PD
40 W
1330 1907 PD
40 W
1336 1907 PD
40 W
1340 1923 PD
40 W
1342 1919 PD
40 W
1344 1915 PD
40 W
1345 1934 PD
40 W
1347 1919 PD
40 W
1348 1938 PD
40 W
1349 1942 PD
40 W
1351 1907 PD
40 W
1352 2009 PD
40 W
1356 1907 PD
40 W
1357 1907 PD
40 W
1359 1907 PD
40 W
1362 1907 PD
40 W
1363 1907 PD
40 W
1366 1907 PD
40 W
1367 1907 PD
40 W
1368 1916 PD
40 W
1370 1907 PD
40 W
1371 1907 PD
40 W
1377 1907 PD
40 W
1378 1907 PD
40 W
1379 1907 PD
40 W
1382 1907 PD
40 W
1383 1907 PD
40 W
1385 1915 PD
40 W
1390 1907 PD
40 W
1393 1918 PD
40 W
1396 1955 PD
40 W
1398 1896 PD
40 W
1400 1897 PD
40 W
1404 1852 PD
40 W
1408 1813 PD
40 W
1409 1829 PD
40 W
1411 1808 PD
40 W
1412 1816 PD
40 W
1420 1817 PD
40 W
1424 1797 PD
40 W
1433 1614 PD
40 W
1434 1623 PD
40 W
1435 1678 PD
40 W
1437 1726 PD
40 W
1439 1752 PD
40 W
1441 1682 PD
40 W
1442 1545 PD
40 W
1443 2109 PD
40 W
1445 1925 PD
40 W
1446 1654 PD
40 W
1449 2003 PD
40 W
1450 2164 PD
40 W
1454 2043 PD
40 W
1456 2147 PD
40 W
1457 2029 PD
40 W
1458 1896 PD
40 W
1461 2014 PD
40 W
1465 1924 PD
40 W
1467 2010 PD
40 W
1468 2065 PD
40 W
1469 1949 PD
40 W
1471 1687 PD
40 W
1473 1755 PD
40 W
1475 1908 PD
40 W
1478 2011 PD
40 W
1482 1732 PD
40 W
1484 2034 PD
40 W
1486 2058 PD
40 W
1491 1533 PD
40 W
1493 1541 PD
40 W
1497 1412 PD
40 W
1498 1897 PD
40 W
1501 1617 PD
40 W
1506 1640 PD
40 W
1508 1612 PD
40 W
1509 1673 PD
40 W
1512 1700 PD
40 W
1514 2012 PD
40 W
1517 1833 PD
40 W
1524 1964 PD
40 W
1527 2120 PD
40 W
1528 2221 PD
40 W
1532 1924 PD
40 W
1542 1730 PD
40 W
1543 1742 PD
40 W
1546 1907 PD
40 W
1547 1876 PD
40 W
1549 1907 PD
40 W
1554 1775 PD
40 W
1555 1814 PD
40 W
1558 1868 PD
40 W
1559 1899 PD
40 W
1562 1856 PD
40 W
1568 1811 PD
40 W
1576 1745 PD
40 W
1577 1756 PD
40 W
1580 1801 PD
40 W
1581 1854 PD
40 W
1583 1887 PD
40 W
1584 1903 PD
40 W
1588 1757 PD
40 W
1589 1707 PD
40 W
1592 1810 PD
40 W
1596 1679 PD
40 W
1598 1710 PD
40 W
1599 1702 PD
40 W
1602 1694 PD
40 W
1603 1717 PD
40 W
1605 1670 PD
40 W
1606 1651 PD
40 W
1607 1733 PD
40 W
1609 1733 PD
40 W
1613 1639 PD
40 W
1615 2029 PD
40 W
1617 1998 PD
40 W
1621 2142 PD
40 W
1624 1879 PD
40 W
1632 1457 PD
40 W
1633 1917 PD
40 W
1636 2366 PD
40 W
1637 2578 PD
40 W
1643 2285 PD
40 W
1644 2266 PD
40 W
1645 2190 PD
40 W
1648 1971 PD
40 W
1652 1926 PD
40 W
1654 2026 PD
40 W
1655 2415 PD
40 W
1656 2284 PD
40 W
1658 2323 PD
40 W
1660 2203 PD
40 W
1662 2131 PD
40 W
1665 1856 PD
40 W
1666 1881 PD
40 W
1669 2102 PD
40 W
1674 1945 PD
40 W
1677 2040 PD
40 W
1682 2057 PD
40 W
1685 1894 PD
40 W
1686 1875 PD
40 W
1688 1891 PD
40 W
1689 1851 PD
40 W
1691 1863 PD
40 W
1692 1907 PD
40 W
1693 1934 PD
40 W
1696 2009 PD
40 W
1701 2162 PD
40 W
1703 2058 PD
40 W
1704 2063 PD
40 W
1708 2079 PD
40 W
1715 1984 PD
40 W
1716 2016 PD
40 W
1721 2227 PD
40 W
1722 1997 PD
40 W
1723 1909 PD
40 W
1725 1855 PD
40 W
1726 1938 PD
40 W
1727 1997 PD
40 W
1730 2063 PD
40 W
1738 2024 PD
40 W
1741 2114 PD
40 W
1745 2046 PD
40 W
1746 2005 PD
40 W
1748 2142 PD
40 W
1752 2041 PD
40 W
1756 2064 PD
40 W
1759 1960 PD
40 W
1761 2009 PD
40 W
1763 1987 PD
40 W
1764 1798 PD
40 W
1766 1814 PD
40 W
1768 2025 PD
40 W
1771 1895 PD
40 W
1772 1987 PD
40 W
1774 1923 PD
40 W
1776 1907 PD
40 W
1778 1899 PD
40 W
1779 1912 PD
40 W
1782 1907 PD
40 W
1785 1882 PD
40 W
1787 1874 PD
40 W
1790 1873 PD
40 W
1792 1809 PD
40 W
1793 1755 PD
40 W
1798 1722 PD
40 W
1807 1846 PD
40 W
1809 1808 PD
40 W
1811 1751 PD
40 W
1813 1673 PD
40 W
1815 1718 PD
40 W
1819 1737 PD
40 W
1822 1631 PD
40 W
1826 1784 PD
40 W
1832 2026 PD
40 W
1834 1886 PD
40 W
1835 1881 PD
40 W
1839 2023 PD
40 W
1850 1981 PD
40 W
1852 2241 PD
40 W
1853 2286 PD
40 W
1854 2224 PD
40 W
1856 2149 PD
40 W
1857 2361 PD
40 W
1858 1950 PD
40 W
1867 2491 PD
40 W
1868 2422 PD
40 W
1871 2516 PD
40 W
1876 2248 PD
40 W
1878 2219 PD
40 W
1883 2257 PD
40 W
1884 2156 PD
40 W
1887 2105 PD
40 W
1888 2208 PD
40 W
1891 1998 PD
40 W
1893 1968 PD
40 W
1895 2039 PD
40 W
1898 2109 PD
40 W
1902 2103 PD
40 W
1903 2118 PD
40 W
1905 2152 PD
40 W
1906 2135 PD
40 W
1908 2098 PD
40 W
1909 2278 PD
40 W
1912 2153 PD
40 W
1914 1964 PD
40 W
1917 2125 PD
40 W
1921 2124 PD
40 W
1923 2100 PD
40 W
1927 2173 PD
40 W
1929 2087 PD
40 W
1933 2044 PD
40 W
1942 2041 PD
40 W
1943 2068 PD
40 W
1944 2034 PD
40 W
1950 2057 PD
40 W
1953 1993 PD
40 W
1954 2008 PD
40 W
1955 2009 PD
40 W
1958 2026 PD
40 W
1959 2012 PD
40 W
1961 2091 PD
40 W
1962 2048 PD
40 W
1964 2031 PD
40 W
1976 1987 PD
40 W
1983 1907 PD
40 W
1985 1964 PD
40 W
1995 2055 PD
40 W
1998 1973 PD
40 W
2011 1739 PD
40 W
2013 1715 PD
40 W
2015 1861 PD
40 W
2018 1827 PD
40 W
2022 2339 PD
40 W
2025 1925 PD
40 W
2026 2020 PD
40 W
2028 1224 PD
40 W
2029 1299 PD
40 W
2030 2047 PD
40 W
2032 1921 PD
40 W
2033 1803 PD
40 W
2034 2331 PD
40 W
2036 1975 PD
40 W
2039 2003 PD
40 W
2045 2031 PD
40 W
2047 1944 PD
40 W
2048 1880 PD
40 W
2052 1788 PD
40 W
2054 1822 PD
40 W
2058 2047 PD
40 W
2059 2472 PD
40 W
2062 2311 PD
40 W
2063 2413 PD
40 W
2065 2190 PD
40 W
2066 2339 PD
40 W
2070 2463 PD
40 W
2075 1970 PD
40 W
2085 2327 PD
40 W
2086 2319 PD
40 W
2088 2229 PD
40 W
2089 2128 PD
40 W
2092 2253 PD
40 W
2093 2103 PD
40 W
2095 2080 PD
40 W
2096 2049 PD
40 W
2099 2169 PD
40 W
2104 1964 PD
40 W
2105 2025 PD
40 W
2107 2073 PD
40 W
2108 2034 PD
40 W
2111 2012 PD
40 W
2114 1923 PD
40 W
2120 1810 PD
40 W
2122 1865 PD
40 W
2123 1887 PD
40 W
2127 1907 PD
40 W
2129 1892 PD
40 W
2130 1928 PD
40 W
2131 2033 PD
40 W
2134 1986 PD
40 W
2135 1967 PD
40 W
2137 1986 PD
40 W
2141 1966 PD
40 W
2144 1944 PD
40 W
2149 1980 PD
40 W
2152 2042 PD
40 W
2153 2075 PD
40 W
2155 2012 PD
40 W
2157 1934 PD
40 W
2159 1958 PD
40 W
2160 2017 PD
40 W
2161 1982 PD
40 W
2163 1927 PD
40 W
2166 1948 PD
40 W
2167 1941 PD
40 W
2168 2016 PD
40 W
2170 1914 PD
40 W
2171 1887 PD
40 W
2174 1923 PD
40 W
2175 1907 PD
40 W
2176 1997 PD
40 W
2178 1907 PD
40 W
2179 2018 PD
40 W
2185 2063 PD
40 W
2186 2052 PD
40 W
2191 2300 PD
40 W
2194 2201 PD
40 W
2196 2123 PD
40 W
2198 2065 PD
40 W
2200 2068 PD
40 W
2209 2108 PD
40 W
2213 1995 PD
40 W
2215 2004 PD
40 W
2217 2049 PD
40 W
2221 2109 PD
40 W
2223 2094 PD
40 W
2226 2101 PD
40 W
2231 1956 PD
40 W
2232 1990 PD
40 W
2234 2004 PD
40 W
2239 1985 PD
40 W
2242 1954 PD
40 W
2243 1981 PD
40 W
2246 2042 PD
40 W
2253 1935 PD
40 W
2258 1853 PD
40 W
2260 1786 PD
40 W
2261 1766 PD
40 W
2267 1791 PD
40 W
2268 1843 PD
40 W
2269 1915 PD
40 W
2272 1908 PD
40 W
2273 1987 PD
40 W
2276 1786 PD
40 W
2279 1741 PD
40 W
2280 1747 PD
40 W
2283 1717 PD
40 W
2284 1800 PD
40 W
2286 1805 PD
40 W
2288 1799 PD
40 W
2290 1859 PD
40 W
2291 1821 PD
40 W
2292 1830 PD
40 W
2295 1838 PD
40 W
2299 1876 PD
40 W
2303 1875 PD
40 W
2306 1890 PD
40 W
2309 1907 PD
40 W
2310 1907 PD
40 W
2313 1882 PD
40 W
2316 1892 PD
40 W
2317 1907 PD
40 W
2318 1888 PD
40 W
2321 1900 PD
40 W
2322 1907 PD
40 W
2325 1907 PD
40 W
2327 1906 PD
40 W
2331 1907 PD
40 W
2332 1907 PD
40 W
2333 1907 PD
40 W
2335 1907 PD
40 W
2336 1929 PD
40 W
2342 1921 PD
40 W
2344 1907 PD
40 W
2346 1944 PD
40 W
2347 1907 PD
40 W
2348 1907 PD
40 W
2350 1907 PD
40 W
2351 1907 PD
40 W
2353 1907 PD
40 W
2354 1929 PD
40 W
2355 1907 PD
40 W
2357 1907 PD
40 W
2362 1907 PD
40 W
2363 1907 PD
40 W
2365 1907 PD
40 W
2370 1926 PD
40 W
2372 1923 PD
40 W
2376 1982 PD
40 W
2377 1931 PD
40 W
2378 1907 PD
40 W
2380 1907 PD
40 W
2383 1907 PD
40 W
2385 1907 PD
40 W
2388 1907 PD
40 W
2389 1949 PD
40 W
2391 1907 PD
40 W
2395 2020 PD
40 W
2398 2077 PD
40 W
2403 2223 PD
40 W
2404 2239 PD
40 W
2406 2285 PD
40 W
2407 2379 PD
40 W
2408 2323 PD
40 W
2413 2395 PD
40 W
2414 2532 PD
40 W
2415 2352 PD
40 W
2417 2277 PD
40 W
2418 2259 PD
40 W
2419 2311 PD
40 W
2425 2285 PD
40 W
2426 2255 PD
40 W
2433 2161 PD
40 W
2436 2143 PD
40 W
2437 2231 PD
40 W
2439 2226 PD
40 W
2441 2132 PD
40 W
2443 2001 PD
40 W
2449 1975 PD
40 W
2455 2110 PD
40 W
2459 2019 PD
40 W
2462 1777 PD
40 W
2464 1749 PD
40 W
2466 1929 PD
40 W
2467 1941 PD
40 W
2469 2010 PD
40 W
2470 1914 PD
40 W
2475 1585 PD
40 W
2481 1710 PD
40 W
2482 1656 PD
40 W
2485 1818 PD
40 W
2486 1794 PD
40 W
2493 1913 PD
40 W
2494 1907 PD
40 W
2497 2233 PD
40 W
2507 1921 PD
40 W
2508 1907 PD
40 W
2512 1910 PD
40 W
2515 1915 PD
40 W
2519 1907 PD
40 W
2520 1919 PD
40 W
2522 1903 PD
40 W
2523 1903 PD
40 W
2525 1909 PD
40 W
2527 1907 PD
40 W
2533 1962 PD
40 W
2535 1907 PD
40 W
2538 1929 PD
40 W
2540 1907 PD
40 W
2541 1907 PD
40 W
2544 1961 PD
40 W
2545 1931 PD
40 W
2548 1907 PD
40 W
2550 1907 PD
40 W
2553 1935 PD
40 W
2560 1938 PD
40 W
2565 1923 PD
40 W
2567 1907 PD
40 W
2568 1907 PD
40 W
2570 1907 PD
40 W
2574 1907 PD
40 W
2576 1907 PD
40 W
2580 2150 PD
40 W
2583 1933 PD
40 W
2593 1873 PD
40 W
2594 1878 PD
40 W
2595 1877 PD
40 W
2597 1887 PD
40 W
2598 1853 PD
40 W
2602 1907 PD
40 W
2604 1879 PD
40 W
2612 1727 PD
40 W
2615 1579 PD
40 W
2616 1718 PD
40 W
2620 1723 PD
40 W
2630 1890 PD
40 W
2634 1739 PD
40 W
2636 1982 PD
40 W
2639 1917 PD
40 W
2641 1831 PD
40 W
2642 1775 PD
40 W
2643 1803 PD
40 W
2645 1851 PD
40 W
2650 1952 PD
40 W
2656 1803 PD
40 W
2657 1783 PD
40 W
2661 1790 PD
40 W
2662 1599 PD
40 W
2665 1330 PD
40 W
2668 1998 PD
40 W
2669 1959 PD
40 W
2675 1790 PD
40 W
2676 2024 PD
40 W
2677 2263 PD
40 W
2679 2479 PD
40 W
2680 1912 PD
40 W
2683 1982 PD
40 W
2684 2216 PD
40 W
2688 1602 PD
40 W
2690 1597 PD
40 W
2691 1529 PD
40 W
2692 1697 PD
40 W
2698 1673 PD
40 W
2699 1599 PD
40 W
2701 1602 PD
40 W
2703 1650 PD
40 W
2707 1893 PD
40 W
2710 1798 PD
40 W
2712 1837 PD
40 W
2718 1782 PD
40 W
2721 1787 PD
40 W
2727 1710 PD
40 W
2731 1758 PD
40 W
2736 1898 PD
40 W
2739 1806 PD
40 W
2742 1805 PD
40 W
2743 1848 PD
40 W
2747 1958 PD
40 W
2752 1878 PD
40 W
2754 1842 PD
40 W
2757 1780 PD
40 W
2758 1826 PD
40 W
2765 1835 PD
40 W
2766 1855 PD
40 W
2767 1868 PD
40 W
2769 1907 PD
40 W
2773 1874 PD
40 W
2776 1717 PD
40 W
2778 1625 PD
40 W
2781 1652 PD
40 W
2785 1687 PD
40 W
2788 1632 PD
40 W
2789 1726 PD
40 W
2792 1718 PD
40 W
2795 1790 PD
40 W
2800 1784 PD
40 W
2804 1662 PD
40 W
2806 1629 PD
40 W
2810 1748 PD
40 W
2811 1730 PD
40 W
2813 1814 PD
40 W
2814 1867 PD
40 W
2815 1729 PD
40 W
2817 1555 PD
40 W
2818 1608 PD
40 W
2819 1745 PD
40 W
2821 1827 PD
40 W
2823 1844 PD
40 W
2826 1916 PD
40 W
2828 1907 PD
40 W
2829 1677 PD
40 W
2837 2137 PD
40 W
2838 1944 PD
40 W
2840 1810 PD
40 W
2841 1694 PD
40 W
2848 1715 PD
40 W
2852 1958 PD
40 W
2859 2181 PD
40 W
2860 2013 PD
40 W
2863 936 PD
40 W
2868 2011 PD
40 W
2870 1581 PD
40 W
2871 1735 PD
40 W
2873 1852 PD
40 W
2878 1707 PD
40 W
2879 1706 PD
40 W
2882 1816 PD
40 W
2886 1871 PD
40 W
2899 1875 PD
40 W
2900 1857 PD
40 W
2904 1593 PD
40 W
2909 1937 PD
40 W
2916 2050 PD
40 W
2919 2058 PD
40 W
2920 1801 PD
40 W
2926 1864 PD
40 W
2929 1808 PD
40 W
2934 1769 PD
40 W
2935 1738 PD
40 W
2937 1823 PD
40 W
2945 1966 PD
40 W
2948 1932 PD
40 W
2949 1907 PD
40 W
2954 1907 PD
40 W
2959 1907 PD
40 W
2960 1907 PD
40 W
2961 1907 PD
40 W
2964 1907 PD
40 W
2968 1907 PD
40 W
2976 1927 PD
40 W
2978 1926 PD
40 W
2983 1992 PD
40 W
2986 2121 PD
40 W
2987 2090 PD
40 W
2989 2114 PD
40 W
2991 2038 PD
40 W
2993 1991 PD
40 W
2994 1850 PD
40 W
2995 1897 PD
40 W
3000 2075 PD
40 W
3001 2038 PD
40 W
3008 1989 PD
40 W
3010 1825 PD
40 W
3012 1809 PD
40 W
3013 1760 PD
40 W
3015 1790 PD
40 W
3016 1747 PD
40 W
3017 1762 PD
40 W
3019 1795 PD
40 W
3021 1758 PD
40 W
3023 1710 PD
40 W
3034 1730 PD
40 W
3035 1680 PD
40 W
3036 1664 PD
40 W
3038 1689 PD
40 W
3040 1968 PD
40 W
3042 2025 PD
40 W
3045 1799 PD
40 W
3051 1956 PD
40 W
3053 1522 PD
40 W
3062 1185 PD
40 W
3064 1243 PD
40 W
3065 1320 PD
40 W
3072 1356 PD
40 W
3076 1358 PD
40 W
3080 1641 PD
40 W
3084 1694 PD
40 W
3086 1682 PD
40 W
3087 1732 PD
40 W
3091 1816 PD
40 W
3098 1935 PD
40 W
3099 2014 PD
40 W
3102 1985 PD
40 W
3103 1907 PD
40 W
3105 1907 PD
40 W
3107 1926 PD
40 W
3110 1907 PD
40 W
3114 1907 PD
40 W
3117 1939 PD
40 W
3121 1907 PD
40 W
3122 1918 PD
40 W
3124 1922 PD
40 W
3125 1907 PD
40 W
3126 1907 PD
40 W
3133 1941 PD
40 W
3136 1907 PD
40 W
3139 1973 PD
40 W
3141 1946 PD
40 W
3150 2005 PD
40 W
3151 1941 PD
40 W
3157 1959 PD
40 W
3161 1920 PD
40 W
3165 1907 PD
40 W
3169 2006 PD
40 W
3176 2246 PD
40 W
3177 2176 PD
40 W
3181 2256 PD
40 W
3182 2087 PD
40 W
3184 2178 PD
40 W
3185 2181 PD
40 W
3187 2153 PD
40 W
3189 2260 PD
40 W
3191 2265 PD
40 W
3192 2307 PD
40 W
3193 2216 PD
40 W
3195 2335 PD
40 W
3196 2354 PD
40 W
3197 2272 PD
40 W
3199 2295 PD
40 W
3200 2342 PD
40 W
3202 2330 PD
40 W
3203 2424 PD
40 W
3204 2419 PD
40 W
3207 2422 PD
40 W
3210 2429 PD
40 W
3211 2339 PD
40 W
3212 2316 PD
40 W
3214 2264 PD
40 W
3215 2281 PD
40 W
3217 2208 PD
40 W
3218 2267 PD
40 W
3219 2299 PD
40 W
3221 2347 PD
40 W
3222 2391 PD
40 W
3227 1701 PD
40 W
3229 1700 PD
40 W
3230 2064 PD
40 W
3233 2097 PD
40 W
3234 2113 PD
40 W
3236 2059 PD
40 W
3237 1876 PD
40 W
3238 1976 PD
40 W
3241 1820 PD
40 W
3245 1865 PD
40 W
3252 1836 PD
40 W
3255 1909 PD
40 W
3256 2019 PD
40 W
3260 2044 PD
40 W
3262 1986 PD
40 W
3268 1935 PD
40 W
3271 1939 PD
40 W
3274 2016 PD
40 W
3278 2028 PD
40 W
3279 1961 PD
40 W
3281 1973 PD
40 W
3282 1992 PD
40 W
3283 1942 PD
40 W
3286 1852 PD
40 W
3289 1907 PD
40 W
3290 1907 PD
40 W
3292 1922 PD
40 W
3293 1968 PD
40 W
3300 2052 PD
40 W
3301 2002 PD
40 W
3303 1991 PD
40 W
3304 2003 PD
40 W
3305 1944 PD
40 W
3311 1939 PD
40 W
3312 2018 PD
40 W
3322 1971 PD
40 W
3324 2008 PD
40 W
3326 2035 PD
40 W
3327 1983 PD
40 W
3329 1937 PD
40 W
3331 2053 PD
40 W
3334 2112 PD
40 W
3335 2111 PD
40 W
3338 2066 PD
40 W
3342 2033 PD
40 W
3344 2115 PD
40 W
3349 2124 PD
40 W
3350 2144 PD
40 W
3359 2029 PD
40 W
3361 2033 PD
40 W
3363 2177 PD
40 W
3365 2262 PD
40 W
3369 2376 PD
40 W
3371 2302 PD
40 W
3372 2227 PD
40 W
3375 2119 PD
40 W
3376 2064 PD
40 W
3378 2293 PD
40 W
3379 2399 PD
40 W
3380 2227 PD
40 W
3382 2231 PD
40 W
3383 2240 PD
40 W
3384 2225 PD
40 W
3387 2233 PD
40 W
3391 2324 PD
40 W
3393 2267 PD
40 W
3395 2329 PD
40 W
3399 2391 PD
40 W
3406 2288 PD
40 W
3409 2494 PD
40 W
3414 2289 PD
40 W
3416 2138 PD
40 W
3417 2023 PD
40 W
3424 2024 PD
40 W
3428 2062 PD
40 W
3431 2096 PD
40 W
3432 1974 PD
40 W
3435 1973 PD
40 W
3445 1774 PD
40 W
3446 1925 PD
40 W
3449 1866 PD
40 W
3450 1986 PD
40 W
3451 1975 PD
40 W
3457 1938 PD
40 W
3458 1849 PD
40 W
3464 2048 PD
40 W
3465 1951 PD
40 W
3470 1989 PD
40 W
3473 2060 PD
40 W
3476 1969 PD
40 W
3477 1975 PD
40 W
3479 1890 PD
40 W
3483 1919 PD
40 W
3484 1871 PD
40 W
3485 1907 PD
40 W
3490 1860 PD
40 W
3491 1947 PD
40 W
3492 2064 PD
40 W
3496 1923 PD
40 W
3498 2012 PD
40 W
3500 1907 PD
40 W
3502 1907 PD
40 W
3505 1907 PD
40 W
3510 1907 PD
40 W
3514 1907 PD
40 W
3517 1907 PD
40 W
3518 1955 PD
40 W
3520 1942 PD
40 W
3524 1934 PD
40 W
3526 1941 PD
40 W
3531 1907 PD
40 W
3536 1980 PD
40 W
3537 2045 PD
40 W
3541 1938 PD
40 W
3543 1932 PD
40 W
3546 1907 PD
40 W
3551 1935 PD
40 W
3561 1907 PD
40 W
3563 1969 PD
40 W
3565 1967 PD
40 W
3566 1910 PD
40 W
3577 2193 PD
40 W
3578 2329 PD
40 W
3580 2243 PD
40 W
3586 2284 PD
40 W
3591 2160 PD
40 W
3593 2319 PD
40 W
3595 2234 PD
40 W
3596 2295 PD
40 W
3597 2159 PD
40 W
3600 2211 PD
40 W
3602 2237 PD
40 W
3603 2061 PD
40 W
3604 1851 PD
40 W
3606 1995 PD
40 W
3608 1857 PD
40 W
3610 1844 PD
40 W
3611 1775 PD
40 W
3614 1847 PD
40 W
3618 1770 PD
40 W
3622 1661 PD
40 W
3626 1781 PD
40 W
3627 1815 PD
40 W
3633 1639 PD
40 W
3640 1646 PD
40 W
3641 1182 PD
40 W
3642 2016 PD
40 W
3644 2025 PD
40 W
3645 1989 PD
40 W
3647 1909 PD
40 W
3651 2473 PD
40 W
3652 2511 PD
40 W
3653 1971 PD
40 W
3655 1425 PD
40 W
3656 1754 PD
40 W
3657 1963 PD
40 W
3660 1880 PD
40 W
3663 2565 PD
40 W
3664 2459 PD
40 W
3666 2220 PD
40 W
3667 2061 PD
40 W
3668 2084 PD
40 W
3671 1977 PD
40 W
3677 1973 PD
40 W
3678 1969 PD
40 W
3679 2064 PD
40 W
3683 2216 PD
40 W
3685 2227 PD
40 W
3689 2049 PD
40 W
3693 2008 PD
40 W
3696 2011 PD
40 W
3697 1933 PD
40 W
3701 2068 PD
40 W
3707 2087 PD
40 W
3708 2143 PD
40 W
3709 2056 PD
40 W
3712 2043 PD
40 W
3713 2057 PD
40 W
3718 2143 PD
40 W
3719 2129 PD
40 W
3720 2137 PD
40 W
3723 2177 PD
40 W
3724 2167 PD
40 W
3727 2134 PD
40 W
3731 2121 PD
40 W
3733 2094 PD
40 W
3739 2086 PD
40 W
3742 2226 PD
40 W
3743 2152 PD
40 W
3745 2137 PD
40 W
3752 2244 PD
40 W
3760 2316 PD
40 W
3761 2374 PD
40 W
3772 2274 PD
40 W
3775 2354 PD
40 W
3776 2334 PD
40 W
3779 2344 PD
40 W
3780 2169 PD
40 W
3783 2131 PD
40 W
3784 2326 PD
40 W
3786 2336 PD
40 W
3787 2195 PD
40 W
3789 2171 PD
40 W
3791 2157 PD
40 W
3793 2121 PD
40 W
3794 2002 PD
40 W
3795 2036 PD
40 W
3798 1937 PD
40 W
3805 1796 PD
40 W
3806 1743 PD
40 W
3809 1772 PD
40 W
3814 1777 PD
40 W
3817 1904 PD
40 W
3819 2049 PD
40 W
3820 2468 PD
40 W
3827 2089 PD
40 W
3829 1593 PD
40 W
3838 1561 PD
40 W
3839 1810 PD
40 W
3842 2115 PD
40 W
3843 2073 PD
40 W
3844 2045 PD
40 W
3846 2054 PD
40 W
3851 1951 PD
40 W
3858 1910 PD
40 W
3861 1851 PD
40 W
3866 1635 PD
40 W
3869 1573 PD
40 W
3870 2119 PD
40 W
3875 1827 PD
40 W
3879 1907 PD
40 W
3880 1895 PD
40 W
3881 1910 PD
40 W
3883 1989 PD
40 W
3884 1903 PD
40 W
3887 1917 PD
40 W
3890 1937 PD
40 W
3892 1981 PD
40 W
3896 1841 PD
40 W
3898 1793 PD
40 W
3899 1832 PD
40 W
3900 1869 PD
40 W
3902 1875 PD
40 W
3903 1894 PD
40 W
3909 1837 PD
40 W
3911 1892 PD
40 W
3915 1907 PD
40 W
3924 1723 PD
40 W
3925 1742 PD
40 W
3926 1732 PD
40 W
3930 1665 PD
40 W
3932 1643 PD
40 W
3937 1659 PD
40 W
3941 1690 PD
40 W
3943 1634 PD
40 W
3944 1683 PD
40 W
3948 1651 PD
40 W
3952 1543 PD
40 W
3954 1491 PD
40 W
3960 1440 PD
40 W
3962 1490 PD
40 W
3967 1683 PD
40 W
3973 1638 PD
40 W
3977 1987 PD
40 W
3981 2228 PD
40 W
3984 1664 PD
40 W
3986 1954 PD
40 W
3988 1940 PD
40 W
3991 1898 PD
40 W
3992 1906 PD
40 W
3993 2022 PD
40 W
3995 1593 PD
40 W
3999 2037 PD
40 W
4000 2483 PD
40 W
4003 2364 PD
40 W
4010 1466 PD
40 W
4018 1244 PD
40 W
4022 1986 PD
40 W
4023 1304 PD
40 W
4026 1249 PD
40 W
4033 2100 PD
40 W
4034 1914 PD
40 W
4044 2104 PD
40 W
4048 1556 PD
40 W
4052 1663 PD
40 W
4055 2099 PD
40 W
4056 2012 PD
40 W
4057 1580 PD
40 W
4059 2029 PD
40 W
4060 2050 PD
40 W
4063 1917 PD
40 W
4064 1533 PD
40 W
4066 1948 PD
40 W
4068 1858 PD
40 W
4074 1995 PD
40 W
4078 1928 PD
40 W
4079 1919 PD
40 W
4081 1816 PD
40 W
4083 2152 PD
40 W
4089 1798 PD
40 W
4090 1579 PD
40 W
4093 1325 PD
40 W
4094 1272 PD
40 W
4096 1542 PD
40 W
4097 1781 PD
40 W
4104 1734 PD
40 W
4105 1665 PD
40 W
4107 1768 PD
40 W
4111 1774 PD
40 W
4112 1738 PD
40 W
4113 1764 PD
40 W
4117 1825 PD
40 W
4119 1854 PD
40 W
4120 1820 PD
40 W
4123 1739 PD
40 W
4126 1825 PD
40 W
4134 1890 PD
40 W
4137 1811 PD
40 W
4138 1835 PD
40 W
4139 1800 PD
40 W
4142 1856 PD
40 W
4149 1944 PD
40 W
4154 1820 PD
40 W
4160 1794 PD
40 W
4161 1788 PD
40 W
4163 1909 PD
40 W
4168 1942 PD
40 W
4173 2078 PD
40 W
4175 2116 PD
40 W
4180 1973 PD
40 W
4182 1981 PD
40 W
4186 2160 PD
40 W
4187 2085 PD
40 W
4188 1913 PD
40 W
4195 2027 PD
40 W
4199 1730 PD
40 W
4201 1720 PD
40 W
4202 1698 PD
40 W
4203 1738 PD
40 W
4210 2079 PD
40 W
4213 1761 PD
40 W
4214 1741 PD
40 W
4216 1947 PD
40 W
4217 2012 PD
40 W
4220 2185 PD
40 W
4225 1977 PD
40 W
4231 1562 PD
40 W
4233 1758 PD
40 W
4235 1772 PD
40 W
4238 1747 PD
40 W
4239 1711 PD
40 W
4240 1696 PD
40 W
4243 1750 PD
40 W
4244 1771 PD
40 W
4253 1935 PD
40 W
4255 1793 PD
40 W
4258 1742 PD
40 W
4261 1681 PD
40 W
4265 1722 PD
40 W
4266 1715 PD
40 W
4268 1751 PD
40 W
4272 1711 PD
40 W
4276 1746 PD
40 W
4277 1806 PD
40 W
4279 1876 PD
40 W
4281 1846 PD
40 W
4283 1907 PD
40 W
4284 1907 PD
40 W
4285 1907 PD
40 W
4294 1805 PD
40 W
4296 1787 PD
40 W
4298 1794 PD
40 W
4299 1758 PD
40 W
4303 1675 PD
40 W
4304 1690 PD
40 W
4307 1672 PD
40 W
4311 1735 PD
40 W
4313 1829 PD
40 W
4318 1907 PD
40 W
4321 1886 PD
40 W
4325 1877 PD
40 W
4326 1896 PD
40 W
4329 1907 PD
40 W
4330 1888 PD
40 W
4333 1849 PD
40 W
4341 1836 PD
40 W
4344 1800 PD
40 W
4351 1841 PD
40 W
4358 1791 PD
40 W
4359 1733 PD
40 W
4360 1727 PD
40 W
4362 1669 PD
40 W
4363 1684 PD
40 W
4365 1719 PD
40 W
4367 1712 PD
40 W
4369 1752 PD
40 W
4370 1826 PD
40 W
4371 1842 PD
40 W
4373 1829 PD
40 W
4375 1796 PD
40 W
4377 1828 PD
40 W
4378 1834 PD
40 W
4380 1813 PD
40 W
4384 1798 PD
40 W
4386 1736 PD
40 W
4392 1708 PD
40 W
4395 1776 PD
40 W
4396 1759 PD
40 W
4400 1713 PD
40 W
4404 1733 PD
40 W
4407 2346 PD
40 W
4408 1805 PD
40 W
4410 1629 PD
40 W
4412 1878 PD
40 W
4414 2040 PD
40 W
4416 2053 PD
40 W
4423 2349 PD
40 W
4425 2340 PD
40 W
4429 2027 PD
40 W
4438 1778 PD
40 W
4440 1845 PD
40 W
4442 1907 PD
40 W
4445 1907 PD
40 W
4448 1885 PD
40 W
4449 1921 PD
40 W
4452 1925 PD
40 W
4456 1930 PD
40 W
4457 2008 PD
40 W
4460 2011 PD
40 W
4461 1954 PD
40 W
4463 1917 PD
40 W
4464 1904 PD
40 W
4466 1907 PD
40 W
4468 1907 PD
40 W
4470 1896 PD
40 W
4471 1897 PD
40 W
4474 1918 PD
40 W
4476 2022 PD
40 W
4478 1934 PD
40 W
4479 1971 PD
40 W
4483 2122 PD
40 W
4491 2023 PD
40 W
4493 1976 PD
40 W
4494 1963 PD
40 W
4496 2039 PD
40 W
4498 1933 PD
40 W
4500 1954 PD
40 W
4501 1999 PD
40 W
4504 1928 PD
40 W
4505 1942 PD
40 W
4509 1935 PD
40 W
4511 1973 PD
40 W
4512 1962 PD
40 W
4515 1907 PD
40 W
4517 1988 PD
40 W
4522 2055 PD
40 W
4524 1902 PD
40 W
4528 1907 PD
40 W
4530 1907 PD
40 W
4534 1907 PD
40 W
4535 1907 PD
40 W
4538 1907 PD
40 W
4542 1907 PD
40 W
4547 2036 PD
40 W
4549 2198 PD
40 W
4556 2004 PD
40 W
4562 2112 PD
40 W
4565 2155 PD
40 W
4575 2341 PD
40 W
4576 2322 PD
40 W
4577 2478 PD
40 W
4579 2412 PD
40 W
4580 2398 PD
40 W
4582 2206 PD
40 W
4583 2121 PD
40 W
4587 2243 PD
40 W
4588 2247 PD
40 W
4591 2249 PD
40 W
4592 2233 PD
40 W
4597 2295 PD
40 W
4601 2208 PD
40 W
4602 2205 PD
40 W
4605 2056 PD
40 W
4606 1984 PD
40 W
4608 2021 PD
40 W
4612 1858 PD
40 W
4613 1950 PD
40 W
4616 2026 PD
40 W
4618 2054 PD
40 W
4621 2165 PD
40 W
4623 2086 PD
40 W
4624 2130 PD
40 W
4625 1882 PD
40 W
4628 1876 PD
40 W
4635 2058 PD
40 W
4636 2126 PD
40 W
4642 2128 PD
40 W
4643 2029 PD
40 W
4646 2024 PD
40 W
4653 2020 PD
40 W
4654 2008 PD
40 W
4655 2107 PD
40 W
4657 1963 PD
40 W
4661 2043 PD
40 W
4662 2051 PD
40 W
4665 2060 PD
40 W
4666 2050 PD
40 W
4669 2055 PD
40 W
4672 2021 PD
40 W
4673 2073 PD
40 W
4680 2090 PD
40 W
4681 2186 PD
40 W
4684 2119 PD
40 W
4688 2082 PD
40 W
4691 2111 PD
40 W
4695 2115 PD
40 W
4699 2108 PD
40 W
4706 2033 PD
40 W
4707 2044 PD
40 W
4710 2061 PD
40 W
4715 2007 PD
40 W
4717 2065 PD
40 W
4719 2004 PD
40 W
4722 2035 PD
40 W
4725 2056 PD
40 W
4730 2047 PD
40 W
4732 2075 PD
40 W
4736 2104 PD
40 W
4740 2249 PD
40 W
4743 2398 PD
40 W
4744 2291 PD
40 W
4748 2204 PD
40 W
4751 2211 PD
40 W
4752 2250 PD
40 W
4754 2218 PD
40 W
4755 2139 PD
40 W
4756 2116 PD
40 W
4758 2167 PD
40 W
4759 2175 PD
40 W
4760 2317 PD
40 W
4762 2234 PD
40 W
4764 2314 PD
40 W
4767 2244 PD
40 W
4769 2286 PD
40 W
4770 2180 PD
40 W
4771 2133 PD
40 W
4774 2341 PD
40 W
4786 2423 PD
40 W
4788 2358 PD
40 W
4792 2217 PD
40 W
4795 2026 PD
40 W
4796 1865 PD
40 W
4797 1851 PD
40 W
4799 2002 PD
40 W
4800 2105 PD
40 W
4801 2167 PD
40 W
4803 2171 PD
40 W
4808 2236 PD
40 W
4810 2135 PD
40 W
4825 2020 PD
40 W
4826 1997 PD
40 W
4829 2054 PD
40 W
4830 2053 PD
40 W
4831 2042 PD
40 W
4834 1956 PD
40 W
4838 1933 PD
40 W
4840 1986 PD
40 W
4841 2032 PD
40 W
4845 2111 PD
40 W
4846 2089 PD
40 W
4853 1993 PD
40 W
4857 2077 PD
40 W
4861 2007 PD
40 W
4863 1990 PD
40 W
4864 1985 PD
40 W
4867 2000 PD
40 W
4868 1998 PD
40 W
4871 1922 PD
40 W
4872 1940 PD
40 W
4876 2021 PD
40 W
4879 2084 PD
40 W
4881 2094 PD
40 W
4883 2050 PD
40 W
4885 1966 PD
40 W
4890 2006 PD
40 W
4891 1960 PD
40 W
4893 2018 PD
40 W
4896 2017 PD
40 W
4897 2065 PD
40 W
4900 1989 PD
40 W
4909 1987 PD
40 W
4911 2043 PD
40 W
4912 2038 PD
40 W
4916 1980 PD
40 W
4917 1941 PD
40 W
4920 1990 PD
40 W
4921 2014 PD
40 W
4923 2035 PD
40 W
4924 2084 PD
40 W
4926 2082 PD
40 W
4927 2038 PD
40 W
4928 2037 PD
40 W
4931 2026 PD
40 W
4932 2020 PD
40 W
4936 2101 PD
40 W
4938 2208 PD
40 W
4939 2211 PD
40 W
4941 2301 PD
40 W
4943 2196 PD
40 W
4954 2187 PD
40 W
4956 2113 PD
40 W
4957 2267 PD
40 W
4960 2383 PD
40 W
4968 2288 PD
40 W
4972 2299 PD
40 W
4973 2288 PD
40 W
4975 2196 PD
40 W
4980 2099 PD
40 W
4984 2015 PD
40 W
4987 2045 PD
40 W
4991 2003 PD
40 W
4992 1905 PD
40 W
4995 1781 PD
40 W
4998 1928 PD
40 W
4999 2026 PD
40 W
5006 1946 PD
40 W
5013 1739 PD
40 W
5018 1794 PD
40 W
5020 1776 PD
40 W
5022 2027 PD
40 W
5024 1959 PD
40 W
5028 1741 PD
40 W
5031 1656 PD
40 W
5037 1987 PD
40 W
5039 1818 PD
40 W
5040 1893 PD
40 W
5042 1923 PD
40 W
5051 1926 PD
40 W
5054 1971 PD
40 W
5055 2084 PD
40 W
5059 1953 PD
40 W
5061 1939 PD
40 W
5065 1637 PD
40 W
5066 1741 PD
40 W
5068 1735 PD
40 W
5069 2121 PD
40 W
5070 2462 PD
40 W
5072 2043 PD
40 W
5074 1980 PD
40 W
5076 2035 PD
40 W
5080 1799 PD
40 W
5081 2016 PD
40 W
5084 1772 PD
40 W
5089 1967 PD
40 W
5091 1929 PD
40 W
5095 1977 PD
40 W
5098 2014 PD
40 W
5103 1953 PD
40 W
5106 1932 PD
40 W
5108 2010 PD
40 W
5110 2167 PD
40 W
5113 1938 PD
40 W
5118 1907 PD
40 W
5119 1907 PD
40 W
5121 1907 PD
40 W
5122 1907 PD
40 W
5125 1907 PD
40 W
5129 1907 PD
40 W
5136 1930 PD
40 W
5137 1892 PD
40 W
5140 1935 PD
40 W
5141 1970 PD
40 W
5148 1960 PD
40 W
5155 1914 PD
40 W
5160 1805 PD
40 W
5163 1750 PD
40 W
5166 1723 PD
40 W
5167 1637 PD
40 W
5170 1576 PD
40 W
5174 2075 PD
40 W
5175 2293 PD
40 W
5177 1857 PD
40 W
5179 1869 PD
40 W
5186 2080 PD
40 W
5188 2111 PD
40 W
5192 1847 PD
40 W
5193 1721 PD
40 W
5196 2104 PD
40 W
5199 1803 PD
40 W
5200 2057 PD
40 W
5205 1733 PD
40 W
5208 1733 PD
40 W
5214 1666 PD
40 W
5219 1918 PD
40 W
5220 1918 PD
40 W
5223 1922 PD
40 W
5224 1891 PD
40 W
5231 1806 PD
40 W
5233 1865 PD
40 W
5235 1840 PD
40 W
5238 1788 PD
40 W
5241 1801 PD
40 W
5242 1938 PD
40 W
5246 1907 PD
40 W
5248 1918 PD
40 W
5252 1914 PD
40 W
5253 1913 PD
40 W
5257 1907 PD
40 W
5259 1928 PD
40 W
5260 1916 PD
40 W
5263 1925 PD
40 W
5265 1907 PD
40 W
5267 1907 PD
40 W
5270 1907 PD
40 W
5271 1921 PD
40 W
5274 1907 PD
40 W
5275 1921 PD
40 W
5280 1936 PD
40 W
5282 1907 PD
40 W
5283 1926 PD
40 W
5285 1935 PD
40 W
5289 1907 PD
40 W
5291 1907 PD
40 W
5294 1934 PD
40 W
5300 1907 PD
40 W
5301 1907 PD
40 W
5302 1940 PD
40 W
5304 1940 PD
40 W
5306 1907 PD
40 W
5313 1943 PD
40 W
5315 1907 PD
40 W
5319 1907 PD
40 W
5321 1907 PD
40 W
5324 1907 PD
40 W
5327 1939 PD
40 W
5328 1907 PD
40 W
5330 1907 PD
40 W
5332 1935 PD
40 W
5334 1918 PD
40 W
5338 1872 PD
40 W
5339 1930 PD
40 W
5343 2093 PD
40 W
5346 2102 PD
40 W
5347 1996 PD
40 W
5349 1969 PD
40 W
5350 1907 PD
40 W
5351 1972 PD
40 W
5353 2010 PD
40 W
5354 1939 PD
40 W
5356 2008 PD
40 W
5360 1889 PD
40 W
5361 1870 PD
40 W
5364 1754 PD
40 W
5365 1761 PD
40 W
5368 1673 PD
40 W
5371 1609 PD
40 W
5372 1581 PD
40 W
5376 1749 PD
40 W
5380 1819 PD
40 W
5386 1990 PD
40 W
5387 2054 PD
40 W
5388 1962 PD
40 W
5390 1555 PD
40 W
5392 1683 PD
40 W
5394 1947 PD
40 W
5395 2162 PD
40 W
5398 2176 PD
40 W
5401 2041 PD
40 W
5402 2079 PD
40 W
5403 1761 PD
40 W
5406 1696 PD
40 W
5407 1499 PD
40 W
5411 2421 PD
40 W
5416 1920 PD
40 W
5417 1913 PD
40 W
5421 1847 PD
40 W
5422 1854 PD
40 W
5428 2119 PD
40 W
5433 1701 PD
40 W
5435 1755 PD
40 W
5436 1782 PD
40 W
5440 1847 PD
40 W
5446 1957 PD
40 W
5447 2005 PD
40 W
5451 1962 PD
40 W
5452 1928 PD
40 W
5455 1838 PD
40 W
5459 1941 PD
40 W
5461 1907 PD
40 W
5462 1959 PD
40 W
5467 2043 PD
40 W
5472 1995 PD
40 W
5473 1907 PD
40 W
5478 1975 PD
40 W
5480 1907 PD
40 W
5481 1907 PD
40 W
5484 2000 PD
40 W
5485 1907 PD
40 W
5487 1907 PD
40 W
5496 1915 PD
40 W
5506 1907 PD
40 W
5507 1907 PD
40 W
5508 1919 PD
40 W
5510 1937 PD
40 W
5511 1932 PD
40 W
5514 1936 PD
40 W
5515 1924 PD
40 W
5517 1907 PD
40 W
5521 1924 PD
40 W
5522 1907 PD
40 W
5532 1907 PD
40 W
5534 1934 PD
40 W
5540 2016 PD
40 W
5541 1941 PD
40 W
5543 1890 PD
40 W
5544 2040 PD
40 W
5545 2069 PD
40 W
5547 2117 PD
40 W
5548 1968 PD
40 W
5555 1901 PD
40 W
5558 1890 PD
40 W
5559 1850 PD
40 W
5563 1743 PD
40 W
5567 1616 PD
40 W
5568 1587 PD
40 W
5574 1693 PD
40 W
5578 1862 PD
40 W
5579 1879 PD
40 W
5583 1853 PD
40 W
5585 1774 PD
40 W
5586 1789 PD
40 W
5588 1817 PD
40 W
5589 1866 PD
40 W
5592 1828 PD
40 W
5593 1789 PD
40 W
5594 1779 PD
40 W
5597 1792 PD
40 W
5600 1629 PD
40 W
5601 1708 PD
40 W
5603 1775 PD
40 W
5605 1855 PD
40 W
5608 1838 PD
40 W
5609 1869 PD
40 W
5612 1825 PD
40 W
5620 1891 PD
40 W
5622 1861 PD
40 W
5624 1964 PD
40 W
5631 1956 PD
40 W
5633 2090 PD
40 W
5646 1942 PD
40 W
5649 1907 PD
40 W
5652 1970 PD
40 W
5653 1926 PD
40 W
5668 1907 PD
40 W
5671 1994 PD
40 W
5674 1907 PD
40 W
5675 1929 PD
40 W
5680 1907 PD
40 W
5684 1907 PD
40 W
5689 2063 PD
40 W
5691 1957 PD
40 W
5693 1973 PD
40 W
5694 1907 PD
40 W
5705 2011 PD
40 W
5708 1959 PD
40 W
5709 2011 PD
40 W
5710 2041 PD
40 W
5712 2086 PD
40 W
5716 1976 PD
40 W
5717 1907 PD
40 W
5720 2098 PD
40 W
5721 2038 PD
40 W
5725 2117 PD
40 W
5727 2011 PD
40 W
5728 2088 PD
40 W
5734 2328 PD
40 W
5736 2214 PD
40 W
5740 2112 PD
40 W
5742 2070 PD
40 W
5743 2213 PD
40 W
5746 2210 PD
40 W
5747 2149 PD
40 W
5749 2078 PD
40 W
5754 2322 PD
40 W
5755 2346 PD
40 W
5758 2253 PD
40 W
5761 2278 PD
40 W
5762 2328 PD
40 W
5764 2519 PD
40 W
5769 2288 PD
40 W
5770 2194 PD
40 W
5772 2033 PD
40 W
5773 1884 PD
40 W
5780 1806 PD
40 W
5783 1781 PD
40 W
5788 1813 PD
40 W
5790 1872 PD
40 W
5801 1699 PD
40 W
5803 1766 PD
40 W
5805 1768 PD
40 W
5807 1833 PD
40 W
5810 1652 PD
40 W
5813 1927 PD
40 W
5814 1774 PD
40 W
5817 1924 PD
40 W
5818 1918 PD
40 W
5820 1854 PD
40 W
5821 1899 PD
40 W
5822 2077 PD
40 W
5829 1996 PD
40 W
5835 2126 PD
40 W
5837 1936 PD
40 W
5839 2010 PD
40 W
5840 2079 PD
40 W
5844 1787 PD
40 W
5846 1830 PD
40 W
5847 1876 PD
40 W
5850 1890 PD
40 W
5854 1907 PD
40 W
5855 1915 PD
40 W
5859 1907 PD
40 W
5861 1907 PD
40 W
5862 1907 PD
40 W
5865 1952 PD
40 W
5867 1937 PD
40 W
5869 1941 PD
40 W
5870 1962 PD
40 W
5874 1988 PD
40 W
5881 1907 PD
40 W
5882 1907 PD
40 W
5884 1993 PD
40 W
5887 2004 PD
40 W
5889 2027 PD
40 W
5893 2066 PD
40 W
5896 2284 PD
40 W
5899 1884 PD
40 W
5900 1889 PD
40 W
5902 1893 PD
40 W
5903 1938 PD
40 W
5904 2052 PD
40 W
5908 2279 PD
40 W
5910 1816 PD
40 W
5914 2146 PD
40 W
5921 1928 PD
40 W
5922 1957 PD
40 W
5925 1907 PD
40 W
5926 1932 PD
40 W
5927 2018 PD
40 W
5936 1894 PD
40 W
5940 2039 PD
40 W
5941 2034 PD
40 W
5942 2122 PD
40 W
5944 2010 PD
40 W
5945 1948 PD
40 W
5947 1984 PD
40 W
5948 1937 PD
40 W
5949 1838 PD
40 W
5951 1874 PD
40 W
5962 1919 PD
40 W
5964 2135 PD
40 W
5967 2079 PD
40 W
5968 1973 PD
40 W
5970 1852 PD
40 W
5971 1870 PD
40 W
5975 2124 PD
40 W
5981 1944 PD
40 W
5986 1948 PD
40 W
5989 1864 PD
40 W
5994 1689 PD
40 W
5998 1716 PD
40 W
6000 1702 PD
40 W
6003 1808 PD
40 W
6004 1834 PD
40 W
6009 1857 PD
40 W
6011 1789 PD
40 W
6012 1827 PD
40 W
6018 1644 PD
40 W
6019 1636 PD
40 W
6022 2235 PD
40 W
6027 1944 PD
40 W
6030 2087 PD
40 W
6033 2171 PD
40 W
6034 2182 PD
40 W
6037 1866 PD
40 W
6038 1909 PD
40 W
6039 1919 PD
40 W
6042 1912 PD
40 W
6043 1941 PD
40 W
6046 1907 PD
40 W
6048 1897 PD
40 W
6052 1959 PD
40 W
6056 2007 PD
40 W
6065 1842 PD
40 W
6067 1836 PD
40 W
6068 1827 PD
40 W
6069 1735 PD
40 W
6072 1552 PD
40 W
6075 1527 PD
40 W
6076 1511 PD
40 W
6082 1508 PD
40 W
6083 1582 PD
40 W
6086 1760 PD
40 W
6090 2588 PD
40 W
6095 1305 PD
40 W
6097 1524 PD
40 W
6098 1713 PD
40 W
6099 1611 PD
40 W
6104 1929 PD
40 W
6108 1919 PD
40 W
6109 1931 PD
40 W
6112 1911 PD
40 W
6113 1867 PD
40 W
6117 1907 PD
40 W
6120 1762 PD
40 W
6121 1812 PD
40 W
6125 1837 PD
40 W
6129 1612 PD
40 W
6134 1803 PD
40 W
6136 1775 PD
40 W
6138 2450 PD
40 W
6139 1880 PD
40 W
6142 1991 PD
40 W
6143 2128 PD
40 W
6144 1680 PD
40 W
6146 1614 PD
40 W
6153 1753 PD
40 W
6154 1749 PD
40 W
6160 1743 PD
40 W
6161 1797 PD
40 W
6162 1755 PD
40 W
6164 1784 PD
40 W
6166 1959 PD
40 W
6168 1915 PD
40 W
6170 1761 PD
40 W
6172 1770 PD
40 W
6177 1354 PD
40 W
6180 1666 PD
40 W
6185 1566 PD
40 W
6187 1567 PD
40 W
6188 1693 PD
40 W
6191 1734 PD
40 W
6192 1967 PD
40 W
6195 1950 PD
40 W
6200 1967 PD
40 W
6202 2063 PD
40 W
6205 1757 PD
40 W
6217 1842 PD
40 W
6218 1851 PD
40 W
6220 1907 PD
40 W
6222 1875 PD
40 W
6226 1939 PD
40 W
6235 1936 PD
40 W
6239 1870 PD
40 W
6240 1885 PD
40 W
6243 1881 PD
40 W
6246 1825 PD
40 W
6247 1867 PD
40 W
6250 1687 PD
40 W
6252 1627 PD
40 W
6254 1622 PD
40 W
6265 1714 PD
40 W
6266 1660 PD
40 W
6269 1678 PD
40 W
6270 1791 PD
40 W
6274 1547 PD
40 W
6277 1680 PD
40 W
6278 1806 PD
40 W
6280 1722 PD
40 W
6281 1657 PD
40 W
6282 1644 PD
40 W
6284 1582 PD
40 W
6288 1559 PD
40 W
6289 1693 PD
40 W
6291 1614 PD
40 W
6292 1588 PD
40 W
6293 1571 PD
40 W
6295 1615 PD
40 W
6296 1620 PD
40 W
6297 1474 PD
40 W
6306 1603 PD
40 W
6311 1526 PD
40 W
6314 1711 PD
40 W
6318 1665 PD
40 W
6321 1816 PD
40 W
6322 1829 PD
40 W
6323 1818 PD
40 W
6325 1814 PD
40 W
6326 1861 PD
40 W
6341 1453 PD
40 W
6344 1543 PD
40 W
6349 1586 PD
40 W
6351 1176 PD
40 W
6352 1256 PD
40 W
6356 1498 PD
40 W
6357 2015 PD
40 W
6363 2093 PD
40 W
6364 1965 PD
40 W
6367 2157 PD
40 W
6368 2240 PD
40 W
6370 2378 PD
40 W
6372 2674 PD
40 W
6375 2543 PD
40 W
6382 1919 PD
40 W
6385 1931 PD
40 W
6386 1888 PD
40 W
6387 1915 PD
40 W
6390 1900 PD
40 W
6392 1978 PD
40 W
6393 1933 PD
40 W
6396 1855 PD
40 W
6397 1854 PD
40 W
6402 1897 PD
40 W
6404 1896 PD
40 W
6409 1869 PD
40 W
6411 1722 PD
40 W
6412 1907 PD
40 W
6417 1891 PD
40 W
6419 1907 PD
40 W
6420 1907 PD
40 W
6433 1956 PD
40 W
6435 1970 PD
40 W
6438 1907 PD
40 W
6439 1907 PD
40 W
6442 1907 PD
40 W
6446 2074 PD
40 W
6449 1937 PD
40 W
6453 1907 PD
40 W
6454 1926 PD
40 W
6456 1907 PD
40 W
6457 1927 PD
40 W
6458 1907 PD
40 W
6461 2003 PD
40 W
6464 1907 PD
40 W
6467 1907 PD
40 W
6472 1907 PD
40 W
6478 1907 PD
40 W
6479 1907 PD
40 W
6482 1907 PD
40 W
6483 1907 PD
40 W
6484 1907 PD
40 W
6488 1907 PD
40 W
6498 1907 PD
40 W
6501 1907 PD
40 W
6505 1958 PD
40 W
6508 1837 PD
40 W
6509 1863 PD
40 W
6510 1853 PD
40 W
6514 1811 PD
40 W
6519 1789 PD
40 W
6520 1747 PD
40 W
6525 1698 PD
40 W
6527 1713 PD
40 W
6528 1694 PD
40 W
6529 1719 PD
40 W
6532 1707 PD
40 W
6536 1748 PD
40 W
6540 1867 PD
40 W
6543 1917 PD
40 W
6549 1952 PD
40 W
6550 2036 PD
40 W
6553 1886 PD
40 W
6554 1846 PD
40 W
6559 1850 PD
40 W
6561 2157 PD
40 W
6565 2274 PD
40 W
6566 1998 PD
40 W
6568 1998 PD
40 W
6572 1579 PD
40 W
6576 1704 PD
40 W
6577 1812 PD
40 W
6580 2126 PD
40 W
6584 1880 PD
40 W
6585 2358 PD
40 W
6587 2377 PD
40 W
6589 2345 PD
40 W
6591 2553 PD
40 W
6595 1968 PD
40 W
6598 1995 PD
40 W
6599 2183 PD
40 W
6600 2314 PD
40 W
6602 2198 PD
40 W
6603 2098 PD
40 W
6606 2094 PD
40 W
6614 2012 PD
40 W
6618 1902 PD
40 W
6624 1993 PD
40 W
6628 2032 PD
40 W
6629 2037 PD
40 W
6633 1959 PD
40 W
6635 1984 PD
40 W
6636 1998 PD
40 W
6639 1999 PD
40 W
6641 1983 PD
40 W
6644 2013 PD
40 W
6647 2009 PD
40 W
6651 2070 PD
40 W
6652 2030 PD
40 W
6655 1993 PD
40 W
6656 1989 PD
40 W
6658 1967 PD
40 W
6659 1980 PD
40 W
6660 2017 PD
40 W
6663 2103 PD
40 W
6667 2062 PD
40 W
6669 2065 PD
40 W
6671 2028 PD
40 W
6680 1952 PD
40 W
6681 1948 PD
40 W
6682 1921 PD
40 W
6689 1985 PD
40 W
6693 1966 PD
40 W
6695 1907 PD
40 W
6696 2024 PD
40 W
6700 1930 PD
40 W
6706 1894 PD
40 W
6707 1861 PD
40 W
6708 1826 PD
40 W
6712 1812 PD
40 W
6714 1830 PD
40 W
6715 1796 PD
40 W
6716 1807 PD
40 W
6721 1659 PD
40 W
6726 1992 PD
40 W
6729 2302 PD
40 W
6731 2193 PD
40 W
6736 1835 PD
40 W
6738 1967 PD
40 W
6740 1961 PD
40 W
6741 1838 PD
40 W
6745 2096 PD
40 W
6746 2108 PD
40 W
6748 1891 PD
40 W
6752 1734 PD
40 W
6755 1871 PD
40 W
6756 1972 PD
40 W
6761 1788 PD
40 W
6763 1950 PD
40 W
6764 1929 PD
40 W
6766 1914 PD
40 W
6767 1966 PD
40 W
6771 1932 PD
40 W
6776 1950 PD
40 W
6778 2040 PD
40 W
6779 2010 PD
40 W
6781 1991 PD
40 W
6783 2273 PD
40 W
6789 2061 PD
40 W
6790 2082 PD
40 W
6793 2156 PD
40 W
6796 1986 PD
40 W
6801 1898 PD
40 W
6802 1901 PD
40 W
6804 2046 PD
40 W
6808 1472 PD
40 W
6809 1619 PD
40 W
6811 1683 PD
40 W
6819 1907 PD
40 W
6822 1921 PD
40 W
6823 1938 PD
40 W
6828 1928 PD
40 W
6830 1918 PD
40 W
6832 1942 PD
40 W
6835 1930 PD
40 W
6839 1922 PD
40 W
6841 1914 PD
40 W
6842 1958 PD
40 W
6845 1993 PD
40 W
6846 1927 PD
40 W
6847 1928 PD
40 W
6850 1907 PD
40 W
6853 1919 PD
40 W
6854 1907 PD
40 W
6857 1907 PD
40 W
6860 1907 PD
40 W
6861 1907 PD
40 W
6867 1923 PD
40 W
6868 1907 PD
40 W
6872 1907 PD
40 W
6873 1907 PD
40 W
6879 1959 PD
40 W
6880 1915 PD
40 W
6883 1907 PD
40 W
6886 1907 PD
40 W
6887 1907 PD
40 W
6890 1907 PD
40 W
6894 1907 PD
40 W
6895 1907 PD
40 W
6897 1907 PD
40 W
6898 1907 PD
40 W
6902 1961 PD
40 W
6903 1942 PD
40 W
6905 1903 PD
40 W
6913 2078 PD
40 W
6916 2190 PD
40 W
6917 2123 PD
40 W
6918 2109 PD
40 W
6920 2200 PD
40 W
6921 2158 PD
40 W
6925 2113 PD
40 W
6927 2178 PD
40 W
6928 2206 PD
40 W
6929 2237 PD
40 W
6931 2109 PD
40 W
6932 2032 PD
40 W
6935 2139 PD
40 W
6936 1960 PD
40 W
6938 1946 PD
40 W
6947 1709 PD
40 W
6954 1631 PD
40 W
6955 1758 PD
40 W
6957 1742 PD
40 W
6958 1790 PD
40 W
6962 2176 PD
40 W
6963 1934 PD
40 W
6965 2017 PD
40 W
6969 2039 PD
40 W
6970 1989 PD
40 W
6976 1955 PD
40 W
6980 2113 PD
40 W
6981 2042 PD
40 W
6984 2169 PD
40 W
6985 2083 PD
40 W
6994 1878 PD
40 W
6995 1904 PD
40 W
6996 1947 PD
40 W
6998 1993 PD
40 W
7000 2009 PD
40 W
7002 1972 PD
40 W
7003 2036 PD
40 W
7013 1988 PD
40 W
7017 1959 PD
40 W
7018 1992 PD
40 W
7022 1978 PD
40 W
7026 1994 PD
40 W
7028 1959 PD
40 W
7029 1981 PD
40 W
7030 1909 PD
40 W
7032 1907 PD
40 W
7033 1901 PD
40 W
7034 1907 PD
40 W
7037 1907 PD
40 W
7039 1994 PD
40 W
7040 2064 PD
40 W
7041 1907 PD
gs 1145 302 6826 3212 rc
/c9 { 1.000000 0.000000 0.000000 sr} bdef
c9
1 -1 1 -1 2 -2 3 -3 1 -2 1 -2 2 -2 1 -2 
1 -2 2 -3 4 -7 4 -9 1 -3 4 -8 10 -14 1 -1 
2 -1 2 0 2 0 1 1 1 1 9 13 1 4 3 7 
1 4 4 12 6 14 1 3 4 6 2 1 1 0 4 -2 
1 -2 2 -2 1 -3 7 -25 9 -48 2 -7 1 -6 3 -13 
1 -5 2 -5 1 -5 1 -4 2 -3 4 -4 1 0 2 1 
1 1 1 3 3 7 8 36 2 7 1 8 4 24 1 7 
2 8 1 7 4 21 3 11 1 5 3 8 3 6 1 3 
6 4 1 -1 4 -2 1 -1 6 -6 1 -1 3 -2 3 -2 
1 -1 3 0 3 1 1 0 1 2 3 2 1 2 2 2 
4 7 3 4 2 5 2 2 5 5 1 1 3 0 8 -9 
2 -2 1 -4 4 -11 2 -4 1 -4 5 -19 3 -9 3 -8 
1 -4 6 -13 2 -4 2 -2 1 -2 2 -1 5 0 4 2 
1 1 2 2 1 2 2 1 5 9 1 3 3 5 4 7 
2 3 1 3 4 8 1 2 2 3 2 5 5 8 2 4 
3 5 5 7 5 3 1 0 1 0 2 0 4 -1 1 -2 
1 -1 6 -10 4 -11 1 -3 2 -5 4 -13 7 -23 1 -4 
1 -4 9 -21 2 -4 2 -2 4 -3 3 -1 1 0 1 0 
2 0 1 1 3 1 1 1 4 2 3 0 3 0 2 -2 
3 -3 1 -2 2 -2 4 -9 1 -4 4 -14 6 -22 4 -17 
8 -31 3 -8 1 -3 2 -3 1 -2 1 -1 3 -1 4 3 
2 3 2 7 2 5 1 5 4 19 3 15 1 9 4 27 
4 30 2 10 1 11 4 31 2 10 5 40 1 9 3 18 
1 9 6 29 3 12 4 14 4 10 3 3 1 1 1 1 
2 0 5 -5 1 -3 5 -9 4 -11 1 -5 1 -4 3 -10 
4 -14 3 -10 10 -32 4 -12 1 -4 1 -3 3 -6 1 -3 
6 -10 5 -6 3 -1 3 -1 3 1 1 1 1 1 2 1 
1 2 4 6 3 6 4 10 3 8 1 4 3 7 2 7 
13 16 1 -1 2 -1 5 -13 1 -5 2 -6 5 -28 2 -8 
5 -35 1 -8 3 -16 1 -7 2 -7 3 -12 1 -4 1 -4 
3 -3 7 11 3 14 2 18 2 10 1 12 3 26 1 14 
6 61 1 15 4 47 1 15 2 14 5 51 3 21 15 53 
1 1 2 0 1 0 1 0 3 -2 4 -2 3 -2 5 -1 
9 2 1 1 1 1 2 0 1 1 1 1 2 0 1 1 
4 -1 2 -1 1 -1 1 -1 2 -2 1 -2 3 -6 4 -12 
1 -5 3 -11 1 -7 11 -61 2 -9 2 -17 3 -18 1 -8 
3 -17 3 -15 1 -8 4 -19 9 -24 4 -4 2 1 2 1 
1 3 12 43 3 13 6202 1836 300 MP stroke
2 7 5 29 3 13 1 6 3 12 1 5 2 4 5 13 
3 3 5 -3 2 -2 2 -7 2 -4 2 -9 2 -5 1 -6 
1 -6 6 -26 1 -7 7 -31 2 -6 1 -5 1 -5 3 -8 
1 -3 2 -3 2 -3 5 -1 4 5 4 11 1 5 3 11 
4 20 1 8 3 15 1 8 4 23 5 23 1 7 1 6 
2 6 5 18 4 5 3 0 1 -2 6 -14 1 -6 3 -14 
3 -16 1 -9 1 -10 2 -10 9 -73 4 -29 4 -23 2 -7 
3 -11 1 -4 3 -5 1 -1 1 -1 3 2 1 2 3 6 
3 9 5 23 3 13 1 7 6 24 1 6 2 5 5 14 
1 2 3 2 2 -1 4 -4 5 -15 3 -10 5 -24 6 -26 
4 -18 1 -6 2 -5 1 -5 3 -9 2 -7 11 -16 2 -1 
1 -1 1 0 2 0 1 0 2 0 1 0 1 0 4 -1 
9 -2 1 -1 1 -1 3 -2 1 -1 7 -5 4 -2 2 -1 
4 0 1 0 1 1 2 1 1 1 3 2 3 4 4 6 
2 6 3 5 2 3 1 3 7 13 4 6 1 1 2 2 
2 2 3 1 1 0 2 1 4 0 1 -1 4 0 3 0 
1 1 2 1 4 3 1 2 2 2 2 6 6 16 7 26 
1 6 1 6 2 6 1 5 3 10 1 5 3 8 3 5 
2 2 2 0 2 -4 11 -55 2 -11 5 -53 3 -30 7 -78 
1 -16 2 -15 1 -14 5 -51 2 -11 1 -9 3 -17 3 -12 
1 -4 5 -5 2 1 1 2 3 8 1 5 2 6 4 22 
2 18 6 38 1 9 2 10 4 29 1 10 3 17 1 9 
4 23 2 7 1 6 1 6 3 11 11 29 1 2 2 1 
2 3 5 3 4 1 5 -1 1 -1 3 -1 3 -2 15 -9 
1 0 3 0 3 1 13 19 2 3 7 22 2 11 2 5 
8 37 3 12 1 6 3 12 2 11 2 5 1 5 3 9 
3 7 1 3 1 3 3 3 1 1 2 1 1 -1 2 0 
4 -6 1 -2 4 -12 6 -21 1 -7 4 -19 4 -21 1 -7 
3 -14 7 -31 1 -5 2 -5 1 -4 1 -4 2 -4 1 -3 
6 -7 2 -2 10 5 1 2 4 5 2 2 1 1 3 4 
1 1 2 1 1 1 1 1 10 2 9 -5 2 -1 1 -1 
3 -1 1 0 2 -1 5 0 1 1 5 2 5 6 1 2 
2 2 4 5 3 4 1 2 4 4 1 2 6 3 4 0 
1 0 2 -1 5 -3 6 -4 1 -1 4 -2 1 0 5 1 
4 3 1 2 3 5 1 2 1 3 3 7 3 7 1 4 
2 4 2 8 2 3 1 4 1 3 6 11 4 3 4 0 
1 -1 3 -4 3 -6 1 -4 3 -8 1 -4 4 -15 2 -5 
1 -5 2 -5 1 -5 5350 1906 300 MP stroke
1 -5 2 -4 1 -5 3 -8 4 -10 1 -2 4 -6 2 0 
2 -1 2 0 1 0 3 2 3 3 2 3 4 6 2 2 
7 9 2 2 2 1 1 1 1 1 6 2 3 0 2 -1 
4 -1 2 -1 1 0 2 0 5 -1 1 0 3 1 1 0 
3 2 2 1 2 3 3 4 1 2 2 2 4 7 1 3 
4 9 2 2 4 9 1 2 3 5 3 4 2 3 2 1 
7 2 1 0 3 -2 1 -2 5 -7 6 -9 3 -5 5 -9 
1 -2 3 -4 3 -2 1 -1 4 -1 2 1 7 4 2 4 
2 1 1 2 4 6 3 4 1 1 3 3 3 2 5 1 
7 -5 7 -12 1 -3 3 -6 1 -4 7 -18 4 -10 3 -7 
1 -3 2 -3 1 -2 5 -10 3 -4 2 -1 2 -3 3 -2 
5 -3 3 0 4 0 2 0 5 1 3 1 1 1 4 3 
2 1 2 3 2 1 1 2 1 2 2 2 1 2 4 8 
2 3 4 9 1 4 3 8 9 31 2 4 1 5 2 4 
6 19 3 5 4 5 2 1 2 0 2 -2 5 -11 7 -30 
7 -47 1 -11 3 -24 3 -25 1 -13 4 -40 3 -26 4 -38 
5 -46 2 -10 1 -9 4 -22 8 -22 3 0 1 1 2 3 
11 43 2 16 2 9 1 9 2 8 4 27 1 9 3 17 
1 8 1 8 2 7 1 7 2 7 1 6 3 11 1 5 
4 12 1 3 2 3 9 8 3 -1 1 0 3 -2 2 0 
1 -1 5 -5 2 -1 2 -2 2 -1 3 -2 4 -2 1 -1 
3 -1 1 0 3 -1 1 0 2 0 4 0 4 0 7 -1 
1 0 4 -1 1 -1 2 0 4 -3 3 -2 1 -2 1 -1 
3 -4 1 -2 15 -39 2 -5 5 -22 2 -6 1 -6 1 -6 
2 -6 1 -7 1 -6 3 -13 4 -20 2 -6 12 -46 3 -6 
1 -2 1 -2 2 -2 3 -1 2 1 2 2 1 1 1 3 
2 3 1 3 1 4 2 4 1 5 3 10 4 18 1 7 
3 13 4 20 4 20 2 6 5 22 3 10 3 7 2 7 
2 2 5 6 3 1 1 0 7 -4 4 -4 4 -4 3 -3 
4 -3 3 -1 1 -1 7 2 1 1 3 2 3 4 1 2 
3 5 1 3 4 9 2 3 1 3 1 4 7 16 3 5 
1 3 6 7 1 1 7 -3 3 -6 1 -3 1 -4 2 -5 
3 -11 2 -13 3 -16 1 -8 4 -28 2 -10 1 -10 3 -20 
1 -10 4 -29 5 -26 1 -8 3 -13 1 -6 4 -11 1 -2 
2 -1 1 0 2 1 1 2 1 4 10 48 3 20 6 59 
7 62 2 11 5 42 4 26 3 13 1 6 4 13 2 3 
4 4 2 0 5 -4 2 -4 3 -5 1 -2 2 -3 4 -8 
1 -2 3 -4 1 -2 4500 1968 300 MP stroke
2 -2 2 -2 2 0 1 0 2 0 8 7 4 7 1 2 
2 3 2 4 3 5 1 2 2 1 2 3 2 1 1 1 
2 0 1 0 3 -1 1 -2 4 -5 3 -5 1 -3 3 -6 
3 -6 2 -6 2 -3 9 -12 4 2 2 2 7 19 2 11 
2 6 2 15 2 7 1 8 3 17 4 27 4 25 1 9 
3 16 6 27 2 10 4 12 2 3 1 2 2 1 2 2 
2 0 1 -1 1 0 2 -2 2 -4 2 -2 1 -3 2 -3 
1 -4 1 -3 7 -19 7 -16 3 -6 8 -9 3 -1 1 0 
3 0 1 1 4 3 3 2 5 7 2 2 4 5 3 3 
1 2 4 4 1 1 2 2 2 2 9 7 1 1 1 1 
2 1 2 3 2 1 1 1 4 5 4 4 2 1 1 1 
4 4 3 1 3 2 2 0 9 -4 1 -2 3 -4 1 -2 
1 -3 3 -6 2 -4 2 -8 6 -18 5 -20 3 -11 1 -6 
2 -5 1 -6 3 -11 7 -27 1 -5 1 -4 2 -5 4 -12 
7 -15 1 -2 1 -2 4 -4 2 0 5 1 2 1 5 8 
5 11 2 4 1 4 6 16 5 20 7 29 3 12 1 7 
1 6 3 14 8 41 3 14 3 12 1 6 2 6 4 14 
1 4 1 4 4 6 2 1 1 0 7 -10 1 -4 2 -5 
1 -5 3 -12 1 -7 6 -29 2 -16 2 -7 1 -8 4 -20 
6 -19 2 -5 2 -2 1 0 3 1 1 2 2 2 1 3 
1 4 3 10 4 17 4 19 10 36 1 3 7 3 3 -5 
1 -4 4 -16 8 -45 7 -39 3 -12 1 -5 4 -9 2 -1 
1 0 1 2 3 5 2 5 2 12 3 17 4 31 4 37 
6 51 5 48 2 10 6 40 2 5 4 9 4 -1 1 -3 
2 -4 4 -16 5 -32 2 -10 4 -30 1 -10 1 -11 9 -60 
4 -25 2 -15 6 -22 1 -5 2 -4 1 -3 1 -3 2 -2 
4 -5 2 -2 3 -1 3 0 1 0 2 0 1 0 1 0 
4 0 5 -1 1 0 3 -1 5 -3 3 -2 7 -4 5 -2 
2 -1 1 0 1 0 3 0 1 -1 9 -2 2 -2 7 -11 
1 -3 2 -4 3 -10 5 -28 3 -17 1 -10 7 -55 3 -25 
1 -12 1 -13 2 -13 2 -25 2 -13 1 -12 2 -12 1 -11 
3 -22 1 -10 3 -17 1 -8 3 -13 11 -18 1 2 8 24 
7 34 2 8 1 8 3 16 6 39 2 8 4 20 3 13 
1 5 3 10 1 4 1 4 5 8 1 2 3 2 1 0 
1 0 6 -5 4 -7 1 -3 3 -6 4 -9 4 -8 2 -2 
4 -3 1 0 1 1 6 11 3 11 1 7 1 7 2 9 
1 9 3 21 3 23 1 13 1 13 2 14 1 13 1 14 
4 41 2 13 1 12 3644 1877 300 MP stroke
2 12 1 11 1 10 7 34 6 3 1 -3 4 -17 4 -31 
4 -40 3 -30 1 -17 2 -16 2 -33 2 -17 1 -16 1 -16 
2 -16 3 -28 1 -13 1 -13 2 -10 2 -19 5 -17 6 -3 
2 3 1 5 11 65 1 11 2 10 2 22 10 69 5 29 
3 12 2 4 4 11 1 2 5 5 5 -1 2 -1 4 -4 
2 -2 1 -2 3 -3 4 -5 5 -6 3 -3 2 -1 2 -2 
2 -1 4 -1 1 0 1 0 5 1 1 0 1 1 4 3 
2 1 1 2 3 2 3 3 5 4 1 1 6 1 1 -1 
6 -7 1 -3 1 -3 3 -9 1 -5 10 -52 3 -20 1 -11 
3 -22 4 -35 7 -58 1 -12 2 -11 5 -40 3 -17 7 -30 
4 -9 2 -3 2 0 4 4 3 5 1 4 1 4 2 5 
1 5 1 6 2 5 1 7 3 13 1 7 2 7 4 22 
2 14 2 8 2 14 9 42 1 6 5 25 2 5 4 16 
3 10 1 5 3 8 2 8 2 4 1 4 2 3 2 6 
10 17 1 1 6 6 1 1 1 1 2 1 1 1 7 6 
1 2 2 1 1 2 3 3 3 4 1 3 1 2 2 3 
1 2 4 9 3 6 3 6 6 10 2 1 4 0 1 -2 
3 -4 7 -27 4 -26 3 -22 1 -12 1 -12 2 -14 1 -14 
3 -29 1 -15 2 -15 5 -62 1 -15 2 -15 1 -14 1 -13 
2 -12 1 -12 2 -11 1 -10 1 -9 3 -14 3 -8 1 -3 
1 -1 2 0 1 1 2 3 1 4 1 6 2 6 1 8 
1 8 2 10 2 22 2 12 1 13 2 14 1 14 4 43 
1 15 7 70 4 38 4 32 4 25 6 22 1 4 9 7 
2 -3 3 -3 3 -4 7 -9 1 -1 1 -1 2 0 1 1 
4 6 3 8 4 18 3 17 2 21 2 11 1 13 3 26 
1 14 7 76 4 47 1 15 2 14 4 40 4 32 4 24 
7 15 1 0 2 -2 9 -37 2 -9 6 -49 3 -22 2 -11 
2 -22 2 -11 1 -11 1 -11 11 -79 2 -9 2 -18 2 -8 
1 -8 1 -8 2 -8 1 -8 2 -7 2 -15 7 -31 1 -6 
5 -14 1 -4 1 -4 2 -3 2 -6 2 -2 1 -1 3 -1 
5 3 2 2 8 19 4 12 3 10 1 4 1 5 5 13 
5 15 1 4 3 5 8 12 2 1 1 1 5 3 3 1 
6 3 1 1 3 3 7 10 5 13 4 11 1 3 13 32 
4 7 3 3 1 1 5 0 2 -1 1 -1 2 -2 5 -10 
3 -6 1 -4 7 -16 4 -8 7 -6 1 0 2 1 1 1 
8 16 1 4 2 5 3 10 2 11 2 6 1 5 1 6 
2 6 1 5 1 6 2 5 1 5 4 13 2 3 4 8 
5 2 3 -2 3 -5 2789 1723 300 MP stroke
1 -3 3 -8 4 -15 3 -11 2 -12 3 -13 4 -18 2 -6 
1 -6 1 -5 7 -21 1 -3 3 -3 2 -2 5 2 4 7 
1 3 3 8 3 8 5 20 4 15 6 17 3 6 6 7 
2 0 3 -3 4 -8 2 -8 2 -4 1 -5 6 -23 1 -6 
1 -6 2 -6 4 -17 1 -6 3 -10 1 -4 2 -4 1 -3 
1 -4 6 -6 1 -1 3 1 3 3 1 2 4 8 1 4 
6 16 5 18 2 5 1 4 1 4 2 4 3 7 2 6 
4 6 10 0 4 -7 1 -3 3 -7 8 -29 2 -5 4 -17 
1 -5 2 -6 1 -5 1 -5 10 -32 3 -6 4 -8 2 -3 
4 -3 2 -1 1 0 2 0 5 2 7 3 3 1 2 2 
3 1 1 0 3 0 1 0 2 0 3 0 2 0 6 -1 
2 0 2 1 1 0 2 1 1 1 4 4 3 4 4 8 
1 4 10 27 3 9 1 4 7 18 1 2 3 4 1 1 
6 -4 5 -17 1 -6 2 -7 1 -8 2 -9 2 -21 3 -24 
4 -41 6 -62 6 -81 2 -16 2 -30 2 -14 1 -14 3 -25 
7 -45 1 -6 6 -9 1 1 1 3 2 3 1 5 1 6 
5 26 1 10 1 12 2 12 1 13 5 57 3 30 4 45 
2 14 1 14 3 27 2 24 3 22 2 9 1 9 1 8 
4 19 2 5 5 12 2 1 1 0 5 -2 2 -2 1 -1 
1 -2 2 -2 1 -3 2 -2 1 -2 1 -2 2 -2 2 -4 
6 -5 1 0 2 -1 1 0 1 1 4 3 2 2 3 4 
1 2 3 6 1 3 1 4 3 7 3 8 1 4 3 8 
3 8 4 12 4 10 3 6 1 2 1 3 2 2 2 3 
2 1 1 0 3 0 1 0 3 -3 3 -4 1 -2 3 -7 
1 -3 1 -4 6 -20 1 -6 2 -6 5 -26 7 -36 3 -15 
1 -8 3 -15 5 -28 2 -7 1 -7 5 -24 3 -10 2 -4 
4 -11 2 -6 2 -2 4 -3 9 5 2 3 2 5 2 3 
3 7 5 16 1 4 6 17 1 4 2 4 1 5 1 3 
3 8 1 4 2 3 1 4 1 3 3 6 2 3 1 3 
1 3 2 3 2 5 2 2 1 3 3 4 5 8 3 3 
4 3 2 1 1 0 3 -1 1 0 1 -2 2 -2 4 -8 
1 -4 2 -5 6 -32 3 -16 3 -19 1 -10 2 -11 1 -11 
5 -45 3 -22 1 -11 2 -11 1 -11 3 -19 1 -9 2 -8 
1 -7 10 -24 5 10 4 19 1 8 2 9 1 11 3 22 
1 12 4 41 2 14 4 43 1 14 2 14 6 66 3 22 
2 11 1 9 1 9 2 8 1 7 1 6 2 5 1 5 
3 6 4 4 3 -1 2 -4 2 -3 13 -48 3 -12 10 -39 
2 -10 7 -23 12 -32 1964 2018 300 MP stroke
2 -3 1 -2 2 -3 1 -3 3 -5 1 -3 1 -2 3 -5 
6 -8 1 -2 1 -2 9 -9 4 -4 2 -2 4 -4 2 -1 
4 -5 3 -4 2 -5 3 -7 1 -3 2 -4 1 -4 2 -5 
1 -5 4 -17 3 -12 2 -14 2 -7 3 -14 1 -6 3 -14 
1 -6 5 -22 2 -3 5 -9 3 2 1 2 9 35 1 9 
1 11 2 11 1 13 1 13 2 14 11 131 4 52 1 16 
2 16 6 73 4 34 3 18 4 19 2 5 2 6 2 1 
2 0 9 -19 5 -25 1 -7 2 -8 3 -16 2 -16 3 -17 
3 -17 1 -8 2 -8 2 -16 2 -8 1 -7 3 -15 2 -13 
2 -6 1 -6 2 -6 2 -11 3 -9 4 -12 4 -10 2 -2 
1 -3 4 -4 3 -2 8 2 3 3 1 2 1 2 2 3 
1 3 1 3 5 10 1 3 7 19 4 10 1 3 2 2 
5 6 3 0 1 0 1 -2 2 -2 1 -2 2 -4 1 -3 
3 -10 5 -25 3 -16 5 -33 3 -17 1 -8 3 -15 2 -7 
2 -12 2 -5 1 -5 1 -3 2 -2 4 -2 3 5 1 4 
1 5 6 30 1 10 3 23 1 13 8 85 3 30 4 45 
2 14 2 26 4 36 2 10 1 10 1 8 2 8 1 7 
3 11 1 4 2 3 4 5 3 -1 1 -2 4 -8 1 -4 
2 -5 1 -5 3 -11 1 -6 8 -40 6 -27 3 -12 1 -6 
3 -10 1 -5 5 -13 2 -3 1 -1 3 -2 1 1 10 19 
4 17 1 6 3 14 7 36 3 14 2 12 3 10 1 4 
2 3 5 6 3 -3 1 -2 4 -13 2 -5 5 -29 2 -9 
2 -17 4 -26 3 -16 2 -7 2 -13 2 -6 1 -5 1 -4 
2 -3 4 -4 3 2 1 3 1 3 2 4 4 16 1 7 
3 14 1 8 2 8 1 7 1 8 2 8 2 15 2 7 
1 6 1 6 9 21 4 0 8 -18 1 -4 2 -6 1 -6 
4 -18 4 -20 2 -6 2 -13 3 -11 3 -11 5 -16 2 -4 
1 -3 3 -4 1 -2 1 -1 6 -3 1 0 2 1 1 0 
1 1 3 1 1 1 3 2 2 1 1 1 4 2 1 1 
2 0 1 1 1 0 2 0 1 0 2 0 2 -1 4 -2 
6 -6 1 -1 2 -2 1 -2 3 -4 2 -3 2 -2 1 -2 
6 -6 2 -1 2 -1 1 0 6 1 2 2 2 2 1 1 
5 9 3 5 3 6 3 5 1 2 1 3 2 2 2 3 
6 1 1 -1 3 -4 4 -9 7 -27 1 -7 3 -15 1 -8 
2 -8 2 -16 3 -16 3 -15 1 -7 2 -7 8 -29 3 -4 
2 0 4 5 2 4 4 14 5 27 2 7 1 8 4 25 
2 9 1 8 3 16 4 21 1 7 1 6 2 5 3 9 
2 7 8 9 7 -5 1168 1896 300 MP stroke
2 -2 2 -4 4 -7 6 -11 1 -2 4 -7 1149 1929 7 MP stroke
gr

c9
0 sg
4119 3979 mt 
(time step) s
 519 2016 mt  -90 rotate
(u) s
90 rotate
%%IncludeResource: font Times-Roman
/Times-Roman /ISOLatin1Encoding 192 FMSR

 639 1896 mt  -90 rotate
(x) s
90 rotate
%%IncludeResource: font Times-Roman
/Times-Roman /ISOLatin1Encoding 240 FMSR

1115 3596 mt 
( ) s
7941  384 mt 
( ) s
6 w
1 sg
0 592 1835 0 0 -592 6076 955 4 MP
PP
-1835 0 0 592 1835 0 0 -592 6076 955 5 MP stroke
4 w
DO
SO
6 w
0 sg
6076  955 mt 7911  955 L
6076  363 mt 7911  363 L
6076  955 mt 6076  363 L
7911  955 mt 7911  363 L
6076  955 mt 7911  955 L
6076  955 mt 6076  363 L
6076  955 mt 7911  955 L
6076  363 mt 7911  363 L
6076  955 mt 6076  363 L
7911  955 mt 7911  363 L
6527  602 mt 
(measurement) s
gs 6076 363 1836 593 rc
48 w
gr

48 w
gs 6148 349 341 341 rc
40 W
c8
6318 519 PD
gr

c8
gs 6076 363 1836 593 rc
gr

0 sg
6527  881 mt 
(regularization) s
gs 6076 363 1836 593 rc
c9
346 0 6145 798 2 MP stroke
6 w
gr

6 w
c9

end %%Color Dict

eplot
%%EndObject

epage
end

showpage

%%Trailer
%%EOF
