%!PS-Adobe-3.0 EPSF-3.0
%%Creator: MATLAB, The MathWorks, Inc. Version 8.1.0.604 (R2013a). Operating System: Darwin 12.5.0 Darwin Kernel Version 12.5.0: Sun Sep 29 13:33:47 PDT 2013; root:xnu-2050.48.12~1/RELEASE_X86_64 x86_64.
%%Title: /Users/bamdadhosseini/Work/Courses/apma990-machinelearning/MATLAB/wx_jun_jul_fit.eps
%%CreationDate: 01/12/2015  15:31:17
%%DocumentNeededFonts: Times-Roman
%%DocumentProcessColors: Cyan Magenta Yellow Black
%%LanguageLevel: 2
%%Pages: 1
%%BoundingBox:   -61   227   672   564
%%EndComments

%%BeginProlog
% MathWorks dictionary
/MathWorks 160 dict begin
% definition operators
/bdef {bind def} bind def
/ldef {load def} bind def
/xdef {exch def} bdef
/xstore {exch store} bdef
% operator abbreviations
/c  /clip ldef
/cc /concat ldef
/cp /closepath ldef
/gr /grestore ldef
/gs /gsave ldef
/mt /moveto ldef
/np /newpath ldef
/cm /currentmatrix ldef
/sm /setmatrix ldef
/rm /rmoveto ldef
/rl /rlineto ldef
/s {show newpath} bdef
/sc {setcmykcolor} bdef
/sr /setrgbcolor ldef
/sg /setgray ldef
/w /setlinewidth ldef
/j /setlinejoin ldef
/cap /setlinecap ldef
/rc {rectclip} bdef
/rf {rectfill} bdef
% page state control
/pgsv () def
/bpage {/pgsv save def} bdef
/epage {pgsv restore} bdef
/bplot /gsave ldef
/eplot {stroke grestore} bdef
% orientation switch
/portraitMode 0 def /landscapeMode 1 def /rotateMode 2 def
% coordinate system mappings
/dpi2point 0 def
% font control
/FontSize 0 def
/FMS {/FontSize xstore findfont [FontSize 0 0 FontSize neg 0 0]
  makefont setfont} bdef
/reencode {exch dup where {pop load} {pop StandardEncoding} ifelse
  exch dup 3 1 roll findfont dup length dict begin
  { 1 index /FID ne {def}{pop pop} ifelse } forall
  /Encoding exch def currentdict end definefont pop} bdef
/isroman {findfont /CharStrings get /Agrave known} bdef
/FMSR {3 1 roll 1 index dup isroman {reencode} {pop pop} ifelse
  exch FMS} bdef
/csm {1 dpi2point div -1 dpi2point div scale neg translate
 dup landscapeMode eq {pop -90 rotate}
  {rotateMode eq {90 rotate} if} ifelse} bdef
% line types: solid, dotted, dashed, dotdash
/SO { [] 0 setdash } bdef
/DO { [.5 dpi2point mul 4 dpi2point mul] 0 setdash } bdef
/DA { [6 dpi2point mul] 0 setdash } bdef
/DD { [.5 dpi2point mul 4 dpi2point mul 6 dpi2point mul 4
  dpi2point mul] 0 setdash } bdef
% macros for lines and objects
/L {lineto stroke} bdef
/MP {3 1 roll moveto 1 sub {rlineto} repeat} bdef
/AP {{rlineto} repeat} bdef
/PDlw -1 def
/W {/PDlw currentlinewidth def setlinewidth} def
/PP {closepath eofill} bdef
/DP {closepath stroke} bdef
/MR {4 -2 roll moveto dup  0 exch rlineto exch 0 rlineto
  neg 0 exch rlineto closepath} bdef
/FR {MR stroke} bdef
/PR {MR fill} bdef
/L1i {{currentfile picstr readhexstring pop} image} bdef
/tMatrix matrix def
/MakeOval {newpath tMatrix currentmatrix pop translate scale
0 0 1 0 360 arc tMatrix setmatrix} bdef
/FO {MakeOval stroke} bdef
/PO {MakeOval fill} bdef
/PD {currentlinewidth 2 div 0 360 arc fill
   PDlw -1 eq not {PDlw w /PDlw -1 def} if} def
/FA {newpath tMatrix currentmatrix pop translate scale
  0 0 1 5 -2 roll arc tMatrix setmatrix stroke} bdef
/PA {newpath tMatrix currentmatrix pop	translate 0 0 moveto scale
  0 0 1 5 -2 roll arc closepath tMatrix setmatrix fill} bdef
/FAn {newpath tMatrix currentmatrix pop translate scale
  0 0 1 5 -2 roll arcn tMatrix setmatrix stroke} bdef
/PAn {newpath tMatrix currentmatrix pop translate 0 0 moveto scale
  0 0 1 5 -2 roll arcn closepath tMatrix setmatrix fill} bdef
/vradius 0 def /hradius 0 def /lry 0 def
/lrx 0 def /uly 0 def /ulx 0 def /rad 0 def
/MRR {/vradius xdef /hradius xdef /lry xdef /lrx xdef /uly xdef
  /ulx xdef newpath tMatrix currentmatrix pop ulx hradius add uly
  vradius add translate hradius vradius scale 0 0 1 180 270 arc 
  tMatrix setmatrix lrx hradius sub uly vradius add translate
  hradius vradius scale 0 0 1 270 360 arc tMatrix setmatrix
  lrx hradius sub lry vradius sub translate hradius vradius scale
  0 0 1 0 90 arc tMatrix setmatrix ulx hradius add lry vradius sub
  translate hradius vradius scale 0 0 1 90 180 arc tMatrix setmatrix
  closepath} bdef
/FRR {MRR stroke } bdef
/PRR {MRR fill } bdef
/MlrRR {/lry xdef /lrx xdef /uly xdef /ulx xdef /rad lry uly sub 2 div def
  newpath tMatrix currentmatrix pop ulx rad add uly rad add translate
  rad rad scale 0 0 1 90 270 arc tMatrix setmatrix lrx rad sub lry rad
  sub translate rad rad scale 0 0 1 270 90 arc tMatrix setmatrix
  closepath} bdef
/FlrRR {MlrRR stroke } bdef
/PlrRR {MlrRR fill } bdef
/MtbRR {/lry xdef /lrx xdef /uly xdef /ulx xdef /rad lrx ulx sub 2 div def
  newpath tMatrix currentmatrix pop ulx rad add uly rad add translate
  rad rad scale 0 0 1 180 360 arc tMatrix setmatrix lrx rad sub lry rad
  sub translate rad rad scale 0 0 1 0 180 arc tMatrix setmatrix
  closepath} bdef
/FtbRR {MtbRR stroke } bdef
/PtbRR {MtbRR fill } bdef
/stri 6 array def /dtri 6 array def
/smat 6 array def /dmat 6 array def
/tmat1 6 array def /tmat2 6 array def /dif 3 array def
/asub {/ind2 exch def /ind1 exch def dup dup
  ind1 get exch ind2 get sub exch } bdef
/tri_to_matrix {
  2 0 asub 3 1 asub 4 0 asub 5 1 asub
  dup 0 get exch 1 get 7 -1 roll astore } bdef
/compute_transform {
  dmat dtri tri_to_matrix tmat1 invertmatrix 
  smat stri tri_to_matrix tmat2 concatmatrix } bdef
/ds {stri astore pop} bdef
/dt {dtri astore pop} bdef
/db {2 copy /cols xdef /rows xdef mul dup 3 mul string
  currentfile 
  3 index 0 eq {/ASCIIHexDecode filter}
  {/ASCII85Decode filter 3 index 2 eq {/RunLengthDecode filter} if }
  ifelse exch readstring pop
  dup 0 3 index getinterval /rbmap xdef
  dup 2 index dup getinterval /gbmap xdef
  1 index dup 2 mul exch getinterval /bbmap xdef pop pop}bdef
/it {gs np dtri aload pop moveto lineto lineto cp c
  cols rows 8 compute_transform 
  rbmap gbmap bbmap true 3 colorimage gr}bdef
/il {newpath moveto lineto stroke}bdef
currentdict end def
%%EndProlog

%%BeginSetup
MathWorks begin

0 cap

end
%%EndSetup

%%Page: 1 1
%%BeginPageSetup
%%PageBoundingBox:   -61   227   672   564
MathWorks begin
bpage
%%EndPageSetup

%%BeginObject: obj1
bplot

/dpi2point 12 def
portraitMode -0732 6768 csm

    0     0  8807  4033 rc
85 dict begin %Colortable dictionary
/c0 { 0.000000 0.000000 0.000000 sr} bdef
/c1 { 1.000000 1.000000 1.000000 sr} bdef
/c2 { 0.900000 0.000000 0.000000 sr} bdef
/c3 { 0.000000 0.820000 0.000000 sr} bdef
/c4 { 0.000000 0.000000 0.800000 sr} bdef
/c5 { 0.910000 0.820000 0.320000 sr} bdef
/c6 { 1.000000 0.260000 0.820000 sr} bdef
/c7 { 0.000000 0.820000 0.820000 sr} bdef
c0
1 j
1 sg
   0    0 8808 4034 rf
6 w
0 3115 6825 0 0 -3115 1145 3513 4 MP
PP
-6825 0 0 3115 6825 0 0 -3115 1145 3513 5 MP stroke
4 w
DO
SO
6 w
0 sg
1145 3513 mt 7970 3513 L
1145 3513 mt 1145  398 L
1145 3513 mt 1145 3444 L
%%IncludeResource: font Times-Roman
/Times-Roman /ISOLatin1Encoding 240 FMSR

1085 3762 mt 
(0) s
2510 3513 mt 2510 3444 L
2270 3762 mt 
(1000) s
3875 3513 mt 3875 3444 L
3635 3762 mt 
(2000) s
5240 3513 mt 5240 3444 L
5000 3762 mt 
(3000) s
6605 3513 mt 6605 3444 L
6365 3762 mt 
(4000) s
7970 3513 mt 7970 3444 L
7730 3762 mt 
(5000) s
1145 3513 mt 1213 3513 L
 735 3599 mt 
(-10) s
1145 2734 mt 1213 2734 L
 855 2820 mt 
(-5) s
1145 1956 mt 1213 1956 L
 990 2042 mt 
(0) s
1145 1177 mt 1213 1177 L
 990 1263 mt 
(5) s
1145  399 mt 1213  399 L
 870  485 mt 
(10) s
gs 1145 399 6826 3115 rc
48 w
gr

48 w
40 W
/c8 { 0.000000 0.000000 1.000000 sr} bdef
c8
1149 1955 PD
40 W
1153 1972 PD
40 W
1154 1979 PD
40 W
1160 2032 PD
40 W
1164 1955 PD
40 W
1166 1955 PD
40 W
1168 1955 PD
40 W
1175 1955 PD
40 W
1183 1955 PD
40 W
1185 1955 PD
40 W
1188 1955 PD
40 W
1190 1972 PD
40 W
1191 1955 PD
40 W
1192 1955 PD
40 W
1196 1955 PD
40 W
1199 1955 PD
40 W
1200 1955 PD
40 W
1202 1955 PD
40 W
1206 1955 PD
40 W
1207 1982 PD
40 W
1209 2028 PD
40 W
1214 2204 PD
40 W
1218 2228 PD
40 W
1220 2251 PD
40 W
1224 2342 PD
40 W
1226 2279 PD
40 W
1229 2127 PD
40 W
1237 2152 PD
40 W
1239 2252 PD
40 W
1240 2101 PD
40 W
1243 1968 PD
40 W
1246 1841 PD
40 W
1248 1819 PD
40 W
1250 1955 PD
40 W
1251 2200 PD
40 W
1254 1919 PD
40 W
1255 2055 PD
40 W
1262 1862 PD
40 W
1266 2044 PD
40 W
1269 1815 PD
40 W
1270 1853 PD
40 W
1276 1803 PD
40 W
1278 2049 PD
40 W
1280 1988 PD
40 W
1281 2026 PD
40 W
1282 1958 PD
40 W
1285 2194 PD
40 W
1288 1879 PD
40 W
1291 2067 PD
40 W
1296 1973 PD
40 W
1297 1959 PD
40 W
1299 2121 PD
40 W
1301 2081 PD
40 W
1307 1891 PD
40 W
1308 1898 PD
40 W
1310 2047 PD
40 W
1312 1976 PD
40 W
1318 1997 PD
40 W
1319 1972 PD
40 W
1321 1985 PD
40 W
1323 1955 PD
40 W
1326 2005 PD
40 W
1327 1946 PD
40 W
1329 1926 PD
40 W
1330 1955 PD
40 W
1336 1955 PD
40 W
1340 1971 PD
40 W
1342 1967 PD
40 W
1344 1963 PD
40 W
1345 1982 PD
40 W
1347 1967 PD
40 W
1348 1985 PD
40 W
1349 1990 PD
40 W
1351 1955 PD
40 W
1352 2054 PD
40 W
1356 1955 PD
40 W
1357 1955 PD
40 W
1359 1955 PD
40 W
1362 1955 PD
40 W
1363 1955 PD
40 W
1366 1955 PD
40 W
1367 1955 PD
40 W
1368 1964 PD
40 W
1370 1955 PD
40 W
1371 1955 PD
40 W
1377 1955 PD
40 W
1378 1955 PD
40 W
1379 1955 PD
40 W
1382 1955 PD
40 W
1383 1955 PD
40 W
1385 1963 PD
40 W
1390 1955 PD
40 W
1393 1966 PD
40 W
1396 2002 PD
40 W
1398 1945 PD
40 W
1400 1945 PD
40 W
1404 1902 PD
40 W
1408 1864 PD
40 W
1409 1880 PD
40 W
1411 1859 PD
40 W
1412 1868 PD
40 W
1420 1868 PD
40 W
1424 1848 PD
40 W
1433 1672 PD
40 W
1434 1680 PD
40 W
1435 1734 PD
40 W
1437 1780 PD
40 W
1439 1805 PD
40 W
1441 1738 PD
40 W
1442 1605 PD
40 W
1443 2152 PD
40 W
1445 1973 PD
40 W
1446 1710 PD
40 W
1449 2049 PD
40 W
1450 2205 PD
40 W
1454 2087 PD
40 W
1456 2188 PD
40 W
1457 2073 PD
40 W
1458 1945 PD
40 W
1461 2060 PD
40 W
1465 1972 PD
40 W
1467 2055 PD
40 W
1468 2109 PD
40 W
1469 1996 PD
40 W
1471 1742 PD
40 W
1473 1808 PD
40 W
1475 1957 PD
40 W
1478 2057 PD
40 W
1482 1786 PD
40 W
1484 2078 PD
40 W
1486 2102 PD
40 W
1491 1593 PD
40 W
1493 1600 PD
40 W
1497 1476 PD
40 W
1498 1946 PD
40 W
1501 1674 PD
40 W
1506 1696 PD
40 W
1508 1670 PD
40 W
1509 1729 PD
40 W
1512 1755 PD
40 W
1514 2057 PD
40 W
1517 1883 PD
40 W
1524 2010 PD
40 W
1527 2162 PD
40 W
1528 2260 PD
40 W
1532 1972 PD
40 W
1542 1784 PD
40 W
1543 1795 PD
40 W
1546 1955 PD
40 W
1547 1926 PD
40 W
1549 1955 PD
40 W
1554 1827 PD
40 W
1555 1865 PD
40 W
1558 1918 PD
40 W
1559 1948 PD
40 W
1562 1906 PD
40 W
1568 1862 PD
40 W
1576 1798 PD
40 W
1577 1809 PD
40 W
1580 1852 PD
40 W
1581 1904 PD
40 W
1583 1936 PD
40 W
1584 1951 PD
40 W
1588 1810 PD
40 W
1589 1761 PD
40 W
1592 1862 PD
40 W
1596 1735 PD
40 W
1598 1764 PD
40 W
1599 1757 PD
40 W
1602 1749 PD
40 W
1603 1771 PD
40 W
1605 1725 PD
40 W
1606 1708 PD
40 W
1607 1787 PD
40 W
1609 1787 PD
40 W
1613 1695 PD
40 W
1615 2074 PD
40 W
1617 2044 PD
40 W
1621 2184 PD
40 W
1624 1928 PD
40 W
1632 1519 PD
40 W
1633 1965 PD
40 W
1636 2401 PD
40 W
1637 2606 PD
40 W
1643 2322 PD
40 W
1644 2304 PD
40 W
1645 2230 PD
40 W
1648 2018 PD
40 W
1652 1974 PD
40 W
1654 2071 PD
40 W
1655 2448 PD
40 W
1656 2321 PD
40 W
1658 2359 PD
40 W
1660 2243 PD
40 W
1662 2173 PD
40 W
1665 1906 PD
40 W
1666 1930 PD
40 W
1669 2144 PD
40 W
1674 1993 PD
40 W
1677 2085 PD
40 W
1682 2101 PD
40 W
1685 1943 PD
40 W
1686 1924 PD
40 W
1688 1940 PD
40 W
1689 1902 PD
40 W
1691 1912 PD
40 W
1692 1955 PD
40 W
1693 1982 PD
40 W
1696 2054 PD
40 W
1701 2203 PD
40 W
1703 2102 PD
40 W
1704 2107 PD
40 W
1708 2122 PD
40 W
1715 2031 PD
40 W
1716 2062 PD
40 W
1721 2265 PD
40 W
1722 2043 PD
40 W
1723 1957 PD
40 W
1725 1905 PD
40 W
1726 1986 PD
40 W
1727 2043 PD
40 W
1730 2107 PD
40 W
1738 2069 PD
40 W
1741 2156 PD
40 W
1745 2091 PD
40 W
1746 2050 PD
40 W
1748 2184 PD
40 W
1752 2086 PD
40 W
1756 2107 PD
40 W
1759 2007 PD
40 W
1761 2055 PD
40 W
1763 2033 PD
40 W
1764 1850 PD
40 W
1766 1865 PD
40 W
1768 2070 PD
40 W
1771 1944 PD
40 W
1772 2033 PD
40 W
1774 1971 PD
40 W
1776 1955 PD
40 W
1778 1948 PD
40 W
1779 1960 PD
40 W
1782 1955 PD
40 W
1785 1932 PD
40 W
1787 1923 PD
40 W
1790 1922 PD
40 W
1792 1861 PD
40 W
1793 1808 PD
40 W
1798 1776 PD
40 W
1807 1896 PD
40 W
1809 1859 PD
40 W
1811 1804 PD
40 W
1813 1728 PD
40 W
1815 1772 PD
40 W
1819 1791 PD
40 W
1822 1688 PD
40 W
1826 1837 PD
40 W
1832 2071 PD
40 W
1834 1936 PD
40 W
1835 1931 PD
40 W
1839 2068 PD
40 W
1850 2027 PD
40 W
1852 2280 PD
40 W
1853 2323 PD
40 W
1854 2263 PD
40 W
1856 2190 PD
40 W
1857 2396 PD
40 W
1858 1997 PD
40 W
1867 2522 PD
40 W
1868 2455 PD
40 W
1871 2546 PD
40 W
1876 2286 PD
40 W
1878 2259 PD
40 W
1883 2295 PD
40 W
1884 2197 PD
40 W
1887 2148 PD
40 W
1888 2248 PD
40 W
1891 2044 PD
40 W
1893 2015 PD
40 W
1895 2084 PD
40 W
1898 2151 PD
40 W
1902 2146 PD
40 W
1903 2160 PD
40 W
1905 2194 PD
40 W
1906 2177 PD
40 W
1908 2141 PD
40 W
1909 2315 PD
40 W
1912 2194 PD
40 W
1914 2011 PD
40 W
1917 2167 PD
40 W
1921 2166 PD
40 W
1923 2143 PD
40 W
1927 2213 PD
40 W
1929 2130 PD
40 W
1933 2089 PD
40 W
1942 2085 PD
40 W
1943 2112 PD
40 W
1944 2078 PD
40 W
1950 2101 PD
40 W
1953 2039 PD
40 W
1954 2053 PD
40 W
1955 2055 PD
40 W
1958 2071 PD
40 W
1959 2057 PD
40 W
1961 2134 PD
40 W
1962 2093 PD
40 W
1964 2075 PD
40 W
1976 2033 PD
40 W
1983 1955 PD
40 W
1985 2011 PD
40 W
1995 2099 PD
40 W
1998 2019 PD
40 W
2011 1793 PD
40 W
2013 1769 PD
40 W
2015 1911 PD
40 W
2018 1878 PD
40 W
2022 2374 PD
40 W
2025 1973 PD
40 W
2026 2065 PD
40 W
2028 1293 PD
40 W
2029 1366 PD
40 W
2030 2092 PD
40 W
2032 1969 PD
40 W
2033 1855 PD
40 W
2034 2366 PD
40 W
2036 2022 PD
40 W
2039 2049 PD
40 W
2045 2076 PD
40 W
2047 1992 PD
40 W
2048 1930 PD
40 W
2052 1840 PD
40 W
2054 1873 PD
40 W
2058 2092 PD
40 W
2059 2504 PD
40 W
2062 2347 PD
40 W
2063 2446 PD
40 W
2065 2230 PD
40 W
2066 2374 PD
40 W
2070 2494 PD
40 W
2075 2016 PD
40 W
2085 2363 PD
40 W
2086 2355 PD
40 W
2088 2268 PD
40 W
2089 2170 PD
40 W
2092 2291 PD
40 W
2093 2145 PD
40 W
2095 2123 PD
40 W
2096 2093 PD
40 W
2099 2209 PD
40 W
2104 2011 PD
40 W
2105 2070 PD
40 W
2107 2116 PD
40 W
2108 2079 PD
40 W
2111 2058 PD
40 W
2114 1971 PD
40 W
2120 1862 PD
40 W
2122 1915 PD
40 W
2123 1936 PD
40 W
2127 1955 PD
40 W
2129 1941 PD
40 W
2130 1976 PD
40 W
2131 2078 PD
40 W
2134 2032 PD
40 W
2135 2014 PD
40 W
2137 2032 PD
40 W
2141 2012 PD
40 W
2144 1991 PD
40 W
2149 2027 PD
40 W
2152 2086 PD
40 W
2153 2119 PD
40 W
2155 2058 PD
40 W
2157 1981 PD
40 W
2159 2004 PD
40 W
2160 2062 PD
40 W
2161 2028 PD
40 W
2163 1975 PD
40 W
2166 1995 PD
40 W
2167 1988 PD
40 W
2168 2062 PD
40 W
2170 1962 PD
40 W
2171 1936 PD
40 W
2174 1971 PD
40 W
2175 1955 PD
40 W
2176 2043 PD
40 W
2178 1955 PD
40 W
2179 2063 PD
40 W
2185 2107 PD
40 W
2186 2097 PD
40 W
2191 2337 PD
40 W
2194 2241 PD
40 W
2196 2165 PD
40 W
2198 2109 PD
40 W
2200 2112 PD
40 W
2209 2150 PD
40 W
2213 2041 PD
40 W
2215 2049 PD
40 W
2217 2093 PD
40 W
2221 2152 PD
40 W
2223 2137 PD
40 W
2226 2143 PD
40 W
2231 2003 PD
40 W
2232 2036 PD
40 W
2234 2049 PD
40 W
2239 2031 PD
40 W
2242 2001 PD
40 W
2243 2028 PD
40 W
2246 2086 PD
40 W
2253 1982 PD
40 W
2258 1903 PD
40 W
2260 1838 PD
40 W
2261 1819 PD
40 W
2267 1843 PD
40 W
2268 1893 PD
40 W
2269 1963 PD
40 W
2272 1957 PD
40 W
2273 2033 PD
40 W
2276 1838 PD
40 W
2279 1794 PD
40 W
2280 1801 PD
40 W
2283 1772 PD
40 W
2284 1851 PD
40 W
2286 1857 PD
40 W
2288 1851 PD
40 W
2290 1909 PD
40 W
2291 1872 PD
40 W
2292 1881 PD
40 W
2295 1888 PD
40 W
2299 1926 PD
40 W
2303 1924 PD
40 W
2306 1939 PD
40 W
2309 1955 PD
40 W
2310 1955 PD
40 W
2313 1932 PD
40 W
2316 1941 PD
40 W
2317 1955 PD
40 W
2318 1937 PD
40 W
2321 1948 PD
40 W
2322 1955 PD
40 W
2325 1955 PD
40 W
2327 1955 PD
40 W
2331 1955 PD
40 W
2332 1955 PD
40 W
2333 1955 PD
40 W
2335 1955 PD
40 W
2336 1977 PD
40 W
2342 1969 PD
40 W
2344 1955 PD
40 W
2346 1991 PD
40 W
2347 1955 PD
40 W
2348 1955 PD
40 W
2350 1955 PD
40 W
2351 1955 PD
40 W
2353 1955 PD
40 W
2354 1976 PD
40 W
2355 1955 PD
40 W
2357 1955 PD
40 W
2362 1955 PD
40 W
2363 1955 PD
40 W
2365 1955 PD
40 W
2370 1974 PD
40 W
2372 1971 PD
40 W
2376 2028 PD
40 W
2377 1979 PD
40 W
2378 1955 PD
40 W
2380 1955 PD
40 W
2383 1955 PD
40 W
2385 1955 PD
40 W
2388 1955 PD
40 W
2389 1996 PD
40 W
2391 1955 PD
40 W
2395 2065 PD
40 W
2398 2121 PD
40 W
2403 2262 PD
40 W
2404 2278 PD
40 W
2406 2322 PD
40 W
2407 2413 PD
40 W
2408 2359 PD
40 W
2413 2429 PD
40 W
2414 2562 PD
40 W
2415 2387 PD
40 W
2417 2315 PD
40 W
2418 2296 PD
40 W
2419 2348 PD
40 W
2425 2322 PD
40 W
2426 2293 PD
40 W
2433 2202 PD
40 W
2436 2185 PD
40 W
2437 2269 PD
40 W
2439 2265 PD
40 W
2441 2173 PD
40 W
2443 2047 PD
40 W
2449 2021 PD
40 W
2455 2152 PD
40 W
2459 2064 PD
40 W
2462 1830 PD
40 W
2464 1802 PD
40 W
2466 1976 PD
40 W
2467 1989 PD
40 W
2469 2055 PD
40 W
2470 1962 PD
40 W
2475 1643 PD
40 W
2481 1765 PD
40 W
2482 1712 PD
40 W
2485 1869 PD
40 W
2486 1846 PD
40 W
2493 1961 PD
40 W
2494 1955 PD
40 W
2497 2272 PD
40 W
2507 1969 PD
40 W
2508 1955 PD
40 W
2512 1958 PD
40 W
2515 1963 PD
40 W
2519 1955 PD
40 W
2520 1967 PD
40 W
2522 1951 PD
40 W
2523 1952 PD
40 W
2525 1957 PD
40 W
2527 1955 PD
40 W
2533 2009 PD
40 W
2535 1955 PD
40 W
2538 1977 PD
40 W
2540 1955 PD
40 W
2541 1955 PD
40 W
2544 2008 PD
40 W
2545 1979 PD
40 W
2548 1955 PD
40 W
2550 1955 PD
40 W
2553 1983 PD
40 W
2560 1986 PD
40 W
2565 1971 PD
40 W
2567 1955 PD
40 W
2568 1955 PD
40 W
2570 1955 PD
40 W
2574 1955 PD
40 W
2576 1955 PD
40 W
2580 2191 PD
40 W
2583 1981 PD
40 W
2593 1923 PD
40 W
2594 1928 PD
40 W
2595 1926 PD
40 W
2597 1936 PD
40 W
2598 1903 PD
40 W
2602 1955 PD
40 W
2604 1929 PD
40 W
2612 1781 PD
40 W
2615 1638 PD
40 W
2616 1772 PD
40 W
2620 1777 PD
40 W
2630 1939 PD
40 W
2634 1793 PD
40 W
2636 2028 PD
40 W
2639 1965 PD
40 W
2641 1882 PD
40 W
2642 1827 PD
40 W
2643 1855 PD
40 W
2645 1901 PD
40 W
2650 2000 PD
40 W
2656 1855 PD
40 W
2657 1835 PD
40 W
2661 1842 PD
40 W
2662 1656 PD
40 W
2665 1396 PD
40 W
2668 2043 PD
40 W
2669 2006 PD
40 W
2675 1842 PD
40 W
2676 2069 PD
40 W
2677 2301 PD
40 W
2679 2511 PD
40 W
2680 1960 PD
40 W
2683 2028 PD
40 W
2684 2255 PD
40 W
2688 1660 PD
40 W
2690 1655 PD
40 W
2691 1589 PD
40 W
2692 1752 PD
40 W
2698 1728 PD
40 W
2699 1657 PD
40 W
2701 1660 PD
40 W
2703 1706 PD
40 W
2707 1942 PD
40 W
2710 1849 PD
40 W
2712 1888 PD
40 W
2718 1835 PD
40 W
2721 1839 PD
40 W
2727 1764 PD
40 W
2731 1811 PD
40 W
2736 1946 PD
40 W
2739 1858 PD
40 W
2742 1857 PD
40 W
2743 1898 PD
40 W
2747 2005 PD
40 W
2752 1928 PD
40 W
2754 1893 PD
40 W
2757 1832 PD
40 W
2758 1877 PD
40 W
2765 1886 PD
40 W
2766 1905 PD
40 W
2767 1917 PD
40 W
2769 1955 PD
40 W
2773 1923 PD
40 W
2776 1771 PD
40 W
2778 1682 PD
40 W
2781 1708 PD
40 W
2785 1742 PD
40 W
2788 1689 PD
40 W
2789 1780 PD
40 W
2792 1772 PD
40 W
2795 1842 PD
40 W
2800 1836 PD
40 W
2804 1718 PD
40 W
2806 1686 PD
40 W
2810 1801 PD
40 W
2811 1784 PD
40 W
2813 1865 PD
40 W
2814 1917 PD
40 W
2815 1783 PD
40 W
2817 1614 PD
40 W
2818 1666 PD
40 W
2819 1799 PD
40 W
2821 1878 PD
40 W
2823 1894 PD
40 W
2826 1964 PD
40 W
2828 1956 PD
40 W
2829 1733 PD
40 W
2837 2178 PD
40 W
2838 1991 PD
40 W
2840 1861 PD
40 W
2841 1749 PD
40 W
2848 1770 PD
40 W
2852 2005 PD
40 W
2859 2221 PD
40 W
2860 2058 PD
40 W
2863 1014 PD
40 W
2868 2056 PD
40 W
2870 1640 PD
40 W
2871 1789 PD
40 W
2873 1902 PD
40 W
2878 1761 PD
40 W
2879 1761 PD
40 W
2882 1868 PD
40 W
2886 1921 PD
40 W
2899 1925 PD
40 W
2900 1907 PD
40 W
2904 1651 PD
40 W
2909 1984 PD
40 W
2916 2094 PD
40 W
2919 2102 PD
40 W
2920 1853 PD
40 W
2926 1914 PD
40 W
2929 1859 PD
40 W
2934 1822 PD
40 W
2935 1792 PD
40 W
2937 1874 PD
40 W
2945 2013 PD
40 W
2948 1979 PD
40 W
2949 1955 PD
40 W
2954 1955 PD
40 W
2959 1955 PD
40 W
2960 1955 PD
40 W
2961 1955 PD
40 W
2964 1955 PD
40 W
2968 1955 PD
40 W
2976 1975 PD
40 W
2978 1974 PD
40 W
2983 2038 PD
40 W
2986 2163 PD
40 W
2987 2133 PD
40 W
2989 2157 PD
40 W
2991 2083 PD
40 W
2993 2037 PD
40 W
2994 1901 PD
40 W
2995 1946 PD
40 W
3000 2119 PD
40 W
3001 2083 PD
40 W
3008 2035 PD
40 W
3010 1876 PD
40 W
3012 1861 PD
40 W
3013 1813 PD
40 W
3015 1842 PD
40 W
3016 1801 PD
40 W
3017 1814 PD
40 W
3019 1847 PD
40 W
3021 1811 PD
40 W
3023 1765 PD
40 W
3034 1783 PD
40 W
3035 1736 PD
40 W
3036 1720 PD
40 W
3038 1744 PD
40 W
3040 2015 PD
40 W
3042 2070 PD
40 W
3045 1851 PD
40 W
3051 2003 PD
40 W
3053 1582 PD
40 W
3062 1256 PD
40 W
3064 1312 PD
40 W
3065 1386 PD
40 W
3072 1422 PD
40 W
3076 1423 PD
40 W
3080 1697 PD
40 W
3084 1749 PD
40 W
3086 1737 PD
40 W
3087 1786 PD
40 W
3091 1867 PD
40 W
3098 1983 PD
40 W
3099 2059 PD
40 W
3102 2031 PD
40 W
3103 1955 PD
40 W
3105 1955 PD
40 W
3107 1974 PD
40 W
3110 1955 PD
40 W
3114 1955 PD
40 W
3117 1987 PD
40 W
3121 1955 PD
40 W
3122 1966 PD
40 W
3124 1970 PD
40 W
3125 1955 PD
40 W
3126 1955 PD
40 W
3133 1989 PD
40 W
3136 1955 PD
40 W
3139 2020 PD
40 W
3141 1994 PD
40 W
3150 2050 PD
40 W
3151 1989 PD
40 W
3157 2006 PD
40 W
3161 1968 PD
40 W
3165 1955 PD
40 W
3169 2051 PD
40 W
3176 2284 PD
40 W
3177 2216 PD
40 W
3181 2294 PD
40 W
3182 2130 PD
40 W
3184 2218 PD
40 W
3185 2221 PD
40 W
3187 2194 PD
40 W
3189 2298 PD
40 W
3191 2302 PD
40 W
3192 2343 PD
40 W
3193 2255 PD
40 W
3195 2371 PD
40 W
3196 2389 PD
40 W
3197 2310 PD
40 W
3199 2332 PD
40 W
3200 2377 PD
40 W
3202 2366 PD
40 W
3203 2457 PD
40 W
3204 2452 PD
40 W
3207 2455 PD
40 W
3210 2461 PD
40 W
3211 2375 PD
40 W
3212 2352 PD
40 W
3214 2302 PD
40 W
3215 2319 PD
40 W
3217 2247 PD
40 W
3218 2304 PD
40 W
3219 2336 PD
40 W
3221 2382 PD
40 W
3222 2424 PD
40 W
3227 1756 PD
40 W
3229 1755 PD
40 W
3230 2108 PD
40 W
3233 2140 PD
40 W
3234 2155 PD
40 W
3236 2103 PD
40 W
3237 1925 PD
40 W
3238 2023 PD
40 W
3241 1871 PD
40 W
3245 1915 PD
40 W
3252 1886 PD
40 W
3255 1957 PD
40 W
3256 2064 PD
40 W
3260 2088 PD
40 W
3262 2032 PD
40 W
3268 1983 PD
40 W
3271 1986 PD
40 W
3274 2061 PD
40 W
3278 2073 PD
40 W
3279 2008 PD
40 W
3281 2020 PD
40 W
3282 2038 PD
40 W
3283 1990 PD
40 W
3286 1902 PD
40 W
3289 1955 PD
40 W
3290 1955 PD
40 W
3292 1970 PD
40 W
3293 2015 PD
40 W
3300 2096 PD
40 W
3301 2048 PD
40 W
3303 2037 PD
40 W
3304 2049 PD
40 W
3305 1991 PD
40 W
3311 1986 PD
40 W
3312 2063 PD
40 W
3322 2017 PD
40 W
3324 2053 PD
40 W
3326 2080 PD
40 W
3327 2029 PD
40 W
3329 1985 PD
40 W
3331 2097 PD
40 W
3334 2154 PD
40 W
3335 2154 PD
40 W
3338 2110 PD
40 W
3342 2078 PD
40 W
3344 2157 PD
40 W
3349 2166 PD
40 W
3350 2185 PD
40 W
3359 2074 PD
40 W
3361 2077 PD
40 W
3363 2217 PD
40 W
3365 2300 PD
40 W
3369 2411 PD
40 W
3371 2339 PD
40 W
3372 2266 PD
40 W
3375 2161 PD
40 W
3376 2108 PD
40 W
3378 2330 PD
40 W
3379 2432 PD
40 W
3380 2266 PD
40 W
3382 2269 PD
40 W
3383 2279 PD
40 W
3384 2264 PD
40 W
3387 2272 PD
40 W
3391 2360 PD
40 W
3393 2305 PD
40 W
3395 2364 PD
40 W
3399 2425 PD
40 W
3406 2325 PD
40 W
3409 2525 PD
40 W
3414 2326 PD
40 W
3416 2180 PD
40 W
3417 2068 PD
40 W
3424 2069 PD
40 W
3428 2106 PD
40 W
3431 2139 PD
40 W
3432 2020 PD
40 W
3435 2019 PD
40 W
3445 1826 PD
40 W
3446 1973 PD
40 W
3449 1916 PD
40 W
3450 2032 PD
40 W
3451 2021 PD
40 W
3457 1985 PD
40 W
3458 1900 PD
40 W
3464 2092 PD
40 W
3465 1999 PD
40 W
3470 2035 PD
40 W
3473 2104 PD
40 W
3476 2016 PD
40 W
3477 2022 PD
40 W
3479 1939 PD
40 W
3483 1967 PD
40 W
3484 1921 PD
40 W
3485 1955 PD
40 W
3490 1910 PD
40 W
3491 1994 PD
40 W
3492 2108 PD
40 W
3496 1971 PD
40 W
3498 2057 PD
40 W
3500 1955 PD
40 W
3502 1955 PD
40 W
3505 1955 PD
40 W
3510 1955 PD
40 W
3514 1955 PD
40 W
3517 1955 PD
40 W
3518 2002 PD
40 W
3520 1990 PD
40 W
3524 1981 PD
40 W
3526 1988 PD
40 W
3531 1955 PD
40 W
3536 2026 PD
40 W
3537 2089 PD
40 W
3541 1985 PD
40 W
3543 1980 PD
40 W
3546 1955 PD
40 W
3551 1983 PD
40 W
3561 1955 PD
40 W
3563 2016 PD
40 W
3565 2014 PD
40 W
3566 1958 PD
40 W
3577 2233 PD
40 W
3578 2364 PD
40 W
3580 2281 PD
40 W
3586 2321 PD
40 W
3591 2201 PD
40 W
3593 2355 PD
40 W
3595 2273 PD
40 W
3596 2332 PD
40 W
3597 2200 PD
40 W
3600 2250 PD
40 W
3602 2275 PD
40 W
3603 2105 PD
40 W
3604 1901 PD
40 W
3606 2041 PD
40 W
3608 1907 PD
40 W
3610 1894 PD
40 W
3611 1827 PD
40 W
3614 1898 PD
40 W
3618 1822 PD
40 W
3622 1717 PD
40 W
3626 1833 PD
40 W
3627 1867 PD
40 W
3633 1695 PD
40 W
3640 1702 PD
40 W
3641 1252 PD
40 W
3642 2061 PD
40 W
3644 2070 PD
40 W
3645 2035 PD
40 W
3647 1958 PD
40 W
3651 2504 PD
40 W
3652 2541 PD
40 W
3653 2017 PD
40 W
3655 1488 PD
40 W
3656 1807 PD
40 W
3657 2010 PD
40 W
3660 1930 PD
40 W
3663 2594 PD
40 W
3664 2491 PD
40 W
3666 2259 PD
40 W
3667 2105 PD
40 W
3668 2127 PD
40 W
3671 2023 PD
40 W
3677 2019 PD
40 W
3678 2015 PD
40 W
3679 2107 PD
40 W
3683 2255 PD
40 W
3685 2266 PD
40 W
3689 2093 PD
40 W
3693 2053 PD
40 W
3696 2056 PD
40 W
3697 1981 PD
40 W
3701 2112 PD
40 W
3707 2130 PD
40 W
3708 2184 PD
40 W
3709 2100 PD
40 W
3712 2088 PD
40 W
3713 2101 PD
40 W
3718 2185 PD
40 W
3719 2171 PD
40 W
3720 2178 PD
40 W
3723 2217 PD
40 W
3724 2207 PD
40 W
3727 2175 PD
40 W
3731 2163 PD
40 W
3733 2137 PD
40 W
3739 2129 PD
40 W
3742 2265 PD
40 W
3743 2193 PD
40 W
3745 2179 PD
40 W
3752 2282 PD
40 W
3760 2353 PD
40 W
3761 2408 PD
40 W
3772 2312 PD
40 W
3775 2389 PD
40 W
3776 2370 PD
40 W
3779 2379 PD
40 W
3780 2209 PD
40 W
3783 2172 PD
40 W
3784 2361 PD
40 W
3786 2372 PD
40 W
3787 2235 PD
40 W
3789 2212 PD
40 W
3791 2198 PD
40 W
3793 2163 PD
40 W
3794 2047 PD
40 W
3795 2080 PD
40 W
3798 1984 PD
40 W
3805 1848 PD
40 W
3806 1797 PD
40 W
3809 1824 PD
40 W
3814 1829 PD
40 W
3817 1952 PD
40 W
3819 2094 PD
40 W
3820 2499 PD
40 W
3827 2132 PD
40 W
3829 1651 PD
40 W
3838 1620 PD
40 W
3839 1861 PD
40 W
3842 2157 PD
40 W
3843 2117 PD
40 W
3844 2089 PD
40 W
3846 2098 PD
40 W
3851 1998 PD
40 W
3858 1958 PD
40 W
3861 1901 PD
40 W
3866 1692 PD
40 W
3869 1631 PD
40 W
3870 2161 PD
40 W
3875 1877 PD
40 W
3879 1955 PD
40 W
3880 1944 PD
40 W
3881 1958 PD
40 W
3883 2035 PD
40 W
3884 1952 PD
40 W
3887 1965 PD
40 W
3890 1985 PD
40 W
3892 2027 PD
40 W
3896 1892 PD
40 W
3898 1845 PD
40 W
3899 1883 PD
40 W
3900 1919 PD
40 W
3902 1924 PD
40 W
3903 1943 PD
40 W
3909 1887 PD
40 W
3911 1941 PD
40 W
3915 1956 PD
40 W
3924 1777 PD
40 W
3925 1796 PD
40 W
3926 1786 PD
40 W
3930 1721 PD
40 W
3932 1700 PD
40 W
3937 1715 PD
40 W
3941 1745 PD
40 W
3943 1690 PD
40 W
3944 1738 PD
40 W
3948 1707 PD
40 W
3952 1602 PD
40 W
3954 1552 PD
40 W
3960 1503 PD
40 W
3962 1551 PD
40 W
3967 1738 PD
40 W
3973 1695 PD
40 W
3977 2033 PD
40 W
3981 2267 PD
40 W
3984 1720 PD
40 W
3986 2001 PD
40 W
3988 1988 PD
40 W
3991 1946 PD
40 W
3992 1955 PD
40 W
3993 2067 PD
40 W
3995 1651 PD
40 W
3999 2081 PD
40 W
4000 2514 PD
40 W
4003 2398 PD
40 W
4010 1527 PD
40 W
4018 1312 PD
40 W
4022 2032 PD
40 W
4023 1371 PD
40 W
4026 1317 PD
40 W
4033 2143 PD
40 W
4034 1962 PD
40 W
4044 2146 PD
40 W
4048 1615 PD
40 W
4052 1719 PD
40 W
4055 2141 PD
40 W
4056 2058 PD
40 W
4057 1639 PD
40 W
4059 2073 PD
40 W
4060 2094 PD
40 W
4063 1965 PD
40 W
4064 1593 PD
40 W
4066 1995 PD
40 W
4068 1908 PD
40 W
4074 2041 PD
40 W
4078 1976 PD
40 W
4079 1968 PD
40 W
4081 1868 PD
40 W
4083 2193 PD
40 W
4089 1850 PD
40 W
4090 1637 PD
40 W
4093 1391 PD
40 W
4094 1339 PD
40 W
4096 1602 PD
40 W
4097 1833 PD
40 W
4104 1788 PD
40 W
4105 1721 PD
40 W
4107 1821 PD
40 W
4111 1826 PD
40 W
4112 1791 PD
40 W
4113 1817 PD
40 W
4117 1876 PD
40 W
4119 1904 PD
40 W
4120 1871 PD
40 W
4123 1793 PD
40 W
4126 1876 PD
40 W
4134 1939 PD
40 W
4137 1863 PD
40 W
4138 1885 PD
40 W
4139 1852 PD
40 W
4142 1906 PD
40 W
4149 1992 PD
40 W
4154 1872 PD
40 W
4160 1846 PD
40 W
4161 1840 PD
40 W
4163 1957 PD
40 W
4168 1989 PD
40 W
4173 2121 PD
40 W
4175 2158 PD
40 W
4180 2019 PD
40 W
4182 2027 PD
40 W
4186 2201 PD
40 W
4187 2128 PD
40 W
4188 1961 PD
40 W
4195 2072 PD
40 W
4199 1784 PD
40 W
4201 1774 PD
40 W
4202 1753 PD
40 W
4203 1791 PD
40 W
4210 2122 PD
40 W
4213 1814 PD
40 W
4214 1794 PD
40 W
4216 1994 PD
40 W
4217 2057 PD
40 W
4220 2225 PD
40 W
4225 2023 PD
40 W
4231 1621 PD
40 W
4233 1811 PD
40 W
4235 1824 PD
40 W
4238 1800 PD
40 W
4239 1765 PD
40 W
4240 1751 PD
40 W
4243 1803 PD
40 W
4244 1824 PD
40 W
4253 1982 PD
40 W
4255 1845 PD
40 W
4258 1795 PD
40 W
4261 1737 PD
40 W
4265 1776 PD
40 W
4266 1769 PD
40 W
4268 1804 PD
40 W
4272 1766 PD
40 W
4276 1800 PD
40 W
4277 1858 PD
40 W
4279 1925 PD
40 W
4281 1896 PD
40 W
4283 1955 PD
40 W
4284 1955 PD
40 W
4285 1955 PD
40 W
4294 1857 PD
40 W
4296 1840 PD
40 W
4298 1846 PD
40 W
4299 1811 PD
40 W
4303 1731 PD
40 W
4304 1745 PD
40 W
4307 1728 PD
40 W
4311 1789 PD
40 W
4313 1880 PD
40 W
4318 1955 PD
40 W
4321 1935 PD
40 W
4325 1926 PD
40 W
4326 1945 PD
40 W
4329 1955 PD
40 W
4330 1937 PD
40 W
4333 1899 PD
40 W
4341 1886 PD
40 W
4344 1852 PD
40 W
4351 1892 PD
40 W
4358 1843 PD
40 W
4359 1787 PD
40 W
4360 1781 PD
40 W
4362 1725 PD
40 W
4363 1740 PD
40 W
4365 1774 PD
40 W
4367 1766 PD
40 W
4369 1805 PD
40 W
4370 1877 PD
40 W
4371 1893 PD
40 W
4373 1880 PD
40 W
4375 1848 PD
40 W
4377 1879 PD
40 W
4378 1885 PD
40 W
4380 1865 PD
40 W
4384 1850 PD
40 W
4386 1789 PD
40 W
4392 1762 PD
40 W
4395 1829 PD
40 W
4396 1812 PD
40 W
4400 1768 PD
40 W
4404 1787 PD
40 W
4407 2382 PD
40 W
4408 1857 PD
40 W
4410 1686 PD
40 W
4412 1927 PD
40 W
4414 2084 PD
40 W
4416 2097 PD
40 W
4423 2384 PD
40 W
4425 2376 PD
40 W
4429 2072 PD
40 W
4438 1831 PD
40 W
4440 1896 PD
40 W
4442 1956 PD
40 W
4445 1955 PD
40 W
4448 1935 PD
40 W
4449 1969 PD
40 W
4452 1973 PD
40 W
4456 1978 PD
40 W
4457 2054 PD
40 W
4460 2056 PD
40 W
4461 2001 PD
40 W
4463 1965 PD
40 W
4464 1953 PD
40 W
4466 1955 PD
40 W
4468 1955 PD
40 W
4470 1945 PD
40 W
4471 1945 PD
40 W
4474 1966 PD
40 W
4476 2067 PD
40 W
4478 1982 PD
40 W
4479 2017 PD
40 W
4483 2164 PD
40 W
4491 2068 PD
40 W
4493 2023 PD
40 W
4494 2010 PD
40 W
4496 2083 PD
40 W
4498 1980 PD
40 W
4500 2001 PD
40 W
4501 2045 PD
40 W
4504 1976 PD
40 W
4505 1989 PD
40 W
4509 1983 PD
40 W
4511 2019 PD
40 W
4512 2009 PD
40 W
4515 1955 PD
40 W
4517 2034 PD
40 W
4522 2099 PD
40 W
4524 1951 PD
40 W
4528 1955 PD
40 W
4530 1955 PD
40 W
4534 1955 PD
40 W
4535 1955 PD
40 W
4538 1955 PD
40 W
4542 1955 PD
40 W
4547 2080 PD
40 W
4549 2238 PD
40 W
4556 2050 PD
40 W
4562 2155 PD
40 W
4565 2196 PD
40 W
4575 2376 PD
40 W
4576 2358 PD
40 W
4577 2509 PD
40 W
4579 2446 PD
40 W
4580 2432 PD
40 W
4582 2246 PD
40 W
4583 2163 PD
40 W
4587 2281 PD
40 W
4588 2285 PD
40 W
4591 2287 PD
40 W
4592 2271 PD
40 W
4597 2332 PD
40 W
4601 2247 PD
40 W
4602 2244 PD
40 W
4605 2100 PD
40 W
4606 2030 PD
40 W
4608 2066 PD
40 W
4612 1908 PD
40 W
4613 1997 PD
40 W
4616 2071 PD
40 W
4618 2098 PD
40 W
4621 2206 PD
40 W
4623 2129 PD
40 W
4624 2172 PD
40 W
4625 1931 PD
40 W
4628 1926 PD
40 W
4635 2102 PD
40 W
4636 2167 PD
40 W
4642 2170 PD
40 W
4643 2074 PD
40 W
4646 2069 PD
40 W
4653 2065 PD
40 W
4654 2053 PD
40 W
4655 2150 PD
40 W
4657 2010 PD
40 W
4661 2087 PD
40 W
4662 2095 PD
40 W
4665 2104 PD
40 W
4666 2095 PD
40 W
4669 2099 PD
40 W
4672 2066 PD
40 W
4673 2116 PD
40 W
4680 2133 PD
40 W
4681 2227 PD
40 W
4684 2162 PD
40 W
4688 2125 PD
40 W
4691 2154 PD
40 W
4695 2157 PD
40 W
4699 2151 PD
40 W
4706 2078 PD
40 W
4707 2089 PD
40 W
4710 2105 PD
40 W
4715 2053 PD
40 W
4717 2109 PD
40 W
4719 2050 PD
40 W
4722 2080 PD
40 W
4725 2100 PD
40 W
4730 2091 PD
40 W
4732 2118 PD
40 W
4736 2147 PD
40 W
4740 2287 PD
40 W
4743 2432 PD
40 W
4744 2328 PD
40 W
4748 2244 PD
40 W
4751 2250 PD
40 W
4752 2288 PD
40 W
4754 2257 PD
40 W
4755 2180 PD
40 W
4756 2158 PD
40 W
4758 2208 PD
40 W
4759 2215 PD
40 W
4760 2353 PD
40 W
4762 2273 PD
40 W
4764 2350 PD
40 W
4767 2282 PD
40 W
4769 2323 PD
40 W
4770 2221 PD
40 W
4771 2175 PD
40 W
4774 2377 PD
40 W
4786 2456 PD
40 W
4788 2393 PD
40 W
4792 2256 PD
40 W
4795 2071 PD
40 W
4796 1914 PD
40 W
4797 1901 PD
40 W
4799 2047 PD
40 W
4800 2148 PD
40 W
4801 2207 PD
40 W
4803 2211 PD
40 W
4808 2275 PD
40 W
4810 2177 PD
40 W
4825 2065 PD
40 W
4826 2043 PD
40 W
4829 2098 PD
40 W
4830 2097 PD
40 W
4831 2086 PD
40 W
4834 2003 PD
40 W
4838 1981 PD
40 W
4840 2032 PD
40 W
4841 2077 PD
40 W
4845 2153 PD
40 W
4846 2132 PD
40 W
4853 2039 PD
40 W
4857 2120 PD
40 W
4861 2053 PD
40 W
4863 2036 PD
40 W
4864 2031 PD
40 W
4867 2046 PD
40 W
4868 2044 PD
40 W
4871 1970 PD
40 W
4872 1987 PD
40 W
4876 2066 PD
40 W
4879 2127 PD
40 W
4881 2137 PD
40 W
4883 2094 PD
40 W
4885 2012 PD
40 W
4890 2052 PD
40 W
4891 2007 PD
40 W
4893 2063 PD
40 W
4896 2063 PD
40 W
4897 2109 PD
40 W
4900 2035 PD
40 W
4909 2033 PD
40 W
4911 2087 PD
40 W
4912 2082 PD
40 W
4916 2026 PD
40 W
4917 1988 PD
40 W
4920 2036 PD
40 W
4921 2059 PD
40 W
4923 2080 PD
40 W
4924 2127 PD
40 W
4926 2125 PD
40 W
4927 2083 PD
40 W
4928 2081 PD
40 W
4931 2071 PD
40 W
4932 2065 PD
40 W
4936 2144 PD
40 W
4938 2248 PD
40 W
4939 2251 PD
40 W
4941 2337 PD
40 W
4943 2236 PD
40 W
4954 2227 PD
40 W
4956 2156 PD
40 W
4957 2304 PD
40 W
4960 2417 PD
40 W
4968 2325 PD
40 W
4972 2336 PD
40 W
4973 2325 PD
40 W
4975 2236 PD
40 W
4980 2141 PD
40 W
4984 2060 PD
40 W
4987 2089 PD
40 W
4991 2049 PD
40 W
4992 1954 PD
40 W
4995 1834 PD
40 W
4998 1975 PD
40 W
4999 2071 PD
40 W
5006 1993 PD
40 W
5013 1792 PD
40 W
5018 1845 PD
40 W
5020 1829 PD
40 W
5022 2072 PD
40 W
5024 2006 PD
40 W
5028 1794 PD
40 W
5031 1712 PD
40 W
5037 2033 PD
40 W
5039 1869 PD
40 W
5040 1942 PD
40 W
5042 1971 PD
40 W
5051 1974 PD
40 W
5054 2018 PD
40 W
5055 2127 PD
40 W
5059 2000 PD
40 W
5061 1986 PD
40 W
5065 1694 PD
40 W
5066 1794 PD
40 W
5068 1788 PD
40 W
5069 2163 PD
40 W
5070 2494 PD
40 W
5072 2087 PD
40 W
5074 2026 PD
40 W
5076 2079 PD
40 W
5080 1851 PD
40 W
5081 2061 PD
40 W
5084 1824 PD
40 W
5089 2014 PD
40 W
5091 1976 PD
40 W
5095 2024 PD
40 W
5098 2059 PD
40 W
5103 2000 PD
40 W
5106 1980 PD
40 W
5108 2055 PD
40 W
5110 2207 PD
40 W
5113 1985 PD
40 W
5118 1955 PD
40 W
5119 1955 PD
40 W
5121 1955 PD
40 W
5122 1955 PD
40 W
5125 1955 PD
40 W
5129 1955 PD
40 W
5136 1978 PD
40 W
5137 1941 PD
40 W
5140 1983 PD
40 W
5141 2017 PD
40 W
5148 2007 PD
40 W
5155 1962 PD
40 W
5160 1856 PD
40 W
5163 1803 PD
40 W
5166 1777 PD
40 W
5167 1693 PD
40 W
5170 1635 PD
40 W
5174 2119 PD
40 W
5175 2329 PD
40 W
5177 1907 PD
40 W
5179 1919 PD
40 W
5186 2123 PD
40 W
5188 2153 PD
40 W
5192 1897 PD
40 W
5193 1775 PD
40 W
5196 2146 PD
40 W
5199 1855 PD
40 W
5200 2101 PD
40 W
5205 1787 PD
40 W
5208 1787 PD
40 W
5214 1721 PD
40 W
5219 1966 PD
40 W
5220 1966 PD
40 W
5223 1970 PD
40 W
5224 1940 PD
40 W
5231 1857 PD
40 W
5233 1915 PD
40 W
5235 1891 PD
40 W
5238 1840 PD
40 W
5241 1852 PD
40 W
5242 1986 PD
40 W
5246 1955 PD
40 W
5248 1967 PD
40 W
5252 1962 PD
40 W
5253 1962 PD
40 W
5257 1955 PD
40 W
5259 1976 PD
40 W
5260 1964 PD
40 W
5263 1973 PD
40 W
5265 1955 PD
40 W
5267 1955 PD
40 W
5270 1955 PD
40 W
5271 1969 PD
40 W
5274 1955 PD
40 W
5275 1969 PD
40 W
5280 1983 PD
40 W
5282 1955 PD
40 W
5283 1974 PD
40 W
5285 1983 PD
40 W
5289 1955 PD
40 W
5291 1955 PD
40 W
5294 1982 PD
40 W
5300 1955 PD
40 W
5301 1955 PD
40 W
5302 1988 PD
40 W
5304 1988 PD
40 W
5306 1955 PD
40 W
5313 1990 PD
40 W
5315 1955 PD
40 W
5319 1955 PD
40 W
5321 1955 PD
40 W
5324 1955 PD
40 W
5327 1986 PD
40 W
5328 1955 PD
40 W
5330 1955 PD
40 W
5332 1983 PD
40 W
5334 1967 PD
40 W
5338 1921 PD
40 W
5339 1978 PD
40 W
5343 2136 PD
40 W
5346 2144 PD
40 W
5347 2042 PD
40 W
5349 2015 PD
40 W
5350 1955 PD
40 W
5351 2019 PD
40 W
5353 2056 PD
40 W
5354 1987 PD
40 W
5356 2053 PD
40 W
5360 1938 PD
40 W
5361 1920 PD
40 W
5364 1807 PD
40 W
5365 1813 PD
40 W
5368 1729 PD
40 W
5371 1666 PD
40 W
5372 1639 PD
40 W
5376 1802 PD
40 W
5380 1870 PD
40 W
5386 2036 PD
40 W
5387 2098 PD
40 W
5388 2009 PD
40 W
5390 1614 PD
40 W
5392 1738 PD
40 W
5394 1994 PD
40 W
5395 2203 PD
40 W
5398 2217 PD
40 W
5401 2086 PD
40 W
5402 2123 PD
40 W
5403 1814 PD
40 W
5406 1751 PD
40 W
5407 1560 PD
40 W
5411 2454 PD
40 W
5416 1968 PD
40 W
5417 1961 PD
40 W
5421 1897 PD
40 W
5422 1904 PD
40 W
5428 2161 PD
40 W
5433 1755 PD
40 W
5435 1808 PD
40 W
5436 1834 PD
40 W
5440 1898 PD
40 W
5446 2004 PD
40 W
5447 2051 PD
40 W
5451 2008 PD
40 W
5452 1976 PD
40 W
5455 1889 PD
40 W
5459 1989 PD
40 W
5461 1955 PD
40 W
5462 2006 PD
40 W
5467 2088 PD
40 W
5472 2041 PD
40 W
5473 1955 PD
40 W
5478 2022 PD
40 W
5480 1955 PD
40 W
5481 1955 PD
40 W
5484 2046 PD
40 W
5485 1955 PD
40 W
5487 1955 PD
40 W
5496 1963 PD
40 W
5506 1955 PD
40 W
5507 1955 PD
40 W
5508 1967 PD
40 W
5510 1984 PD
40 W
5511 1979 PD
40 W
5514 1984 PD
40 W
5515 1972 PD
40 W
5517 1955 PD
40 W
5521 1972 PD
40 W
5522 1955 PD
40 W
5532 1955 PD
40 W
5534 1982 PD
40 W
5540 2061 PD
40 W
5541 1988 PD
40 W
5543 1939 PD
40 W
5544 2085 PD
40 W
5545 2113 PD
40 W
5547 2159 PD
40 W
5548 2015 PD
40 W
5555 1949 PD
40 W
5558 1939 PD
40 W
5559 1900 PD
40 W
5563 1796 PD
40 W
5567 1673 PD
40 W
5568 1645 PD
40 W
5574 1748 PD
40 W
5578 1912 PD
40 W
5579 1928 PD
40 W
5583 1903 PD
40 W
5585 1827 PD
40 W
5586 1841 PD
40 W
5588 1868 PD
40 W
5589 1915 PD
40 W
5592 1879 PD
40 W
5593 1841 PD
40 W
5594 1832 PD
40 W
5597 1844 PD
40 W
5600 1686 PD
40 W
5601 1763 PD
40 W
5603 1827 PD
40 W
5605 1905 PD
40 W
5608 1889 PD
40 W
5609 1919 PD
40 W
5612 1876 PD
40 W
5620 1940 PD
40 W
5622 1910 PD
40 W
5624 2011 PD
40 W
5631 2003 PD
40 W
5633 2133 PD
40 W
5646 1989 PD
40 W
5649 1955 PD
40 W
5652 2017 PD
40 W
5653 1974 PD
40 W
5668 1955 PD
40 W
5671 2040 PD
40 W
5674 1955 PD
40 W
5675 1977 PD
40 W
5680 1955 PD
40 W
5684 1955 PD
40 W
5689 2107 PD
40 W
5691 2004 PD
40 W
5693 2019 PD
40 W
5694 1955 PD
40 W
5705 2056 PD
40 W
5708 2006 PD
40 W
5709 2057 PD
40 W
5710 2086 PD
40 W
5712 2129 PD
40 W
5716 2022 PD
40 W
5717 1955 PD
40 W
5720 2141 PD
40 W
5721 2082 PD
40 W
5725 2159 PD
40 W
5727 2056 PD
40 W
5728 2131 PD
40 W
5734 2364 PD
40 W
5736 2253 PD
40 W
5740 2154 PD
40 W
5742 2114 PD
40 W
5743 2252 PD
40 W
5746 2249 PD
40 W
5747 2190 PD
40 W
5749 2122 PD
40 W
5754 2358 PD
40 W
5755 2381 PD
40 W
5758 2291 PD
40 W
5761 2315 PD
40 W
5762 2364 PD
40 W
5764 2549 PD
40 W
5769 2325 PD
40 W
5770 2234 PD
40 W
5772 2078 PD
40 W
5773 1933 PD
40 W
5780 1857 PD
40 W
5783 1834 PD
40 W
5788 1864 PD
40 W
5790 1922 PD
40 W
5801 1754 PD
40 W
5803 1819 PD
40 W
5805 1821 PD
40 W
5807 1884 PD
40 W
5810 1708 PD
40 W
5813 1975 PD
40 W
5814 1827 PD
40 W
5817 1972 PD
40 W
5818 1966 PD
40 W
5820 1904 PD
40 W
5821 1948 PD
40 W
5822 2120 PD
40 W
5829 2041 PD
40 W
5835 2168 PD
40 W
5837 1983 PD
40 W
5839 2055 PD
40 W
5840 2123 PD
40 W
5844 1839 PD
40 W
5846 1881 PD
40 W
5847 1925 PD
40 W
5850 1939 PD
40 W
5854 1955 PD
40 W
5855 1964 PD
40 W
5859 1955 PD
40 W
5861 1955 PD
40 W
5862 1955 PD
40 W
5865 1999 PD
40 W
5867 1984 PD
40 W
5869 1989 PD
40 W
5870 2009 PD
40 W
5874 2034 PD
40 W
5881 1955 PD
40 W
5882 1955 PD
40 W
5884 2039 PD
40 W
5887 2049 PD
40 W
5889 2072 PD
40 W
5893 2109 PD
40 W
5896 2321 PD
40 W
5899 1933 PD
40 W
5900 1938 PD
40 W
5902 1942 PD
40 W
5903 1986 PD
40 W
5904 2096 PD
40 W
5908 2316 PD
40 W
5910 1867 PD
40 W
5914 2187 PD
40 W
5921 1976 PD
40 W
5922 2004 PD
40 W
5925 1955 PD
40 W
5926 1980 PD
40 W
5927 2063 PD
40 W
5936 1943 PD
40 W
5940 2084 PD
40 W
5941 2078 PD
40 W
5942 2164 PD
40 W
5944 2055 PD
40 W
5945 1996 PD
40 W
5947 2031 PD
40 W
5948 1985 PD
40 W
5949 1888 PD
40 W
5951 1924 PD
40 W
5962 1967 PD
40 W
5964 2177 PD
40 W
5967 2122 PD
40 W
5968 2019 PD
40 W
5970 1902 PD
40 W
5971 1920 PD
40 W
5975 2166 PD
40 W
5981 1991 PD
40 W
5986 1995 PD
40 W
5989 1914 PD
40 W
5994 1744 PD
40 W
5998 1771 PD
40 W
6000 1757 PD
40 W
6003 1860 PD
40 W
6004 1885 PD
40 W
6009 1907 PD
40 W
6011 1841 PD
40 W
6012 1878 PD
40 W
6018 1700 PD
40 W
6019 1693 PD
40 W
6022 2274 PD
40 W
6027 1992 PD
40 W
6030 2130 PD
40 W
6033 2211 PD
40 W
6034 2222 PD
40 W
6037 1916 PD
40 W
6038 1958 PD
40 W
6039 1967 PD
40 W
6042 1960 PD
40 W
6043 1989 PD
40 W
6046 1955 PD
40 W
6048 1946 PD
40 W
6052 2006 PD
40 W
6056 2052 PD
40 W
6065 1893 PD
40 W
6067 1886 PD
40 W
6068 1878 PD
40 W
6069 1789 PD
40 W
6072 1611 PD
40 W
6075 1587 PD
40 W
6076 1572 PD
40 W
6082 1568 PD
40 W
6083 1641 PD
40 W
6086 1813 PD
40 W
6090 2616 PD
40 W
6095 1372 PD
40 W
6097 1585 PD
40 W
6098 1767 PD
40 W
6099 1669 PD
40 W
6104 1976 PD
40 W
6108 1967 PD
40 W
6109 1979 PD
40 W
6112 1959 PD
40 W
6113 1917 PD
40 W
6117 1955 PD
40 W
6120 1815 PD
40 W
6121 1863 PD
40 W
6125 1888 PD
40 W
6129 1669 PD
40 W
6134 1855 PD
40 W
6136 1828 PD
40 W
6138 2482 PD
40 W
6139 1930 PD
40 W
6142 2037 PD
40 W
6143 2170 PD
40 W
6144 1735 PD
40 W
6146 1671 PD
40 W
6153 1807 PD
40 W
6154 1802 PD
40 W
6160 1796 PD
40 W
6161 1849 PD
40 W
6162 1808 PD
40 W
6164 1836 PD
40 W
6166 2006 PD
40 W
6168 1963 PD
40 W
6170 1814 PD
40 W
6172 1823 PD
40 W
6177 1420 PD
40 W
6180 1722 PD
40 W
6185 1625 PD
40 W
6187 1626 PD
40 W
6188 1748 PD
40 W
6191 1787 PD
40 W
6192 2014 PD
40 W
6195 1997 PD
40 W
6200 2013 PD
40 W
6202 2106 PD
40 W
6205 1810 PD
40 W
6217 1893 PD
40 W
6218 1902 PD
40 W
6220 1955 PD
40 W
6222 1925 PD
40 W
6226 1986 PD
40 W
6235 1984 PD
40 W
6239 1920 PD
40 W
6240 1934 PD
40 W
6243 1930 PD
40 W
6246 1876 PD
40 W
6247 1917 PD
40 W
6250 1742 PD
40 W
6252 1684 PD
40 W
6254 1679 PD
40 W
6265 1768 PD
40 W
6266 1716 PD
40 W
6269 1733 PD
40 W
6270 1843 PD
40 W
6274 1607 PD
40 W
6277 1735 PD
40 W
6278 1858 PD
40 W
6280 1777 PD
40 W
6281 1713 PD
40 W
6282 1700 PD
40 W
6284 1640 PD
40 W
6288 1618 PD
40 W
6289 1748 PD
40 W
6291 1671 PD
40 W
6292 1647 PD
40 W
6293 1629 PD
40 W
6295 1672 PD
40 W
6296 1677 PD
40 W
6297 1535 PD
40 W
6306 1660 PD
40 W
6311 1586 PD
40 W
6314 1765 PD
40 W
6318 1720 PD
40 W
6321 1867 PD
40 W
6322 1880 PD
40 W
6323 1869 PD
40 W
6325 1865 PD
40 W
6326 1911 PD
40 W
6341 1516 PD
40 W
6344 1603 PD
40 W
6349 1644 PD
40 W
6351 1246 PD
40 W
6352 1324 PD
40 W
6356 1558 PD
40 W
6357 2060 PD
40 W
6363 2135 PD
40 W
6364 2012 PD
40 W
6367 2198 PD
40 W
6368 2278 PD
40 W
6370 2413 PD
40 W
6372 2699 PD
40 W
6375 2572 PD
40 W
6382 1967 PD
40 W
6385 1979 PD
40 W
6386 1937 PD
40 W
6387 1963 PD
40 W
6390 1948 PD
40 W
6392 2024 PD
40 W
6393 1980 PD
40 W
6396 1905 PD
40 W
6397 1904 PD
40 W
6402 1945 PD
40 W
6404 1945 PD
40 W
6409 1919 PD
40 W
6411 1776 PD
40 W
6412 1955 PD
40 W
6417 1940 PD
40 W
6419 1955 PD
40 W
6420 1955 PD
40 W
6433 2003 PD
40 W
6435 2016 PD
40 W
6438 1955 PD
40 W
6439 1955 PD
40 W
6442 1955 PD
40 W
6446 2117 PD
40 W
6449 1985 PD
40 W
6453 1955 PD
40 W
6454 1974 PD
40 W
6456 1955 PD
40 W
6457 1975 PD
40 W
6458 1955 PD
40 W
6461 2049 PD
40 W
6464 1955 PD
40 W
6467 1955 PD
40 W
6472 1955 PD
40 W
6478 1955 PD
40 W
6479 1955 PD
40 W
6482 1955 PD
40 W
6483 1955 PD
40 W
6484 1955 PD
40 W
6488 1955 PD
40 W
6498 1955 PD
40 W
6501 1955 PD
40 W
6505 2005 PD
40 W
6508 1887 PD
40 W
6509 1913 PD
40 W
6510 1903 PD
40 W
6514 1862 PD
40 W
6519 1841 PD
40 W
6520 1800 PD
40 W
6525 1753 PD
40 W
6527 1767 PD
40 W
6528 1749 PD
40 W
6529 1773 PD
40 W
6532 1762 PD
40 W
6536 1801 PD
40 W
6540 1917 PD
40 W
6543 1966 PD
40 W
6549 1999 PD
40 W
6550 2081 PD
40 W
6553 1935 PD
40 W
6554 1897 PD
40 W
6559 1900 PD
40 W
6561 2198 PD
40 W
6565 2311 PD
40 W
6566 2043 PD
40 W
6568 2044 PD
40 W
6572 1638 PD
40 W
6576 1758 PD
40 W
6577 1864 PD
40 W
6580 2168 PD
40 W
6584 1930 PD
40 W
6585 2393 PD
40 W
6587 2411 PD
40 W
6589 2380 PD
40 W
6591 2582 PD
40 W
6595 2015 PD
40 W
6598 2041 PD
40 W
6599 2223 PD
40 W
6600 2350 PD
40 W
6602 2238 PD
40 W
6603 2141 PD
40 W
6606 2137 PD
40 W
6614 2057 PD
40 W
6618 1951 PD
40 W
6624 2039 PD
40 W
6628 2076 PD
40 W
6629 2081 PD
40 W
6633 2006 PD
40 W
6635 2030 PD
40 W
6636 2043 PD
40 W
6639 2045 PD
40 W
6641 2029 PD
40 W
6644 2058 PD
40 W
6647 2054 PD
40 W
6651 2113 PD
40 W
6652 2075 PD
40 W
6655 2038 PD
40 W
6656 2035 PD
40 W
6658 2014 PD
40 W
6659 2026 PD
40 W
6660 2062 PD
40 W
6663 2146 PD
40 W
6667 2106 PD
40 W
6669 2109 PD
40 W
6671 2072 PD
40 W
6680 1999 PD
40 W
6681 1995 PD
40 W
6682 1969 PD
40 W
6689 2031 PD
40 W
6693 2013 PD
40 W
6695 1955 PD
40 W
6696 2069 PD
40 W
6700 1978 PD
40 W
6706 1943 PD
40 W
6707 1911 PD
40 W
6708 1877 PD
40 W
6712 1864 PD
40 W
6714 1881 PD
40 W
6715 1848 PD
40 W
6716 1859 PD
40 W
6721 1715 PD
40 W
6726 2038 PD
40 W
6729 2339 PD
40 W
6731 2232 PD
40 W
6736 1886 PD
40 W
6738 2013 PD
40 W
6740 2008 PD
40 W
6741 1888 PD
40 W
6745 2139 PD
40 W
6746 2150 PD
40 W
6748 1940 PD
40 W
6752 1788 PD
40 W
6755 1920 PD
40 W
6756 2019 PD
40 W
6761 1840 PD
40 W
6763 1997 PD
40 W
6764 1977 PD
40 W
6766 1962 PD
40 W
6767 2013 PD
40 W
6771 1979 PD
40 W
6776 1998 PD
40 W
6778 2084 PD
40 W
6779 2055 PD
40 W
6781 2037 PD
40 W
6783 2311 PD
40 W
6789 2105 PD
40 W
6790 2125 PD
40 W
6793 2197 PD
40 W
6796 2032 PD
40 W
6801 1946 PD
40 W
6802 1950 PD
40 W
6804 2090 PD
40 W
6808 1534 PD
40 W
6809 1676 PD
40 W
6811 1738 PD
40 W
6819 1955 PD
40 W
6822 1970 PD
40 W
6823 1985 PD
40 W
6828 1976 PD
40 W
6830 1966 PD
40 W
6832 1990 PD
40 W
6835 1977 PD
40 W
6839 1970 PD
40 W
6841 1963 PD
40 W
6842 2005 PD
40 W
6845 2039 PD
40 W
6846 1975 PD
40 W
6847 1976 PD
40 W
6850 1955 PD
40 W
6853 1967 PD
40 W
6854 1955 PD
40 W
6857 1955 PD
40 W
6860 1955 PD
40 W
6861 1955 PD
40 W
6867 1971 PD
40 W
6868 1955 PD
40 W
6872 1955 PD
40 W
6873 1955 PD
40 W
6879 2006 PD
40 W
6880 1964 PD
40 W
6883 1955 PD
40 W
6886 1955 PD
40 W
6887 1955 PD
40 W
6890 1955 PD
40 W
6894 1955 PD
40 W
6895 1955 PD
40 W
6897 1955 PD
40 W
6898 1955 PD
40 W
6902 2008 PD
40 W
6903 1989 PD
40 W
6905 1952 PD
40 W
6913 2121 PD
40 W
6916 2230 PD
40 W
6917 2165 PD
40 W
6918 2151 PD
40 W
6920 2239 PD
40 W
6921 2199 PD
40 W
6925 2155 PD
40 W
6927 2219 PD
40 W
6928 2246 PD
40 W
6929 2275 PD
40 W
6931 2151 PD
40 W
6932 2077 PD
40 W
6935 2180 PD
40 W
6936 2007 PD
40 W
6938 1993 PD
40 W
6947 1763 PD
40 W
6954 1687 PD
40 W
6955 1811 PD
40 W
6957 1795 PD
40 W
6958 1842 PD
40 W
6962 2217 PD
40 W
6963 1982 PD
40 W
6965 2062 PD
40 W
6969 2084 PD
40 W
6970 2035 PD
40 W
6976 2002 PD
40 W
6980 2155 PD
40 W
6981 2086 PD
40 W
6984 2209 PD
40 W
6985 2126 PD
40 W
6994 1927 PD
40 W
6995 1953 PD
40 W
6996 1994 PD
40 W
6998 2039 PD
40 W
7000 2054 PD
40 W
7002 2019 PD
40 W
7003 2081 PD
40 W
7013 2034 PD
40 W
7017 2005 PD
40 W
7018 2038 PD
40 W
7022 2024 PD
40 W
7026 2040 PD
40 W
7028 2006 PD
40 W
7029 2027 PD
40 W
7030 1958 PD
40 W
7032 1955 PD
40 W
7033 1949 PD
40 W
7034 1955 PD
40 W
7037 1955 PD
40 W
7039 2040 PD
40 W
7040 2108 PD
40 W
7041 1955 PD
gs 1145 399 6826 3115 rc
/c9 { 1.000000 0.000000 0.000000 sr} bdef
c9
1 -1 1 -1 2 -1 3 -3 1 -2 1 -2 2 -2 1 -2 
1 -2 2 -3 4 -7 4 -8 1 -3 4 -8 10 -14 1 -1 
2 -1 2 0 2 0 1 1 1 1 9 13 1 3 3 8 
1 3 4 12 6 13 1 3 4 6 2 1 1 1 4 -2 
1 -2 2 -3 1 -3 7 -23 9 -47 2 -7 1 -6 3 -12 
1 -6 2 -4 1 -5 1 -3 2 -3 4 -5 1 0 2 1 
1 2 1 2 3 7 8 35 2 7 1 8 4 22 1 8 
2 7 1 7 4 20 3 11 1 5 3 8 3 6 1 2 
6 4 1 0 4 -2 1 -1 6 -6 1 -1 3 -3 3 -1 
1 -1 3 0 3 0 1 1 1 1 3 3 1 2 2 2 
4 6 3 5 2 4 2 2 5 5 1 1 3 0 8 -9 
2 -2 1 -3 4 -11 2 -4 1 -5 5 -17 3 -9 3 -8 
1 -4 6 -12 2 -5 2 -1 1 -2 2 -1 5 -1 4 3 
1 1 2 1 1 2 2 2 5 8 1 3 3 5 4 7 
2 3 1 2 4 8 1 3 2 2 2 5 5 7 2 5 
3 4 5 7 5 3 1 0 1 1 2 0 4 -2 1 -1 
1 -2 6 -9 4 -11 1 -3 2 -4 4 -13 7 -23 1 -4 
1 -4 9 -20 2 -4 2 -2 4 -3 3 -1 1 0 1 0 
2 1 1 0 3 1 1 1 4 2 3 0 3 0 2 -1 
3 -3 1 -2 2 -2 4 -10 1 -3 4 -14 6 -21 4 -17 
8 -30 3 -7 1 -3 2 -3 1 -2 1 -1 3 -1 4 3 
2 3 2 7 2 4 1 5 4 19 3 15 1 8 4 26 
4 29 2 10 1 10 4 31 2 10 5 38 1 9 3 18 
1 8 6 28 3 12 4 14 4 9 3 3 1 1 1 1 
2 0 5 -5 1 -2 5 -9 4 -11 1 -5 1 -4 3 -9 
4 -14 3 -10 10 -31 4 -11 1 -4 1 -3 3 -6 1 -3 
6 -9 5 -6 3 -2 3 0 3 1 1 0 1 1 2 2 
1 1 4 7 3 5 4 10 3 7 1 4 3 7 2 7 
13 16 1 -1 2 -2 5 -12 1 -5 2 -6 5 -27 2 -8 
5 -33 1 -8 3 -16 1 -7 2 -7 3 -11 1 -4 1 -3 
3 -4 7 11 3 13 2 18 2 10 1 11 3 25 1 14 
6 59 1 15 4 45 1 14 2 14 5 50 3 20 15 52 
1 0 2 1 1 0 1 -1 3 -1 4 -3 3 -1 5 -1 
9 2 1 1 1 0 2 1 1 1 1 0 2 1 1 0 
4 0 2 -1 1 -1 1 -1 2 -2 1 -2 3 -6 4 -12 
1 -5 3 -10 1 -6 11 -60 2 -9 2 -17 3 -16 1 -9 
3 -16 3 -15 1 -7 4 -19 9 -23 4 -4 2 1 2 2 
1 2 12 41 3 14 6202 1886 300 MP stroke
2 6 5 28 3 13 1 6 3 11 1 5 2 4 5 13 
3 2 5 -2 2 -3 2 -6 2 -4 2 -9 2 -5 1 -5 
1 -6 6 -25 1 -7 7 -30 2 -6 1 -5 1 -4 3 -8 
1 -3 2 -3 2 -3 5 -1 4 5 4 11 1 4 3 11 
4 19 1 8 3 14 1 8 4 23 5 22 1 6 1 6 
2 6 5 17 4 6 3 -1 1 -1 6 -14 1 -6 3 -13 
3 -16 1 -9 1 -9 2 -10 9 -71 4 -28 4 -23 2 -6 
3 -10 1 -4 3 -5 1 -2 1 0 3 1 1 2 3 6 
3 9 5 22 3 13 1 6 6 24 1 6 2 4 5 14 
1 2 3 2 2 0 4 -5 5 -14 3 -10 5 -23 6 -25 
4 -18 1 -5 2 -6 1 -4 3 -9 2 -7 11 -16 2 0 
1 -1 1 0 2 0 1 -1 2 0 1 0 1 0 4 0 
9 -2 1 -1 1 -1 3 -2 1 -1 7 -5 4 -2 2 0 
4 -1 1 0 1 1 2 1 1 1 3 2 3 4 4 6 
2 5 3 5 2 3 1 3 7 12 4 6 1 2 2 1 
2 2 3 2 1 0 2 0 4 0 1 0 4 0 3 0 
1 0 2 1 4 3 1 2 2 3 2 5 6 15 7 26 
1 6 1 5 2 6 1 5 3 10 1 5 3 7 3 5 
2 2 2 0 2 -4 11 -53 2 -11 5 -52 3 -29 7 -75 
1 -15 2 -14 1 -14 5 -50 2 -10 1 -10 3 -16 3 -11 
1 -4 5 -5 2 1 1 2 3 8 1 5 2 5 4 22 
2 16 6 37 1 10 2 10 4 28 1 9 3 17 1 8 
4 22 2 7 1 6 1 6 3 11 11 27 1 2 2 2 
2 3 5 2 4 1 5 -1 1 0 3 -2 3 -1 15 -9 
1 0 3 0 3 1 13 18 2 3 7 22 2 10 2 5 
8 36 3 12 1 6 3 11 2 11 2 5 1 5 3 8 
3 7 1 3 1 2 3 4 1 1 2 0 1 0 2 -1 
4 -5 1 -3 4 -11 6 -20 1 -6 4 -20 4 -20 1 -7 
3 -13 7 -30 1 -5 2 -5 1 -4 1 -4 2 -3 1 -3 
6 -8 2 -1 10 5 1 1 4 5 2 2 1 2 3 3 
1 1 2 1 1 2 1 0 10 2 9 -5 2 -1 1 0 
3 -2 1 0 2 0 5 0 1 0 5 3 5 5 1 2 
2 2 4 5 3 4 1 1 4 5 1 1 6 3 4 0 
1 0 2 -1 5 -3 6 -4 1 -1 4 -1 1 -1 5 1 
4 4 1 2 3 4 1 3 1 3 3 6 3 7 1 4 
2 4 2 7 2 4 1 3 1 3 6 10 4 4 4 -1 
1 -1 3 -4 3 -5 1 -4 3 -7 1 -5 4 -14 2 -5 
1 -5 2 -4 1 -5 5350 1954 300 MP stroke
1 -5 2 -5 1 -4 3 -8 4 -9 1 -3 4 -5 2 -1 
2 -1 2 1 1 0 3 2 3 2 2 4 4 5 2 2 
7 9 2 2 2 1 1 1 1 1 6 1 3 0 2 0 
4 -1 2 -1 1 0 2 0 5 -1 1 0 3 1 1 0 
3 2 2 1 2 3 3 3 1 2 2 2 4 8 1 2 
4 8 2 3 4 8 1 3 3 4 3 4 2 3 2 1 
7 2 1 0 3 -2 1 -1 5 -7 6 -10 3 -4 5 -9 
1 -2 3 -3 3 -3 1 0 4 -1 2 0 7 5 2 3 
2 1 1 2 4 6 3 3 1 2 3 3 3 2 5 1 
7 -5 7 -12 1 -3 3 -6 1 -3 7 -18 4 -10 3 -6 
1 -3 2 -3 1 -3 5 -9 3 -4 2 -1 2 -3 3 -2 
5 -2 3 -1 4 0 2 0 5 2 3 1 1 0 4 3 
2 1 2 3 2 1 1 2 1 2 2 2 1 2 4 7 
2 3 4 10 1 3 3 8 9 30 2 4 1 4 2 4 
6 19 3 5 4 5 2 1 2 -1 2 -1 5 -11 7 -29 
7 -46 1 -10 3 -23 3 -25 1 -12 4 -39 3 -26 4 -37 
5 -44 2 -9 1 -9 4 -22 8 -21 3 0 1 1 2 2 
11 43 2 15 2 9 1 8 2 9 4 25 1 9 3 16 
1 8 1 8 2 7 1 7 2 6 1 6 3 11 1 5 
4 12 1 3 2 2 9 8 3 0 1 -1 3 -1 2 -1 
1 -1 5 -5 2 -1 2 -2 2 -1 3 -1 4 -3 1 0 
3 -1 1 0 3 -1 1 0 2 0 4 -1 4 0 7 0 
1 0 4 -1 1 -1 2 -1 4 -2 3 -2 1 -2 1 -1 
3 -4 1 -2 15 -38 2 -4 5 -22 2 -5 1 -6 1 -6 
2 -6 1 -7 1 -6 3 -13 4 -19 2 -6 12 -44 3 -6 
1 -2 1 -2 2 -1 3 -2 2 1 2 2 1 2 1 2 
2 3 1 3 1 4 2 4 1 4 3 10 4 18 1 6 
3 13 4 20 4 19 2 6 5 21 3 9 3 8 2 6 
2 2 5 6 3 1 1 0 7 -4 4 -4 4 -4 3 -2 
4 -4 3 -1 1 0 7 1 1 1 3 3 3 3 1 3 
3 4 1 3 4 9 2 3 1 3 1 3 7 16 3 5 
1 3 6 6 1 1 7 -3 3 -5 1 -3 1 -4 2 -5 
3 -10 2 -13 3 -15 1 -9 4 -26 2 -10 1 -10 3 -19 
1 -10 4 -29 5 -25 1 -7 3 -13 1 -5 4 -11 1 -2 
2 -1 1 0 2 1 1 2 1 3 10 47 3 20 6 57 
7 59 2 12 5 41 4 24 3 14 1 5 4 12 2 3 
4 4 2 0 5 -3 2 -4 3 -5 1 -2 2 -3 4 -8 
1 -2 3 -4 1 -2 4500 2015 300 MP stroke
2 -1 2 -2 2 -1 1 0 2 0 8 7 4 7 1 2 
2 2 2 5 3 4 1 2 2 2 2 3 2 0 1 1 
2 0 1 0 3 -1 1 -1 4 -5 3 -5 1 -3 3 -6 
3 -6 2 -6 2 -3 9 -11 4 2 2 2 7 18 2 11 
2 6 2 14 2 7 1 8 3 17 4 25 4 25 1 8 
3 15 6 27 2 10 4 11 2 3 1 2 2 2 2 1 
2 0 1 0 1 -1 2 -2 2 -4 2 -2 1 -3 2 -3 
1 -3 1 -3 7 -18 7 -16 3 -6 8 -9 3 -1 1 0 
3 0 1 1 4 3 3 3 5 6 2 2 4 5 3 3 
1 1 4 4 1 2 2 1 2 2 9 7 1 1 1 1 
2 1 2 3 2 1 1 1 4 4 4 4 2 2 1 1 
4 3 3 2 3 1 2 0 9 -4 1 -1 3 -4 1 -3 
1 -2 3 -6 2 -4 2 -7 6 -18 5 -20 3 -10 1 -6 
2 -5 1 -6 3 -10 7 -26 1 -5 1 -4 2 -5 4 -12 
7 -14 1 -2 1 -2 4 -4 2 0 5 1 2 1 5 8 
5 11 2 3 1 4 6 16 5 19 7 28 3 12 1 6 
1 7 3 13 8 40 3 13 3 12 1 6 2 5 4 14 
1 4 1 3 4 7 2 0 1 1 7 -10 1 -4 2 -4 
1 -5 3 -12 1 -7 6 -28 2 -15 2 -8 1 -7 4 -19 
6 -19 2 -5 2 -1 1 -1 3 1 1 2 2 2 1 3 
1 4 3 9 4 17 4 18 10 36 1 3 7 2 3 -5 
1 -3 4 -16 8 -44 7 -37 3 -12 1 -5 4 -8 2 -1 
1 0 1 1 3 5 2 5 2 12 3 16 4 30 4 36 
6 49 5 47 2 10 6 39 2 5 4 8 4 -1 1 -3 
2 -3 4 -16 5 -32 2 -9 4 -29 1 -10 1 -10 9 -58 
4 -25 2 -14 6 -22 1 -4 2 -4 1 -3 1 -3 2 -3 
4 -5 2 -1 3 -1 3 0 1 0 2 0 1 0 1 0 
4 0 5 0 1 -1 3 -1 5 -3 3 -1 7 -4 5 -3 
2 0 1 0 1 -1 3 0 1 0 9 -2 2 -2 7 -11 
1 -3 2 -4 3 -10 5 -26 3 -17 1 -9 7 -54 3 -24 
1 -12 1 -13 2 -12 2 -25 2 -12 1 -12 2 -11 1 -12 
3 -20 1 -10 3 -17 1 -8 3 -12 11 -17 1 1 8 24 
7 33 2 7 1 8 3 16 6 38 2 7 4 20 3 12 
1 5 3 10 1 4 1 3 5 8 1 2 3 2 1 1 
1 -1 6 -4 4 -7 1 -3 3 -6 4 -9 4 -7 2 -2 
4 -3 1 0 1 1 6 11 3 10 1 7 1 7 2 8 
1 9 3 20 3 23 1 12 1 13 2 13 1 13 1 13 
4 40 2 12 1 13 3644 1926 300 MP stroke
2 11 1 11 1 10 7 33 6 3 1 -3 4 -17 4 -30 
4 -38 3 -30 1 -16 2 -16 2 -32 2 -16 1 -16 1 -16 
2 -15 3 -27 1 -13 1 -12 2 -10 2 -18 5 -17 6 -3 
2 3 1 4 11 64 1 10 2 11 2 21 10 67 5 28 
3 11 2 4 4 10 1 3 5 4 5 0 2 -2 4 -3 
2 -2 1 -2 3 -3 4 -5 5 -6 3 -2 2 -1 2 -2 
2 -1 4 -1 1 0 1 0 5 1 1 0 1 1 4 3 
2 1 1 1 3 3 3 2 5 5 1 0 6 1 1 -1 
6 -6 1 -3 1 -4 3 -8 1 -5 10 -51 3 -19 1 -10 
3 -22 4 -33 7 -57 1 -11 2 -11 5 -39 3 -16 7 -30 
4 -9 2 -2 2 0 4 3 3 6 1 3 1 4 2 5 
1 5 1 5 2 6 1 6 3 13 1 6 2 7 4 21 
2 15 2 7 2 14 9 40 1 7 5 23 2 6 4 15 
3 10 1 4 3 9 2 7 2 4 1 3 2 4 2 6 
10 16 1 1 6 6 1 1 1 1 2 1 1 1 7 6 
1 1 2 1 1 2 3 3 3 4 1 3 1 2 2 3 
1 2 4 8 3 6 3 6 6 10 2 1 4 -1 1 -1 
3 -5 7 -25 4 -25 3 -21 1 -12 1 -12 2 -13 1 -14 
3 -28 1 -15 2 -15 5 -60 1 -14 2 -14 1 -14 1 -13 
2 -12 1 -11 2 -11 1 -9 1 -9 3 -13 3 -9 1 -2 
1 -2 2 1 1 1 2 3 1 4 1 5 2 6 1 7 
1 9 2 9 2 22 2 12 1 12 2 13 1 13 4 42 
1 15 7 68 4 37 4 31 4 24 6 22 1 3 9 7 
2 -2 3 -4 3 -4 7 -9 1 0 1 -1 2 0 1 1 
4 5 3 8 4 18 3 17 2 20 2 11 1 12 3 25 
1 14 7 74 4 45 1 14 2 14 4 39 4 31 4 23 
7 15 1 0 2 -2 9 -36 2 -9 6 -48 3 -21 2 -10 
2 -22 2 -10 1 -11 1 -10 11 -77 2 -9 2 -17 2 -8 
1 -8 1 -8 2 -8 1 -7 2 -7 2 -14 7 -31 1 -5 
5 -14 1 -4 1 -4 2 -3 2 -5 2 -2 1 -1 3 -2 
5 3 2 2 8 18 4 13 3 9 1 4 1 5 5 13 
5 14 1 4 3 5 8 11 2 1 1 1 5 3 3 1 
6 3 1 1 3 3 7 10 5 12 4 11 1 3 13 31 
4 7 3 3 1 1 5 0 2 -1 1 -2 2 -1 5 -10 
3 -6 1 -3 7 -16 4 -8 7 -5 1 0 2 0 1 1 
8 16 1 4 2 5 3 9 2 11 2 5 1 6 1 5 
2 6 1 5 1 6 2 5 1 5 4 12 2 3 4 8 
5 2 3 -2 3 -5 2789 1777 300 MP stroke
1 -3 3 -7 4 -15 3 -11 2 -12 3 -12 4 -18 2 -6 
1 -5 1 -5 7 -20 1 -3 3 -4 2 -1 5 2 4 6 
1 3 3 8 3 8 5 20 4 14 6 16 3 6 6 7 
2 0 3 -3 4 -8 2 -7 2 -5 1 -5 6 -21 1 -6 
1 -6 2 -6 4 -17 1 -5 3 -10 1 -4 2 -4 1 -3 
1 -3 6 -7 1 0 3 1 3 2 1 2 4 9 1 3 
6 16 5 17 2 5 1 4 1 4 2 4 3 7 2 5 
4 6 10 0 4 -7 1 -3 3 -7 8 -27 2 -6 4 -16 
1 -5 2 -5 1 -6 1 -5 10 -30 3 -6 4 -8 2 -3 
4 -3 2 0 1 -1 2 0 5 2 7 3 3 2 2 1 
3 1 1 0 3 0 1 0 2 0 3 0 2 0 6 -1 
2 0 2 1 1 0 2 1 1 1 4 4 3 4 4 8 
1 3 10 27 3 8 1 4 7 18 1 2 3 3 1 1 
6 -4 5 -16 1 -6 2 -7 1 -8 2 -8 2 -20 3 -23 
4 -40 6 -60 6 -79 2 -15 2 -30 2 -14 1 -13 3 -24 
7 -44 1 -5 6 -9 1 1 1 2 2 4 1 5 1 6 
5 24 1 10 1 11 2 12 1 13 5 55 3 29 4 44 
2 14 1 13 3 26 2 24 3 21 2 9 1 9 1 7 
4 19 2 4 5 12 2 1 1 0 5 -2 2 -1 1 -2 
1 -2 2 -2 1 -2 2 -2 1 -3 1 -2 2 -2 2 -3 
6 -5 1 -1 2 0 1 0 1 1 4 3 2 1 3 4 
1 3 3 5 1 4 1 3 3 7 3 8 1 3 3 8 
3 8 4 12 4 10 3 5 1 3 1 2 2 2 2 3 
2 0 1 1 3 0 1 -1 3 -2 3 -4 1 -2 3 -6 
1 -4 1 -4 6 -19 1 -5 2 -6 5 -25 7 -36 3 -14 
1 -8 3 -14 5 -28 2 -7 1 -6 5 -23 3 -10 2 -4 
4 -11 2 -5 2 -2 4 -4 9 6 2 2 2 5 2 3 
3 7 5 16 1 4 6 16 1 4 2 4 1 4 1 4 
3 7 1 4 2 3 1 4 1 3 3 6 2 3 1 3 
1 2 2 3 2 5 2 2 1 3 3 4 5 8 3 3 
4 3 2 0 1 0 3 0 1 -1 1 -1 2 -2 4 -9 
1 -3 2 -5 6 -31 3 -16 3 -18 1 -10 2 -10 1 -11 
5 -43 3 -22 1 -11 2 -11 1 -10 3 -18 1 -9 2 -8 
1 -7 10 -23 5 9 4 19 1 8 2 9 1 10 3 22 
1 12 4 39 2 13 4 42 1 14 2 14 6 63 3 22 
2 10 1 9 1 9 2 7 1 7 1 6 2 5 1 5 
3 6 4 4 3 -1 2 -4 2 -3 13 -47 3 -11 10 -38 
2 -10 7 -22 12 -31 1964 2063 300 MP stroke
2 -3 1 -2 2 -3 1 -3 3 -5 1 -2 1 -3 3 -4 
6 -8 1 -2 1 -2 9 -9 4 -3 2 -3 4 -3 2 -1 
4 -5 3 -4 2 -5 3 -6 1 -4 2 -4 1 -4 2 -4 
1 -5 4 -16 3 -13 2 -13 2 -6 3 -14 1 -6 3 -13 
1 -7 5 -20 2 -4 5 -8 3 1 1 2 9 34 1 10 
1 10 2 11 1 12 1 13 2 14 11 126 4 50 1 16 
2 16 6 71 4 33 3 17 4 19 2 4 2 6 2 1 
2 0 9 -18 5 -25 1 -7 2 -7 3 -15 2 -17 3 -16 
3 -16 1 -8 2 -8 2 -15 2 -8 1 -7 3 -14 2 -13 
2 -6 1 -6 2 -5 2 -11 3 -9 4 -12 4 -9 2 -2 
1 -2 4 -5 3 -2 8 2 3 3 1 2 1 2 2 3 
1 3 1 3 5 9 1 4 7 18 4 9 1 3 2 2 
5 6 3 0 1 0 1 -2 2 -2 1 -2 2 -3 1 -4 
3 -9 5 -25 3 -15 5 -32 3 -16 1 -8 3 -15 2 -7 
2 -11 2 -5 1 -4 1 -4 2 -2 4 -1 3 4 1 4 
1 5 6 29 1 10 3 22 1 12 8 83 3 29 4 43 
2 14 2 26 4 34 2 10 1 10 1 8 2 7 1 7 
3 11 1 4 2 3 4 5 3 -1 1 -2 4 -8 1 -4 
2 -5 1 -5 3 -10 1 -6 8 -39 6 -26 3 -12 1 -5 
3 -10 1 -5 5 -13 2 -2 1 -2 3 -1 1 0 10 19 
4 16 1 6 3 14 7 35 3 13 2 12 3 9 1 4 
2 4 5 5 3 -2 1 -3 4 -12 2 -6 5 -28 2 -8 
2 -16 4 -25 3 -16 2 -7 2 -13 2 -5 1 -5 1 -4 
2 -3 4 -4 3 2 1 2 1 4 2 3 4 16 1 7 
3 14 1 7 2 8 1 7 1 8 2 7 2 15 2 6 
1 6 1 6 9 20 4 1 8 -17 1 -5 2 -5 1 -6 
4 -18 4 -19 2 -6 2 -12 3 -12 3 -10 5 -16 2 -3 
1 -3 3 -4 1 -2 1 -1 6 -3 1 0 2 1 1 0 
1 1 3 1 1 1 3 2 2 1 1 1 4 2 1 1 
2 0 1 1 1 0 2 0 1 0 2 0 2 -1 4 -3 
6 -5 1 -1 2 -2 1 -2 3 -3 2 -4 2 -2 1 -1 
6 -6 2 -2 2 0 1 -1 6 2 2 2 2 1 1 2 
5 8 3 6 3 5 3 5 1 2 1 2 2 2 2 3 
6 1 1 -1 3 -3 4 -9 7 -27 1 -6 3 -15 1 -7 
2 -8 2 -16 3 -15 3 -15 1 -7 2 -7 8 -27 3 -4 
2 0 4 5 2 3 4 14 5 26 2 7 1 8 4 24 
2 8 1 8 3 16 4 20 1 7 1 5 2 6 3 9 
2 7 8 8 7 -5 1168 1945 300 MP stroke
2 -1 2 -5 4 -7 6 -10 1 -2 4 -7 1149 1977 7 MP stroke
gr

c9
0 sg
4119 3979 mt 
(time step) s
 519 2347 mt  -90 rotate
(u) s
90 rotate
%%IncludeResource: font Times-Roman
/Times-Roman /ISOLatin1Encoding 192 FMSR

 639 2227 mt  -90 rotate
(x) s
90 rotate
%%IncludeResource: font Times-Roman
/Times-Roman /ISOLatin1Encoding 240 FMSR

 519 2131 mt  -90 rotate
( \(m/s\)) s
90 rotate
3763  215 mt 
(Jun2-Jul3, 2002) s
1115 3596 mt 
( ) s
7941  481 mt 
( ) s
6 w
1 sg
0 592 1835 0 0 -592 6076 1052 4 MP
PP
-1835 0 0 592 1835 0 0 -592 6076 1052 5 MP stroke
4 w
DO
SO
6 w
0 sg
6076 1052 mt 7911 1052 L
6076  460 mt 7911  460 L
6076 1052 mt 6076  460 L
7911 1052 mt 7911  460 L
6076 1052 mt 7911 1052 L
6076 1052 mt 6076  460 L
6076 1052 mt 7911 1052 L
6076  460 mt 7911  460 L
6076 1052 mt 6076  460 L
7911 1052 mt 7911  460 L
6527  699 mt 
(measurement) s
gs 6076 460 1836 593 rc
48 w
gr

48 w
gs 6148 446 341 341 rc
40 W
c8
6318 616 PD
gr

c8
gs 6076 460 1836 593 rc
gr

0 sg
6527  978 mt 
(regularization) s
gs 6076 460 1836 593 rc
c9
346 0 6145 895 2 MP stroke
6 w
gr

6 w
c9

end %%Color Dict

eplot
%%EndObject

epage
end

showpage

%%Trailer
%%EOF
