%!PS-Adobe-3.0 EPSF-3.0
%%Creator: MATLAB, The MathWorks, Inc. Version 8.1.0.604 (R2013a). Operating System: Darwin 12.5.0 Darwin Kernel Version 12.5.0: Sun Sep 29 13:33:47 PDT 2013; root:xnu-2050.48.12~1/RELEASE_X86_64 x86_64.
%%Title: /Users/bamdadhosseini/Work/Courses/apma990-machinelearning/MATLAB/wx_jul_aug_fit.eps
%%CreationDate: 01/12/2015  12:59:16
%%DocumentNeededFonts: Times-Roman
%%DocumentProcessColors: Cyan Magenta Yellow Black
%%LanguageLevel: 2
%%Pages: 1
%%BoundingBox:   -59   228   672   563
%%EndComments

%%BeginProlog
% MathWorks dictionary
/MathWorks 160 dict begin
% definition operators
/bdef {bind def} bind def
/ldef {load def} bind def
/xdef {exch def} bdef
/xstore {exch store} bdef
% operator abbreviations
/c  /clip ldef
/cc /concat ldef
/cp /closepath ldef
/gr /grestore ldef
/gs /gsave ldef
/mt /moveto ldef
/np /newpath ldef
/cm /currentmatrix ldef
/sm /setmatrix ldef
/rm /rmoveto ldef
/rl /rlineto ldef
/s {show newpath} bdef
/sc {setcmykcolor} bdef
/sr /setrgbcolor ldef
/sg /setgray ldef
/w /setlinewidth ldef
/j /setlinejoin ldef
/cap /setlinecap ldef
/rc {rectclip} bdef
/rf {rectfill} bdef
% page state control
/pgsv () def
/bpage {/pgsv save def} bdef
/epage {pgsv restore} bdef
/bplot /gsave ldef
/eplot {stroke grestore} bdef
% orientation switch
/portraitMode 0 def /landscapeMode 1 def /rotateMode 2 def
% coordinate system mappings
/dpi2point 0 def
% font control
/FontSize 0 def
/FMS {/FontSize xstore findfont [FontSize 0 0 FontSize neg 0 0]
  makefont setfont} bdef
/reencode {exch dup where {pop load} {pop StandardEncoding} ifelse
  exch dup 3 1 roll findfont dup length dict begin
  { 1 index /FID ne {def}{pop pop} ifelse } forall
  /Encoding exch def currentdict end definefont pop} bdef
/isroman {findfont /CharStrings get /Agrave known} bdef
/FMSR {3 1 roll 1 index dup isroman {reencode} {pop pop} ifelse
  exch FMS} bdef
/csm {1 dpi2point div -1 dpi2point div scale neg translate
 dup landscapeMode eq {pop -90 rotate}
  {rotateMode eq {90 rotate} if} ifelse} bdef
% line types: solid, dotted, dashed, dotdash
/SO { [] 0 setdash } bdef
/DO { [.5 dpi2point mul 4 dpi2point mul] 0 setdash } bdef
/DA { [6 dpi2point mul] 0 setdash } bdef
/DD { [.5 dpi2point mul 4 dpi2point mul 6 dpi2point mul 4
  dpi2point mul] 0 setdash } bdef
% macros for lines and objects
/L {lineto stroke} bdef
/MP {3 1 roll moveto 1 sub {rlineto} repeat} bdef
/AP {{rlineto} repeat} bdef
/PDlw -1 def
/W {/PDlw currentlinewidth def setlinewidth} def
/PP {closepath eofill} bdef
/DP {closepath stroke} bdef
/MR {4 -2 roll moveto dup  0 exch rlineto exch 0 rlineto
  neg 0 exch rlineto closepath} bdef
/FR {MR stroke} bdef
/PR {MR fill} bdef
/L1i {{currentfile picstr readhexstring pop} image} bdef
/tMatrix matrix def
/MakeOval {newpath tMatrix currentmatrix pop translate scale
0 0 1 0 360 arc tMatrix setmatrix} bdef
/FO {MakeOval stroke} bdef
/PO {MakeOval fill} bdef
/PD {currentlinewidth 2 div 0 360 arc fill
   PDlw -1 eq not {PDlw w /PDlw -1 def} if} def
/FA {newpath tMatrix currentmatrix pop translate scale
  0 0 1 5 -2 roll arc tMatrix setmatrix stroke} bdef
/PA {newpath tMatrix currentmatrix pop	translate 0 0 moveto scale
  0 0 1 5 -2 roll arc closepath tMatrix setmatrix fill} bdef
/FAn {newpath tMatrix currentmatrix pop translate scale
  0 0 1 5 -2 roll arcn tMatrix setmatrix stroke} bdef
/PAn {newpath tMatrix currentmatrix pop translate 0 0 moveto scale
  0 0 1 5 -2 roll arcn closepath tMatrix setmatrix fill} bdef
/vradius 0 def /hradius 0 def /lry 0 def
/lrx 0 def /uly 0 def /ulx 0 def /rad 0 def
/MRR {/vradius xdef /hradius xdef /lry xdef /lrx xdef /uly xdef
  /ulx xdef newpath tMatrix currentmatrix pop ulx hradius add uly
  vradius add translate hradius vradius scale 0 0 1 180 270 arc 
  tMatrix setmatrix lrx hradius sub uly vradius add translate
  hradius vradius scale 0 0 1 270 360 arc tMatrix setmatrix
  lrx hradius sub lry vradius sub translate hradius vradius scale
  0 0 1 0 90 arc tMatrix setmatrix ulx hradius add lry vradius sub
  translate hradius vradius scale 0 0 1 90 180 arc tMatrix setmatrix
  closepath} bdef
/FRR {MRR stroke } bdef
/PRR {MRR fill } bdef
/MlrRR {/lry xdef /lrx xdef /uly xdef /ulx xdef /rad lry uly sub 2 div def
  newpath tMatrix currentmatrix pop ulx rad add uly rad add translate
  rad rad scale 0 0 1 90 270 arc tMatrix setmatrix lrx rad sub lry rad
  sub translate rad rad scale 0 0 1 270 90 arc tMatrix setmatrix
  closepath} bdef
/FlrRR {MlrRR stroke } bdef
/PlrRR {MlrRR fill } bdef
/MtbRR {/lry xdef /lrx xdef /uly xdef /ulx xdef /rad lrx ulx sub 2 div def
  newpath tMatrix currentmatrix pop ulx rad add uly rad add translate
  rad rad scale 0 0 1 180 360 arc tMatrix setmatrix lrx rad sub lry rad
  sub translate rad rad scale 0 0 1 0 180 arc tMatrix setmatrix
  closepath} bdef
/FtbRR {MtbRR stroke } bdef
/PtbRR {MtbRR fill } bdef
/stri 6 array def /dtri 6 array def
/smat 6 array def /dmat 6 array def
/tmat1 6 array def /tmat2 6 array def /dif 3 array def
/asub {/ind2 exch def /ind1 exch def dup dup
  ind1 get exch ind2 get sub exch } bdef
/tri_to_matrix {
  2 0 asub 3 1 asub 4 0 asub 5 1 asub
  dup 0 get exch 1 get 7 -1 roll astore } bdef
/compute_transform {
  dmat dtri tri_to_matrix tmat1 invertmatrix 
  smat stri tri_to_matrix tmat2 concatmatrix } bdef
/ds {stri astore pop} bdef
/dt {dtri astore pop} bdef
/db {2 copy /cols xdef /rows xdef mul dup 3 mul string
  currentfile 
  3 index 0 eq {/ASCIIHexDecode filter}
  {/ASCII85Decode filter 3 index 2 eq {/RunLengthDecode filter} if }
  ifelse exch readstring pop
  dup 0 3 index getinterval /rbmap xdef
  dup 2 index dup getinterval /gbmap xdef
  1 index dup 2 mul exch getinterval /bbmap xdef pop pop}bdef
/it {gs np dtri aload pop moveto lineto lineto cp c
  cols rows 8 compute_transform 
  rbmap gbmap bbmap true 3 colorimage gr}bdef
/il {newpath moveto lineto stroke}bdef
currentdict end def
%%EndProlog

%%BeginSetup
MathWorks begin

0 cap

end
%%EndSetup

%%Page: 1 1
%%BeginPageSetup
%%PageBoundingBox:   -59   228   672   563
MathWorks begin
bpage
%%EndPageSetup

%%BeginObject: obj1
bplot

/dpi2point 12 def
portraitMode -0708 6756 csm

    0     0  8783  4020 rc
85 dict begin %Colortable dictionary
/c0 { 0.000000 0.000000 0.000000 sr} bdef
/c1 { 1.000000 1.000000 1.000000 sr} bdef
/c2 { 0.900000 0.000000 0.000000 sr} bdef
/c3 { 0.000000 0.820000 0.000000 sr} bdef
/c4 { 0.000000 0.000000 0.800000 sr} bdef
/c5 { 0.910000 0.820000 0.320000 sr} bdef
/c6 { 1.000000 0.260000 0.820000 sr} bdef
/c7 { 0.000000 0.820000 0.820000 sr} bdef
c0
1 j
1 sg
   0    0 8784 4021 rf
6 w
0 3101 6807 0 0 -3101 1142 3500 4 MP
PP
-6807 0 0 3101 6807 0 0 -3101 1142 3500 5 MP stroke
4 w
DO
SO
6 w
0 sg
1142 3500 mt 7949 3500 L
1142 3500 mt 1142  399 L
1142 3500 mt 1142 3431 L
%%IncludeResource: font Times-Roman
/Times-Roman /ISOLatin1Encoding 240 FMSR

1082 3749 mt 
(0) s
2503 3500 mt 2503 3431 L
2263 3749 mt 
(1000) s
3864 3500 mt 3864 3431 L
3624 3749 mt 
(2000) s
5226 3500 mt 5226 3431 L
4986 3749 mt 
(3000) s
6587 3500 mt 6587 3431 L
6347 3749 mt 
(4000) s
7949 3500 mt 7949 3431 L
7709 3749 mt 
(5000) s
1142 3500 mt 1210 3500 L
 732 3586 mt 
(-10) s
1142 2724 mt 1210 2724 L
 852 2810 mt 
(-5) s
1142 1949 mt 1210 1949 L
 987 2035 mt 
(0) s
1142 1174 mt 1210 1174 L
 987 1260 mt 
(5) s
1142  399 mt 1210  399 L
 867  485 mt 
(10) s
gs 1142 399 6808 3102 rc
48 w
gr

48 w
40 W
/c8 { 0.000000 0.000000 1.000000 sr} bdef
c8
1143 2223 PD
40 W
1147 2239 PD
40 W
1148 2110 PD
40 W
1155 2114 PD
40 W
1156 2117 PD
40 W
1158 2110 PD
40 W
1163 2110 PD
40 W
1171 2145 PD
40 W
1173 2041 PD
40 W
1180 2108 PD
40 W
1182 2110 PD
40 W
1185 2093 PD
40 W
1186 2064 PD
40 W
1188 2110 PD
40 W
1189 2110 PD
40 W
1193 2096 PD
40 W
1196 2162 PD
40 W
1197 2147 PD
40 W
1200 2171 PD
40 W
1201 2123 PD
40 W
1208 2163 PD
40 W
1210 2257 PD
40 W
1214 2127 PD
40 W
1216 2140 PD
40 W
1218 2083 PD
40 W
1220 1961 PD
40 W
1222 2162 PD
40 W
1231 1997 PD
40 W
1233 2084 PD
40 W
1237 2138 PD
40 W
1238 2264 PD
40 W
1241 2247 PD
40 W
1244 2198 PD
40 W
1245 2207 PD
40 W
1246 2267 PD
40 W
1248 2300 PD
40 W
1249 2360 PD
40 W
1252 2295 PD
40 W
1253 2372 PD
40 W
1261 2437 PD
40 W
1263 2268 PD
40 W
1264 1949 PD
40 W
1268 1964 PD
40 W
1269 2054 PD
40 W
1271 1829 PD
40 W
1272 2133 PD
40 W
1276 2169 PD
40 W
1283 2352 PD
40 W
1289 1903 PD
40 W
1291 1828 PD
40 W
1293 1968 PD
40 W
1299 2002 PD
40 W
1301 1881 PD
40 W
1302 1758 PD
40 W
1308 1848 PD
40 W
1310 2013 PD
40 W
1314 2015 PD
40 W
1317 1859 PD
40 W
1320 2000 PD
40 W
1321 1903 PD
40 W
1323 1866 PD
40 W
1328 2033 PD
40 W
1339 2115 PD
40 W
1340 2024 PD
40 W
1342 2074 PD
40 W
1343 1994 PD
40 W
1344 2093 PD
40 W
1347 2100 PD
40 W
1350 1933 PD
40 W
1354 1770 PD
40 W
1355 2002 PD
40 W
1362 1854 PD
40 W
1365 1766 PD
40 W
1366 1825 PD
40 W
1367 1841 PD
40 W
1372 1903 PD
40 W
1374 1817 PD
40 W
1377 1980 PD
40 W
1378 1644 PD
40 W
1380 1903 PD
40 W
1381 1848 PD
40 W
1384 1812 PD
40 W
1387 1935 PD
40 W
1389 1603 PD
40 W
1392 1931 PD
40 W
1396 1875 PD
40 W
1397 2271 PD
40 W
1399 1985 PD
40 W
1404 1844 PD
40 W
1406 2140 PD
40 W
1407 1768 PD
40 W
1408 1938 PD
40 W
1410 1925 PD
40 W
1411 1872 PD
40 W
1414 1947 PD
40 W
1421 1466 PD
40 W
1425 1644 PD
40 W
1430 1575 PD
40 W
1436 1510 PD
40 W
1438 1451 PD
40 W
1442 1601 PD
40 W
1444 1740 PD
40 W
1446 1878 PD
40 W
1451 1665 PD
40 W
1455 1905 PD
40 W
1456 1975 PD
40 W
1457 1875 PD
40 W
1459 1975 PD
40 W
1461 1897 PD
40 W
1463 1907 PD
40 W
1464 1896 PD
40 W
1467 2094 PD
40 W
1470 2065 PD
40 W
1471 1675 PD
40 W
1472 1700 PD
40 W
1474 1909 PD
40 W
1476 1814 PD
40 W
1479 1720 PD
40 W
1480 1770 PD
40 W
1483 1777 PD
40 W
1485 1976 PD
40 W
1486 1979 PD
40 W
1490 2149 PD
40 W
1491 2001 PD
40 W
1493 1905 PD
40 W
1494 1930 PD
40 W
1495 1784 PD
40 W
1502 1974 PD
40 W
1505 2043 PD
40 W
1506 1846 PD
40 W
1508 1869 PD
40 W
1510 1680 PD
40 W
1512 1831 PD
40 W
1513 1981 PD
40 W
1515 1701 PD
40 W
1517 1734 PD
40 W
1519 1818 PD
40 W
1521 2131 PD
40 W
1523 1961 PD
40 W
1524 2126 PD
40 W
1525 1938 PD
40 W
1528 2003 PD
40 W
1529 1618 PD
40 W
1531 1835 PD
40 W
1532 1543 PD
40 W
1534 1873 PD
40 W
1538 1838 PD
40 W
1542 1809 PD
40 W
1543 2027 PD
40 W
1544 1613 PD
40 W
1546 1835 PD
40 W
1549 1868 PD
40 W
1550 1907 PD
40 W
1559 1834 PD
40 W
1562 1719 PD
40 W
1564 1919 PD
40 W
1565 1947 PD
40 W
1568 1784 PD
40 W
1569 1825 PD
40 W
1573 1937 PD
40 W
1576 1849 PD
40 W
1577 1808 PD
40 W
1579 1819 PD
40 W
1580 1854 PD
40 W
1581 2043 PD
40 W
1584 1828 PD
40 W
1585 1769 PD
40 W
1587 1947 PD
40 W
1588 1937 PD
40 W
1591 1871 PD
40 W
1592 1893 PD
40 W
1596 2037 PD
40 W
1598 1929 PD
40 W
1599 1915 PD
40 W
1606 1923 PD
40 W
1610 1890 PD
40 W
1613 1806 PD
40 W
1619 1842 PD
40 W
1621 1704 PD
40 W
1623 1661 PD
40 W
1625 1679 PD
40 W
1626 1900 PD
40 W
1634 1614 PD
40 W
1644 2213 PD
40 W
1645 2223 PD
40 W
1648 2097 PD
40 W
1652 2273 PD
40 W
1653 2030 PD
40 W
1655 1997 PD
40 W
1656 2342 PD
40 W
1659 2124 PD
40 W
1662 2245 PD
40 W
1664 2123 PD
40 W
1666 2295 PD
40 W
1667 2065 PD
40 W
1668 2141 PD
40 W
1670 2177 PD
40 W
1671 2213 PD
40 W
1675 2149 PD
40 W
1679 2149 PD
40 W
1681 2148 PD
40 W
1682 2136 PD
40 W
1683 2068 PD
40 W
1685 2055 PD
40 W
1686 2007 PD
40 W
1687 1987 PD
40 W
1690 1985 PD
40 W
1693 2028 PD
40 W
1696 2011 PD
40 W
1704 1992 PD
40 W
1705 2067 PD
40 W
1708 1893 PD
40 W
1709 1996 PD
40 W
1715 2013 PD
40 W
1721 2018 PD
40 W
1723 2110 PD
40 W
1732 2042 PD
40 W
1735 1925 PD
40 W
1738 1897 PD
40 W
1741 1907 PD
40 W
1742 1927 PD
40 W
1743 1908 PD
40 W
1745 1991 PD
40 W
1746 2025 PD
40 W
1757 2084 PD
40 W
1760 2110 PD
40 W
1762 2024 PD
40 W
1766 2110 PD
40 W
1768 2219 PD
40 W
1769 2126 PD
40 W
1777 2110 PD
40 W
1781 2069 PD
40 W
1788 2141 PD
40 W
1792 2110 PD
40 W
1796 2110 PD
40 W
1800 2183 PD
40 W
1802 2223 PD
40 W
1803 2118 PD
40 W
1807 2041 PD
40 W
1809 1955 PD
40 W
1811 2110 PD
40 W
1814 1975 PD
40 W
1815 2129 PD
40 W
1818 2135 PD
40 W
1819 1927 PD
40 W
1821 1513 PD
40 W
1824 1849 PD
40 W
1826 1863 PD
40 W
1828 1911 PD
40 W
1829 2017 PD
40 W
1832 1912 PD
40 W
1834 2114 PD
40 W
1836 2116 PD
40 W
1840 1968 PD
40 W
1841 2145 PD
40 W
1844 2106 PD
40 W
1849 2393 PD
40 W
1852 2431 PD
40 W
1854 2318 PD
40 W
1855 2381 PD
40 W
1856 2310 PD
40 W
1859 2325 PD
40 W
1863 1988 PD
40 W
1864 2169 PD
40 W
1867 2047 PD
40 W
1868 2058 PD
40 W
1870 2067 PD
40 W
1871 2131 PD
40 W
1873 1709 PD
40 W
1875 1922 PD
40 W
1877 1841 PD
40 W
1878 2118 PD
40 W
1881 2155 PD
40 W
1882 1723 PD
40 W
1888 1902 PD
40 W
1889 2102 PD
40 W
1892 2110 PD
40 W
1894 1913 PD
40 W
1897 1908 PD
40 W
1900 1909 PD
40 W
1901 1951 PD
40 W
1903 1935 PD
40 W
1904 1881 PD
40 W
1907 1721 PD
40 W
1908 1822 PD
40 W
1912 1764 PD
40 W
1917 1676 PD
40 W
1920 1895 PD
40 W
1924 1822 PD
40 W
1926 1816 PD
40 W
1928 1827 PD
40 W
1930 1666 PD
40 W
1931 1683 PD
40 W
1934 1739 PD
40 W
1935 1822 PD
40 W
1938 1844 PD
40 W
1939 1725 PD
40 W
1942 1970 PD
40 W
1943 1940 PD
40 W
1946 1852 PD
40 W
1949 1919 PD
40 W
1950 1720 PD
40 W
1952 1924 PD
40 W
1953 1906 PD
40 W
1957 1761 PD
40 W
1965 1732 PD
40 W
1967 1770 PD
40 W
1968 1812 PD
40 W
1975 1697 PD
40 W
1977 1777 PD
40 W
1979 1914 PD
40 W
1981 1888 PD
40 W
1986 1783 PD
40 W
1987 1876 PD
40 W
1990 1823 PD
40 W
1996 1906 PD
40 W
1999 1772 PD
40 W
2007 1949 PD
40 W
2009 2258 PD
40 W
2011 1908 PD
40 W
2014 2184 PD
40 W
2016 2124 PD
40 W
2017 2238 PD
40 W
2020 1933 PD
40 W
2021 1939 PD
40 W
2022 1945 PD
40 W
2029 2022 PD
40 W
2030 2074 PD
40 W
2036 1962 PD
40 W
2037 2276 PD
40 W
2039 2105 PD
40 W
2041 2113 PD
40 W
2045 1925 PD
40 W
2047 1712 PD
40 W
2048 1820 PD
40 W
2050 1970 PD
40 W
2051 1947 PD
40 W
2054 2229 PD
40 W
2055 2046 PD
40 W
2060 1828 PD
40 W
2067 1990 PD
40 W
2071 1867 PD
40 W
2075 1990 PD
40 W
2078 1987 PD
40 W
2080 2019 PD
40 W
2081 2104 PD
40 W
2082 2148 PD
40 W
2085 1914 PD
40 W
2088 1882 PD
40 W
2090 1897 PD
40 W
2097 1840 PD
40 W
2099 2081 PD
40 W
2103 1915 PD
40 W
2104 1636 PD
40 W
2105 1703 PD
40 W
2114 1742 PD
40 W
2115 1870 PD
40 W
2119 1867 PD
40 W
2122 1761 PD
40 W
2124 1956 PD
40 W
2126 1871 PD
40 W
2131 2110 PD
40 W
2134 2110 PD
40 W
2141 2110 PD
40 W
2150 2053 PD
40 W
2152 2083 PD
40 W
2156 2030 PD
40 W
2157 2110 PD
40 W
2158 2110 PD
40 W
2165 2105 PD
40 W
2167 2110 PD
40 W
2171 2110 PD
40 W
2178 2110 PD
40 W
2179 2028 PD
40 W
2180 2110 PD
40 W
2183 2110 PD
40 W
2187 2110 PD
40 W
2191 2195 PD
40 W
2193 2161 PD
40 W
2199 2178 PD
40 W
2201 2246 PD
40 W
2203 2110 PD
40 W
2205 2156 PD
40 W
2207 2202 PD
40 W
2214 2221 PD
40 W
2216 2255 PD
40 W
2218 2228 PD
40 W
2220 2257 PD
40 W
2222 2192 PD
40 W
2224 2254 PD
40 W
2227 2214 PD
40 W
2229 2238 PD
40 W
2235 2198 PD
40 W
2240 2207 PD
40 W
2242 2145 PD
40 W
2243 2294 PD
40 W
2244 2319 PD
40 W
2246 2176 PD
40 W
2251 2183 PD
40 W
2252 2212 PD
40 W
2255 2189 PD
40 W
2261 2146 PD
40 W
2265 1648 PD
40 W
2266 1666 PD
40 W
2267 1611 PD
40 W
2271 1920 PD
40 W
2273 1984 PD
40 W
2276 1816 PD
40 W
2278 1900 PD
40 W
2280 1906 PD
40 W
2284 2110 PD
40 W
2285 1791 PD
40 W
2286 1713 PD
40 W
2288 1776 PD
40 W
2289 1838 PD
40 W
2291 1903 PD
40 W
2292 1657 PD
40 W
2295 1687 PD
40 W
2296 1773 PD
40 W
2299 1868 PD
40 W
2301 1843 PD
40 W
2303 1936 PD
40 W
2304 1952 PD
40 W
2305 1943 PD
40 W
2307 2393 PD
40 W
2308 2281 PD
40 W
2310 1945 PD
40 W
2314 2153 PD
40 W
2316 2292 PD
40 W
2319 1978 PD
40 W
2320 1732 PD
40 W
2329 2056 PD
40 W
2330 2089 PD
40 W
2331 2103 PD
40 W
2334 2154 PD
40 W
2340 2123 PD
40 W
2350 2103 PD
40 W
2352 2247 PD
40 W
2353 2207 PD
40 W
2360 2250 PD
40 W
2363 2389 PD
40 W
2364 2205 PD
40 W
2365 2089 PD
40 W
2369 2164 PD
40 W
2371 2159 PD
40 W
2372 2104 PD
40 W
2376 2183 PD
40 W
2380 2227 PD
40 W
2382 2313 PD
40 W
2386 2373 PD
40 W
2387 2234 PD
40 W
2393 2219 PD
40 W
2394 2250 PD
40 W
2397 2290 PD
40 W
2398 2151 PD
40 W
2404 2255 PD
40 W
2405 2332 PD
40 W
2409 2220 PD
40 W
2412 2289 PD
40 W
2414 2295 PD
40 W
2417 2241 PD
40 W
2420 2176 PD
40 W
2421 2289 PD
40 W
2425 2213 PD
40 W
2428 2243 PD
40 W
2433 2085 PD
40 W
2435 2150 PD
40 W
2436 2180 PD
40 W
2440 2213 PD
40 W
2443 2278 PD
40 W
2444 2336 PD
40 W
2446 2221 PD
40 W
2447 2322 PD
40 W
2461 1997 PD
40 W
2463 2012 PD
40 W
2468 2285 PD
40 W
2469 2156 PD
40 W
2470 2164 PD
40 W
2472 2146 PD
40 W
2473 2145 PD
40 W
2474 2089 PD
40 W
2476 1934 PD
40 W
2478 1987 PD
40 W
2481 2110 PD
40 W
2482 1951 PD
40 W
2488 2110 PD
40 W
2495 2249 PD
40 W
2497 2151 PD
40 W
2502 2110 PD
40 W
2503 2217 PD
40 W
2506 2110 PD
40 W
2508 2189 PD
40 W
2511 2110 PD
40 W
2517 2110 PD
40 W
2522 2163 PD
40 W
2523 2200 PD
40 W
2525 2126 PD
40 W
2526 2208 PD
40 W
2530 2216 PD
40 W
2531 2151 PD
40 W
2533 2138 PD
40 W
2534 2129 PD
40 W
2542 2110 PD
40 W
2544 2141 PD
40 W
2548 2121 PD
40 W
2553 2110 PD
40 W
2560 2110 PD
40 W
2563 2110 PD
40 W
2564 2110 PD
40 W
2568 2110 PD
40 W
2571 2110 PD
40 W
2575 2187 PD
40 W
2580 2144 PD
40 W
2582 2151 PD
40 W
2585 2173 PD
40 W
2591 2210 PD
40 W
2595 2189 PD
40 W
2602 2108 PD
40 W
2605 2162 PD
40 W
2608 2166 PD
40 W
2610 2312 PD
40 W
2613 2136 PD
40 W
2615 2338 PD
40 W
2617 2168 PD
40 W
2628 2458 PD
40 W
2631 2962 PD
40 W
2634 2461 PD
40 W
2635 2042 PD
40 W
2639 2318 PD
40 W
2640 1973 PD
40 W
2642 2211 PD
40 W
2643 1996 PD
40 W
2646 1999 PD
40 W
2647 2311 PD
40 W
2649 2148 PD
40 W
2650 2227 PD
40 W
2653 2131 PD
40 W
2654 2245 PD
40 W
2661 2018 PD
40 W
2664 2078 PD
40 W
2666 2058 PD
40 W
2670 1794 PD
40 W
2672 1791 PD
40 W
2674 1889 PD
40 W
2677 2021 PD
40 W
2680 2078 PD
40 W
2681 1963 PD
40 W
2684 1812 PD
40 W
2685 2080 PD
40 W
2688 2110 PD
40 W
2689 2038 PD
40 W
2691 2068 PD
40 W
2693 2085 PD
40 W
2696 1930 PD
40 W
2698 2110 PD
40 W
2699 1890 PD
40 W
2700 1834 PD
40 W
2706 1722 PD
40 W
2707 2080 PD
40 W
2708 1819 PD
40 W
2710 1819 PD
40 W
2711 1978 PD
40 W
2713 1895 PD
40 W
2717 1913 PD
40 W
2719 1701 PD
40 W
2721 2065 PD
40 W
2723 1806 PD
40 W
2726 1675 PD
40 W
2728 1715 PD
40 W
2729 1874 PD
40 W
2730 1809 PD
40 W
2732 1786 PD
40 W
2736 1856 PD
40 W
2737 1840 PD
40 W
2745 1558 PD
40 W
2747 1665 PD
40 W
2749 1874 PD
40 W
2752 1752 PD
40 W
2756 1781 PD
40 W
2757 1599 PD
40 W
2759 1660 PD
40 W
2763 1489 PD
40 W
2764 1640 PD
40 W
2767 1734 PD
40 W
2768 1536 PD
40 W
2771 1394 PD
40 W
2778 1751 PD
40 W
2781 1610 PD
40 W
2782 1645 PD
40 W
2783 1812 PD
40 W
2786 2069 PD
40 W
2789 2181 PD
40 W
2792 1813 PD
40 W
2796 2070 PD
40 W
2797 2344 PD
40 W
2798 1928 PD
40 W
2802 1849 PD
40 W
2808 2029 PD
40 W
2809 1893 PD
40 W
2811 1906 PD
40 W
2812 2059 PD
40 W
2813 2052 PD
40 W
2820 2264 PD
40 W
2823 2306 PD
40 W
2824 2247 PD
40 W
2826 2329 PD
40 W
2827 2351 PD
40 W
2828 2342 PD
40 W
2831 2280 PD
40 W
2834 2218 PD
40 W
2835 2037 PD
40 W
2836 2261 PD
40 W
2838 2202 PD
40 W
2843 2303 PD
40 W
2850 2343 PD
40 W
2853 2223 PD
40 W
2857 2134 PD
40 W
2861 2016 PD
40 W
2862 1906 PD
40 W
2866 2108 PD
40 W
2869 2075 PD
40 W
2872 1788 PD
40 W
2875 2098 PD
40 W
2876 2110 PD
40 W
2877 2027 PD
40 W
2879 2071 PD
40 W
2881 1991 PD
40 W
2883 1984 PD
40 W
2890 1771 PD
40 W
2891 1937 PD
40 W
2892 1794 PD
40 W
2895 1712 PD
40 W
2896 1777 PD
40 W
2898 1811 PD
40 W
2900 1724 PD
40 W
2902 1902 PD
40 W
2907 1921 PD
40 W
2910 1908 PD
40 W
2913 1616 PD
40 W
2915 1723 PD
40 W
2918 1596 PD
40 W
2921 1613 PD
40 W
2922 1679 PD
40 W
2924 1519 PD
40 W
2925 1822 PD
40 W
2928 1697 PD
40 W
2929 1659 PD
40 W
2930 1737 PD
40 W
2933 1914 PD
40 W
2937 1756 PD
40 W
2941 1729 PD
40 W
2945 1720 PD
40 W
2947 1861 PD
40 W
2948 1579 PD
40 W
2949 1541 PD
40 W
2951 1711 PD
40 W
2952 1771 PD
40 W
2955 1594 PD
40 W
2956 1553 PD
40 W
2958 1721 PD
40 W
2960 1810 PD
40 W
2962 1661 PD
40 W
2964 1608 PD
40 W
2970 1856 PD
40 W
2971 1592 PD
40 W
2974 1466 PD
40 W
2977 1804 PD
40 W
2978 1496 PD
40 W
2979 1464 PD
40 W
2981 1707 PD
40 W
2983 1578 PD
40 W
2985 1443 PD
40 W
2989 1874 PD
40 W
2990 1551 PD
40 W
2992 1627 PD
40 W
2996 1834 PD
40 W
2997 1940 PD
40 W
2998 1771 PD
40 W
3000 1705 PD
40 W
3005 1585 PD
40 W
3007 1617 PD
40 W
3011 1733 PD
40 W
3012 1844 PD
40 W
3013 1803 PD
40 W
3015 1867 PD
40 W
3016 2276 PD
40 W
3019 2131 PD
40 W
3024 2006 PD
40 W
3026 2027 PD
40 W
3034 2274 PD
40 W
3037 2327 PD
40 W
3039 2340 PD
40 W
3041 2456 PD
40 W
3042 2544 PD
40 W
3049 1967 PD
40 W
3050 2365 PD
40 W
3052 2174 PD
40 W
3054 2085 PD
40 W
3056 2032 PD
40 W
3061 1945 PD
40 W
3067 1949 PD
40 W
3068 1986 PD
40 W
3071 2091 PD
40 W
3079 1866 PD
40 W
3080 1678 PD
40 W
3081 1732 PD
40 W
3083 1667 PD
40 W
3084 1635 PD
40 W
3086 1718 PD
40 W
3092 1847 PD
40 W
3106 1783 PD
40 W
3109 2038 PD
40 W
3110 1807 PD
40 W
3114 1946 PD
40 W
3116 1848 PD
40 W
3118 1710 PD
40 W
3120 1768 PD
40 W
3124 1927 PD
40 W
3125 2110 PD
40 W
3128 1735 PD
40 W
3129 1937 PD
40 W
3133 1801 PD
40 W
3135 1977 PD
40 W
3141 2069 PD
40 W
3143 1794 PD
40 W
3144 2110 PD
40 W
3145 2079 PD
40 W
3147 1931 PD
40 W
3148 1954 PD
40 W
3150 2058 PD
40 W
3151 2107 PD
40 W
3159 2110 PD
40 W
3163 2170 PD
40 W
3165 2186 PD
40 W
3169 2269 PD
40 W
3175 2376 PD
40 W
3178 2343 PD
40 W
3181 2546 PD
40 W
3186 2415 PD
40 W
3190 2481 PD
40 W
3194 2465 PD
40 W
3197 1747 PD
40 W
3199 1517 PD
40 W
3201 1952 PD
40 W
3203 1936 PD
40 W
3207 1860 PD
40 W
3211 2011 PD
40 W
3214 1628 PD
40 W
3215 2035 PD
40 W
3224 2330 PD
40 W
3227 2209 PD
40 W
3229 1988 PD
40 W
3230 1889 PD
40 W
3231 2140 PD
40 W
3238 2143 PD
40 W
3239 2437 PD
40 W
3241 2086 PD
40 W
3244 2087 PD
40 W
3246 1697 PD
40 W
3248 1776 PD
40 W
3249 1813 PD
40 W
3250 1690 PD
40 W
3252 1755 PD
40 W
3253 1821 PD
40 W
3254 1999 PD
40 W
3256 1898 PD
40 W
3258 1837 PD
40 W
3263 1946 PD
40 W
3264 1923 PD
40 W
3265 1944 PD
40 W
3267 1592 PD
40 W
3268 1612 PD
40 W
3269 1772 PD
40 W
3272 1978 PD
40 W
3276 1757 PD
40 W
3279 1669 PD
40 W
3280 1757 PD
40 W
3283 1830 PD
40 W
3284 1576 PD
40 W
3286 1865 PD
40 W
3288 1519 PD
40 W
3290 1750 PD
40 W
3293 1855 PD
40 W
3294 1686 PD
40 W
3297 1701 PD
40 W
3301 1668 PD
40 W
3302 1629 PD
40 W
3303 1635 PD
40 W
3305 1678 PD
40 W
3309 1652 PD
40 W
3312 1658 PD
40 W
3313 1691 PD
40 W
3314 1645 PD
40 W
3320 1550 PD
40 W
3321 1605 PD
40 W
3328 1614 PD
40 W
3335 1651 PD
40 W
3336 1763 PD
40 W
3342 1684 PD
40 W
3343 1665 PD
40 W
3346 1793 PD
40 W
3351 1604 PD
40 W
3354 1816 PD
40 W
3355 1849 PD
40 W
3358 1718 PD
40 W
3359 1808 PD
40 W
3361 1677 PD
40 W
3363 1883 PD
40 W
3370 1629 PD
40 W
3371 1551 PD
40 W
3373 1427 PD
40 W
3374 1344 PD
40 W
3376 1572 PD
40 W
3378 1518 PD
40 W
3380 1529 PD
40 W
3381 1518 PD
40 W
3385 1586 PD
40 W
3386 1600 PD
40 W
3388 1613 PD
40 W
3391 1652 PD
40 W
3392 1592 PD
40 W
3393 1716 PD
40 W
3395 1768 PD
40 W
3396 1589 PD
40 W
3397 1611 PD
40 W
3400 1604 PD
40 W
3401 1627 PD
40 W
3403 1785 PD
40 W
3404 1613 PD
40 W
3406 1626 PD
40 W
3407 1822 PD
40 W
3408 2036 PD
40 W
3415 2044 PD
40 W
3418 2349 PD
40 W
3423 2159 PD
40 W
3425 2171 PD
40 W
3429 2176 PD
40 W
3431 2073 PD
40 W
3433 2091 PD
40 W
3435 2246 PD
40 W
3442 2134 PD
40 W
3444 2215 PD
40 W
3449 2028 PD
40 W
3452 1998 PD
40 W
3457 1948 PD
40 W
3463 1861 PD
40 W
3465 1900 PD
40 W
3468 1906 PD
40 W
3469 1924 PD
40 W
3475 1655 PD
40 W
3480 1979 PD
40 W
3483 1760 PD
40 W
3484 1885 PD
40 W
3490 1834 PD
40 W
3491 1817 PD
40 W
3494 1582 PD
40 W
3497 1873 PD
40 W
3498 1745 PD
40 W
3502 1813 PD
40 W
3504 1796 PD
40 W
3505 1809 PD
40 W
3506 1842 PD
40 W
3514 1680 PD
40 W
3516 1814 PD
40 W
3517 1723 PD
40 W
3524 1827 PD
40 W
3527 1932 PD
40 W
3529 1836 PD
40 W
3531 1903 PD
40 W
3538 1856 PD
40 W
3544 1740 PD
40 W
3546 1657 PD
40 W
3547 1864 PD
40 W
3548 1822 PD
40 W
3551 1897 PD
40 W
3553 2083 PD
40 W
3555 2092 PD
40 W
3559 1706 PD
40 W
3561 1755 PD
40 W
3562 1884 PD
40 W
3563 1826 PD
40 W
3565 1559 PD
40 W
3568 1639 PD
40 W
3572 1854 PD
40 W
3580 1231 PD
40 W
3581 1614 PD
40 W
3582 1737 PD
40 W
3584 1699 PD
40 W
3585 1568 PD
40 W
3587 1383 PD
40 W
3589 1380 PD
40 W
3591 1493 PD
40 W
3592 1430 PD
40 W
3593 1491 PD
40 W
3596 1602 PD
40 W
3602 1533 PD
40 W
3603 1611 PD
40 W
3608 1765 PD
40 W
3610 1641 PD
40 W
3612 1896 PD
40 W
3614 1761 PD
40 W
3617 1691 PD
40 W
3618 1779 PD
40 W
3621 1902 PD
40 W
3623 1663 PD
40 W
3626 1543 PD
40 W
3632 1897 PD
40 W
3633 1745 PD
40 W
3638 1873 PD
40 W
3640 1695 PD
40 W
3641 1918 PD
40 W
3642 1752 PD
40 W
3645 1855 PD
40 W
3646 1871 PD
40 W
3649 1702 PD
40 W
3651 1711 PD
40 W
3652 1658 PD
40 W
3655 1446 PD
40 W
3659 1635 PD
40 W
3660 1625 PD
40 W
3664 1669 PD
40 W
3668 1677 PD
40 W
3675 1806 PD
40 W
3679 1838 PD
40 W
3682 1814 PD
40 W
3683 1728 PD
40 W
3685 1640 PD
40 W
3686 1741 PD
40 W
3693 1656 PD
40 W
3694 1967 PD
40 W
3700 1869 PD
40 W
3701 1924 PD
40 W
3704 1752 PD
40 W
3706 1729 PD
40 W
3708 1715 PD
40 W
3712 1941 PD
40 W
3713 1941 PD
40 W
3715 1754 PD
40 W
3719 1697 PD
40 W
3724 1840 PD
40 W
3731 1828 PD
40 W
3732 1736 PD
40 W
3735 1914 PD
40 W
3739 1864 PD
40 W
3742 1758 PD
40 W
3750 1905 PD
40 W
3751 1937 PD
40 W
3755 1931 PD
40 W
3758 1965 PD
40 W
3761 2007 PD
40 W
3765 1827 PD
40 W
3766 1859 PD
40 W
3769 1928 PD
40 W
3773 1860 PD
40 W
3774 2013 PD
40 W
3783 1744 PD
40 W
3788 1802 PD
40 W
3789 1762 PD
40 W
3792 1767 PD
40 W
3794 1836 PD
40 W
3798 1802 PD
40 W
3799 1743 PD
40 W
3802 1871 PD
40 W
3804 1865 PD
40 W
3807 2311 PD
40 W
3814 2125 PD
40 W
3818 2207 PD
40 W
3819 2219 PD
40 W
3821 2180 PD
40 W
3822 2139 PD
40 W
3823 2110 PD
40 W
3830 2249 PD
40 W
3833 2354 PD
40 W
3834 2496 PD
40 W
3838 2837 PD
40 W
3840 2352 PD
40 W
3841 2302 PD
40 W
3844 2278 PD
40 W
3847 2227 PD
40 W
3848 2220 PD
40 W
3851 2177 PD
40 W
3853 2065 PD
40 W
3855 2083 PD
40 W
3856 1990 PD
40 W
3860 2068 PD
40 W
3862 2110 PD
40 W
3863 2239 PD
40 W
3864 2110 PD
40 W
3868 2110 PD
40 W
3872 2018 PD
40 W
3874 2159 PD
40 W
3875 2172 PD
40 W
3877 2124 PD
40 W
3881 2083 PD
40 W
3882 2109 PD
40 W
3894 2054 PD
40 W
3896 2091 PD
40 W
3898 2110 PD
40 W
3900 2110 PD
40 W
3904 2110 PD
40 W
3909 2110 PD
40 W
3911 2109 PD
40 W
3912 1869 PD
40 W
3913 2083 PD
40 W
3921 1983 PD
40 W
3924 1901 PD
40 W
3926 2014 PD
40 W
3928 1917 PD
40 W
3932 1876 PD
40 W
3934 1934 PD
40 W
3939 2111 PD
40 W
3941 1901 PD
40 W
3942 1983 PD
40 W
3945 1862 PD
40 W
3947 1846 PD
40 W
3950 2011 PD
40 W
3953 1995 PD
40 W
3954 1980 PD
40 W
3957 1798 PD
40 W
3961 1757 PD
40 W
3962 1841 PD
40 W
3965 1593 PD
40 W
3968 1730 PD
40 W
3969 1755 PD
40 W
3972 1744 PD
40 W
3976 1765 PD
40 W
3979 1882 PD
40 W
3980 1977 PD
40 W
3985 2072 PD
40 W
3987 1975 PD
40 W
3990 1996 PD
40 W
3991 2329 PD
40 W
3994 2102 PD
40 W
3995 2216 PD
40 W
3998 2111 PD
40 W
3999 1832 PD
40 W
4000 1993 PD
40 W
4002 2147 PD
40 W
4005 2116 PD
40 W
4006 2136 PD
40 W
4009 2258 PD
40 W
4017 2184 PD
40 W
4018 2180 PD
40 W
4021 1990 PD
40 W
4022 2162 PD
40 W
4025 2107 PD
40 W
4026 2133 PD
40 W
4034 2289 PD
40 W
4036 2312 PD
40 W
4037 2434 PD
40 W
4040 2473 PD
40 W
4043 2459 PD
40 W
4044 2456 PD
40 W
4045 2544 PD
40 W
4047 2508 PD
40 W
4049 2363 PD
40 W
4051 2477 PD
40 W
4052 2110 PD
40 W
4055 1968 PD
40 W
4063 2019 PD
40 W
4066 2101 PD
40 W
4069 1915 PD
40 W
4073 2037 PD
40 W
4077 1952 PD
40 W
4078 1979 PD
40 W
4079 2096 PD
40 W
4086 2110 PD
40 W
4088 2110 PD
40 W
4090 1981 PD
40 W
4097 2110 PD
40 W
4100 2120 PD
40 W
4101 2020 PD
40 W
4107 2037 PD
40 W
4109 1836 PD
40 W
4111 1966 PD
40 W
4112 1904 PD
40 W
4119 1913 PD
40 W
4122 1765 PD
40 W
4126 1732 PD
40 W
4131 1691 PD
40 W
4132 1610 PD
40 W
4137 1775 PD
40 W
4141 1799 PD
40 W
4142 1734 PD
40 W
4143 1760 PD
40 W
4146 1846 PD
40 W
4147 1357 PD
40 W
4152 1638 PD
40 W
4154 1418 PD
40 W
4160 1601 PD
40 W
4161 1763 PD
40 W
4162 1808 PD
40 W
4164 1819 PD
40 W
4165 1672 PD
40 W
4167 1488 PD
40 W
4168 1510 PD
40 W
4180 1399 PD
40 W
4184 1539 PD
40 W
4186 1216 PD
40 W
4191 1559 PD
40 W
4192 1542 PD
40 W
4196 1182 PD
40 W
4198 1596 PD
40 W
4199 1512 PD
40 W
4202 1330 PD
40 W
4205 1405 PD
40 W
4207 1485 PD
40 W
4210 1694 PD
40 W
4211 1430 PD
40 W
4213 1561 PD
40 W
4216 1524 PD
40 W
4217 1724 PD
40 W
4218 1671 PD
40 W
4221 1611 PD
40 W
4224 1541 PD
40 W
4225 1413 PD
40 W
4228 1483 PD
40 W
4229 1658 PD
40 W
4233 1704 PD
40 W
4235 1741 PD
40 W
4236 1686 PD
40 W
4237 1819 PD
40 W
4240 1855 PD
40 W
4245 1708 PD
40 W
4248 1445 PD
40 W
4258 1580 PD
40 W
4259 1685 PD
40 W
4262 1668 PD
40 W
4263 1582 PD
40 W
4265 1465 PD
40 W
4266 1525 PD
40 W
4269 1521 PD
40 W
4273 1547 PD
40 W
4274 1504 PD
40 W
4281 1903 PD
40 W
4284 1601 PD
40 W
4285 1743 PD
40 W
4289 2110 PD
40 W
4290 2091 PD
40 W
4292 1707 PD
40 W
4293 1493 PD
40 W
4297 1917 PD
40 W
4301 1896 PD
40 W
4304 1639 PD
40 W
4307 1606 PD
40 W
4308 1500 PD
40 W
4309 1578 PD
40 W
4322 1744 PD
40 W
4324 1604 PD
40 W
4333 1673 PD
40 W
4335 1889 PD
40 W
4337 1865 PD
40 W
4341 1906 PD
40 W
4342 1873 PD
40 W
4345 1966 PD
40 W
4346 1795 PD
40 W
4348 1828 PD
40 W
4349 1933 PD
40 W
4350 1910 PD
40 W
4356 1922 PD
40 W
4357 1793 PD
40 W
4360 1812 PD
40 W
4361 1797 PD
40 W
4363 1788 PD
40 W
4371 1874 PD
40 W
4372 1512 PD
40 W
4375 1683 PD
40 W
4376 1839 PD
40 W
4378 1684 PD
40 W
4382 1943 PD
40 W
4386 1433 PD
40 W
4388 1530 PD
40 W
4394 1309 PD
40 W
4397 1294 PD
40 W
4401 1306 PD
40 W
4410 1489 PD
40 W
4412 1539 PD
40 W
4414 1574 PD
40 W
4418 1738 PD
40 W
4425 1777 PD
40 W
4427 1629 PD
40 W
4429 1697 PD
40 W
4431 1881 PD
40 W
4432 1819 PD
40 W
4433 1636 PD
40 W
4439 1257 PD
40 W
4443 1769 PD
40 W
4444 1995 PD
40 W
4446 1904 PD
40 W
4448 1657 PD
40 W
4452 1760 PD
40 W
4455 1811 PD
40 W
4458 1675 PD
40 W
4462 1895 PD
40 W
4466 1774 PD
40 W
4467 1495 PD
40 W
4469 1942 PD
40 W
4470 1633 PD
40 W
4476 1606 PD
40 W
4478 1741 PD
40 W
4484 1541 PD
40 W
4489 1781 PD
40 W
4492 1815 PD
40 W
4493 1449 PD
40 W
4495 1463 PD
40 W
4496 1705 PD
40 W
4497 1764 PD
40 W
4500 1636 PD
40 W
4501 2116 PD
40 W
4504 2024 PD
40 W
4506 2050 PD
40 W
4508 2040 PD
40 W
4510 1970 PD
40 W
4511 1952 PD
40 W
4516 1995 PD
40 W
4518 2110 PD
40 W
4519 2026 PD
40 W
4523 1875 PD
40 W
4525 1871 PD
40 W
4526 2095 PD
40 W
4529 1809 PD
40 W
4544 2007 PD
40 W
4545 2003 PD
40 W
4546 2154 PD
40 W
4548 2037 PD
40 W
4552 2213 PD
40 W
4553 2027 PD
40 W
4557 2092 PD
40 W
4559 2239 PD
40 W
4561 2177 PD
40 W
4564 2363 PD
40 W
4565 2243 PD
40 W
4574 3458 PD
40 W
4575 2693 PD
40 W
4576 2176 PD
40 W
4578 1980 PD
40 W
4580 2187 PD
40 W
4582 2247 PD
40 W
4586 2141 PD
40 W
4587 1852 PD
40 W
4589 1810 PD
40 W
4594 2110 PD
40 W
4595 1933 PD
40 W
4597 1742 PD
40 W
4601 2010 PD
40 W
4604 1689 PD
40 W
4605 1810 PD
40 W
4609 2110 PD
40 W
4612 1991 PD
40 W
4613 2163 PD
40 W
4616 2089 PD
40 W
4617 2010 PD
40 W
4619 1820 PD
40 W
4621 1904 PD
40 W
4623 1926 PD
40 W
4625 2094 PD
40 W
4627 2138 PD
40 W
4629 2110 PD
40 W
4632 2027 PD
40 W
4633 2138 PD
40 W
4635 2269 PD
40 W
4636 2078 PD
40 W
4638 2143 PD
40 W
4639 2198 PD
40 W
4642 2263 PD
40 W
4643 2295 PD
40 W
4646 2131 PD
40 W
4647 2123 PD
40 W
4651 2110 PD
40 W
4657 2223 PD
40 W
4658 2152 PD
40 W
4662 2193 PD
40 W
4665 2110 PD
40 W
4666 2125 PD
40 W
4669 2197 PD
40 W
4676 2130 PD
40 W
4681 2135 PD
40 W
4687 2180 PD
40 W
4689 2110 PD
40 W
4691 2110 PD
40 W
4692 2184 PD
40 W
4693 2171 PD
40 W
4697 2125 PD
40 W
4699 2113 PD
40 W
4702 2110 PD
40 W
4703 2110 PD
40 W
4704 2110 PD
40 W
4707 2110 PD
40 W
4711 2059 PD
40 W
4712 2047 PD
40 W
4715 2094 PD
40 W
4717 2047 PD
40 W
4722 2017 PD
40 W
4726 1852 PD
40 W
4729 2105 PD
40 W
4733 1977 PD
40 W
4737 1931 PD
40 W
4740 1932 PD
40 W
4741 1996 PD
40 W
4742 1933 PD
40 W
4745 2010 PD
40 W
4746 2063 PD
40 W
4748 1952 PD
40 W
4749 1875 PD
40 W
4751 1722 PD
40 W
4752 1773 PD
40 W
4755 2089 PD
40 W
4756 1998 PD
40 W
4757 2110 PD
40 W
4759 1832 PD
40 W
4760 1894 PD
40 W
4767 1988 PD
40 W
4770 1936 PD
40 W
4774 2100 PD
40 W
4778 1958 PD
40 W
4779 1963 PD
40 W
4781 1957 PD
40 W
4782 2110 PD
40 W
4787 2057 PD
40 W
4790 2119 PD
40 W
4791 2036 PD
40 W
4794 2073 PD
40 W
4797 2098 PD
40 W
4798 2110 PD
40 W
4800 2125 PD
40 W
4801 2113 PD
40 W
4806 2142 PD
40 W
4809 2129 PD
40 W
4810 2110 PD
40 W
4815 1907 PD
40 W
4820 2045 PD
40 W
4821 2111 PD
40 W
4827 1970 PD
40 W
4832 1816 PD
40 W
4836 1827 PD
40 W
4838 1841 PD
40 W
4840 1837 PD
40 W
4842 1928 PD
40 W
4843 1911 PD
40 W
4845 1819 PD
40 W
4849 1768 PD
40 W
4850 1811 PD
40 W
4851 1764 PD
40 W
4854 1920 PD
40 W
4857 1834 PD
40 W
4858 1893 PD
40 W
4861 1978 PD
40 W
4862 1918 PD
40 W
4869 1899 PD
40 W
4870 2083 PD
40 W
4872 2110 PD
40 W
4873 2110 PD
40 W
4881 2093 PD
40 W
4883 2110 PD
40 W
4888 2086 PD
40 W
4889 2110 PD
40 W
4892 2096 PD
40 W
4898 2049 PD
40 W
4900 2081 PD
40 W
4908 2110 PD
40 W
4910 1706 PD
40 W
4911 2000 PD
40 W
4913 2187 PD
40 W
4914 1922 PD
40 W
4915 1998 PD
40 W
4919 1947 PD
40 W
4923 2045 PD
40 W
4926 2110 PD
40 W
4928 1766 PD
40 W
4930 1950 PD
40 W
4932 1964 PD
40 W
4936 2112 PD
40 W
4938 2145 PD
40 W
4940 2205 PD
40 W
4947 2110 PD
40 W
4948 2155 PD
40 W
4949 2132 PD
40 W
4952 2031 PD
40 W
4956 2275 PD
40 W
4960 2183 PD
40 W
4962 2201 PD
40 W
4964 2230 PD
40 W
4966 2121 PD
40 W
4967 2110 PD
40 W
4970 2267 PD
40 W
4971 2109 PD
40 W
4975 2250 PD
40 W
4982 2299 PD
40 W
4985 2290 PD
40 W
4987 2328 PD
40 W
4989 2236 PD
40 W
4990 2393 PD
40 W
4994 2331 PD
40 W
4997 2368 PD
40 W
5000 2294 PD
40 W
5001 2309 PD
40 W
5004 2303 PD
40 W
5005 2323 PD
40 W
5008 2310 PD
40 W
5009 2192 PD
40 W
5011 2110 PD
40 W
5012 2170 PD
40 W
5015 2236 PD
40 W
5017 2141 PD
40 W
5020 2110 PD
40 W
5021 2058 PD
40 W
5023 2027 PD
40 W
5024 1926 PD
40 W
5028 2202 PD
40 W
5030 2059 PD
40 W
5031 2108 PD
40 W
5032 2106 PD
40 W
5034 2123 PD
40 W
5035 2114 PD
40 W
5036 2131 PD
40 W
5041 2110 PD
40 W
5042 2109 PD
40 W
5046 2100 PD
40 W
5047 2077 PD
40 W
5050 2064 PD
40 W
5058 2110 PD
40 W
5060 2170 PD
40 W
5069 2110 PD
40 W
5072 2110 PD
40 W
5073 1838 PD
40 W
5076 1926 PD
40 W
5079 2110 PD
40 W
5085 2096 PD
40 W
5087 2110 PD
40 W
5088 2110 PD
40 W
5090 2110 PD
40 W
5091 1995 PD
40 W
5092 1940 PD
40 W
5095 1989 PD
40 W
5098 2080 PD
40 W
5100 1864 PD
40 W
5102 1943 PD
40 W
5107 2042 PD
40 W
5109 2007 PD
40 W
5113 1877 PD
40 W
5114 1995 PD
40 W
5115 1937 PD
40 W
5117 1832 PD
40 W
5118 1798 PD
40 W
5122 2102 PD
40 W
5125 1907 PD
40 W
5126 1958 PD
40 W
5129 1953 PD
40 W
5130 1869 PD
40 W
5132 1938 PD
40 W
5133 1942 PD
40 W
5134 2076 PD
40 W
5136 2095 PD
40 W
5137 1999 PD
40 W
5139 1885 PD
40 W
5141 1925 PD
40 W
5147 1979 PD
40 W
5148 2073 PD
40 W
5158 1915 PD
40 W
5159 1835 PD
40 W
5160 1907 PD
40 W
5162 2033 PD
40 W
5163 2161 PD
40 W
5166 2249 PD
40 W
5167 2201 PD
40 W
5173 2144 PD
40 W
5179 2284 PD
40 W
5181 2271 PD
40 W
5185 2268 PD
40 W
5188 2265 PD
40 W
5189 2211 PD
40 W
5192 2303 PD
40 W
5194 2230 PD
40 W
5197 2327 PD
40 W
5198 2338 PD
40 W
5200 2179 PD
40 W
5201 2139 PD
40 W
5204 2185 PD
40 W
5205 2110 PD
40 W
5208 2176 PD
40 W
5209 2115 PD
40 W
5211 2110 PD
40 W
5212 2110 PD
40 W
5215 1939 PD
40 W
5220 1809 PD
40 W
5227 1876 PD
40 W
5228 1977 PD
40 W
5230 1956 PD
40 W
5231 1955 PD
40 W
5233 1862 PD
40 W
5234 1893 PD
40 W
5235 1740 PD
40 W
5237 1981 PD
40 W
5239 1704 PD
40 W
5241 1587 PD
40 W
5242 1708 PD
40 W
5243 1659 PD
40 W
5245 1860 PD
40 W
5246 1680 PD
40 W
5247 1822 PD
40 W
5249 1923 PD
40 W
5252 1773 PD
40 W
5257 1865 PD
40 W
5258 1726 PD
40 W
5262 1724 PD
40 W
5265 1798 PD
40 W
5267 1729 PD
40 W
5268 1791 PD
40 W
5269 1726 PD
40 W
5272 1736 PD
40 W
5273 1888 PD
40 W
5275 1838 PD
40 W
5279 1747 PD
40 W
5280 1910 PD
40 W
5286 1932 PD
40 W
5287 1873 PD
40 W
5290 1933 PD
40 W
5292 1892 PD
40 W
5296 1897 PD
40 W
5298 1760 PD
40 W
5301 1970 PD
40 W
5303 2043 PD
40 W
5305 1879 PD
40 W
5309 1829 PD
40 W
5310 1801 PD
40 W
5311 1720 PD
40 W
5317 1703 PD
40 W
5321 1810 PD
40 W
5324 2042 PD
40 W
5326 1707 PD
40 W
5328 1776 PD
40 W
5331 2032 PD
40 W
5332 1864 PD
40 W
5336 1820 PD
40 W
5340 1483 PD
40 W
5341 1720 PD
40 W
5343 1735 PD
40 W
5344 1728 PD
40 W
5346 1711 PD
40 W
5360 1581 PD
40 W
5365 1831 PD
40 W
5366 1740 PD
40 W
5367 1829 PD
40 W
5369 1843 PD
40 W
5370 2150 PD
40 W
5373 1800 PD
40 W
5378 1727 PD
40 W
5382 1821 PD
40 W
5385 1976 PD
40 W
5388 1680 PD
40 W
5389 1809 PD
40 W
5390 1732 PD
40 W
5393 1809 PD
40 W
5396 1878 PD
40 W
5397 1957 PD
40 W
5405 1864 PD
40 W
5411 1772 PD
40 W
5418 1910 PD
40 W
5419 1872 PD
40 W
5420 1965 PD
40 W
5423 1814 PD
40 W
5424 1708 PD
40 W
5426 1900 PD
40 W
5429 1696 PD
40 W
5433 1745 PD
40 W
5435 1788 PD
40 W
5445 1623 PD
40 W
5446 1980 PD
40 W
5450 1882 PD
40 W
5453 1830 PD
40 W
5456 1786 PD
40 W
5457 1798 PD
40 W
5458 1724 PD
40 W
5460 1772 PD
40 W
5461 1909 PD
40 W
5463 1854 PD
40 W
5465 1842 PD
40 W
5467 1776 PD
40 W
5468 1790 PD
40 W
5471 1777 PD
40 W
5472 1865 PD
40 W
5475 1849 PD
40 W
5476 1889 PD
40 W
5479 1793 PD
40 W
5482 1682 PD
40 W
5483 1853 PD
40 W
5484 1821 PD
40 W
5486 1729 PD
40 W
5487 1756 PD
40 W
5490 1789 PD
40 W
5491 1625 PD
40 W
5498 1765 PD
40 W
5499 1696 PD
40 W
5502 1994 PD
40 W
5505 1682 PD
40 W
5508 1751 PD
40 W
5512 1803 PD
40 W
5513 1754 PD
40 W
5514 1817 PD
40 W
5516 1715 PD
40 W
5517 1569 PD
40 W
5518 1696 PD
40 W
5520 1581 PD
40 W
5522 1427 PD
40 W
5524 1509 PD
40 W
5531 1271 PD
40 W
5537 1448 PD
40 W
5539 1377 PD
40 W
5542 1612 PD
40 W
5543 1453 PD
40 W
5544 1510 PD
40 W
5546 1126 PD
40 W
5550 1677 PD
40 W
5551 1764 PD
40 W
5554 1633 PD
40 W
5557 1327 PD
40 W
5558 1394 PD
40 W
5563 1418 PD
40 W
5565 1735 PD
40 W
5570 1551 PD
40 W
5573 1496 PD
40 W
5574 1869 PD
40 W
5577 1685 PD
40 W
5578 1691 PD
40 W
5580 1668 PD
40 W
5582 1855 PD
40 W
5584 1759 PD
40 W
5585 1579 PD
40 W
5586 1796 PD
40 W
5588 1768 PD
40 W
5589 1954 PD
40 W
5591 1646 PD
40 W
5592 1641 PD
40 W
5593 1838 PD
40 W
5595 1551 PD
40 W
5596 1780 PD
40 W
5597 1530 PD
40 W
5601 1664 PD
40 W
5603 1827 PD
40 W
5606 2013 PD
40 W
5611 1613 PD
40 W
5612 1910 PD
40 W
5616 1732 PD
40 W
5618 1571 PD
40 W
5619 1713 PD
40 W
5623 1734 PD
40 W
5629 1570 PD
40 W
5630 1550 PD
40 W
5633 1848 PD
40 W
5634 1939 PD
40 W
5635 1761 PD
40 W
5638 1699 PD
40 W
5640 1753 PD
40 W
5642 1669 PD
40 W
5644 1662 PD
40 W
5652 1428 PD
40 W
5655 1634 PD
40 W
5657 1656 PD
40 W
5659 1601 PD
40 W
5661 1591 PD
40 W
5663 1613 PD
40 W
5664 1489 PD
40 W
5668 1729 PD
40 W
5674 1765 PD
40 W
5676 1683 PD
40 W
5678 1724 PD
40 W
5683 1585 PD
40 W
5684 1873 PD
40 W
5686 1793 PD
40 W
5687 1993 PD
40 W
5689 1980 PD
40 W
5691 1548 PD
40 W
5697 1606 PD
40 W
5701 1744 PD
40 W
5705 1678 PD
40 W
5708 1653 PD
40 W
5709 1792 PD
40 W
5710 1678 PD
40 W
5712 1791 PD
40 W
5716 1576 PD
40 W
5719 1460 PD
40 W
5720 1227 PD
40 W
5728 1425 PD
40 W
5731 1225 PD
40 W
5734 1640 PD
40 W
5740 1649 PD
40 W
5742 1378 PD
40 W
5750 1527 PD
40 W
5754 2071 PD
40 W
5755 1599 PD
40 W
5759 1530 PD
40 W
5761 1624 PD
40 W
5762 1622 PD
40 W
5763 1523 PD
40 W
5766 1616 PD
40 W
5768 1563 PD
40 W
5772 1744 PD
40 W
5778 1692 PD
40 W
5780 2207 PD
40 W
5781 1774 PD
40 W
5783 1884 PD
40 W
5785 1818 PD
40 W
5787 1714 PD
40 W
5788 1816 PD
40 W
5789 1618 PD
40 W
5792 2292 PD
40 W
5796 1896 PD
40 W
5802 1976 PD
40 W
5804 1743 PD
40 W
5806 1734 PD
40 W
5807 1710 PD
40 W
5808 1802 PD
40 W
5811 1609 PD
40 W
5812 1706 PD
40 W
5818 1836 PD
40 W
5821 1988 PD
40 W
5822 1799 PD
40 W
5827 1685 PD
40 W
5830 1729 PD
40 W
5833 1744 PD
40 W
5836 1718 PD
40 W
5837 1862 PD
40 W
5838 1635 PD
40 W
5840 1711 PD
40 W
5841 1830 PD
40 W
5842 1694 PD
40 W
5844 1818 PD
40 W
5846 1916 PD
40 W
5849 1776 PD
40 W
5852 1823 PD
40 W
5859 1858 PD
40 W
5864 1775 PD
40 W
5867 1885 PD
40 W
5870 1834 PD
40 W
5871 1724 PD
40 W
5874 1988 PD
40 W
5876 1969 PD
40 W
5878 1901 PD
40 W
5879 1823 PD
40 W
5881 1919 PD
40 W
5882 1980 PD
40 W
5883 1659 PD
40 W
5885 1713 PD
40 W
5886 1922 PD
40 W
5887 1822 PD
40 W
5889 1791 PD
40 W
5890 1928 PD
40 W
5894 1990 PD
40 W
5896 1853 PD
40 W
5897 1937 PD
40 W
5901 1776 PD
40 W
5916 1939 PD
40 W
5917 2036 PD
40 W
5920 1632 PD
40 W
5923 1725 PD
40 W
5928 1646 PD
40 W
5930 1726 PD
40 W
5935 1605 PD
40 W
5936 1720 PD
40 W
5942 1914 PD
40 W
5945 1659 PD
40 W
5949 1844 PD
40 W
5950 1756 PD
40 W
5951 1735 PD
40 W
5953 1937 PD
40 W
5957 1884 PD
40 W
5958 1897 PD
40 W
5962 1865 PD
40 W
5965 1858 PD
40 W
5966 1833 PD
40 W
5969 1703 PD
40 W
5970 1586 PD
40 W
5973 1982 PD
40 W
5979 1702 PD
40 W
5983 1967 PD
40 W
5984 1764 PD
40 W
5991 1979 PD
40 W
5992 2065 PD
40 W
5998 1964 PD
40 W
5999 1846 PD
40 W
6006 2088 PD
40 W
6010 1868 PD
40 W
6011 1927 PD
40 W
6013 1830 PD
40 W
6014 1895 PD
40 W
6017 1832 PD
40 W
6021 1840 PD
40 W
6025 1919 PD
40 W
6028 1770 PD
40 W
6029 1752 PD
40 W
6030 1919 PD
40 W
6033 1745 PD
40 W
6034 1957 PD
40 W
6037 1686 PD
40 W
6040 1862 PD
40 W
6043 1818 PD
40 W
6044 1769 PD
40 W
6045 1951 PD
40 W
6047 2082 PD
40 W
6048 1872 PD
40 W
6051 2087 PD
40 W
6052 1891 PD
40 W
6053 2022 PD
40 W
6055 2020 PD
40 W
6058 1559 PD
40 W
6066 1906 PD
40 W
6074 1917 PD
40 W
6079 1836 PD
40 W
6082 1872 PD
40 W
6085 1874 PD
40 W
6089 1927 PD
40 W
6096 1701 PD
40 W
6097 1936 PD
40 W
6098 1806 PD
40 W
6100 1867 PD
40 W
6104 1935 PD
40 W
6107 1916 PD
40 W
6108 1777 PD
40 W
6109 1958 PD
40 W
6112 1892 PD
40 W
6122 1814 PD
40 W
6123 1818 PD
40 W
6124 1672 PD
40 W
6126 1808 PD
40 W
6127 1682 PD
40 W
6131 1665 PD
40 W
6132 1827 PD
40 W
6139 1667 PD
40 W
6141 1738 PD
40 W
6146 1891 PD
40 W
6149 1587 PD
40 W
6151 1827 PD
40 W
6153 1658 PD
40 W
6154 1891 PD
40 W
6156 1935 PD
40 W
6158 1885 PD
40 W
6160 1906 PD
40 W
6164 1790 PD
40 W
6165 1876 PD
40 W
6168 1908 PD
40 W
6177 1825 PD
40 W
6183 1803 PD
40 W
6187 1841 PD
40 W
6191 1716 PD
40 W
6194 1847 PD
40 W
6198 1887 PD
40 W
6199 1866 PD
40 W
6200 1855 PD
40 W
6202 1985 PD
40 W
6203 2009 PD
40 W
6207 1753 PD
40 W
6211 1944 PD
40 W
6217 1801 PD
40 W
6218 1515 PD
40 W
6226 1897 PD
40 W
6229 1912 PD
40 W
6232 1900 PD
40 W
6234 1867 PD
40 W
6236 1887 PD
40 W
6240 1923 PD
40 W
6241 1886 PD
40 W
6245 1884 PD
40 W
6247 1922 PD
40 W
6251 1856 PD
40 W
6255 1843 PD
40 W
6256 1692 PD
40 W
6260 1902 PD
40 W
6262 1887 PD
40 W
6266 1839 PD
40 W
6270 1677 PD
40 W
6281 1768 PD
40 W
6284 1790 PD
40 W
6285 1855 PD
40 W
6286 1749 PD
40 W
6288 1795 PD
40 W
6290 1770 PD
40 W
6292 1672 PD
40 W
6294 1784 PD
40 W
6296 1825 PD
40 W
6298 1837 PD
40 W
6300 1936 PD
40 W
6303 1905 PD
40 W
6304 1751 PD
40 W
6311 2026 PD
40 W
6312 1901 PD
40 W
6315 1980 PD
40 W
6319 1977 PD
40 W
6322 1711 PD
40 W
6328 1899 PD
40 W
6331 1679 PD
40 W
6335 1896 PD
40 W
6339 1746 PD
40 W
6341 1812 PD
40 W
6343 1751 PD
40 W
6346 1818 PD
40 W
6347 1645 PD
40 W
6350 1785 PD
40 W
6353 1815 PD
40 W
6354 1769 PD
40 W
6357 1890 PD
40 W
6358 1959 PD
40 W
6361 1844 PD
40 W
6364 1811 PD
40 W
6368 1834 PD
40 W
6371 2090 PD
40 W
6372 1885 PD
40 W
6373 1955 PD
40 W
6375 2095 PD
40 W
6377 1998 PD
40 W
6379 2079 PD
40 W
6380 2105 PD
40 W
6382 2105 PD
40 W
6384 2026 PD
40 W
6386 2281 PD
40 W
6387 2138 PD
40 W
6388 2102 PD
40 W
6392 1908 PD
40 W
6395 2000 PD
40 W
6397 1998 PD
40 W
6398 1897 PD
40 W
6401 1674 PD
40 W
6403 1730 PD
40 W
6405 2081 PD
40 W
6407 1901 PD
40 W
6409 1911 PD
40 W
6410 1800 PD
40 W
6417 2006 PD
40 W
6425 1941 PD
40 W
6426 1756 PD
40 W
6428 1726 PD
40 W
6429 1857 PD
40 W
6433 1786 PD
40 W
6439 2197 PD
40 W
6441 2547 PD
40 W
6443 2144 PD
40 W
6446 2256 PD
40 W
6448 1932 PD
40 W
6451 2038 PD
40 W
6454 2025 PD
40 W
6462 2291 PD
40 W
6465 2195 PD
40 W
6470 2107 PD
40 W
6473 2133 PD
40 W
6475 2142 PD
40 W
6477 2189 PD
40 W
6478 2120 PD
40 W
6482 2128 PD
40 W
6484 2220 PD
40 W
6489 2232 PD
40 W
6490 2242 PD
40 W
6492 2202 PD
40 W
6497 2255 PD
40 W
6500 2298 PD
40 W
6505 2248 PD
40 W
6507 2288 PD
40 W
6508 2254 PD
40 W
6511 2379 PD
40 W
6519 2361 PD
40 W
6520 2438 PD
40 W
6523 2389 PD
40 W
6527 2389 PD
40 W
6529 2278 PD
40 W
6533 2295 PD
40 W
6534 2250 PD
40 W
6539 2142 PD
40 W
6542 2295 PD
40 W
6545 2313 PD
40 W
6548 2414 PD
40 W
6549 2196 PD
40 W
6550 2367 PD
40 W
6557 1735 PD
40 W
6560 2290 PD
40 W
6563 2234 PD
40 W
6564 2237 PD
40 W
6568 2285 PD
40 W
6569 2297 PD
40 W
6571 2346 PD
40 W
6573 2018 PD
40 W
6575 1917 PD
40 W
6576 1798 PD
40 W
6578 1794 PD
40 W
6586 1607 PD
40 W
6588 1093 PD
40 W
6591 1940 PD
40 W
6595 1940 PD
40 W
6597 2086 PD
40 W
6598 2110 PD
40 W
6599 2225 PD
40 W
6601 2235 PD
40 W
6602 2304 PD
40 W
6605 2101 PD
40 W
6610 2199 PD
40 W
6612 2110 PD
40 W
6613 2111 PD
40 W
6617 2010 PD
40 W
6620 2136 PD
40 W
6625 2094 PD
40 W
6627 2110 PD
40 W
6628 1967 PD
40 W
6629 2110 PD
40 W
6633 2110 PD
40 W
6635 2022 PD
40 W
6636 2294 PD
40 W
6637 2249 PD
40 W
6640 2112 PD
40 W
6650 2110 PD
40 W
6652 2093 PD
40 W
6654 2018 PD
40 W
6657 2110 PD
40 W
6659 2110 PD
40 W
6662 2110 PD
40 W
6663 2110 PD
40 W
6665 2110 PD
40 W
6666 2118 PD
40 W
6667 1878 PD
40 W
6669 1789 PD
40 W
6670 1987 PD
40 W
6674 1954 PD
40 W
6678 2065 PD
40 W
6680 2061 PD
40 W
6681 1885 PD
40 W
6682 2055 PD
40 W
6689 2110 PD
40 W
6693 2113 PD
40 W
6697 1979 PD
40 W
6703 2033 PD
40 W
6704 1885 PD
40 W
6706 1915 PD
40 W
6707 1894 PD
40 W
6711 2017 PD
40 W
6714 1875 PD
40 W
6715 2026 PD
40 W
6716 1967 PD
40 W
6718 2111 PD
40 W
6721 1905 PD
40 W
6723 2027 PD
40 W
6725 2009 PD
40 W
6727 2102 PD
40 W
6731 2110 PD
40 W
6733 2176 PD
40 W
6734 1906 PD
40 W
6740 2114 PD
40 W
6741 2344 PD
40 W
6742 2176 PD
40 W
6744 1916 PD
40 W
6748 2326 PD
40 W
6750 1910 PD
40 W
6752 2141 PD
40 W
6753 2179 PD
40 W
6755 2323 PD
40 W
6756 2225 PD
40 W
6764 2065 PD
40 W
6767 1988 PD
40 W
6768 2011 PD
40 W
6770 1834 PD
40 W
6772 1945 PD
40 W
6774 1869 PD
40 W
6775 1827 PD
40 W
6782 1856 PD
40 W
6783 1972 PD
40 W
6786 1974 PD
40 W
6787 1926 PD
40 W
6789 1806 PD
40 W
6790 1945 PD
40 W
6795 2185 PD
40 W
6797 2088 PD
40 W
6798 1668 PD
40 W
6799 3005 PD
40 W
6804 2503 PD
40 W
6808 2435 PD
40 W
6812 2363 PD
40 W
6817 2222 PD
40 W
6821 2277 PD
40 W
6824 2320 PD
40 W
6827 2372 PD
40 W
6828 2395 PD
40 W
6831 2240 PD
40 W
6832 2171 PD
40 W
6834 2216 PD
40 W
6838 2353 PD
40 W
6839 2416 PD
40 W
6840 2386 PD
40 W
6844 2361 PD
40 W
6846 2407 PD
40 W
6847 2445 PD
40 W
6850 2270 PD
40 W
6855 2401 PD
40 W
6859 2184 PD
40 W
6862 2403 PD
40 W
6863 2291 PD
40 W
6870 2262 PD
40 W
6873 2225 PD
40 W
6874 2201 PD
40 W
6876 2254 PD
40 W
6878 2205 PD
40 W
6880 2283 PD
40 W
6884 2383 PD
40 W
6888 2225 PD
40 W
6891 2340 PD
40 W
6893 2351 PD
40 W
6895 2231 PD
40 W
6899 2322 PD
40 W
6902 2386 PD
40 W
6903 2447 PD
40 W
6906 2648 PD
40 W
6907 2625 PD
40 W
6910 2565 PD
40 W
6914 2420 PD
40 W
6917 2327 PD
40 W
6922 2267 PD
40 W
6925 2323 PD
40 W
6926 2207 PD
40 W
6930 2203 PD
40 W
6932 2289 PD
40 W
6933 2092 PD
40 W
6937 2273 PD
40 W
6938 1897 PD
40 W
6940 1633 PD
40 W
6941 1874 PD
40 W
6942 2091 PD
40 W
6945 1645 PD
40 W
6947 2172 PD
40 W
6948 1712 PD
40 W
6951 2170 PD
40 W
6953 1606 PD
40 W
6957 1773 PD
40 W
6960 1859 PD
40 W
6964 2265 PD
40 W
6966 1873 PD
40 W
6967 1762 PD
40 W
6968 1982 PD
40 W
6970 2007 PD
40 W
6974 1876 PD
40 W
6975 1815 PD
40 W
6976 2078 PD
40 W
6981 2026 PD
40 W
6983 2036 PD
40 W
6987 2204 PD
40 W
6989 2103 PD
40 W
6991 1842 PD
40 W
6994 2090 PD
40 W
6996 2075 PD
40 W
6998 2013 PD
40 W
7004 2110 PD
40 W
7006 2044 PD
40 W
7008 2121 PD
40 W
7010 2097 PD
40 W
7015 2106 PD
40 W
7016 2144 PD
40 W
7017 2110 PD
40 W
7020 2110 PD
40 W
7023 2114 PD
40 W
7024 2117 PD
40 W
7025 2117 PD
40 W
7028 2109 PD
40 W
7034 2110 PD
40 W
7035 2110 PD
40 W
7036 2102 PD
40 W
7038 2099 PD
40 W
7045 2109 PD
40 W
7046 2110 PD
40 W
7047 2085 PD
40 W
7055 2074 PD
40 W
7057 2110 PD
40 W
7061 2110 PD
40 W
7062 2110 PD
40 W
7065 2110 PD
40 W
7066 2110 PD
40 W
7068 2110 PD
40 W
7069 2110 PD
40 W
7070 2110 PD
40 W
7076 2110 PD
40 W
7077 2110 PD
40 W
7079 2129 PD
40 W
7081 2110 PD
40 W
7084 2110 PD
40 W
7085 2132 PD
40 W
7089 2173 PD
40 W
7091 2129 PD
40 W
7094 2208 PD
40 W
7096 2187 PD
40 W
7098 2217 PD
40 W
7099 2249 PD
40 W
7100 2112 PD
40 W
7103 2165 PD
40 W
7104 2155 PD
40 W
7107 2139 PD
40 W
7109 2114 PD
40 W
7113 2136 PD
40 W
7114 2111 PD
40 W
7118 2146 PD
40 W
7121 2254 PD
40 W
7122 2227 PD
40 W
7123 2182 PD
40 W
7125 2277 PD
40 W
7126 2213 PD
40 W
7128 2180 PD
40 W
7130 2170 PD
40 W
7137 2371 PD
40 W
7138 2429 PD
40 W
7147 2244 PD
40 W
7148 2266 PD
40 W
7151 2108 PD
40 W
7152 2213 PD
40 W
7153 2157 PD
40 W
7156 2334 PD
40 W
7158 2392 PD
40 W
7159 2319 PD
40 W
7160 2261 PD
40 W
7162 2140 PD
40 W
7168 2112 PD
40 W
7171 2110 PD
40 W
7174 2094 PD
40 W
7177 2110 PD
40 W
7178 2070 PD
40 W
7182 2080 PD
40 W
7183 2272 PD
40 W
7187 2170 PD
40 W
7189 2083 PD
40 W
7190 2110 PD
40 W
7196 2121 PD
40 W
7197 2150 PD
40 W
7198 2116 PD
40 W
7201 2111 PD
40 W
7202 2110 PD
40 W
7204 2110 PD
40 W
7208 2097 PD
40 W
7212 2110 PD
40 W
7219 2110 PD
40 W
7220 2028 PD
40 W
7224 2006 PD
40 W
7226 2075 PD
40 W
7228 1959 PD
40 W
7231 1975 PD
40 W
7232 1998 PD
40 W
7235 2098 PD
40 W
7236 2011 PD
40 W
7239 1954 PD
40 W
7245 1920 PD
40 W
7246 2029 PD
40 W
7249 1877 PD
40 W
7251 1903 PD
40 W
7254 1915 PD
40 W
7258 2023 PD
40 W
7260 1959 PD
40 W
7264 2031 PD
40 W
7265 1945 PD
40 W
7268 2080 PD
40 W
7271 2007 PD
40 W
7272 1952 PD
40 W
7273 1980 PD
40 W
7279 2040 PD
40 W
7280 2105 PD
40 W
7281 2066 PD
40 W
7290 1921 PD
40 W
7294 1940 PD
40 W
7295 1929 PD
40 W
7305 1928 PD
40 W
7306 1997 PD
40 W
7307 1809 PD
40 W
7314 1568 PD
40 W
7320 1877 PD
40 W
7322 1497 PD
40 W
7324 1524 PD
40 W
7329 1604 PD
40 W
7332 1492 PD
40 W
7335 1770 PD
40 W
7339 1713 PD
40 W
7340 1674 PD
40 W
7344 1755 PD
40 W
7345 1786 PD
40 W
7347 1781 PD
40 W
7348 1790 PD
40 W
7349 1691 PD
40 W
7351 1790 PD
40 W
7352 1799 PD
40 W
7356 2127 PD
40 W
7360 2069 PD
40 W
7362 1982 PD
40 W
7363 1774 PD
40 W
7364 1949 PD
40 W
7366 1606 PD
40 W
7373 1560 PD
40 W
7381 1804 PD
40 W
7382 1886 PD
40 W
7384 1869 PD
40 W
7385 1914 PD
40 W
7388 1713 PD
40 W
7389 1814 PD
40 W
7390 1849 PD
40 W
7392 1943 PD
40 W
7396 1701 PD
40 W
7397 1643 PD
40 W
7398 1644 PD
40 W
7400 1603 PD
40 W
7403 1663 PD
40 W
7405 1663 PD
40 W
7407 1752 PD
40 W
7411 1523 PD
40 W
7415 1855 PD
gs 1142 399 6808 3102 rc
/c9 { 1.000000 0.000000 0.000000 sr} bdef
c9
4 -6 4 -8 2 -3 2 -6 3 -7 2 -4 1 -3 1 -4 
4 -11 2 -3 1 -3 1 -3 3 -6 1 -3 2 -2 1 -2 
8 -7 7 3 2 2 1 1 1 2 2 2 4 8 4 8 
1 3 2 3 1 3 1 3 2 3 1 2 4 7 1 2 
4 3 3 1 3 -1 5 -7 2 -2 2 -7 6 -18 7 -30 
1 -7 1 -7 10 -51 1 -8 4 -21 9 -38 1 -5 1 -5 
6 -17 1 -4 1 -3 3 -6 3 -5 1 -2 4 -5 2 -1 
4 -2 3 -2 2 -1 3 -1 1 0 6 -3 3 -2 1 -1 
3 -2 1 -2 3 -3 2 -4 2 -2 4 -8 1 -3 7 -17 
4 -11 4 -13 2 -4 1 -5 3 -9 1 -4 1 -5 6 -19 
1 -4 2 -5 4 -14 1 -4 4 -14 1 -4 3 -8 3 -8 
3 -7 6 -16 2 -3 1 -3 1 -2 2 -2 3 -4 1 -2 
1 -1 3 -3 1 0 9 -1 1 0 7 6 2 3 2 2 
1 3 2 2 1 2 1 3 3 5 4 9 1 3 4 10 
2 4 3 6 1 4 3 6 1 4 1 3 2 3 2 7 
3 6 2 3 4 8 1 2 3 5 2 4 2 2 1 2 
6 5 1 1 1 1 2 0 1 1 3 0 1 0 4 0 
2 -1 8 -4 1 -1 1 -1 7 -4 2 -1 1 -1 1 0 
6 0 3 1 1 1 1 1 3 3 3 4 1 3 1 2 
5 11 2 8 2 5 2 10 6 24 2 13 2 6 3 14 
2 13 2 6 4 19 2 12 5 15 1 4 1 3 4 8 
2 1 1 1 1 0 2 0 4 -6 3 -8 4 -16 2 -15 
3 -17 1 -9 2 -10 3 -22 1 -11 1 -12 2 -12 1 -12 
4 -38 1 -13 2 -13 4 -38 1 -13 3 -24 5 -43 3 -19 
4 -24 3 -14 1 -5 3 -10 1 -4 3 -6 4 -6 2 -1 
2 -1 3 1 4 3 4 4 2 2 2 3 2 2 1 2 
3 3 7 6 1 0 3 2 4 1 5 0 3 1 1 0 
2 0 4 2 1 2 1 1 4 6 2 2 1 3 3 7 
1 4 3 10 3 10 4 19 5 30 4 25 4 25 5 26 
1 9 1 8 2 8 5 30 1 7 2 6 1 7 3 10 
1 5 7 18 1 2 2 2 2 2 2 1 1 0 3 -1 
8 -7 1 -1 2 -2 1 -2 2 -1 2 -3 4 -4 2 -1 
1 -1 1 0 6 0 1 1 2 1 4 4 2 4 2 3 
2 5 3 6 2 3 1 3 1 3 3 6 4 10 1 2 
2 3 1 3 6 7 4 3 4 0 7 -7 1 -2 1 -3 
2 -3 4 -10 4 -13 1 -4 2 -5 1 -5 1 -5 2 -5 
1 -5 3 -9 2 -10 3 -8 2 -5 2 -7 10 -16 3 -1 
1 0 1 0 2 1 6633 2111 300 MP stroke
4 5 1 2 1 3 2 3 5 15 3 8 4 14 1 5 
2 5 5 18 3 8 1 3 2 3 1 3 1 3 2 2 
4 3 3 0 2 -2 8 -20 2 -5 1 -6 2 -6 2 -14 
2 -7 1 -8 4 -26 1 -9 3 -18 3 -19 7 -48 1 -9 
1 -9 3 -17 3 -16 3 -14 5 -25 1 -5 4 -12 2 -3 
4 -6 3 -2 1 0 8 7 3 6 1 3 2 3 5 17 
3 9 5 21 2 5 1 6 5 23 2 6 4 19 1 6 
2 6 2 13 3 13 5 26 3 13 8 38 3 13 3 12 
2 11 3 11 2 5 2 10 6 18 4 10 1 3 2 3 
1 3 8 10 7 2 1 0 2 0 2 0 2 -1 2 0 
3 -1 1 0 2 0 3 0 4 1 1 0 1 1 2 1 
2 3 2 2 1 2 2 2 2 5 2 3 1 3 1 4 
3 7 4 12 3 8 3 9 1 4 3 9 1 5 3 8 
3 9 1 4 3 7 2 7 2 4 4 8 4 7 3 4 
6 6 3 1 4 1 3 0 1 0 7 -1 1 -1 3 -1 
2 0 2 -1 2 -1 2 -1 2 0 2 -1 2 -1 1 0 
1 -1 3 -1 11 -4 4 -2 4 -3 2 -1 4 -2 1 -1 
4 -3 4 -3 2 -1 4 -4 1 -1 4 -3 2 -1 2 -1 
3 -2 3 -1 8 -4 1 0 6 -1 4 0 4 1 1 1 
2 0 1 1 1 1 4 3 3 2 4 4 4 5 6 8 
9 15 3 4 1 3 4 6 2 2 2 4 2 2 1 2 
2 1 2 3 3 3 5 3 2 0 7 -2 1 0 4 -4 
1 -2 2 -2 1 -2 1 -2 10 -18 3 -6 1 -3 1 -3 
3 -6 4 -10 2 -2 1 -3 1 -3 7 -13 4 -6 3 -3 
3 -2 5 -4 8 -1 8 3 3 1 2 1 1 0 1 1 
3 1 1 0 2 1 1 0 1 0 3 1 3 0 3 0 
1 0 3 -1 1 0 1 -1 3 -1 4 -2 4 -2 3 -1 
1 -1 2 0 1 -1 4 0 7 1 1 0 6 5 1 1 
7 11 1 2 4 9 6 13 3 7 1 4 3 7 1 4 
3 7 4 10 1 3 4 8 2 3 1 2 1 2 4 5 
3 2 6 0 1 0 5 -5 2 -2 5 -8 3 -6 3 -6 
1 -3 15 -33 4 -6 1 -2 2 -2 4 -3 1 -1 2 0 
1 0 1 0 2 1 1 0 1 1 2 1 1 2 2 2 
2 4 3 4 1 3 3 5 3 6 5 13 7 14 3 5 
3 4 2 4 2 1 1 1 1 1 2 1 1 0 1 0 
3 0 3 -2 3 -2 5 -6 1 -2 3 -4 6 -8 1 -2 
3 -3 1 -1 1 -1 2 -1 2 -1 6 3 4 6 3 6 
1 3 1 4 2 5 5785 1794 300 MP stroke
2 10 2 6 1 6 2 6 6 37 4 24 2 8 3 17 
1 9 1 8 2 8 4 23 1 7 4 20 8 28 2 3 
6 6 3 -1 3 -4 8 -19 1 -5 3 -10 4 -16 2 -5 
1 -6 1 -5 3 -11 4 -15 4 -14 6 -14 2 -5 2 -2 
1 -2 2 -2 1 -1 5 -2 2 1 2 1 6 4 4 4 
1 1 2 2 2 2 2 1 2 2 3 1 8 -2 2 -1 
2 -3 2 -2 3 -4 1 -2 1 -3 3 -5 1 -3 6 -12 
4 -9 1 -2 2 -3 4 -6 1 -1 5 -3 3 1 2 1 
4 6 1 3 1 4 2 3 1 4 1 5 2 5 1 5 
2 6 1 6 1 6 2 7 2 14 2 7 1 8 3 15 
1 8 3 16 5 30 2 6 5 25 1 6 3 9 3 7 
1 3 4 5 2 0 1 0 1 0 3 -4 2 -2 6 -20 
7 -32 2 -8 2 -16 2 -8 1 -8 1 -9 2 -8 1 -9 
1 -9 4 -26 3 -16 3 -17 3 -15 1 -7 7 -32 1 -5 
3 -9 1 -5 2 -4 1 -3 1 -3 3 -6 3 -4 1 -2 
3 -3 1 -1 3 -1 1 0 2 -1 2 0 2 0 1 0 
2 1 1 0 1 0 3 1 3 0 4 1 1 0 10 -3 
2 -2 4 -3 3 -2 2 -1 1 -1 3 -2 1 -1 1 -1 
7 -5 6 -2 8 2 1 1 3 2 3 3 1 1 1 2 
3 4 3 4 4 7 5 10 3 5 1 3 2 2 1 2 
1 2 5 5 14 3 2 -1 1 -1 2 -2 1 -2 4 -7 
4 -8 1 -3 3 -7 2 -3 2 -7 3 -7 4 -9 6 -11 
1 -2 1 -2 4 -3 2 -1 2 0 3 0 2 1 4 5 
2 5 3 6 1 3 6 14 1 4 4 12 2 4 1 4 
3 7 1 3 1 3 2 2 3 4 4 3 1 0 5 -6 
3 -6 2 -5 1 -5 1 -5 2 -6 1 -7 1 -7 2 -8 
2 -18 2 -10 1 -10 1 -11 2 -11 1 -12 2 -11 1 -13 
7 -64 5 -51 3 -25 1 -12 2 -11 1 -12 3 -20 1 -10 
3 -18 1 -7 2 -8 1 -6 3 -11 2 -7 3 -5 1 -1 
3 0 4 6 2 3 6 25 6 29 1 8 3 17 1 9 
2 8 1 9 1 9 10 59 1 8 6 27 2 11 2 4 
1 5 2 4 1 3 1 3 2 3 1 2 3 3 1 0 
3 0 4 -2 1 -2 2 -2 1 -2 1 -2 4 -9 2 -4 
5 -14 2 -4 2 -8 3 -7 3 -8 1 -3 1 -4 2 -3 
1 -3 2 -3 6 -14 3 -5 3 -4 1 -2 3 -3 9 -10 
2 -2 8 -10 3 -5 1 -2 4 -9 1 -3 5 -12 1 -4 
1 -4 2 -5 1 -4 1 -5 2 -5 4 -16 1 -6 2 -6 
1 -6 3 -11 2 -12 5015 2188 300 MP stroke
3 -11 1 -6 2 -5 1 -5 3 -10 1 -5 3 -8 1 -4 
3 -6 3 -5 4 -4 1 0 2 0 2 1 3 3 7 16 
4 14 1 6 3 11 1 7 2 6 2 13 2 7 4 22 
4 21 3 14 1 6 1 7 7 29 2 5 2 9 4 12 
2 3 2 5 2 3 3 4 4 3 4 3 1 0 1 0 
2 1 1 0 2 0 8 2 2 2 6 5 3 4 1 3 
5 11 2 4 8 23 1 5 2 4 1 4 7 20 1 4 
3 7 1 2 3 5 3 4 1 1 1 1 4 0 2 -1 
1 -2 2 -1 2 -5 2 -2 4 -11 5 -18 6 -21 1 -5 
5 -21 5 -15 1 -5 3 -8 5 -12 1 -2 2 -2 1 -1 
3 -2 3 0 1 1 3 2 5 9 1 3 2 4 1 3 
4 12 4 12 3 8 7 20 1 3 2 3 1 3 1 3 
3 4 1 2 2 1 1 1 2 1 1 0 3 0 1 -1 
1 -1 3 -4 4 -7 4 -11 3 -9 4 -15 5 -23 2 -7 
3 -12 1 -7 4 -20 3 -13 1 -6 1 -7 3 -12 2 -6 
4 -18 1 -5 1 -6 2 -5 2 -9 6 -15 5 -9 7 -3 
3 2 1 1 3 4 4 9 1 4 6 18 4 16 1 6 
3 12 1 6 3 12 1 6 2 6 1 6 2 6 1 5 
3 10 2 10 2 4 2 7 2 3 2 4 2 1 1 1 
3 1 1 -1 3 -3 4 -8 1 -4 3 -9 4 -17 2 -6 
1 -6 5 -28 2 -7 1 -8 4 -21 2 -7 2 -13 2 -6 
1 -5 1 -6 9 -21 1 -2 3 -1 2 2 2 1 4 9 
1 5 4 16 2 7 1 7 1 8 15 114 3 23 1 12 
2 12 4 36 1 11 2 12 5 44 1 10 2 10 2 19 
2 8 3 17 1 7 3 14 1 7 1 6 2 5 1 5 
3 9 5 13 6 8 2 2 6 3 1 1 2 0 1 1 
4 1 4 3 3 3 3 3 4 7 2 6 2 3 1 4 
4 13 6 19 1 6 1 5 2 5 2 11 2 6 7 26 
4 13 2 6 2 3 9 7 4 -5 3 -6 6 -19 2 -11 
4 -21 4 -23 2 -9 1 -8 3 -17 1 -8 8 -48 2 -8 
1 -7 3 -13 1 -6 6 -19 1 -4 1 -4 2 -2 1 -3 
3 -3 1 -1 4 0 2 1 2 3 9 18 2 8 13 42 
1 5 1 4 3 10 3 9 4 13 4 11 1 3 2 4 
1 3 4 8 1 3 3 4 7 9 1 1 4 5 3 2 
1 1 2 1 1 2 3 2 1 2 10 12 3 5 5 11 
3 7 1 3 1 4 2 4 4 12 1 4 3 9 1 5 
3 9 3 10 1 4 1 5 3 9 2 4 1 4 3 8 
2 7 3 6 3 4 4199 1515 300 MP stroke
1 2 2 2 4 3 1 0 5 -3 2 -2 4 -8 12 -43 
1 -6 2 -7 1 -7 2 -7 1 -7 1 -8 6 -32 2 -17 
5 -26 1 -8 3 -18 1 -9 1 -8 4 -26 5 -26 1 -8 
5 -33 4 -24 3 -16 7 -38 1 -8 2 -7 2 -15 6 -31 
1 -7 3 -16 7 -40 2 -17 2 -8 7 -44 1 -8 1 -9 
4 -27 4 -26 3 -17 3 -16 8 -43 3 -12 1 -5 2 -5 
2 -8 2 -4 1 -3 1 -2 3 -3 3 -1 1 1 2 1 
8 20 1 5 3 12 1 7 3 16 1 9 8 59 3 22 
1 11 3 23 2 12 1 12 1 11 3 23 1 11 3 22 
1 11 3 20 2 10 5 34 1 8 3 13 4 16 3 9 
1 3 3 5 3 2 1 1 4 -2 3 -3 1 -2 3 -6 
3 -7 2 -8 3 -9 1 -5 2 -5 5 -21 2 -5 4 -17 
2 -10 2 -5 3 -10 8 -28 1 -4 1 -4 2 -4 5 -16 
4 -11 2 -4 2 -8 2 -4 12 -41 1 -5 4 -16 2 -5 
1 -6 2 -6 4 -17 4 -17 1 -5 1 -6 2 -5 4 -14 
1 -4 2 -3 2 -7 3 -4 1 -2 3 -1 3 1 1 1 
2 2 4 9 1 4 3 11 7 36 1 9 1 9 2 10 
1 9 4 32 7 56 3 23 2 21 3 22 1 10 4 28 
2 9 3 16 1 8 5 24 9 23 1 2 4 4 3 1 
1 0 4 -1 3 -2 3 -2 4 -4 1 -1 8 -5 3 0 
4 1 3 2 1 1 7 10 5 11 4 10 2 4 1 4 
4 11 2 4 2 8 3 7 1 4 6 14 1 3 7 13 
1 1 2 2 1 2 3 2 4 3 7 0 4 -1 4 -1 
1 -1 4 -1 3 0 1 0 2 0 3 1 1 1 3 2 
1 1 1 2 2 2 5 11 1 4 6 15 3 10 2 9 
3 10 1 5 3 10 2 5 2 10 2 4 5 15 1 3 
6 8 3 2 1 -1 1 0 2 -1 2 -4 2 -3 1 -3 
2 -4 1 -4 1 -5 8 -37 4 -22 3 -15 2 -8 1 -8 
1 -8 2 -8 4 -22 2 -14 2 -6 3 -12 1 -6 1 -4 
2 -5 6 -15 7 -4 2 1 2 2 3 4 7 12 1 3 
2 3 8 14 1 2 1 1 2 1 4 0 1 -1 3 -3 
3 -6 1 -4 6 -20 1 -7 3 -14 5 -34 6 -39 1 -10 
3 -20 2 -20 6 -38 5 -30 3 -12 5 -15 2 -1 7 6 
2 9 2 6 2 14 4 27 2 11 5 49 3 27 7 73 
1 15 1 15 2 14 1 15 2 14 1 14 3 26 1 12 
1 12 2 12 1 10 1 11 3 18 2 8 1 7 4 18 
1 4 2 4 2 5 2 2 1 1 2 0 1 0 7 -8 
2 -6 2 -3 1 -3 3358 1633 300 MP stroke
3 -7 1 -4 3 -8 5 -14 3 -6 1 -2 6 -9 1 -2 
7 -4 7 0 1 0 6 2 1 0 1 0 3 0 4 -1 
2 -1 1 -1 1 -1 4 -6 3 -5 1 -3 3 -7 2 -4 
2 -9 2 -5 1 -6 3 -11 1 -6 3 -13 4 -20 3 -15 
1 -7 1 -7 2 -8 1 -7 1 -8 5 -22 2 -15 2 -7 
1 -7 1 -7 2 -7 1 -7 1 -6 2 -7 2 -12 3 -13 
2 -6 1 -5 7 -28 1 -6 1 -5 2 -6 3 -10 9 -38 
1 -5 3 -11 4 -17 4 -17 2 -5 2 -11 2 -5 3 -10 
4 -14 4 -12 5 -11 3 -3 3 -1 6 5 4 10 2 5 
4 16 8 48 1 9 2 10 1 10 2 11 1 11 1 11 
2 11 6 59 2 12 4 35 1 11 3 22 1 10 4 29 
2 8 2 16 2 7 4 16 1 4 3 6 14 -19 6 -40 
2 -9 1 -11 2 -11 1 -11 1 -12 8 -76 3 -26 1 -13 
6 -49 5 -40 2 -9 2 -14 2 -6 1 -6 7 -11 1 1 
2 2 2 7 3 11 8 55 2 11 5 54 3 30 1 15 
2 16 1 15 1 16 4 47 2 16 5 59 2 13 1 13 
1 13 4 35 2 10 1 10 4 24 2 7 2 11 2 5 
1 4 1 4 3 5 3 2 1 1 6 -3 2 -4 2 -2 
2 -5 2 -3 1 -3 3 -7 1 -3 2 -4 1 -3 1 -4 
2 -4 4 -10 4 -11 4 -9 3 -7 1 -3 1 -3 3 -7 
1 -3 2 -4 1 -3 3 -8 3 -8 2 -8 3 -10 3 -10 
5 -25 2 -7 2 -15 2 -8 1 -8 3 -17 1 -9 1 -10 
7 -52 2 -11 2 -22 2 -12 1 -11 1 -12 3 -23 3 -24 
3 -23 4 -33 1 -11 4 -30 4 -26 3 -15 7 -27 5 -10 
2 0 1 0 1 1 3 5 3 7 1 5 1 6 2 6 
1 7 3 16 7 52 1 12 1 13 2 13 1 13 6 56 
4 45 1 15 1 15 4 44 3 28 3 27 3 26 1 12 
1 11 3 22 7 43 3 12 1 5 3 9 1 3 4 5 
2 0 1 0 4 -5 3 -7 2 -8 2 -5 8 -36 1 -7 
4 -22 2 -7 1 -8 1 -7 2 -8 3 -14 2 -15 2 -7 
2 -14 4 -19 2 -6 1 -6 2 -6 1 -6 1 -5 6 -21 
1 -5 1 -5 2 -4 3 -10 2 -9 2 -5 1 -4 3 -10 
1 -5 3 -10 1 -6 3 -11 3 -12 2 -12 2 -7 4 -20 
2 -15 3 -15 7 -38 1 -8 3 -15 1 -8 2 -7 1 -7 
3 -14 1 -6 2 -7 1 -6 4 -16 1 -4 3 -8 3 -7 
11 -8 2 3 2 1 3 5 2 6 3 7 3 8 7 22 
4 15 6 22 3 9 2 4 5 13 4 7 3 4 4 3 
1 1 3 1 7 -1 2553 2122 300 MP stroke
5 -4 4 -3 2 -1 8 -7 1 0 2 -1 1 -1 4 -1 
1 0 2 0 1 0 5 2 6 4 3 3 2 2 3 3 
1 2 5 4 2 3 7 5 6 2 1 0 3 -1 2 -1 
2 -1 1 -2 1 -1 2 -2 1 -2 1 -2 5 -7 2 -6 
14 -36 1 -4 2 -4 1 -4 3 -8 4 -11 1 -3 2 -4 
5 -12 3 -5 4 -7 1 -2 3 -3 3 -2 2 -2 3 -1 
4 -1 1 1 6 1 1 1 3 2 1 1 6 4 1 1 
4 4 2 2 4 4 4 5 1 2 2 2 4 6 1 2 
1 2 3 5 7 15 1 3 2 4 10 39 6 25 3 14 
1 8 1 8 9 50 1 9 3 17 2 18 4 25 2 8 
1 8 2 8 1 7 1 7 2 7 2 12 3 10 1 4 
3 7 1 2 2 2 1 1 2 0 1 0 1 -1 4 -7 
2 -3 2 -10 3 -11 2 -7 4 -24 1 -9 1 -9 4 -29 
6 -43 3 -22 1 -10 5 -42 2 -10 1 -10 1 -9 2 -9 
5 -31 6 -23 2 -9 3 -6 2 -3 2 -3 2 -1 2 0 
2 0 7 8 2 6 2 3 2 7 2 4 6 21 2 5 
4 13 4 14 3 10 1 4 1 5 7 23 4 14 2 5 
7 23 1 5 1 5 4 15 2 5 9 37 7 26 3 10 
5 18 2 5 2 8 3 7 4 9 1 2 9 9 1 1 
1 0 4 -1 2 -1 7 -9 2 -5 3 -6 3 -7 1 -4 
1 -3 2 -4 3 -8 4 -13 4 -13 7 -21 5 -14 1 -4 
3 -6 1 -2 2 -3 1 -2 2 -2 4 -5 2 -2 2 0 
1 -1 6 2 1 2 7 10 1 3 1 3 3 7 1 4 
2 4 3 9 2 9 2 5 8 32 3 11 6 28 3 10 
1 6 5 14 2 10 2 4 2 9 7 18 1 3 2 4 
8 15 4 6 1 1 2 2 1 1 3 2 3 1 1 1 
3 0 1 0 3 -1 1 0 3 -3 1 -1 2 -2 2 -4 
2 -2 4 -10 3 -7 5 -19 4 -18 1 -6 3 -14 1 -7 
2 -8 1 -7 3 -16 3 -17 2 -17 3 -17 1 -8 6 -33 
1 -8 3 -15 1 -7 2 -7 2 -13 2 -6 1 -5 2 -5 
1 -5 3 -8 1 -3 4 -7 3 -2 1 -1 1 0 2 1 
3 1 5 8 3 5 1 3 4 9 2 3 2 6 3 6 
1 3 2 2 2 5 3 4 2 2 1 1 3 2 1 1 
3 0 2 -1 2 0 4 -4 1 -1 2 -2 4 -6 4 -6 
4 -6 7 -7 4 -2 8 4 1 2 2 2 4 7 2 7 
3 7 11 33 1 4 2 4 1 4 1 4 3 7 3 6 
3 5 9 7 2 -1 6 -10 6 -15 1 -4 3 -10 1 -5 
8 -35 3 -12 3 -11 1690 2077 300 MP stroke
3 -11 1 -5 1 -5 2 -4 1 -5 1 -3 2 -4 4 -7 
4 -3 1 0 2 1 1 1 1 1 2 3 2 6 3 8 
3 9 1 6 2 6 1 7 4 21 3 15 1 8 10 58 
8 45 1 7 2 6 2 12 2 5 6 22 3 6 4 7 
7 6 1 0 2 0 4 0 1 0 3 0 1 -1 2 0 
1 -1 3 0 1 -1 1 0 2 0 1 0 3 0 4 0 
1 1 3 1 1 0 2 1 3 1 9 4 1 1 3 0 
2 0 1 0 1 0 4 -1 4 -3 2 -1 1 -1 2 -2 
1 -1 3 -4 1 -2 1 -2 2 -2 2 -5 2 -2 2 -5 
2 -2 1 -3 2 -2 2 -4 2 -2 1 -2 3 -3 7 -4 
1 -1 1 1 2 0 1 1 4 4 1 1 2 3 3 5 
1 3 3 7 2 7 2 4 1 5 1 4 3 9 3 10 
1 5 2 5 2 10 2 4 1 5 1 5 4 12 5 11 
2 6 2 2 4 6 2 2 6 -1 5 -5 4 -7 7 -16 
3 -8 1 -4 2 -4 1 -4 1 -4 2 -5 5 -17 2 -5 
1 -4 4 -13 3 -8 2 -8 3 -7 3 -7 1 -3 2 -4 
1 -3 3 -5 2 -6 5 -7 1 -2 1 -2 3 -4 7 -7 
1 -1 4 -3 3 -1 3 0 1 -1 1 0 2 0 1 0 
11 2 5 0 2 -1 1 0 3 -1 3 -2 4 -4 2 -5 
6 -11 1 -4 2 -4 6 -23 2 -6 2 -12 6 -26 7 -35 
4 -21 1 -7 2 -7 1 -7 4 -19 1 -5 2 -6 8 -27 
1 -3 3 -6 1 -2 2 -2 1 -1 1 -1 3 -1 3 1 
1 0 4 4 2 2 9 20 2 3 2 7 2 3 2 7 
4 9 2 3 7 14 1 2 3 4 1 2 3 3 4 2 
1 1 2 0 1 1 3 0 2 -1 7 -3 2 -1 8 -7 
5 -4 2 0 1 -1 7 -2 1 -1 4 1 1143 2123 207 MP stroke
gr

c9
0 sg
4107 3966 mt 
(time step) s
 516 2340 mt  -90 rotate
(u) s
90 rotate
%%IncludeResource: font Times-Roman
/Times-Roman /ISOLatin1Encoding 192 FMSR

 636 2220 mt  -90 rotate
(x) s
90 rotate
%%IncludeResource: font Times-Roman
/Times-Roman /ISOLatin1Encoding 240 FMSR

 516 2124 mt  -90 rotate
( \(m/s\)) s
90 rotate
3591  215 mt 
(Jul20-Aug21, 2013) s
1112 3583 mt 
( ) s
7920  481 mt 
( ) s
6 w
1 sg
0 592 1835 0 0 -592 6055 1051 4 MP
PP
-1835 0 0 592 1835 0 0 -592 6055 1051 5 MP stroke
4 w
DO
SO
6 w
0 sg
6055 1051 mt 7890 1051 L
6055  459 mt 7890  459 L
6055 1051 mt 6055  459 L
7890 1051 mt 7890  459 L
6055 1051 mt 7890 1051 L
6055 1051 mt 6055  459 L
6055 1051 mt 7890 1051 L
6055  459 mt 7890  459 L
6055 1051 mt 6055  459 L
7890 1051 mt 7890  459 L
6506  698 mt 
(measurement) s
gs 6055 459 1836 593 rc
48 w
gr

48 w
gs 6127 445 341 341 rc
40 W
c8
6297 615 PD
gr

c8
gs 6055 459 1836 593 rc
gr

0 sg
6506  977 mt 
(regularization) s
gs 6055 459 1836 593 rc
c9
346 0 6124 894 2 MP stroke
6 w
gr

6 w
c9

end %%Color Dict

eplot
%%EndObject

epage
end

showpage

%%Trailer
%%EOF
