%!PS-Adobe-3.0 EPSF-3.0
%%Creator: MATLAB, The MathWorks, Inc. Version 8.1.0.604 (R2013a). Operating System: Darwin 12.5.0 Darwin Kernel Version 12.5.0: Sun Sep 29 13:33:47 PDT 2013; root:xnu-2050.48.12~1/RELEASE_X86_64 x86_64.
%%Title: /Users/bamdadhosseini/Work/Courses/apma990-machinelearning/MATLAB/wx_oct_fit.eps
%%CreationDate: 01/09/2015  13:50:49
%%DocumentNeededFonts: Times-Roman
%%DocumentProcessColors: Cyan Magenta Yellow Black
%%LanguageLevel: 2
%%Pages: 1
%%BoundingBox:   -59   227   673   564
%%EndComments

%%BeginProlog
% MathWorks dictionary
/MathWorks 160 dict begin
% definition operators
/bdef {bind def} bind def
/ldef {load def} bind def
/xdef {exch def} bdef
/xstore {exch store} bdef
% operator abbreviations
/c  /clip ldef
/cc /concat ldef
/cp /closepath ldef
/gr /grestore ldef
/gs /gsave ldef
/mt /moveto ldef
/np /newpath ldef
/cm /currentmatrix ldef
/sm /setmatrix ldef
/rm /rmoveto ldef
/rl /rlineto ldef
/s {show newpath} bdef
/sc {setcmykcolor} bdef
/sr /setrgbcolor ldef
/sg /setgray ldef
/w /setlinewidth ldef
/j /setlinejoin ldef
/cap /setlinecap ldef
/rc {rectclip} bdef
/rf {rectfill} bdef
% page state control
/pgsv () def
/bpage {/pgsv save def} bdef
/epage {pgsv restore} bdef
/bplot /gsave ldef
/eplot {stroke grestore} bdef
% orientation switch
/portraitMode 0 def /landscapeMode 1 def /rotateMode 2 def
% coordinate system mappings
/dpi2point 0 def
% font control
/FontSize 0 def
/FMS {/FontSize xstore findfont [FontSize 0 0 FontSize neg 0 0]
  makefont setfont} bdef
/reencode {exch dup where {pop load} {pop StandardEncoding} ifelse
  exch dup 3 1 roll findfont dup length dict begin
  { 1 index /FID ne {def}{pop pop} ifelse } forall
  /Encoding exch def currentdict end definefont pop} bdef
/isroman {findfont /CharStrings get /Agrave known} bdef
/FMSR {3 1 roll 1 index dup isroman {reencode} {pop pop} ifelse
  exch FMS} bdef
/csm {1 dpi2point div -1 dpi2point div scale neg translate
 dup landscapeMode eq {pop -90 rotate}
  {rotateMode eq {90 rotate} if} ifelse} bdef
% line types: solid, dotted, dashed, dotdash
/SO { [] 0 setdash } bdef
/DO { [.5 dpi2point mul 4 dpi2point mul] 0 setdash } bdef
/DA { [6 dpi2point mul] 0 setdash } bdef
/DD { [.5 dpi2point mul 4 dpi2point mul 6 dpi2point mul 4
  dpi2point mul] 0 setdash } bdef
% macros for lines and objects
/L {lineto stroke} bdef
/MP {3 1 roll moveto 1 sub {rlineto} repeat} bdef
/AP {{rlineto} repeat} bdef
/PDlw -1 def
/W {/PDlw currentlinewidth def setlinewidth} def
/PP {closepath eofill} bdef
/DP {closepath stroke} bdef
/MR {4 -2 roll moveto dup  0 exch rlineto exch 0 rlineto
  neg 0 exch rlineto closepath} bdef
/FR {MR stroke} bdef
/PR {MR fill} bdef
/L1i {{currentfile picstr readhexstring pop} image} bdef
/tMatrix matrix def
/MakeOval {newpath tMatrix currentmatrix pop translate scale
0 0 1 0 360 arc tMatrix setmatrix} bdef
/FO {MakeOval stroke} bdef
/PO {MakeOval fill} bdef
/PD {currentlinewidth 2 div 0 360 arc fill
   PDlw -1 eq not {PDlw w /PDlw -1 def} if} def
/FA {newpath tMatrix currentmatrix pop translate scale
  0 0 1 5 -2 roll arc tMatrix setmatrix stroke} bdef
/PA {newpath tMatrix currentmatrix pop	translate 0 0 moveto scale
  0 0 1 5 -2 roll arc closepath tMatrix setmatrix fill} bdef
/FAn {newpath tMatrix currentmatrix pop translate scale
  0 0 1 5 -2 roll arcn tMatrix setmatrix stroke} bdef
/PAn {newpath tMatrix currentmatrix pop translate 0 0 moveto scale
  0 0 1 5 -2 roll arcn closepath tMatrix setmatrix fill} bdef
/vradius 0 def /hradius 0 def /lry 0 def
/lrx 0 def /uly 0 def /ulx 0 def /rad 0 def
/MRR {/vradius xdef /hradius xdef /lry xdef /lrx xdef /uly xdef
  /ulx xdef newpath tMatrix currentmatrix pop ulx hradius add uly
  vradius add translate hradius vradius scale 0 0 1 180 270 arc 
  tMatrix setmatrix lrx hradius sub uly vradius add translate
  hradius vradius scale 0 0 1 270 360 arc tMatrix setmatrix
  lrx hradius sub lry vradius sub translate hradius vradius scale
  0 0 1 0 90 arc tMatrix setmatrix ulx hradius add lry vradius sub
  translate hradius vradius scale 0 0 1 90 180 arc tMatrix setmatrix
  closepath} bdef
/FRR {MRR stroke } bdef
/PRR {MRR fill } bdef
/MlrRR {/lry xdef /lrx xdef /uly xdef /ulx xdef /rad lry uly sub 2 div def
  newpath tMatrix currentmatrix pop ulx rad add uly rad add translate
  rad rad scale 0 0 1 90 270 arc tMatrix setmatrix lrx rad sub lry rad
  sub translate rad rad scale 0 0 1 270 90 arc tMatrix setmatrix
  closepath} bdef
/FlrRR {MlrRR stroke } bdef
/PlrRR {MlrRR fill } bdef
/MtbRR {/lry xdef /lrx xdef /uly xdef /ulx xdef /rad lrx ulx sub 2 div def
  newpath tMatrix currentmatrix pop ulx rad add uly rad add translate
  rad rad scale 0 0 1 180 360 arc tMatrix setmatrix lrx rad sub lry rad
  sub translate rad rad scale 0 0 1 0 180 arc tMatrix setmatrix
  closepath} bdef
/FtbRR {MtbRR stroke } bdef
/PtbRR {MtbRR fill } bdef
/stri 6 array def /dtri 6 array def
/smat 6 array def /dmat 6 array def
/tmat1 6 array def /tmat2 6 array def /dif 3 array def
/asub {/ind2 exch def /ind1 exch def dup dup
  ind1 get exch ind2 get sub exch } bdef
/tri_to_matrix {
  2 0 asub 3 1 asub 4 0 asub 5 1 asub
  dup 0 get exch 1 get 7 -1 roll astore } bdef
/compute_transform {
  dmat dtri tri_to_matrix tmat1 invertmatrix 
  smat stri tri_to_matrix tmat2 concatmatrix } bdef
/ds {stri astore pop} bdef
/dt {dtri astore pop} bdef
/db {2 copy /cols xdef /rows xdef mul dup 3 mul string
  currentfile 
  3 index 0 eq {/ASCIIHexDecode filter}
  {/ASCII85Decode filter 3 index 2 eq {/RunLengthDecode filter} if }
  ifelse exch readstring pop
  dup 0 3 index getinterval /rbmap xdef
  dup 2 index dup getinterval /gbmap xdef
  1 index dup 2 mul exch getinterval /bbmap xdef pop pop}bdef
/it {gs np dtri aload pop moveto lineto lineto cp c
  cols rows 8 compute_transform 
  rbmap gbmap bbmap true 3 colorimage gr}bdef
/il {newpath moveto lineto stroke}bdef
currentdict end def
%%EndProlog

%%BeginSetup
MathWorks begin

0 cap

end
%%EndSetup

%%Page: 1 1
%%BeginPageSetup
%%PageBoundingBox:   -59   227   673   564
MathWorks begin
bpage
%%EndPageSetup

%%BeginObject: obj1
bplot

/dpi2point 12 def
portraitMode -0708 6768 csm

    0     0  8794  4044 rc
85 dict begin %Colortable dictionary
/c0 { 0.000000 0.000000 0.000000 sr} bdef
/c1 { 1.000000 1.000000 1.000000 sr} bdef
/c2 { 0.900000 0.000000 0.000000 sr} bdef
/c3 { 0.000000 0.820000 0.000000 sr} bdef
/c4 { 0.000000 0.000000 0.800000 sr} bdef
/c5 { 0.910000 0.820000 0.320000 sr} bdef
/c6 { 1.000000 0.260000 0.820000 sr} bdef
/c7 { 0.000000 0.820000 0.820000 sr} bdef
c0
1 j
1 sg
   0    0 8795 4045 rf
6 w
0 3200 6816 0 0 -3200 1143 3599 4 MP
PP
-6816 0 0 3200 6816 0 0 -3200 1143 3599 5 MP stroke
4 w
DO
SO
6 w
0 sg
1143 3599 mt 7959 3599 L
1143 3599 mt 1143  399 L
1143 3599 mt 1143 3530 L
%%IncludeResource: font Times-Roman
/Times-Roman /ISOLatin1Encoding 240 FMSR

1083 3848 mt 
(0) s
2506 3599 mt 2506 3530 L
2266 3848 mt 
(1000) s
3869 3599 mt 3869 3530 L
3629 3848 mt 
(2000) s
5232 3599 mt 5232 3530 L
4992 3848 mt 
(3000) s
6595 3599 mt 6595 3530 L
6355 3848 mt 
(4000) s
7959 3599 mt 7959 3530 L
7719 3848 mt 
(5000) s
1143 3599 mt 1211 3599 L
 733 3685 mt 
(-10) s
1143 2799 mt 1211 2799 L
 853 2885 mt 
(-5) s
1143 1999 mt 1211 1999 L
 988 2085 mt 
(0) s
1143 1199 mt 1211 1199 L
 988 1285 mt 
(5) s
1143  399 mt 1211  399 L
 868  485 mt 
(10) s
gs 1143 399 6817 3201 rc
48 w
gr

48 w
40 W
/c8 { 0.000000 0.000000 1.000000 sr} bdef
c8
1151 1924 PD
40 W
1152 1900 PD
40 W
1155 1921 PD
40 W
1157 1999 PD
40 W
1159 1999 PD
40 W
1160 1999 PD
40 W
1162 1999 PD
40 W
1163 1999 PD
40 W
1164 1985 PD
40 W
1166 1987 PD
40 W
1168 1999 PD
40 W
1170 1946 PD
40 W
1175 1937 PD
40 W
1178 1971 PD
40 W
1179 1999 PD
40 W
1182 1970 PD
40 W
1185 1992 PD
40 W
1187 1986 PD
40 W
1189 1985 PD
40 W
1190 1985 PD
40 W
1194 1979 PD
40 W
1197 1999 PD
40 W
1201 1977 PD
40 W
1204 1980 PD
40 W
1205 1980 PD
40 W
1209 1999 PD
40 W
1211 1999 PD
40 W
1212 1999 PD
40 W
1213 1976 PD
40 W
1216 1950 PD
40 W
1217 1999 PD
40 W
1220 1949 PD
40 W
1223 1999 PD
40 W
1226 1999 PD
40 W
1230 1989 PD
40 W
1231 1980 PD
40 W
1232 1972 PD
40 W
1235 1982 PD
40 W
1238 1952 PD
40 W
1239 1976 PD
40 W
1241 1956 PD
40 W
1243 1967 PD
40 W
1245 1999 PD
40 W
1247 1999 PD
40 W
1249 1999 PD
40 W
1250 1966 PD
40 W
1252 1906 PD
40 W
1260 1978 PD
40 W
1264 1999 PD
40 W
1267 1999 PD
40 W
1269 1999 PD
40 W
1272 1982 PD
40 W
1275 2010 PD
40 W
1276 2029 PD
40 W
1279 1999 PD
40 W
1282 1999 PD
40 W
1283 1999 PD
40 W
1286 1999 PD
40 W
1288 1999 PD
40 W
1295 1979 PD
40 W
1297 1999 PD
40 W
1299 1999 PD
40 W
1303 1999 PD
40 W
1305 1999 PD
40 W
1317 1999 PD
40 W
1320 1999 PD
40 W
1321 1999 PD
40 W
1322 1999 PD
40 W
1328 1999 PD
40 W
1331 2029 PD
40 W
1332 2010 PD
40 W
1336 1999 PD
40 W
1340 1999 PD
40 W
1344 1999 PD
40 W
1346 2004 PD
40 W
1347 1999 PD
40 W
1351 1999 PD
40 W
1357 2026 PD
40 W
1358 2017 PD
40 W
1359 2067 PD
40 W
1361 2066 PD
40 W
1363 2047 PD
40 W
1365 2057 PD
40 W
1366 2005 PD
40 W
1367 2006 PD
40 W
1372 2079 PD
40 W
1376 2073 PD
40 W
1378 2036 PD
40 W
1382 2017 PD
40 W
1385 2079 PD
40 W
1388 2075 PD
40 W
1389 2072 PD
40 W
1391 2117 PD
40 W
1393 2037 PD
40 W
1395 1999 PD
40 W
1396 1999 PD
40 W
1397 1999 PD
40 W
1404 1999 PD
40 W
1406 2018 PD
40 W
1407 2021 PD
40 W
1412 1999 PD
40 W
1415 1999 PD
40 W
1417 1999 PD
40 W
1421 2017 PD
40 W
1422 1999 PD
40 W
1425 1999 PD
40 W
1426 1999 PD
40 W
1427 2016 PD
40 W
1429 2014 PD
40 W
1431 1998 PD
40 W
1433 1999 PD
40 W
1437 2014 PD
40 W
1441 1999 PD
40 W
1442 2010 PD
40 W
1444 2024 PD
40 W
1445 1989 PD
40 W
1446 1999 PD
40 W
1448 2071 PD
40 W
1449 1999 PD
40 W
1451 1999 PD
40 W
1452 1999 PD
40 W
1453 1999 PD
40 W
1456 2047 PD
40 W
1457 1988 PD
40 W
1459 1999 PD
40 W
1461 1999 PD
40 W
1463 1984 PD
40 W
1464 1999 PD
40 W
1466 1999 PD
40 W
1467 1999 PD
40 W
1472 1999 PD
40 W
1474 1999 PD
40 W
1475 1999 PD
40 W
1476 1999 PD
40 W
1478 1999 PD
40 W
1481 1999 PD
40 W
1482 1999 PD
40 W
1485 1992 PD
40 W
1487 1989 PD
40 W
1489 1994 PD
40 W
1490 1999 PD
40 W
1491 1999 PD
40 W
1496 1999 PD
40 W
1497 2047 PD
40 W
1500 2021 PD
40 W
1501 1999 PD
40 W
1502 2021 PD
40 W
1508 1999 PD
40 W
1509 1999 PD
40 W
1511 1999 PD
40 W
1512 1999 PD
40 W
1513 2025 PD
40 W
1515 2013 PD
40 W
1521 1999 PD
40 W
1524 2036 PD
40 W
1528 1999 PD
40 W
1530 1999 PD
40 W
1531 1999 PD
40 W
1532 1999 PD
40 W
1534 1999 PD
40 W
1535 1999 PD
40 W
1536 1999 PD
40 W
1541 1999 PD
40 W
1543 2028 PD
40 W
1546 1999 PD
40 W
1547 2027 PD
40 W
1551 1989 PD
40 W
1564 1991 PD
40 W
1565 1999 PD
40 W
1568 1999 PD
40 W
1569 1999 PD
40 W
1573 1999 PD
40 W
1575 1999 PD
40 W
1577 1999 PD
40 W
1579 1999 PD
40 W
1580 1936 PD
40 W
1583 1999 PD
40 W
1586 1992 PD
40 W
1587 1962 PD
40 W
1588 1999 PD
40 W
1590 1999 PD
40 W
1592 1999 PD
40 W
1594 1999 PD
40 W
1596 2015 PD
40 W
1599 1999 PD
40 W
1601 2009 PD
40 W
1606 1981 PD
40 W
1607 1939 PD
40 W
1609 1959 PD
40 W
1613 1983 PD
40 W
1616 1982 PD
40 W
1617 1986 PD
40 W
1618 1929 PD
40 W
1620 1821 PD
40 W
1621 1841 PD
40 W
1624 1757 PD
40 W
1626 1761 PD
40 W
1628 1782 PD
40 W
1632 1826 PD
40 W
1635 1918 PD
40 W
1640 1797 PD
40 W
1641 1954 PD
40 W
1643 1982 PD
40 W
1644 1893 PD
40 W
1651 1801 PD
40 W
1655 1763 PD
40 W
1656 1816 PD
40 W
1662 1615 PD
40 W
1663 1569 PD
40 W
1666 1677 PD
40 W
1667 1723 PD
40 W
1673 1828 PD
40 W
1681 1999 PD
40 W
1682 2192 PD
40 W
1684 2266 PD
40 W
1685 2147 PD
40 W
1686 2072 PD
40 W
1692 2021 PD
40 W
1695 2052 PD
40 W
1696 2087 PD
40 W
1697 2019 PD
40 W
1699 2048 PD
40 W
1704 2019 PD
40 W
1706 1937 PD
40 W
1711 2016 PD
40 W
1714 1999 PD
40 W
1719 2075 PD
40 W
1720 2183 PD
40 W
1723 2086 PD
40 W
1725 2137 PD
40 W
1726 2179 PD
40 W
1727 2012 PD
40 W
1729 2092 PD
40 W
1731 2058 PD
40 W
1734 2068 PD
40 W
1735 2001 PD
40 W
1737 1984 PD
40 W
1740 2074 PD
40 W
1741 2019 PD
40 W
1744 2047 PD
40 W
1745 2018 PD
40 W
1749 2041 PD
40 W
1750 2114 PD
40 W
1753 2038 PD
40 W
1756 2181 PD
40 W
1759 2113 PD
40 W
1760 2033 PD
40 W
1761 2013 PD
40 W
1765 1999 PD
40 W
1767 1999 PD
40 W
1772 1999 PD
40 W
1774 1999 PD
40 W
1776 1999 PD
40 W
1778 1999 PD
40 W
1782 1999 PD
40 W
1785 2040 PD
40 W
1789 1999 PD
40 W
1790 1999 PD
40 W
1793 1999 PD
40 W
1794 1999 PD
40 W
1797 2014 PD
40 W
1800 1999 PD
40 W
1810 2048 PD
40 W
1813 2059 PD
40 W
1815 2095 PD
40 W
1816 2208 PD
40 W
1827 2078 PD
40 W
1828 2125 PD
40 W
1831 2162 PD
40 W
1834 1994 PD
40 W
1835 2011 PD
40 W
1839 1999 PD
40 W
1842 2097 PD
40 W
1847 2007 PD
40 W
1851 1916 PD
40 W
1853 1999 PD
40 W
1855 1972 PD
40 W
1858 2050 PD
40 W
1862 2102 PD
40 W
1864 2097 PD
40 W
1865 2140 PD
40 W
1869 2127 PD
40 W
1873 2068 PD
40 W
1876 2020 PD
40 W
1879 2112 PD
40 W
1880 2134 PD
40 W
1881 2108 PD
40 W
1883 2119 PD
40 W
1885 2180 PD
40 W
1887 2082 PD
40 W
1888 2033 PD
40 W
1890 2106 PD
40 W
1891 2121 PD
40 W
1892 2079 PD
40 W
1894 2045 PD
40 W
1896 2052 PD
40 W
1898 2035 PD
40 W
1899 2056 PD
40 W
1902 2079 PD
40 W
1905 2079 PD
40 W
1906 2095 PD
40 W
1907 2022 PD
40 W
1909 2069 PD
40 W
1911 2037 PD
40 W
1913 2021 PD
40 W
1914 2065 PD
40 W
1918 2055 PD
40 W
1924 2051 PD
40 W
1926 2062 PD
40 W
1928 2098 PD
40 W
1932 2017 PD
40 W
1933 1999 PD
40 W
1935 1999 PD
40 W
1936 2069 PD
40 W
1937 2044 PD
40 W
1940 2017 PD
40 W
1947 2012 PD
40 W
1948 1999 PD
40 W
1950 1999 PD
40 W
1954 2022 PD
40 W
1955 2043 PD
40 W
1958 2075 PD
40 W
1959 2096 PD
40 W
1962 2109 PD
40 W
1965 2062 PD
40 W
1967 2108 PD
40 W
1969 2148 PD
40 W
1970 2065 PD
40 W
1971 2090 PD
40 W
1974 2070 PD
40 W
1975 2056 PD
40 W
1977 2100 PD
40 W
1978 2108 PD
40 W
1981 2116 PD
40 W
1984 2105 PD
40 W
1985 2124 PD
40 W
1988 2045 PD
40 W
1989 2104 PD
40 W
1992 2123 PD
40 W
1996 2108 PD
40 W
1999 2112 PD
40 W
2001 2207 PD
40 W
2004 2066 PD
40 W
2011 2213 PD
40 W
2018 2264 PD
40 W
2019 2286 PD
40 W
2020 2312 PD
40 W
2022 2242 PD
40 W
2023 2285 PD
40 W
2026 2266 PD
40 W
2027 2229 PD
40 W
2031 2242 PD
40 W
2033 2175 PD
40 W
2034 2218 PD
40 W
2035 2232 PD
40 W
2042 2235 PD
40 W
2046 2011 PD
40 W
2052 2100 PD
40 W
2053 2138 PD
40 W
2063 2080 PD
40 W
2065 2067 PD
40 W
2068 2143 PD
40 W
2069 2187 PD
40 W
2075 2172 PD
40 W
2079 2266 PD
40 W
2080 2204 PD
40 W
2082 2111 PD
40 W
2083 2142 PD
40 W
2084 2211 PD
40 W
2087 2124 PD
40 W
2090 2179 PD
40 W
2093 2184 PD
40 W
2094 2131 PD
40 W
2095 2092 PD
40 W
2098 2045 PD
40 W
2102 2037 PD
40 W
2113 1999 PD
40 W
2116 2179 PD
40 W
2117 2113 PD
40 W
2119 2132 PD
40 W
2120 2125 PD
40 W
2121 2023 PD
40 W
2123 1999 PD
40 W
2125 1999 PD
40 W
2127 2033 PD
40 W
2131 1999 PD
40 W
2135 2183 PD
40 W
2136 2204 PD
40 W
2140 2117 PD
40 W
2142 2102 PD
40 W
2143 2076 PD
40 W
2147 2016 PD
40 W
2150 2141 PD
40 W
2153 2259 PD
40 W
2158 2219 PD
40 W
2162 2104 PD
40 W
2164 2132 PD
40 W
2165 2166 PD
40 W
2168 2155 PD
40 W
2176 2105 PD
40 W
2177 2135 PD
40 W
2181 2114 PD
40 W
2183 2091 PD
40 W
2189 2161 PD
40 W
2191 2175 PD
40 W
2194 2161 PD
40 W
2195 2213 PD
40 W
2196 2255 PD
40 W
2198 2238 PD
40 W
2202 2278 PD
40 W
2203 2255 PD
40 W
2206 2301 PD
40 W
2207 2326 PD
40 W
2209 2257 PD
40 W
2215 2194 PD
40 W
2217 2226 PD
40 W
2218 2130 PD
40 W
2221 2130 PD
40 W
2222 2174 PD
40 W
2225 2156 PD
40 W
2228 2064 PD
40 W
2230 2177 PD
40 W
2234 2137 PD
40 W
2237 2151 PD
40 W
2239 2162 PD
40 W
2241 2164 PD
40 W
2244 2134 PD
40 W
2245 2207 PD
40 W
2248 2155 PD
40 W
2251 2289 PD
40 W
2252 2250 PD
40 W
2254 2217 PD
40 W
2255 2220 PD
40 W
2263 2230 PD
40 W
2264 2257 PD
40 W
2266 2254 PD
40 W
2269 2167 PD
40 W
2270 2178 PD
40 W
2274 2160 PD
40 W
2275 2069 PD
40 W
2277 2161 PD
40 W
2283 2078 PD
40 W
2286 2107 PD
40 W
2288 2028 PD
40 W
2289 2075 PD
40 W
2292 2044 PD
40 W
2294 2105 PD
40 W
2296 2040 PD
40 W
2298 2126 PD
40 W
2308 2011 PD
40 W
2311 1999 PD
40 W
2315 2012 PD
40 W
2316 1999 PD
40 W
2318 1999 PD
40 W
2319 1999 PD
40 W
2320 1999 PD
40 W
2323 1900 PD
40 W
2326 1999 PD
40 W
2328 1999 PD
40 W
2331 1989 PD
40 W
2335 1956 PD
40 W
2338 1899 PD
40 W
2339 1892 PD
40 W
2342 1940 PD
40 W
2346 1951 PD
40 W
2348 1872 PD
40 W
2349 1904 PD
40 W
2350 1821 PD
40 W
2353 1945 PD
40 W
2354 1965 PD
40 W
2358 1662 PD
40 W
2361 1499 PD
40 W
2363 1675 PD
40 W
2364 1751 PD
40 W
2368 1696 PD
40 W
2369 1704 PD
40 W
2371 1716 PD
40 W
2372 1662 PD
40 W
2373 1597 PD
40 W
2376 1648 PD
40 W
2378 1815 PD
40 W
2384 2099 PD
40 W
2386 1839 PD
40 W
2388 1935 PD
40 W
2390 1794 PD
40 W
2394 1903 PD
40 W
2395 1768 PD
40 W
2397 1761 PD
40 W
2399 1809 PD
40 W
2401 1808 PD
40 W
2402 1762 PD
40 W
2403 1671 PD
40 W
2409 1756 PD
40 W
2410 1586 PD
40 W
2413 1722 PD
40 W
2416 1777 PD
40 W
2417 1863 PD
40 W
2420 1908 PD
40 W
2421 1920 PD
40 W
2428 2170 PD
40 W
2429 2127 PD
40 W
2431 1738 PD
40 W
2432 1972 PD
40 W
2433 2037 PD
40 W
2435 1916 PD
40 W
2439 2021 PD
40 W
2440 2319 PD
40 W
2442 2144 PD
40 W
2451 2058 PD
40 W
2455 1808 PD
40 W
2457 2029 PD
40 W
2458 2046 PD
40 W
2459 2108 PD
40 W
2463 2061 PD
40 W
2466 1997 PD
40 W
2470 1999 PD
40 W
2474 1999 PD
40 W
2480 1999 PD
40 W
2481 1999 PD
40 W
2485 1999 PD
40 W
2491 1970 PD
40 W
2493 1985 PD
40 W
2495 1999 PD
40 W
2499 1980 PD
40 W
2500 1962 PD
40 W
2503 1808 PD
40 W
2504 1847 PD
40 W
2507 1902 PD
40 W
2508 1948 PD
40 W
2510 1895 PD
40 W
2511 1969 PD
40 W
2517 1964 PD
40 W
2518 1899 PD
40 W
2521 1982 PD
40 W
2526 1926 PD
40 W
2528 1924 PD
40 W
2532 1989 PD
40 W
2533 1956 PD
40 W
2536 1943 PD
40 W
2537 1891 PD
40 W
2538 1966 PD
40 W
2540 1973 PD
40 W
2541 1999 PD
40 W
2545 1976 PD
40 W
2549 1985 PD
40 W
2551 1977 PD
40 W
2555 1773 PD
40 W
2556 1765 PD
40 W
2559 1728 PD
40 W
2560 1844 PD
40 W
2563 1999 PD
40 W
2567 1930 PD
40 W
2568 1745 PD
40 W
2572 1798 PD
40 W
2574 1716 PD
40 W
2575 1792 PD
40 W
2577 2148 PD
40 W
2578 2042 PD
40 W
2581 2055 PD
40 W
2582 1869 PD
40 W
2604 1769 PD
40 W
2611 1693 PD
40 W
2612 1766 PD
40 W
2615 1727 PD
40 W
2619 2128 PD
40 W
2620 1900 PD
40 W
2626 1898 PD
40 W
2627 1907 PD
40 W
2628 1846 PD
40 W
2630 1881 PD
40 W
2634 1955 PD
40 W
2638 1968 PD
40 W
2639 1934 PD
40 W
2641 1958 PD
40 W
2645 1950 PD
40 W
2647 1934 PD
40 W
2653 1930 PD
40 W
2654 1901 PD
40 W
2656 1955 PD
40 W
2657 1904 PD
40 W
2658 1880 PD
40 W
2660 1923 PD
40 W
2661 1983 PD
40 W
2664 1999 PD
40 W
2665 1965 PD
40 W
2669 1961 PD
40 W
2673 1929 PD
40 W
2675 1959 PD
40 W
2679 1979 PD
40 W
2684 1918 PD
40 W
2686 1906 PD
40 W
2688 1961 PD
40 W
2691 1822 PD
40 W
2692 1909 PD
40 W
2694 1831 PD
40 W
2697 1889 PD
40 W
2699 1916 PD
40 W
2701 1925 PD
40 W
2702 1934 PD
40 W
2705 1950 PD
40 W
2706 1972 PD
40 W
2710 1971 PD
40 W
2712 1999 PD
40 W
2716 1999 PD
40 W
2722 1968 PD
40 W
2725 1906 PD
40 W
2728 1854 PD
40 W
2729 1878 PD
40 W
2731 1920 PD
40 W
2732 1908 PD
40 W
2733 1939 PD
40 W
2735 1955 PD
40 W
2736 1940 PD
40 W
2737 1930 PD
40 W
2742 1943 PD
40 W
2746 1913 PD
40 W
2748 1868 PD
40 W
2751 1894 PD
40 W
2752 1940 PD
40 W
2755 1884 PD
40 W
2758 1932 PD
40 W
2759 1926 PD
40 W
2761 1944 PD
40 W
2762 1939 PD
40 W
2766 1999 PD
40 W
2767 1970 PD
40 W
2769 1963 PD
40 W
2772 1944 PD
40 W
2776 1952 PD
40 W
2782 1999 PD
40 W
2784 1929 PD
40 W
2787 1890 PD
40 W
2788 1917 PD
40 W
2789 1954 PD
40 W
2791 1961 PD
40 W
2797 2010 PD
40 W
2800 1974 PD
40 W
2802 1932 PD
40 W
2803 1999 PD
40 W
2804 1937 PD
40 W
2806 1889 PD
40 W
2807 1921 PD
40 W
2808 1970 PD
40 W
2810 1989 PD
40 W
2811 2002 PD
40 W
2817 1907 PD
40 W
2818 1880 PD
40 W
2821 1914 PD
40 W
2822 1883 PD
40 W
2826 1961 PD
40 W
2827 1928 PD
40 W
2830 1937 PD
40 W
2832 1999 PD
40 W
2833 1999 PD
40 W
2836 1920 PD
40 W
2837 1921 PD
40 W
2838 1971 PD
40 W
2840 1953 PD
40 W
2841 1975 PD
40 W
2845 1999 PD
40 W
2847 1999 PD
40 W
2851 1999 PD
40 W
2852 1999 PD
40 W
2853 1999 PD
40 W
2857 1999 PD
40 W
2859 1999 PD
40 W
2860 1999 PD
40 W
2863 1999 PD
40 W
2870 1999 PD
40 W
2871 1999 PD
40 W
2874 1999 PD
40 W
2876 1999 PD
40 W
2878 1999 PD
40 W
2879 1983 PD
40 W
2883 1932 PD
40 W
2885 1950 PD
40 W
2887 1999 PD
40 W
2889 1984 PD
40 W
2890 1999 PD
40 W
2891 1999 PD
40 W
2893 1999 PD
40 W
2894 1999 PD
40 W
2896 1999 PD
40 W
2897 1999 PD
40 W
2898 1999 PD
40 W
2900 1999 PD
40 W
2901 1999 PD
40 W
2902 1999 PD
40 W
2906 1999 PD
40 W
2911 1999 PD
40 W
2912 1949 PD
40 W
2913 1915 PD
40 W
2915 1996 PD
40 W
2916 1999 PD
40 W
2920 1999 PD
40 W
2921 1999 PD
40 W
2923 1999 PD
40 W
2930 2010 PD
40 W
2931 2031 PD
40 W
2934 2009 PD
40 W
2938 1999 PD
40 W
2939 1999 PD
40 W
2942 2046 PD
40 W
2945 2024 PD
40 W
2946 2025 PD
40 W
2947 2042 PD
40 W
2950 2027 PD
40 W
2951 2107 PD
40 W
2953 2061 PD
40 W
2957 2060 PD
40 W
2962 2022 PD
40 W
2971 2044 PD
40 W
2972 2065 PD
40 W
2973 2059 PD
40 W
2975 1999 PD
40 W
2979 2028 PD
40 W
2980 2054 PD
40 W
2981 2085 PD
40 W
2987 1999 PD
40 W
2988 2036 PD
40 W
2990 2036 PD
40 W
2991 1999 PD
40 W
2992 2022 PD
40 W
2994 1999 PD
40 W
2995 1999 PD
40 W
2996 2015 PD
40 W
2998 2111 PD
40 W
3002 2073 PD
40 W
3003 2073 PD
40 W
3006 2069 PD
40 W
3007 2076 PD
40 W
3009 2047 PD
40 W
3013 2047 PD
40 W
3014 2047 PD
40 W
3020 2047 PD
40 W
3024 2062 PD
40 W
3025 2206 PD
40 W
3028 2176 PD
40 W
3033 2177 PD
40 W
3035 2094 PD
40 W
3039 2126 PD
40 W
3041 2091 PD
40 W
3046 2074 PD
40 W
3047 2113 PD
40 W
3048 2134 PD
40 W
3050 2095 PD
40 W
3051 2102 PD
40 W
3052 2149 PD
40 W
3055 2111 PD
40 W
3056 2135 PD
40 W
3062 2051 PD
40 W
3063 2124 PD
40 W
3065 2095 PD
40 W
3066 2038 PD
40 W
3067 2062 PD
40 W
3069 2043 PD
40 W
3071 2061 PD
40 W
3074 2009 PD
40 W
3076 2007 PD
40 W
3077 2030 PD
40 W
3078 2122 PD
40 W
3080 2017 PD
40 W
3081 2048 PD
40 W
3084 2020 PD
40 W
3085 2009 PD
40 W
3089 1999 PD
40 W
3093 2009 PD
40 W
3097 2029 PD
40 W
3100 1999 PD
40 W
3103 1999 PD
40 W
3104 2062 PD
40 W
3108 1999 PD
40 W
3110 1999 PD
40 W
3111 1999 PD
40 W
3112 1999 PD
40 W
3115 2049 PD
40 W
3122 1999 PD
40 W
3123 1999 PD
40 W
3125 1999 PD
40 W
3134 1999 PD
40 W
3135 1999 PD
40 W
3140 1999 PD
40 W
3142 1999 PD
40 W
3144 1999 PD
40 W
3146 1999 PD
40 W
3148 2014 PD
40 W
3149 1999 PD
40 W
3150 1999 PD
40 W
3152 1999 PD
40 W
3156 1999 PD
40 W
3157 1999 PD
40 W
3159 1999 PD
40 W
3161 1999 PD
40 W
3165 1999 PD
40 W
3167 1999 PD
40 W
3168 1999 PD
40 W
3171 1999 PD
40 W
3172 1999 PD
40 W
3179 1999 PD
40 W
3180 2016 PD
40 W
3185 2041 PD
40 W
3187 1967 PD
40 W
3189 1967 PD
40 W
3191 1967 PD
40 W
3193 1967 PD
40 W
3194 1967 PD
40 W
3195 1967 PD
40 W
3197 1967 PD
40 W
3198 1967 PD
40 W
3200 1971 PD
40 W
3202 1950 PD
40 W
3206 1901 PD
40 W
3213 1979 PD
40 W
3215 1963 PD
40 W
3224 1958 PD
40 W
3227 2015 PD
40 W
3230 1917 PD
40 W
3232 1888 PD
40 W
3234 1913 PD
40 W
3239 1951 PD
40 W
3243 1847 PD
40 W
3245 1824 PD
40 W
3247 1960 PD
40 W
3253 1921 PD
40 W
3254 1908 PD
40 W
3255 1917 PD
40 W
3257 1876 PD
40 W
3258 1945 PD
40 W
3262 1954 PD
40 W
3265 1986 PD
40 W
3266 1970 PD
40 W
3269 1995 PD
40 W
3270 1997 PD
40 W
3276 1999 PD
40 W
3284 2066 PD
40 W
3287 1970 PD
40 W
3290 1914 PD
40 W
3294 1939 PD
40 W
3296 1946 PD
40 W
3302 1980 PD
40 W
3305 1990 PD
40 W
3306 1999 PD
40 W
3313 1978 PD
40 W
3317 2018 PD
40 W
3320 2022 PD
40 W
3321 1964 PD
40 W
3325 1980 PD
40 W
3326 1993 PD
40 W
3328 1991 PD
40 W
3330 1963 PD
40 W
3332 1982 PD
40 W
3333 1929 PD
40 W
3335 1999 PD
40 W
3336 1983 PD
40 W
3337 1960 PD
40 W
3340 1975 PD
40 W
3341 1989 PD
40 W
3343 1999 PD
40 W
3344 1999 PD
40 W
3345 1985 PD
40 W
3348 1985 PD
40 W
3350 1938 PD
40 W
3351 1937 PD
40 W
3356 1910 PD
40 W
3359 1878 PD
40 W
3363 1854 PD
40 W
3365 1781 PD
40 W
3367 1840 PD
40 W
3369 1879 PD
40 W
3370 1859 PD
40 W
3373 1754 PD
40 W
3374 1819 PD
40 W
3377 1692 PD
40 W
3378 1765 PD
40 W
3381 1807 PD
40 W
3382 1742 PD
40 W
3388 1863 PD
40 W
3389 1810 PD
40 W
3392 1823 PD
40 W
3393 2118 PD
40 W
3395 1989 PD
40 W
3396 1770 PD
40 W
3397 1863 PD
40 W
3400 1866 PD
40 W
3403 1730 PD
40 W
3405 1837 PD
40 W
3408 2079 PD
40 W
3411 2290 PD
40 W
3415 2151 PD
40 W
3416 2046 PD
40 W
3418 2052 PD
40 W
3422 1827 PD
40 W
3427 1821 PD
40 W
3429 1793 PD
40 W
3433 2178 PD
40 W
3437 2047 PD
40 W
3438 2176 PD
40 W
3441 2064 PD
40 W
3442 2016 PD
40 W
3445 2068 PD
40 W
3448 2155 PD
40 W
3456 1999 PD
40 W
3457 2054 PD
40 W
3459 1999 PD
40 W
3461 1999 PD
40 W
3463 1999 PD
40 W
3468 1999 PD
40 W
3471 1999 PD
40 W
3472 1999 PD
40 W
3478 1999 PD
40 W
3480 2018 PD
40 W
3484 2056 PD
40 W
3486 2026 PD
40 W
3489 2072 PD
40 W
3490 2053 PD
40 W
3491 2047 PD
40 W
3493 1999 PD
40 W
3495 2102 PD
40 W
3497 2170 PD
40 W
3505 2115 PD
40 W
3506 2027 PD
40 W
3508 1999 PD
40 W
3509 2082 PD
40 W
3510 2093 PD
40 W
3512 1999 PD
40 W
3514 1999 PD
40 W
3516 1999 PD
40 W
3519 1999 PD
40 W
3520 1999 PD
40 W
3521 1999 PD
40 W
3524 2014 PD
40 W
3538 2044 PD
40 W
3539 2061 PD
40 W
3540 2046 PD
40 W
3542 2046 PD
40 W
3543 1999 PD
40 W
3550 2026 PD
40 W
3554 2013 PD
40 W
3555 2011 PD
40 W
3558 2099 PD
40 W
3559 2044 PD
40 W
3561 2088 PD
40 W
3562 2052 PD
40 W
3564 2102 PD
40 W
3568 2076 PD
40 W
3569 2032 PD
40 W
3572 2095 PD
40 W
3576 2220 PD
40 W
3577 2298 PD
40 W
3579 2317 PD
40 W
3587 2431 PD
40 W
3588 2258 PD
40 W
3589 2119 PD
40 W
3591 2079 PD
40 W
3592 2120 PD
40 W
3594 2106 PD
40 W
3595 2142 PD
40 W
3598 2042 PD
40 W
3599 2085 PD
40 W
3602 2139 PD
40 W
3604 1915 PD
40 W
3606 2018 PD
40 W
3607 2094 PD
40 W
3610 2066 PD
40 W
3611 2069 PD
40 W
3613 2102 PD
40 W
3614 2062 PD
40 W
3615 2016 PD
40 W
3617 2024 PD
40 W
3619 2125 PD
40 W
3621 2114 PD
40 W
3622 2113 PD
40 W
3624 2139 PD
40 W
3625 2095 PD
40 W
3628 2020 PD
40 W
3629 2002 PD
40 W
3633 1990 PD
40 W
3636 1999 PD
40 W
3639 2071 PD
40 W
3640 2103 PD
40 W
3643 1943 PD
40 W
3648 1999 PD
40 W
3649 1999 PD
40 W
3651 1996 PD
40 W
3652 1980 PD
40 W
3659 2014 PD
40 W
3660 1999 PD
40 W
3667 1999 PD
40 W
3669 1999 PD
40 W
3670 1999 PD
40 W
3673 1999 PD
40 W
3677 1999 PD
40 W
3678 1999 PD
40 W
3679 1999 PD
40 W
3681 1999 PD
40 W
3684 1999 PD
40 W
3685 1999 PD
40 W
3690 1999 PD
40 W
3694 1999 PD
40 W
3697 1999 PD
40 W
3699 2011 PD
40 W
3700 2014 PD
40 W
3701 2005 PD
40 W
3711 1999 PD
40 W
3713 1962 PD
40 W
3718 1999 PD
40 W
3720 1980 PD
40 W
3726 1999 PD
40 W
3727 1966 PD
40 W
3728 1947 PD
40 W
3731 1915 PD
40 W
3733 1956 PD
40 W
3734 1961 PD
40 W
3735 1946 PD
40 W
3738 1958 PD
40 W
3739 1981 PD
40 W
3743 1972 PD
40 W
3746 1954 PD
40 W
3750 1995 PD
40 W
3757 1955 PD
40 W
3763 1854 PD
40 W
3765 1929 PD
40 W
3767 1941 PD
40 W
3768 1976 PD
40 W
3769 1994 PD
40 W
3772 2012 PD
40 W
3778 1999 PD
40 W
3779 1981 PD
40 W
3780 1999 PD
40 W
3782 1945 PD
40 W
3784 1999 PD
40 W
3786 1982 PD
40 W
3790 1999 PD
40 W
3791 1986 PD
40 W
3793 1982 PD
40 W
3794 1965 PD
40 W
3795 1971 PD
40 W
3801 1999 PD
40 W
3806 1983 PD
40 W
3809 1999 PD
40 W
3810 1999 PD
40 W
3814 1999 PD
40 W
3816 1999 PD
40 W
3817 1999 PD
40 W
3827 1999 PD
40 W
3828 1999 PD
40 W
3832 2004 PD
40 W
3835 2077 PD
40 W
3836 2039 PD
40 W
3843 1999 PD
40 W
3844 1999 PD
40 W
3846 1999 PD
40 W
3847 1999 PD
40 W
3848 1999 PD
40 W
3851 1999 PD
40 W
3853 1999 PD
40 W
3854 1999 PD
40 W
3855 1984 PD
40 W
3861 1970 PD
40 W
3863 1962 PD
40 W
3866 1999 PD
40 W
3868 1999 PD
40 W
3870 1999 PD
40 W
3872 1972 PD
40 W
3873 1999 PD
40 W
3874 1975 PD
40 W
3884 1999 PD
40 W
3887 1999 PD
40 W
3888 1999 PD
40 W
3892 1999 PD
40 W
3893 1999 PD
40 W
3895 1999 PD
40 W
3898 1999 PD
40 W
3899 1999 PD
40 W
3902 1999 PD
40 W
3904 1999 PD
40 W
3907 1999 PD
40 W
3913 1999 PD
40 W
3915 1999 PD
40 W
3917 1999 PD
40 W
3919 1999 PD
40 W
3921 1999 PD
40 W
3930 1999 PD
40 W
3932 1999 PD
40 W
3933 1979 PD
40 W
3934 1983 PD
40 W
3936 1929 PD
40 W
3937 1953 PD
40 W
3938 1984 PD
40 W
3941 1999 PD
40 W
3944 1999 PD
40 W
3945 1999 PD
40 W
3947 1999 PD
40 W
3948 1999 PD
40 W
3949 1999 PD
40 W
3951 1999 PD
40 W
3952 1989 PD
40 W
3953 1999 PD
40 W
3956 1999 PD
40 W
3958 1999 PD
40 W
3967 1935 PD
40 W
3970 1959 PD
40 W
3975 1971 PD
40 W
3977 1948 PD
40 W
3978 1999 PD
40 W
3981 1982 PD
40 W
3982 1982 PD
40 W
3983 1955 PD
40 W
3985 1999 PD
40 W
3986 2031 PD
40 W
3993 1999 PD
40 W
3996 1999 PD
40 W
3998 1999 PD
40 W
4000 1999 PD
40 W
4002 1999 PD
40 W
4007 1999 PD
40 W
4008 1999 PD
40 W
4011 1999 PD
40 W
4012 1993 PD
40 W
4013 1999 PD
40 W
4015 1999 PD
40 W
4019 1999 PD
40 W
4020 1999 PD
40 W
4027 1999 PD
40 W
4028 1999 PD
40 W
4030 1999 PD
40 W
4031 1999 PD
40 W
4032 2000 PD
40 W
4034 1999 PD
40 W
4037 1999 PD
40 W
4039 1999 PD
40 W
4042 1999 PD
40 W
4045 1999 PD
40 W
4049 1999 PD
40 W
4050 1999 PD
40 W
4052 1999 PD
40 W
4053 1999 PD
40 W
4054 1999 PD
40 W
4057 1999 PD
40 W
4060 1999 PD
40 W
4061 1999 PD
40 W
4062 1999 PD
40 W
4064 1999 PD
40 W
4068 1999 PD
40 W
4069 1999 PD
40 W
4071 1999 PD
40 W
4073 1999 PD
40 W
4075 1999 PD
40 W
4076 1999 PD
40 W
4077 1999 PD
40 W
4079 1999 PD
40 W
4083 1999 PD
40 W
4084 2051 PD
40 W
4087 1999 PD
40 W
4094 1999 PD
40 W
4101 2033 PD
40 W
4102 1999 PD
40 W
4105 1999 PD
40 W
4106 1999 PD
40 W
4109 1999 PD
40 W
4113 1999 PD
40 W
4118 1999 PD
40 W
4120 1999 PD
40 W
4125 1999 PD
40 W
4127 2128 PD
40 W
4129 1999 PD
40 W
4131 1999 PD
40 W
4132 1999 PD
40 W
4135 1999 PD
40 W
4136 1999 PD
40 W
4137 1999 PD
40 W
4139 1999 PD
40 W
4140 1999 PD
40 W
4142 1999 PD
40 W
4144 2037 PD
40 W
4151 2047 PD
40 W
4152 1931 PD
40 W
4157 1923 PD
40 W
4162 1999 PD
40 W
4163 1999 PD
40 W
4166 1929 PD
40 W
4167 1976 PD
40 W
4169 1972 PD
40 W
4170 1909 PD
40 W
4172 1960 PD
40 W
4173 1999 PD
40 W
4177 1976 PD
40 W
4181 1983 PD
40 W
4182 1999 PD
40 W
4184 1984 PD
40 W
4185 1999 PD
40 W
4187 1999 PD
40 W
4188 1999 PD
40 W
4189 1990 PD
40 W
4191 1999 PD
40 W
4193 1999 PD
40 W
4196 1999 PD
40 W
4204 2131 PD
40 W
4207 2023 PD
40 W
4208 1999 PD
40 W
4212 1999 PD
40 W
4217 1999 PD
40 W
4218 1999 PD
40 W
4219 1999 PD
40 W
4221 1999 PD
40 W
4222 1999 PD
40 W
4225 1999 PD
40 W
4226 1999 PD
40 W
4232 1999 PD
40 W
4234 1999 PD
40 W
4236 1999 PD
40 W
4240 1999 PD
40 W
4242 1999 PD
40 W
4245 1999 PD
40 W
4248 2056 PD
40 W
4249 2126 PD
40 W
4252 1999 PD
40 W
4259 1999 PD
40 W
4263 1999 PD
40 W
4264 1999 PD
40 W
4266 1999 PD
40 W
4268 1999 PD
40 W
4271 1999 PD
40 W
4272 1999 PD
40 W
4275 1999 PD
40 W
4276 1999 PD
40 W
4281 1999 PD
40 W
4285 2040 PD
40 W
4286 2019 PD
40 W
4289 2029 PD
40 W
4290 2029 PD
40 W
4291 2029 PD
40 W
4297 2080 PD
40 W
4298 1999 PD
40 W
4302 2038 PD
40 W
4305 2092 PD
40 W
4309 2020 PD
40 W
4311 2082 PD
40 W
4312 2064 PD
40 W
4315 2023 PD
40 W
4316 2054 PD
40 W
4317 2034 PD
40 W
4326 2072 PD
40 W
4327 2090 PD
40 W
4330 2089 PD
40 W
4331 2162 PD
40 W
4332 2155 PD
40 W
4334 2144 PD
40 W
4335 2126 PD
40 W
4341 2143 PD
40 W
4342 2096 PD
40 W
4345 2142 PD
40 W
4347 2194 PD
40 W
4354 2303 PD
40 W
4356 2299 PD
40 W
4358 2164 PD
40 W
4360 2145 PD
40 W
4366 2170 PD
40 W
4371 2070 PD
40 W
4373 2323 PD
40 W
4380 2134 PD
40 W
4381 2090 PD
40 W
4384 2054 PD
40 W
4387 2004 PD
40 W
4388 2016 PD
40 W
4390 2024 PD
40 W
4391 2025 PD
40 W
4396 2175 PD
40 W
4401 2274 PD
40 W
4403 2078 PD
40 W
4405 2059 PD
40 W
4406 2121 PD
40 W
4407 2132 PD
40 W
4413 2150 PD
40 W
4418 2088 PD
40 W
4421 2156 PD
40 W
4425 2177 PD
40 W
4428 2088 PD
40 W
4431 2140 PD
40 W
4432 2164 PD
40 W
4436 2130 PD
40 W
4439 2173 PD
40 W
4443 2103 PD
40 W
4446 2207 PD
40 W
4447 2136 PD
40 W
4450 2113 PD
40 W
4451 2115 PD
40 W
4452 2117 PD
40 W
4454 2093 PD
40 W
4455 2090 PD
40 W
4456 2117 PD
40 W
4458 2167 PD
40 W
4459 2147 PD
40 W
4462 2089 PD
40 W
4463 2136 PD
40 W
4466 2185 PD
40 W
4469 2246 PD
40 W
4470 2196 PD
40 W
4474 2097 PD
40 W
4476 2116 PD
40 W
4478 2195 PD
40 W
4480 2249 PD
40 W
4482 2146 PD
40 W
4484 2265 PD
40 W
4485 2197 PD
40 W
4486 2093 PD
40 W
4488 2042 PD
40 W
4489 2062 PD
40 W
4491 2066 PD
40 W
4493 2081 PD
40 W
4495 2081 PD
40 W
4499 2096 PD
40 W
4500 2084 PD
40 W
4501 2099 PD
40 W
4504 2090 PD
40 W
4506 2081 PD
40 W
4510 2113 PD
40 W
4511 2178 PD
40 W
4512 2170 PD
40 W
4515 2180 PD
40 W
4521 2201 PD
40 W
4523 2225 PD
40 W
4526 2287 PD
40 W
4527 2288 PD
40 W
4529 2284 PD
40 W
4530 2303 PD
40 W
4531 2294 PD
40 W
4534 2277 PD
40 W
4536 2245 PD
40 W
4537 2266 PD
40 W
4538 2297 PD
40 W
4544 2370 PD
40 W
4546 2335 PD
40 W
4549 2310 PD
40 W
4553 2281 PD
40 W
4555 2228 PD
40 W
4559 2222 PD
40 W
4561 2285 PD
40 W
4563 2385 PD
40 W
4564 2442 PD
40 W
4565 2355 PD
40 W
4570 2340 PD
40 W
4574 2318 PD
40 W
4575 2309 PD
40 W
4576 2300 PD
40 W
4580 2348 PD
40 W
4582 2300 PD
40 W
4585 2254 PD
40 W
4587 2232 PD
40 W
4591 2251 PD
40 W
4593 2252 PD
40 W
4595 2298 PD
40 W
4597 2267 PD
40 W
4598 2209 PD
40 W
4600 2247 PD
40 W
4602 2040 PD
40 W
4604 2029 PD
40 W
4605 2188 PD
40 W
4609 2189 PD
40 W
4612 2179 PD
40 W
4613 2212 PD
40 W
4615 2306 PD
40 W
4617 2216 PD
40 W
4619 2200 PD
40 W
4621 2222 PD
40 W
4623 2187 PD
40 W
4624 2181 PD
40 W
4627 2173 PD
40 W
4630 2125 PD
40 W
4631 2120 PD
40 W
4632 2112 PD
40 W
4634 2122 PD
40 W
4639 2120 PD
40 W
4643 2042 PD
40 W
4645 2084 PD
40 W
4649 2094 PD
40 W
4650 2154 PD
40 W
4653 2079 PD
40 W
4654 2137 PD
40 W
4665 2082 PD
40 W
4666 2141 PD
40 W
4670 2087 PD
40 W
4672 2139 PD
40 W
4675 2182 PD
40 W
4676 2178 PD
40 W
4680 2012 PD
40 W
4683 2087 PD
40 W
4688 2158 PD
40 W
4692 2131 PD
40 W
4694 2217 PD
40 W
4695 2135 PD
40 W
4698 2235 PD
40 W
4699 2201 PD
40 W
4700 2147 PD
40 W
4702 2114 PD
40 W
4710 2115 PD
40 W
4711 2142 PD
40 W
4713 2180 PD
40 W
4714 2128 PD
40 W
4715 2102 PD
40 W
4717 2079 PD
40 W
4721 2146 PD
40 W
4722 2205 PD
40 W
4724 2222 PD
40 W
4725 2172 PD
40 W
4726 2156 PD
40 W
4728 2154 PD
40 W
4729 2252 PD
40 W
4735 2178 PD
40 W
4736 2288 PD
40 W
4737 2147 PD
40 W
4739 2099 PD
40 W
4740 2081 PD
40 W
4741 2169 PD
40 W
4744 2181 PD
40 W
4745 2170 PD
40 W
4747 2091 PD
40 W
4748 2145 PD
40 W
4750 2177 PD
40 W
4751 2170 PD
40 W
4752 2159 PD
40 W
4754 2119 PD
40 W
4758 2113 PD
40 W
4760 2102 PD
40 W
4763 2176 PD
40 W
4765 2200 PD
40 W
4766 2249 PD
40 W
4767 2163 PD
40 W
4770 2158 PD
40 W
4771 2172 PD
40 W
4773 2225 PD
40 W
4778 2237 PD
40 W
4780 2239 PD
40 W
4782 2281 PD
40 W
4789 2429 PD
40 W
4790 2312 PD
40 W
4793 2290 PD
40 W
4796 2276 PD
40 W
4797 2264 PD
40 W
4800 2198 PD
40 W
4801 2359 PD
40 W
4805 2343 PD
40 W
4807 2382 PD
40 W
4811 2341 PD
40 W
4812 2307 PD
40 W
4815 2426 PD
40 W
4816 2400 PD
40 W
4818 2338 PD
40 W
4819 2235 PD
40 W
4826 2370 PD
40 W
4827 2325 PD
40 W
4834 2181 PD
40 W
4835 2231 PD
40 W
4841 2189 PD
40 W
4844 2129 PD
40 W
4845 2196 PD
40 W
4846 2412 PD
40 W
4848 2384 PD
40 W
4849 2237 PD
40 W
4850 2287 PD
40 W
4854 2098 PD
40 W
4857 2061 PD
40 W
4864 2182 PD
40 W
4867 2146 PD
40 W
4869 2091 PD
40 W
4871 2119 PD
40 W
4872 2130 PD
40 W
4874 2135 PD
40 W
4879 2165 PD
40 W
4880 2092 PD
40 W
4882 2039 PD
40 W
4883 2103 PD
40 W
4884 2144 PD
40 W
4886 2072 PD
40 W
4889 2109 PD
40 W
4890 2121 PD
40 W
4893 2111 PD
40 W
4894 2139 PD
40 W
4895 2126 PD
40 W
4897 2092 PD
40 W
4898 2063 PD
40 W
4899 2052 PD
40 W
4902 2197 PD
40 W
4904 2168 PD
40 W
4905 2158 PD
40 W
4908 2113 PD
40 W
4913 2048 PD
40 W
4923 2059 PD
40 W
4924 2035 PD
40 W
4929 1999 PD
40 W
4931 1999 PD
40 W
4934 2030 PD
40 W
4936 1999 PD
40 W
4940 2017 PD
40 W
4942 1999 PD
40 W
4943 1999 PD
40 W
4944 1949 PD
40 W
4949 1943 PD
40 W
4951 1958 PD
40 W
4953 1895 PD
40 W
4954 1883 PD
40 W
4955 1924 PD
40 W
4958 1858 PD
40 W
4961 1690 PD
40 W
4962 1787 PD
40 W
4964 1839 PD
40 W
4965 1906 PD
40 W
4966 1831 PD
40 W
4970 1656 PD
40 W
4974 1657 PD
40 W
4979 1697 PD
40 W
4981 1714 PD
40 W
4983 1731 PD
40 W
4984 1816 PD
40 W
4994 1849 PD
40 W
4995 1904 PD
40 W
5002 1890 PD
40 W
5003 1932 PD
40 W
5006 1902 PD
40 W
5007 1920 PD
40 W
5010 1926 PD
40 W
5013 1885 PD
40 W
5014 1964 PD
40 W
5015 1941 PD
40 W
5017 1999 PD
40 W
5021 1984 PD
40 W
5025 1999 PD
40 W
5028 1999 PD
40 W
5034 1970 PD
40 W
5036 1999 PD
40 W
5037 1999 PD
40 W
5040 1999 PD
40 W
5044 1987 PD
40 W
5052 1949 PD
40 W
5054 1918 PD
40 W
5056 1833 PD
40 W
5059 1948 PD
40 W
5062 1988 PD
40 W
5063 1982 PD
40 W
5064 1939 PD
40 W
5066 1913 PD
40 W
5067 1964 PD
40 W
5070 1993 PD
40 W
5071 1982 PD
40 W
5074 2031 PD
40 W
5075 2028 PD
40 W
5077 2048 PD
40 W
5082 1999 PD
40 W
5085 1962 PD
40 W
5086 1974 PD
40 W
5088 1999 PD
40 W
5092 1999 PD
40 W
5096 1997 PD
40 W
5097 1994 PD
40 W
5101 1991 PD
40 W
5104 1957 PD
40 W
5108 1891 PD
40 W
5109 2044 PD
40 W
5112 2009 PD
40 W
5114 2007 PD
40 W
5123 1956 PD
40 W
5124 1895 PD
40 W
5127 1922 PD
40 W
5133 1953 PD
40 W
5137 1999 PD
40 W
5138 1999 PD
40 W
5139 1951 PD
40 W
5142 1928 PD
40 W
5143 2014 PD
40 W
5146 2002 PD
40 W
5152 1843 PD
40 W
5153 1785 PD
40 W
5154 1635 PD
40 W
5156 1651 PD
40 W
5160 1792 PD
40 W
5161 1825 PD
40 W
5163 1928 PD
40 W
5165 1891 PD
40 W
5169 1901 PD
40 W
5171 1977 PD
40 W
5172 1986 PD
40 W
5173 1943 PD
40 W
5175 1810 PD
40 W
5176 1759 PD
40 W
5178 1788 PD
40 W
5180 1980 PD
40 W
5182 1997 PD
40 W
5183 1910 PD
40 W
5184 2056 PD
40 W
5187 2096 PD
40 W
5191 2132 PD
40 W
5193 2038 PD
40 W
5195 1878 PD
40 W
5197 1961 PD
40 W
5201 1999 PD
40 W
5203 1999 PD
40 W
5206 1999 PD
40 W
5208 1999 PD
40 W
5209 1999 PD
40 W
5212 1984 PD
40 W
5213 1934 PD
40 W
5214 1925 PD
40 W
5217 1905 PD
40 W
5221 1987 PD
40 W
5225 1905 PD
40 W
5227 1816 PD
40 W
5229 1884 PD
40 W
5231 1812 PD
40 W
5233 1791 PD
40 W
5238 1999 PD
40 W
5239 1955 PD
40 W
5240 1927 PD
40 W
5242 1978 PD
40 W
5244 2019 PD
40 W
5247 2031 PD
40 W
5248 2005 PD
40 W
5250 1927 PD
40 W
5254 1963 PD
40 W
5255 1894 PD
40 W
5257 1945 PD
40 W
5258 1885 PD
40 W
5261 1982 PD
40 W
5262 1979 PD
40 W
5263 1980 PD
40 W
5265 1984 PD
40 W
5269 1999 PD
40 W
5272 1958 PD
40 W
5274 1934 PD
40 W
5276 1936 PD
40 W
5278 1887 PD
40 W
5280 1938 PD
40 W
5284 1988 PD
40 W
5288 1966 PD
40 W
5289 1948 PD
40 W
5291 1966 PD
40 W
5295 1964 PD
40 W
5298 1980 PD
40 W
5300 1999 PD
40 W
5306 1978 PD
40 W
5310 1983 PD
40 W
5311 1999 PD
40 W
5314 2121 PD
40 W
5315 2142 PD
40 W
5318 2063 PD
40 W
5321 2049 PD
40 W
5322 1999 PD
40 W
5323 1999 PD
40 W
5332 2049 PD
40 W
5333 1999 PD
40 W
5337 1936 PD
40 W
5338 1911 PD
40 W
5343 2017 PD
40 W
5344 2018 PD
40 W
5345 1999 PD
40 W
5347 2040 PD
40 W
5349 1999 PD
40 W
5352 1999 PD
40 W
5353 1999 PD
40 W
5356 1999 PD
40 W
5360 2058 PD
40 W
5362 2031 PD
40 W
5363 1999 PD
40 W
5366 2000 PD
40 W
5367 1986 PD
40 W
5370 2022 PD
40 W
5373 1931 PD
40 W
5374 1940 PD
40 W
5377 1972 PD
40 W
5378 1943 PD
40 W
5379 1999 PD
40 W
5381 1989 PD
40 W
5383 1787 PD
40 W
5385 1676 PD
40 W
5386 1622 PD
40 W
5388 1662 PD
40 W
5389 1726 PD
40 W
5392 1840 PD
40 W
5393 1817 PD
40 W
5396 1937 PD
40 W
5397 1870 PD
40 W
5398 1864 PD
40 W
5400 1799 PD
40 W
5401 1779 PD
40 W
5403 1786 PD
40 W
5405 1999 PD
40 W
5407 1936 PD
40 W
5408 1971 PD
40 W
5411 1999 PD
40 W
5412 1901 PD
40 W
5415 1863 PD
40 W
5420 1807 PD
40 W
5422 1774 PD
40 W
5423 1814 PD
40 W
5424 1884 PD
40 W
5426 1900 PD
40 W
5428 1900 PD
40 W
5431 1872 PD
40 W
5432 1792 PD
40 W
5434 1772 PD
40 W
5439 1787 PD
40 W
5442 1690 PD
40 W
5443 1701 PD
40 W
5447 1817 PD
40 W
5452 1720 PD
40 W
5453 1883 PD
40 W
5460 1840 PD
40 W
5461 1842 PD
40 W
5465 1727 PD
40 W
5469 1816 PD
40 W
5471 1738 PD
40 W
5472 1813 PD
40 W
5473 1815 PD
40 W
5475 1830 PD
40 W
5476 1809 PD
40 W
5479 1793 PD
40 W
5482 1734 PD
40 W
5483 1606 PD
40 W
5484 1800 PD
40 W
5486 1794 PD
40 W
5487 1806 PD
40 W
5488 1777 PD
40 W
5490 1862 PD
40 W
5494 1863 PD
40 W
5498 1830 PD
40 W
5502 1790 PD
40 W
5503 1919 PD
40 W
5505 1946 PD
40 W
5509 1826 PD
40 W
5510 1937 PD
40 W
5512 1994 PD
40 W
5513 1985 PD
40 W
5514 1990 PD
40 W
5516 1981 PD
40 W
5517 1984 PD
40 W
5520 1981 PD
40 W
5521 1952 PD
40 W
5525 1985 PD
40 W
5527 1945 PD
40 W
5528 1897 PD
40 W
5531 1856 PD
40 W
5532 1897 PD
40 W
5533 1863 PD
40 W
5535 1759 PD
40 W
5537 1806 PD
40 W
5539 1779 PD
40 W
5540 1844 PD
40 W
5542 1906 PD
40 W
5543 1800 PD
40 W
5544 1804 PD
40 W
5546 1797 PD
40 W
5547 1754 PD
40 W
5548 1777 PD
40 W
5550 1837 PD
40 W
5552 1839 PD
40 W
5554 1812 PD
40 W
5557 1781 PD
40 W
5558 1783 PD
40 W
5561 1756 PD
40 W
5562 1849 PD
40 W
5563 1768 PD
40 W
5567 1806 PD
40 W
5570 1850 PD
40 W
5573 1886 PD
40 W
5576 1856 PD
40 W
5577 1800 PD
40 W
5578 1844 PD
40 W
5580 1840 PD
40 W
5581 1836 PD
40 W
5582 1865 PD
40 W
5584 1893 PD
40 W
5588 1823 PD
40 W
5589 1828 PD
40 W
5592 1904 PD
40 W
5596 1844 PD
40 W
5597 1907 PD
40 W
5600 1999 PD
40 W
5602 2000 PD
40 W
5603 1993 PD
40 W
5608 1939 PD
40 W
5610 1957 PD
40 W
5614 1988 PD
40 W
5618 1987 PD
40 W
5621 1999 PD
40 W
5622 1976 PD
40 W
5623 1963 PD
40 W
5626 1859 PD
40 W
5627 1881 PD
40 W
5629 1842 PD
40 W
5630 1835 PD
40 W
5634 1950 PD
40 W
5636 1981 PD
40 W
5641 1999 PD
40 W
5645 1999 PD
40 W
5647 1999 PD
40 W
5648 1999 PD
40 W
5656 1852 PD
40 W
5657 1876 PD
40 W
5662 1987 PD
40 W
5663 1938 PD
40 W
5666 1984 PD
40 W
5667 1999 PD
40 W
5668 1999 PD
40 W
5670 1999 PD
40 W
5671 1940 PD
40 W
5675 1904 PD
40 W
5678 1904 PD
40 W
5679 2031 PD
40 W
5682 2014 PD
40 W
5683 2075 PD
40 W
5685 2045 PD
40 W
5687 1988 PD
40 W
5689 1961 PD
40 W
5691 1935 PD
40 W
5696 1985 PD
40 W
5698 1999 PD
40 W
5705 1970 PD
40 W
5706 1999 PD
40 W
5709 1940 PD
40 W
5712 1977 PD
40 W
5713 1976 PD
40 W
5715 1961 PD
40 W
5716 1977 PD
40 W
5717 1999 PD
40 W
5719 1985 PD
40 W
5726 1950 PD
40 W
5727 1942 PD
40 W
5728 1937 PD
40 W
5730 1968 PD
40 W
5732 2121 PD
40 W
5734 2148 PD
40 W
5738 2148 PD
40 W
5739 2148 PD
40 W
5741 2148 PD
40 W
5745 2194 PD
40 W
5747 2045 PD
40 W
5749 2006 PD
40 W
5750 1914 PD
40 W
5756 1999 PD
40 W
5758 1999 PD
40 W
5760 1990 PD
40 W
5761 1966 PD
40 W
5764 1937 PD
40 W
5766 1841 PD
40 W
5771 1968 PD
40 W
5775 2041 PD
40 W
5777 2096 PD
40 W
5779 2022 PD
40 W
5781 2039 PD
40 W
5784 1999 PD
40 W
5791 2198 PD
40 W
5795 2032 PD
40 W
5796 2058 PD
40 W
5798 2096 PD
40 W
5802 1999 PD
40 W
5805 1999 PD
40 W
5806 1999 PD
40 W
5807 1999 PD
40 W
5809 2006 PD
40 W
5810 2039 PD
40 W
5813 2022 PD
40 W
5816 2021 PD
40 W
5817 2034 PD
40 W
5821 1999 PD
40 W
5824 2009 PD
40 W
5833 1999 PD
40 W
5835 1999 PD
40 W
5837 1999 PD
40 W
5841 1999 PD
40 W
5843 1999 PD
40 W
5844 1999 PD
40 W
5846 1999 PD
40 W
5847 1999 PD
40 W
5850 2023 PD
40 W
5851 2024 PD
40 W
5854 2019 PD
40 W
5858 1999 PD
40 W
5859 1999 PD
40 W
5861 1999 PD
40 W
5862 2013 PD
40 W
5866 1999 PD
40 W
5873 2051 PD
40 W
5874 2028 PD
40 W
5876 1999 PD
40 W
5877 2004 PD
40 W
5878 1999 PD
40 W
5880 1999 PD
40 W
5885 2043 PD
40 W
5889 2045 PD
40 W
5891 2042 PD
40 W
5892 1999 PD
40 W
5893 2105 PD
40 W
5895 2098 PD
40 W
5900 2091 PD
40 W
5901 2048 PD
40 W
5903 2046 PD
40 W
5904 2062 PD
40 W
5906 2058 PD
40 W
5910 2099 PD
40 W
5915 2126 PD
40 W
5919 2111 PD
40 W
5922 2077 PD
40 W
5931 2086 PD
40 W
5933 2043 PD
40 W
5934 2026 PD
40 W
5936 2030 PD
40 W
5937 2028 PD
40 W
5940 2119 PD
40 W
5941 2112 PD
40 W
5942 2143 PD
40 W
5944 2204 PD
40 W
5946 2097 PD
40 W
5949 2007 PD
40 W
5951 2017 PD
40 W
5955 2000 PD
40 W
5957 2060 PD
40 W
5959 2051 PD
40 W
5960 2029 PD
40 W
5963 2056 PD
40 W
5967 2158 PD
40 W
5968 2133 PD
40 W
5972 2147 PD
40 W
5974 2076 PD
40 W
5975 2068 PD
40 W
5978 2080 PD
40 W
5980 2076 PD
40 W
5983 2108 PD
40 W
5985 2125 PD
40 W
5986 2134 PD
40 W
5989 2162 PD
40 W
5990 2234 PD
40 W
5993 2198 PD
40 W
5994 2158 PD
40 W
5995 2184 PD
40 W
6000 2163 PD
40 W
6001 2131 PD
40 W
6002 2128 PD
40 W
6005 2128 PD
40 W
6008 2142 PD
40 W
6009 2116 PD
40 W
6012 2119 PD
40 W
6016 2096 PD
40 W
6017 2102 PD
40 W
6019 2072 PD
40 W
6024 2089 PD
40 W
6027 2077 PD
40 W
6030 2023 PD
40 W
6031 2027 PD
40 W
6039 2087 PD
40 W
6040 2081 PD
40 W
6042 2122 PD
40 W
6045 2145 PD
40 W
6046 2090 PD
40 W
6047 2074 PD
40 W
6049 2031 PD
40 W
6050 2102 PD
40 W
6053 2038 PD
40 W
6054 2085 PD
40 W
6057 2082 PD
40 W
6058 2101 PD
40 W
6061 2083 PD
40 W
6062 2068 PD
40 W
6065 2157 PD
40 W
6066 2128 PD
40 W
6068 2184 PD
40 W
6073 2043 PD
40 W
6075 2089 PD
40 W
6076 2064 PD
40 W
6077 2033 PD
40 W
6085 2190 PD
40 W
6087 2087 PD
40 W
6091 1999 PD
40 W
6094 2157 PD
40 W
6096 2045 PD
40 W
6099 2045 PD
40 W
6100 2028 PD
40 W
6102 2039 PD
40 W
6103 1999 PD
40 W
6105 2117 PD
40 W
6111 2026 PD
40 W
6114 2047 PD
40 W
6115 2077 PD
40 W
6118 2032 PD
40 W
6120 2029 PD
40 W
6122 1999 PD
40 W
6125 1999 PD
40 W
6129 1999 PD
40 W
6130 1999 PD
40 W
6132 2024 PD
40 W
6133 1999 PD
40 W
6135 1999 PD
40 W
6136 1999 PD
40 W
6137 2022 PD
40 W
6139 1999 PD
40 W
6140 1999 PD
40 W
6141 2081 PD
40 W
6145 2093 PD
40 W
6151 2125 PD
40 W
6154 2096 PD
40 W
6155 2094 PD
40 W
6156 2096 PD
40 W
6159 2087 PD
40 W
6163 2134 PD
40 W
6165 2076 PD
40 W
6169 2175 PD
40 W
6173 2026 PD
40 W
6175 2094 PD
40 W
6177 2065 PD
40 W
6186 2133 PD
40 W
6189 1992 PD
40 W
6190 1948 PD
40 W
6193 2132 PD
40 W
6195 2096 PD
40 W
6197 2115 PD
40 W
6199 2122 PD
40 W
6201 2083 PD
40 W
6205 2192 PD
40 W
6207 2176 PD
40 W
6210 2255 PD
40 W
6214 2213 PD
40 W
6216 2280 PD
40 W
6218 2320 PD
40 W
6219 2227 PD
40 W
6220 2178 PD
40 W
6222 2204 PD
40 W
6229 2283 PD
40 W
6234 2186 PD
40 W
6237 2082 PD
40 W
6238 2106 PD
40 W
6241 2139 PD
40 W
6242 2164 PD
40 W
6245 2084 PD
40 W
6248 2034 PD
40 W
6249 2022 PD
40 W
6250 2044 PD
40 W
6253 2045 PD
40 W
6255 2126 PD
40 W
6256 2040 PD
40 W
6257 2132 PD
40 W
6259 1999 PD
40 W
6260 2107 PD
40 W
6261 2167 PD
40 W
6268 2014 PD
40 W
6271 1970 PD
40 W
6272 1953 PD
40 W
6274 1981 PD
40 W
6275 1945 PD
40 W
6276 1907 PD
40 W
6278 1853 PD
40 W
6280 2039 PD
40 W
6282 2025 PD
40 W
6283 2029 PD
40 W
6286 1988 PD
40 W
6287 1956 PD
40 W
6290 1923 PD
40 W
6294 1947 PD
40 W
6297 1905 PD
40 W
6302 1884 PD
40 W
6304 1787 PD
40 W
6306 1885 PD
40 W
6308 1909 PD
40 W
6310 1792 PD
40 W
6312 1759 PD
40 W
6319 1796 PD
40 W
6320 1819 PD
40 W
6321 1837 PD
40 W
6323 1824 PD
40 W
6325 1690 PD
40 W
6328 1887 PD
40 W
6329 1945 PD
40 W
6334 1994 PD
40 W
6335 1993 PD
40 W
6336 1990 PD
40 W
6340 1975 PD
40 W
6342 1931 PD
40 W
6344 1953 PD
40 W
6346 1899 PD
40 W
6349 1857 PD
40 W
6350 1816 PD
40 W
6355 1820 PD
40 W
6357 1762 PD
40 W
6358 1726 PD
40 W
6359 1751 PD
40 W
6368 1931 PD
40 W
6369 1948 PD
40 W
6370 1953 PD
40 W
6372 1962 PD
40 W
6373 1949 PD
40 W
6374 1894 PD
40 W
6377 1951 PD
40 W
6380 1986 PD
40 W
6381 1986 PD
40 W
6383 1986 PD
40 W
6384 1999 PD
40 W
6387 1999 PD
40 W
6391 1999 PD
40 W
6395 1999 PD
40 W
6396 1999 PD
40 W
6398 1999 PD
40 W
6404 1999 PD
40 W
6406 1999 PD
40 W
6407 1999 PD
40 W
6411 2005 PD
40 W
6413 2014 PD
40 W
6415 2021 PD
40 W
6417 2021 PD
40 W
6418 2021 PD
40 W
6419 2021 PD
40 W
6422 2022 PD
40 W
6425 1999 PD
40 W
6426 1999 PD
40 W
6428 1999 PD
40 W
6429 1999 PD
40 W
6432 1999 PD
40 W
6433 1999 PD
40 W
6434 1999 PD
40 W
6440 1999 PD
40 W
6441 1999 PD
40 W
6443 1999 PD
40 W
6460 1999 PD
40 W
6462 1999 PD
40 W
6464 2094 PD
40 W
6469 2103 PD
40 W
6471 2022 PD
40 W
6474 1999 PD
40 W
6475 2026 PD
40 W
6479 1999 PD
40 W
6481 2064 PD
40 W
6482 1999 PD
40 W
6484 1999 PD
40 W
6485 1999 PD
40 W
6486 2075 PD
40 W
6488 2037 PD
40 W
6490 1999 PD
40 W
6494 2016 PD
40 W
6496 2015 PD
40 W
6499 2135 PD
40 W
6500 2075 PD
40 W
6501 2027 PD
40 W
6503 2057 PD
40 W
6504 1993 PD
40 W
6509 1942 PD
40 W
6512 1938 PD
40 W
6514 1970 PD
40 W
6515 1984 PD
40 W
6522 1818 PD
40 W
6529 1897 PD
40 W
6533 1975 PD
40 W
6534 1916 PD
40 W
6537 1879 PD
40 W
6539 1849 PD
40 W
6541 1781 PD
40 W
6546 1911 PD
40 W
6553 1936 PD
40 W
6557 1878 PD
40 W
6561 1962 PD
40 W
6563 1959 PD
40 W
6569 1838 PD
40 W
6572 1911 PD
40 W
6573 1945 PD
40 W
6576 1892 PD
40 W
6579 1823 PD
40 W
6582 1884 PD
40 W
6583 1894 PD
40 W
6586 1890 PD
40 W
6587 1879 PD
40 W
6588 1916 PD
40 W
6590 1852 PD
40 W
6591 1950 PD
40 W
6593 1999 PD
40 W
6595 1925 PD
40 W
6597 1959 PD
40 W
6598 1977 PD
40 W
6601 1942 PD
40 W
6605 1909 PD
40 W
6606 1917 PD
40 W
6608 1999 PD
40 W
6609 1977 PD
40 W
6610 1977 PD
40 W
6612 1977 PD
40 W
6613 1977 PD
40 W
6616 1999 PD
40 W
6617 1937 PD
40 W
6625 1939 PD
40 W
6631 1912 PD
40 W
6632 1903 PD
40 W
6639 1999 PD
40 W
6643 1994 PD
40 W
6646 1999 PD
40 W
6648 1999 PD
40 W
6650 1999 PD
40 W
6651 1999 PD
40 W
6653 1979 PD
40 W
6654 1979 PD
40 W
6655 1999 PD
40 W
6657 1999 PD
40 W
6658 1999 PD
40 W
6661 1989 PD
40 W
6662 1999 PD
40 W
6665 1999 PD
40 W
6666 1999 PD
40 W
6668 1999 PD
40 W
6669 1999 PD
40 W
6670 1993 PD
40 W
6672 1990 PD
40 W
6674 1999 PD
40 W
6676 1979 PD
40 W
6678 1974 PD
40 W
6680 1964 PD
40 W
6683 2045 PD
40 W
6685 2027 PD
40 W
6687 2089 PD
40 W
6689 2020 PD
40 W
6698 2050 PD
40 W
6699 2074 PD
40 W
6702 2060 PD
40 W
6706 2060 PD
40 W
6707 2060 PD
40 W
6708 2060 PD
40 W
6711 1999 PD
40 W
6713 1999 PD
40 W
6714 1999 PD
40 W
6718 2049 PD
40 W
6722 2045 PD
40 W
6723 1999 PD
40 W
6725 1999 PD
40 W
6728 1999 PD
40 W
6729 1983 PD
40 W
6732 2053 PD
40 W
6733 2044 PD
40 W
6736 2030 PD
40 W
6741 1999 PD
40 W
6743 2011 PD
40 W
6745 2042 PD
40 W
6747 2020 PD
40 W
6755 1986 PD
40 W
6756 1977 PD
40 W
6758 2036 PD
40 W
6759 2046 PD
40 W
6760 2016 PD
40 W
6762 2043 PD
40 W
6764 2053 PD
40 W
6766 2074 PD
40 W
6767 2072 PD
40 W
6768 2090 PD
40 W
6770 2128 PD
40 W
6771 2149 PD
40 W
6773 2111 PD
40 W
6774 2103 PD
40 W
6779 2015 PD
40 W
6781 2043 PD
40 W
6782 2010 PD
40 W
6783 2016 PD
40 W
6786 2032 PD
40 W
6788 1999 PD
40 W
6792 1999 PD
40 W
6793 2047 PD
40 W
6794 2041 PD
40 W
6796 2050 PD
40 W
6798 2092 PD
40 W
6801 2129 PD
40 W
6803 2108 PD
40 W
6805 2043 PD
40 W
6808 2015 PD
40 W
6809 2024 PD
40 W
6811 2048 PD
40 W
6812 2042 PD
40 W
6813 2044 PD
40 W
6815 1999 PD
40 W
6816 1999 PD
40 W
6818 2013 PD
40 W
6819 2011 PD
40 W
6822 2030 PD
40 W
6823 2018 PD
40 W
6824 2008 PD
40 W
6826 2008 PD
40 W
6828 1999 PD
40 W
6834 1948 PD
40 W
6839 1947 PD
40 W
6841 1954 PD
40 W
6842 1944 PD
40 W
6845 1963 PD
40 W
6846 1923 PD
40 W
6861 1954 PD
40 W
6862 1964 PD
40 W
6865 1938 PD
40 W
6868 1936 PD
40 W
6872 1953 PD
40 W
6873 1886 PD
40 W
6875 1914 PD
40 W
6877 1895 PD
40 W
6879 1915 PD
40 W
6880 1883 PD
40 W
6882 1866 PD
40 W
6883 1837 PD
40 W
6887 1816 PD
40 W
6888 1887 PD
40 W
6890 1834 PD
40 W
6892 1748 PD
40 W
6897 1921 PD
40 W
6898 1946 PD
40 W
6901 1948 PD
40 W
6902 1925 PD
40 W
6905 1845 PD
40 W
6906 1860 PD
40 W
6907 1851 PD
40 W
6909 1747 PD
40 W
6910 1757 PD
40 W
6914 1688 PD
40 W
6916 1685 PD
40 W
6917 1753 PD
40 W
6918 1644 PD
40 W
6927 1904 PD
40 W
6928 1869 PD
40 W
6929 1806 PD
40 W
6933 1783 PD
40 W
6935 1850 PD
40 W
6936 1946 PD
40 W
6937 1912 PD
40 W
6940 1797 PD
40 W
6942 1844 PD
40 W
6946 1838 PD
40 W
6947 1886 PD
40 W
6950 1871 PD
40 W
6954 1853 PD
40 W
6957 1922 PD
40 W
6958 1908 PD
40 W
6963 1869 PD
40 W
6966 1899 PD
40 W
6970 1978 PD
40 W
6973 2137 PD
40 W
6980 2041 PD
40 W
6982 2187 PD
40 W
6987 2123 PD
40 W
6988 1834 PD
40 W
6991 1943 PD
40 W
6993 1890 PD
40 W
6995 1923 PD
40 W
6996 1972 PD
40 W
6999 1961 PD
40 W
7000 1954 PD
40 W
7004 1999 PD
40 W
7006 1999 PD
40 W
7008 1982 PD
40 W
7010 1999 PD
40 W
7011 1999 PD
40 W
7012 1999 PD
40 W
7015 1999 PD
40 W
7017 1999 PD
40 W
7018 1963 PD
40 W
7019 1955 PD
40 W
7022 1999 PD
40 W
7025 1999 PD
40 W
7027 1991 PD
40 W
7030 1978 PD
40 W
7032 1957 PD
40 W
7033 1938 PD
40 W
7034 1980 PD
40 W
7036 1982 PD
40 W
7041 1979 PD
40 W
7042 1987 PD
40 W
7045 1972 PD
40 W
7047 1959 PD
40 W
7049 1949 PD
40 W
7051 1990 PD
40 W
7053 1981 PD
40 W
7055 1958 PD
40 W
7056 1961 PD
40 W
7059 1999 PD
40 W
7060 1999 PD
40 W
7063 1972 PD
40 W
7068 1999 PD
40 W
7070 1999 PD
40 W
7072 1999 PD
40 W
7074 1999 PD
40 W
7075 1999 PD
40 W
7079 1981 PD
40 W
7081 1992 PD
40 W
7086 1966 PD
40 W
7087 1968 PD
40 W
7089 1934 PD
40 W
7090 1947 PD
40 W
7094 1992 PD
40 W
7096 1987 PD
40 W
7098 1956 PD
40 W
7101 1949 PD
40 W
7102 1952 PD
40 W
7104 1943 PD
40 W
7105 1961 PD
40 W
7108 1917 PD
40 W
7112 1979 PD
40 W
7113 1972 PD
40 W
7119 1923 PD
40 W
7120 1943 PD
40 W
7123 1962 PD
40 W
7124 1966 PD
40 W
7127 1879 PD
40 W
7128 1774 PD
40 W
7130 1831 PD
40 W
7132 1885 PD
40 W
7134 1873 PD
40 W
7138 1780 PD
40 W
7141 1759 PD
40 W
7143 1791 PD
40 W
7146 1713 PD
40 W
7147 1784 PD
40 W
7149 1760 PD
40 W
7150 1772 PD
40 W
7154 1779 PD
40 W
7157 1804 PD
40 W
7160 1868 PD
40 W
7161 1848 PD
40 W
7162 1877 PD
40 W
7168 1782 PD
40 W
7171 1813 PD
40 W
7173 1731 PD
40 W
7175 1723 PD
40 W
7177 1771 PD
40 W
7179 1727 PD
40 W
7183 1692 PD
40 W
7184 1706 PD
40 W
7187 1730 PD
40 W
7188 1712 PD
40 W
7192 1747 PD
40 W
7194 1773 PD
40 W
7198 1894 PD
40 W
7201 1918 PD
40 W
7202 1865 PD
40 W
7206 1896 PD
40 W
7207 1929 PD
40 W
7210 1911 PD
40 W
7211 1868 PD
40 W
7213 1920 PD
40 W
7216 1977 PD
40 W
7220 1940 PD
40 W
7221 1946 PD
40 W
7222 1940 PD
40 W
7229 1792 PD
40 W
7232 1862 PD
40 W
7235 1904 PD
40 W
7236 1935 PD
40 W
7237 1906 PD
40 W
7239 1921 PD
40 W
7240 1920 PD
40 W
7241 1899 PD
40 W
7243 1882 PD
40 W
7244 1942 PD
40 W
7247 1881 PD
40 W
7251 1849 PD
40 W
7256 1842 PD
40 W
7265 1839 PD
40 W
7266 1808 PD
40 W
7269 1853 PD
40 W
7271 1849 PD
40 W
7278 1869 PD
40 W
7281 1882 PD
40 W
7284 1882 PD
40 W
7286 1881 PD
40 W
7288 1814 PD
40 W
7301 1928 PD
40 W
7306 1948 PD
40 W
7310 1907 PD
40 W
7314 1951 PD
40 W
7315 1938 PD
40 W
7316 1927 PD
40 W
7323 1802 PD
40 W
7327 1849 PD
40 W
7331 1842 PD
40 W
7333 1855 PD
40 W
7337 1886 PD
40 W
7340 1897 PD
40 W
7341 1909 PD
40 W
7348 1916 PD
40 W
7351 1887 PD
40 W
7353 1917 PD
40 W
7355 1927 PD
40 W
7357 1954 PD
40 W
7360 1949 PD
40 W
7364 1983 PD
40 W
7366 1975 PD
40 W
7367 1982 PD
40 W
7370 1970 PD
40 W
7371 1963 PD
40 W
7374 1975 PD
40 W
7375 1999 PD
40 W
7376 1987 PD
40 W
7378 1999 PD
40 W
7382 1999 PD
40 W
7391 1981 PD
40 W
7393 1973 PD
40 W
7400 1948 PD
40 W
7404 1985 PD
40 W
7405 1999 PD
40 W
7406 1985 PD
40 W
7409 1999 PD
40 W
7412 1999 PD
40 W
7415 1999 PD
40 W
7416 1999 PD
40 W
7417 1999 PD
40 W
7421 1999 PD
40 W
7423 1999 PD
gs 1143 399 6817 3201 rc
/c9 { 1.000000 0.000000 0.000000 sr} bdef
c9
2 0 4 3 1 1 1 1 3 2 3 3 3 2 1 1 
1 1 4 2 7 0 2 0 9 -3 4 0 2 1 1 1 
1 1 3 3 1 2 3 6 1 3 2 3 4 12 3 9 
2 9 2 5 2 11 3 10 7 21 1 3 3 5 4 4 
2 0 4 -4 4 -8 7 -19 1 -4 1 -4 4 -8 4 -3 
5 1 13 35 2 4 2 8 3 8 3 6 7 9 2 1 
3 -1 1 -1 9 -12 5 -11 4 -7 3 -5 1 -2 2 -3 
1 -2 1 -2 2 -2 1 -2 1 -2 3 -5 3 -5 7 -10 
1 -2 1 0 4 1 3 4 2 4 1 5 3 13 1 7 
4 28 1 11 3 21 4 32 2 10 4 23 1 6 3 7 
1 2 4 -3 2 -2 2 -8 2 -5 2 -10 3 -10 6 -13 
1 -1 1 -1 3 1 3 2 4 4 1 1 2 1 1 0 
3 -3 2 -6 3 -9 4 -21 2 -9 2 -18 2 -9 1 -9 
3 -18 1 -9 3 -15 1 -7 6 -19 1 -3 4 -6 3 -1 
1 0 2 -1 1 0 3 0 2 -1 2 -1 4 -3 1 -2 
2 -2 1 -1 5 -9 2 -1 4 -5 1 -1 2 -1 2 -1 
2 0 5 3 3 2 1 2 3 3 1 2 2 2 2 3 
2 1 2 2 2 0 3 0 1 0 5 -4 2 -1 1 -1 
1 -2 2 -1 3 -3 2 -2 3 -2 3 1 1 0 1 1 
2 1 3 3 1 2 1 2 2 1 2 3 2 1 4 0 
1 -1 3 -5 1 -2 2 -4 2 -7 3 -8 1 -4 5 -8 
2 -2 7 12 3 12 4 23 3 16 5 32 1 6 3 12 
4 14 3 8 1 3 4 10 2 4 3 8 1 5 1 5 
2 5 4 17 1 5 1 5 9 19 1 0 1 -1 2 -2 
4 -12 1 -5 2 -5 1 -6 1 -6 3 -12 1 -6 3 -10 
1 -5 5 -11 2 -5 2 -2 1 -3 4 -6 1 -3 2 -3 
1 -3 2 -3 2 -7 2 -4 1 -4 4 -12 3 -8 3 -7 
1 -2 15 -11 1 -1 3 -1 1 -2 2 -1 5 -10 6 -15 
2 -9 2 -4 1 -5 1 -5 3 -9 1 -4 2 -5 1 -3 
2 -4 1 -3 1 -2 2 -2 1 -2 3 -2 2 -1 2 0 
3 0 2 1 2 1 1 0 1 0 4 -2 2 -1 3 -3 
1 -2 1 -2 2 -2 5 -6 1 -1 2 0 1 0 2 1 
1 1 1 2 2 2 2 6 2 3 1 4 1 3 2 4 
1 4 8 16 2 2 2 3 2 0 5 1 3 0 1 -1 
3 -1 1 -1 3 -2 2 -1 1 -2 4 -5 4 -6 1 -2 
2 -2 3 -4 1 -2 1 -2 4 -3 3 -1 1 1 9 11 
2 6 2 4 2 7 3 7 2 3 2 5 2 2 2 3 
2 1 1 1 1 1 6668 1994 300 MP stroke
2 0 1 0 3 0 1 0 3 0 1 0 2 0 1 1 
1 1 2 1 1 1 2 2 2 4 3 6 4 8 7 11 
1 1 6 2 8 -5 1 -1 3 -2 1 0 2 0 1 0 
1 1 2 1 1 2 4 8 3 8 1 4 2 4 2 9 
2 5 1 4 2 4 1 4 1 3 3 5 1 1 3 2 
3 -1 3 -2 1 -1 3 -4 6 -8 2 -1 4 -1 4 4 
7 10 5 9 2 1 2 2 3 0 1 -1 4 -7 7 -23 
7 -35 1 -7 2 -8 3 -14 5 -25 1 -5 2 -4 1 -4 
1 -3 3 -4 2 -2 4 -1 2 1 2 1 1 0 1 1 
2 1 1 1 2 0 4 1 1 0 3 1 2 0 5 1 
2 2 2 1 17 20 2 1 1 1 6 0 1 -1 1 0 
3 -2 1 0 2 -1 1 -1 3 -1 3 -1 1 0 1 0 
2 0 2 0 2 0 4 1 1 0 2 0 6 0 2 0 
1 0 4 3 4 7 3 8 1 5 2 6 1 7 3 16 
3 18 1 10 1 10 2 9 1 10 1 9 9 33 1 1 
1 0 2 -2 5 -19 1 -6 3 -13 2 -6 2 -10 2 -4 
4 -3 1 1 1 3 5 16 1 7 3 15 2 16 2 7 
1 6 1 5 7 9 2 -3 2 -8 2 -6 2 -13 2 -8 
5 -33 3 -15 4 -21 3 -11 1 -5 3 -9 1 -4 2 -4 
2 -8 2 -4 1 -4 1 -4 2 -5 1 -4 3 -10 7 -24 
1 -5 1 -5 2 -5 1 -5 1 -5 2 -4 3 -10 1 -6 
1 -5 3 -12 3 -13 1 -7 3 -15 1 -8 3 -17 5 -32 
7 -27 2 -2 1 -1 1 0 2 2 2 7 4 19 3 18 
2 9 4 31 2 21 2 9 2 18 2 7 3 12 1 5 
3 5 9 -9 2 -3 2 -8 4 -12 4 -7 2 -2 4 0 
3 4 1 3 1 3 3 9 6 23 4 17 1 6 1 5 
2 4 1 4 1 3 2 3 1 2 2 2 1 1 4 -1 
3 -3 2 -5 2 -2 3 -6 1 -3 3 -6 6 -14 2 -3 
1 -2 2 -2 1 -3 3 -4 2 -4 3 -4 4 -5 2 -2 
8 -9 1 -2 1 -1 2 -1 5 -3 2 0 1 0 3 0 
1 1 3 1 1 1 3 2 1 2 3 3 1 2 2 1 
1 2 1 2 3 4 2 1 1 2 8 6 1 -1 3 -1 
3 -4 5 -13 2 -4 1 -5 4 -15 3 -11 1 -5 3 -10 
3 -8 1 -3 1 -2 5 -5 1 0 1 1 3 3 1 3 
3 6 1 4 2 5 3 9 2 11 3 10 1 4 2 5 
4 12 1 4 4 8 3 3 1 1 2 0 2 0 4 -2 
2 -1 3 -2 2 -2 2 -1 1 -1 1 -1 3 -2 1 -1 
2 0 1 -1 2 0 5931 2076 300 MP stroke
9 -3 3 0 4 0 5 2 4 4 2 2 1 2 2 2 
1 2 5 11 2 3 1 4 1 3 2 3 4 9 5 11 
2 2 1 2 1 2 2 2 1 1 7 4 4 1 1 1 
2 0 1 0 4 0 3 1 1 0 3 0 1 1 2 0 
1 0 2 1 4 1 2 0 2 0 9 1 3 -2 4 -3 
1 -2 3 -5 3 -5 1 -4 2 -3 1 -4 1 -4 3 -8 
4 -10 2 -3 1 -2 4 -3 7 14 3 11 2 13 2 7 
2 14 4 18 5 9 2 0 3 -5 1 -5 2 -5 2 -14 
6 -33 1 -8 2 -7 2 -12 4 -9 2 -1 1 1 4 11 
2 5 2 14 2 8 1 8 1 8 7 34 2 5 1 4 
1 3 2 2 1 2 3 0 3 -2 1 -1 7 -12 2 -5 
5 -5 2 -1 2 0 2 1 2 1 1 1 3 4 1 2 
3 5 4 7 1 2 2 2 1 2 1 2 3 2 1 1 
5 2 1 1 8 4 1 1 2 2 4 5 5 7 2 1 
4 1 1 0 2 -1 1 -1 3 -4 1 -3 1 -2 3 -5 
4 -7 4 -2 2 1 5 11 1 4 2 6 3 11 1 7 
4 20 3 13 1 7 4 17 2 4 1 5 1 4 2 4 
1 3 1 4 3 6 3 5 3 6 4 7 1 3 1 2 
3 5 1 1 3 3 2 0 2 -1 2 -1 1 -2 1 -3 
2 -4 1 -5 1 -6 2 -6 1 -8 2 -8 2 -18 2 -9 
1 -10 1 -10 3 -19 1 -8 2 -9 4 -18 1 -4 3 -5 
1 0 2 2 1 3 1 4 2 5 1 7 4 25 2 10 
1 10 4 31 4 28 4 23 2 5 1 5 1 4 2 3 
1 2 1 1 3 0 3 -2 1 -2 2 -2 1 -2 1 -3 
2 -2 4 -5 4 -2 1 0 7 8 1 2 5 6 4 2 
1 -1 3 -3 5 -16 2 -7 1 -6 3 -15 2 -16 2 -8 
1 -7 1 -7 2 -7 5 -16 3 0 1 1 3 7 1 6 
2 6 2 14 2 8 1 8 2 7 1 7 1 6 3 8 
1 2 3 -1 1 -4 2 -5 1 -6 2 -9 2 -21 2 -12 
1 -13 1 -13 3 -27 1 -13 3 -25 3 -20 1 -9 3 -12 
1 -5 2 -3 4 -2 3 4 1 2 3 6 2 6 2 2 
1 2 1 2 5 1 1 -1 4 -6 1 -3 9 -21 1 -3 
1 -3 3 -3 3 -1 1 1 3 4 1 2 4 12 6 20 
2 10 3 10 4 13 2 3 1 3 4 7 4 3 2 0 
2 -1 2 -1 2 -2 3 -4 4 -5 2 -2 1 -1 1 -2 
3 -2 1 0 2 -1 1 1 4 4 2 3 1 3 3 8 
2 9 2 5 1 5 1 5 5 13 2 6 2 1 2 2 
2 -1 4 -8 4 -15 5217 1928 300 MP stroke
3 -13 1 -7 1 -7 3 -15 1 -7 2 -6 3 -12 2 -9 
4 -7 2 -1 2 2 2 3 4 14 3 14 1 8 1 9 
2 10 2 20 2 11 1 11 2 10 1 11 1 10 2 9 
4 23 2 9 2 2 1 1 4 -5 2 -4 1 -6 1 -7 
6 -34 3 -19 1 -9 3 -17 1 -7 1 -7 4 -15 6 -10 
3 -1 1 0 9 2 2 0 3 -1 1 -1 4 -3 3 -4 
4 -6 1 -2 4 -6 4 -4 2 0 1 -1 3 1 5 6 
2 3 1 3 3 8 1 4 3 8 1 4 2 4 1 3 
1 3 3 5 3 2 2 0 2 -1 8 -16 4 -11 3 -6 
1 -3 2 -2 6 -2 3 3 4 8 4 12 2 4 1 5 
1 5 3 11 3 13 1 6 3 15 1 8 7 45 1 10 
10 65 1 7 2 6 2 8 5 3 4 -11 4 -23 1 -10 
1 -10 2 -12 1 -12 3 -25 3 -25 1 -13 1 -12 2 -11 
2 -22 5 -27 1 -8 1 -7 2 -6 4 -16 2 -9 3 -8 
2 -4 5 -17 1 -5 10 -34 5 -17 3 -6 1 -2 2 -2 
3 -2 1 -1 1 0 2 1 1 0 1 1 3 2 1 1 
3 3 2 0 1 1 1 0 2 0 1 0 5 -7 2 -3 
1 -3 2 -4 2 -9 3 -11 7 -30 3 -13 4 -17 1 -5 
1 -6 2 -5 1 -5 1 -4 3 -10 6 -18 1 -5 7 -25 
1 -4 7 -22 1 -3 2 -3 1 -2 3 -2 1 -1 4 2 
2 1 4 7 1 3 3 7 1 4 3 8 3 9 1 4 
7 28 2 12 2 7 5 27 2 7 1 7 3 13 1 6 
1 5 2 5 3 8 2 6 4 4 2 0 1 0 1 -1 
2 -2 1 -2 2 -2 1 -2 3 -5 1 -2 1 -3 2 -1 
1 -2 1 -1 6 -1 1 1 2 1 1 1 1 2 2 2 
1 2 4 5 2 2 1 1 1 2 2 0 1 1 8 1 
2 -1 1 0 1 0 3 1 1 1 2 1 4 4 5 8 
3 4 4 6 1 2 3 4 2 2 4 5 1 2 11 11 
1 1 3 1 1 -1 4 -3 2 -3 4 -10 5 -20 2 -5 
1 -6 1 -5 3 -11 3 -9 1 -4 2 -4 2 -5 2 -2 
2 -2 2 -1 1 0 3 -1 4 -3 1 -1 2 -3 2 -6 
2 -4 1 -5 2 -5 2 -12 2 -7 4 -22 2 -15 3 -13 
2 -7 4 -15 1 -3 1 -3 4 -5 5 2 1 1 1 2 
2 2 2 4 4 6 2 2 4 5 3 1 2 2 6 4 
1 2 1 2 2 3 3 7 1 5 1 6 2 6 1 7 
3 16 2 19 6 41 3 21 1 9 1 9 4 23 2 5 
3 8 1 2 1 1 4 -4 2 -4 2 -8 2 -6 1 -5 
2 -6 1 -6 1 -6 4484 2134 300 MP stroke
2 -5 2 -9 2 -4 2 -5 2 -2 4 0 1 2 3 4 
3 6 1 4 3 6 1 3 2 3 1 2 1 2 2 2 
1 2 1 0 3 1 1 0 3 -1 4 -3 3 -2 4 -3 
1 -1 3 -1 3 -1 4 1 3 1 5 6 6 11 1 4 
1 3 2 4 2 8 5 11 5 9 1 0 2 0 1 -1 
3 -5 3 -8 1 -6 7 -34 2 -14 5 -21 6 -22 2 -2 
2 -2 2 1 7 14 2 10 3 11 1 6 6 25 1 6 
2 7 1 6 1 5 3 11 1 5 9 24 1 3 1 2 
3 4 1 2 2 1 4 4 3 2 4 4 1 2 6 7 
1 3 1 2 3 5 1 2 4 7 5 6 1 1 3 1 
1 0 3 -1 2 -2 2 -1 1 -2 4 -5 7 -6 3 -1 
1 0 3 2 3 2 2 4 4 6 2 1 2 3 6 3 
1 0 3 -2 1 -1 2 -2 1 -1 1 -2 5 -6 4 -5 
1 -1 3 -2 8 5 3 5 2 6 2 3 1 3 1 3 
2 3 1 4 2 3 1 3 4 8 4 5 1 2 2 0 
1 1 2 0 1 0 3 -1 1 -1 5 -7 5 -6 1 -3 
7 -12 2 -4 2 -2 1 -2 2 -2 1 -1 1 -2 3 -1 
1 -1 2 0 2 -1 2 0 5 2 2 1 5 3 4 1 
3 1 1 0 3 0 1 0 7 -1 7 0 3 0 1 1 
4 1 2 1 1 0 1 1 2 1 2 1 2 0 1 1 
4 1 2 0 1 0 1 0 3 0 3 0 1 0 1 0 
2 0 1 0 4 -1 3 0 3 0 2 0 3 0 2 1 
1 0 1 0 2 0 1 0 7 0 1 0 4 0 2 -1 
1 0 1 0 3 -1 1 0 5 0 2 0 2 1 2 1 
3 3 7 7 1 2 2 2 1 1 1 2 3 3 1 1 
2 0 5 1 3 -1 9 -9 2 -1 3 -2 1 -1 1 0 
2 0 1 0 1 0 2 0 1 0 3 2 3 1 1 0 
1 1 2 0 1 0 1 0 2 0 9 -5 2 -1 2 -2 
2 -1 2 -2 6 -3 3 0 2 -1 3 1 1 0 3 1 
2 0 1 0 4 2 1 1 3 2 10 6 1 0 1 1 
2 1 2 0 2 1 3 -1 2 -1 6 -4 1 -2 1 -2 
2 -2 3 -4 1 -2 1 -2 2 -2 1 -1 7 -6 1 -1 
3 0 4 1 1 1 10 11 1 2 2 2 4 4 1 1 
3 3 5 2 6 1 1 0 1 0 2 0 1 1 4 1 
2 1 2 2 2 2 1 1 1 2 6 8 3 4 1 2 
1 1 2 2 2 3 6 3 7 -1 4 -2 3 -1 4 -2 
1 0 3 -2 1 -1 1 -1 2 -1 3 -2 1 -1 1 -2 
6 -7 2 -4 5 -6 3713 1987 300 MP stroke
2 -4 10 -10 1 0 1 -1 2 0 3 -1 4 1 5 1 
1 0 3 1 2 0 1 0 1 1 4 1 3 1 1 0 
2 1 7 2 1 0 7 -3 1 -1 2 -2 1 -3 5 -12 
3 -8 1 -5 3 -8 3 -9 4 -9 1 -3 3 -3 1 0 
2 -1 1 0 2 1 2 1 2 1 1 1 1 0 2 0 
1 -1 3 -5 1 -3 2 -5 2 -12 3 -17 1 -9 3 -20 
1 -10 2 -10 1 -9 2 -9 1 -8 1 -7 8 -8 2 5 
1 5 4 26 3 21 1 11 4 32 2 11 1 9 2 8 
1 8 3 13 1 4 4 10 7 6 1 0 2 1 1 0 
1 1 14 6 3 -2 1 -1 1 -2 3 -6 2 -3 2 -7 
2 -4 1 -4 1 -4 2 -4 1 -4 8 -10 2 0 2 4 
2 3 1 3 1 4 3 9 2 5 4 14 2 9 6 10 
1 0 3 -1 5 -11 2 -4 2 -9 2 -4 1 -5 8 -15 
3 0 3 4 1 2 3 7 1 4 4 11 4 9 2 3 
5 6 4 3 2 2 1 1 4 10 3 10 3 13 2 17 
3 20 3 21 1 11 1 11 2 11 1 11 3 20 1 9 
6 26 1 3 3 4 1 0 3 -4 1 -3 3 -11 1 -6 
2 -8 2 -17 2 -9 4 -29 3 -19 5 -33 1 -7 2 -6 
3 -11 1 -4 1 -4 2 -3 1 -2 3 -4 1 -2 1 -1 
2 0 1 -1 2 -1 2 0 2 0 1 0 4 0 1 0 
3 1 4 3 7 5 1 1 3 2 6 1 2 -2 4 -3 
3 -3 3 -4 8 -3 6 8 1 4 3 8 1 5 3 11 
4 17 1 5 2 5 1 5 1 4 6 11 2 1 2 -1 
4 -5 5 -13 2 -4 2 -7 3 -7 3 -6 9 -11 2 0 
7 -1 4 -1 2 -2 2 -2 1 -1 2 -2 1 -2 1 -3 
2 -2 2 -5 2 -3 2 -5 5 -6 1 -2 7 -5 1 0 
3 0 1 0 2 0 4 1 2 1 2 0 1 0 4 1 
2 0 1 0 1 0 2 0 2 0 2 0 2 0 5 -1 
1 0 9 -3 2 -1 1 -1 7 -3 3 -1 1 0 1 -1 
2 0 4 -1 1 0 3 -1 3 -1 4 -1 4 -3 4 -5 
1 -2 3 -4 1 -3 2 -3 1 -3 1 -3 2 -4 3 -7 
2 -8 2 -4 1 -4 1 -4 2 -4 1 -4 6 -15 1 -3 
3 -6 1 -3 1 -2 2 -2 1 -2 1 -2 5 -4 2 -1 
4 1 2 0 5 7 3 6 1 3 4 11 6 16 1 4 
4 11 2 4 1 3 3 7 1 3 4 7 2 2 1 1 
1 1 2 1 1 1 1 0 2 1 1 0 6 -3 1 -1 
1 -1 4 -4 2 -2 1 -1 1 -2 9 -5 5 0 4 3 
2 1 1 2 3 4 2947 2038 300 MP stroke
1 2 1 2 3 6 3 5 1 3 4 9 3 5 1 3 
7 10 2 2 1 1 4 2 1 0 2 1 1 0 1 -1 
5 -1 4 -1 1 0 1 0 2 0 1 0 1 0 2 0 
1 0 2 0 1 1 1 0 2 0 2 1 2 0 4 0 
1 -1 2 0 2 -2 3 -2 1 -1 7 -5 3 -1 1 0 
2 0 4 3 1 1 1 2 4 8 2 3 4 10 1 4 
2 3 1 4 1 4 3 7 1 3 2 3 3 4 1 2 
4 3 1 0 3 -1 1 -1 6 -5 1 -2 2 -2 1 -1 
1 -2 2 -1 1 -2 1 -1 2 -1 3 -1 6 -1 2 0 
1 0 1 0 3 0 2 0 6 1 4 1 3 3 2 1 
1 2 4 6 1 3 2 2 1 3 3 5 3 5 1 3 
3 3 2 3 4 1 5 -2 1 -2 1 -2 2 -3 1 -2 
1 -3 2 -4 1 -3 3 -6 3 -6 6 -7 4 2 2 2 
4 8 1 4 3 7 1 3 2 4 2 5 3 4 2 1 
1 0 3 -1 2 -4 2 -2 5 -11 4 -9 2 -2 4 -4 
4 -1 1 0 3 2 1 0 2 1 1 1 1 1 2 1 
1 0 6 1 2 0 4 1 2 1 1 1 4 7 4 13 
2 5 1 6 1 7 6 28 1 7 4 18 3 8 1 3 
7 -6 22 -78 1 2 3 6 1 5 2 5 1 5 2 6 
4 16 1 4 4 8 3 -1 1 -2 3 -7 1 -5 4 -19 
2 -7 4 -22 4 -19 1 -5 2 -4 1 -3 1 -2 3 -2 
1 0 4 5 2 2 5 14 3 6 1 3 6 7 1 1 
2 -1 1 0 3 -4 1 -3 3 -7 1 -4 4 -14 2 -5 
2 -9 6 -16 4 -9 1 -2 6 -5 4 -3 4 -5 3 -5 
4 -10 1 -4 1 -4 2 -5 4 -14 9 -13 2 3 1 4 
4 23 2 11 1 12 1 14 2 15 1 16 7 87 1 17 
3 31 1 13 3 21 3 14 1 4 6 -3 1 -5 1 -5 
2 -6 2 -12 2 -6 1 -5 4 -7 2 1 2 6 2 5 
6 44 2 10 3 18 1 8 1 6 2 5 1 3 4 -4 
1 -6 2 -8 3 -20 4 -41 1 -15 3 -30 1 -15 1 -14 
2 -13 4 -35 3 -18 1 -7 3 -11 4 -11 3 -5 2 -4 
3 -4 3 -5 1 -3 1 -2 2 -3 1 -4 4 -11 3 -7 
10 -26 2 -8 2 -3 2 -8 3 -8 1 -5 2 -5 3 -12 
6 -36 2 -8 1 -9 4 -24 1 -7 3 -14 2 -6 1 -5 
8 -8 1 2 2 4 1 4 3 10 3 13 1 6 3 13 
2 11 2 5 3 7 4 3 2 -4 3 -9 3 -12 1 -7 
3 -16 1 -8 2 -8 6 -30 2 -3 1 -2 3 0 1 2 
4 14 2 6 1 8 2195 2203 300 MP stroke
1 8 3 16 2 9 6 35 2 5 4 9 1 1 8 -7 
3 -5 1 -2 2 -2 4 -4 5 2 3 4 3 6 4 12 
1 5 2 4 4 13 1 4 4 12 4 8 2 2 2 4 
2 1 1 1 1 1 2 0 1 0 3 -2 11 -23 4 -17 
3 -12 1 -6 1 -6 3 -11 3 -10 3 -7 1 -3 1 -1 
2 -1 1 0 4 6 6 18 1 5 3 11 2 9 10 11 
1 -2 6 -21 4 -25 7 -47 1 -8 1 -9 2 -7 4 -17 
1 -3 3 -3 1 1 2 2 1 2 1 5 7 33 7 44 
3 16 2 14 3 12 4 12 3 5 1 2 3 1 1 1 
3 0 3 0 1 0 2 0 1 1 3 2 1 2 1 2 
2 3 2 6 3 7 3 9 1 4 3 9 1 4 4 11 
2 3 1 2 7 4 3 -2 1 -2 1 -1 2 -2 1 -2 
4 -6 2 -2 2 -4 6 -5 4 -2 1 0 2 -1 2 -1 
2 -1 1 -1 1 -2 3 -3 3 -4 1 -3 2 -3 2 -6 
2 -3 1 -3 1 -3 2 -3 1 -3 2 -3 2 -4 2 -1 
1 -1 1 -1 3 2 3 4 4 11 4 16 1 6 2 7 
4 18 3 10 2 8 2 3 4 2 5 -9 3 -9 4 -18 
1 -6 3 -12 3 -10 1 -5 11 -7 1 3 2 4 3 9 
10 47 3 10 3 8 1 4 3 5 1 2 4 2 3 -1 
4 -5 2 -3 2 -6 2 -4 5 -14 2 -3 4 -9 1 -2 
1 -2 3 -3 3 -3 3 -1 1 -1 4 -2 1 -1 3 -2 
1 -2 3 -2 2 -2 1 -1 3 -2 2 0 2 0 1 1 
1 1 2 2 3 4 1 3 5 10 3 3 5 -3 2 -3 
5 -16 2 -3 1 -4 1 -2 3 -1 6 19 1 10 1 12 
2 15 1 16 8 123 6 73 1 13 3 21 1 6 6 0 
1 -5 4 -23 7 -43 1 -6 2 -6 1 -5 5 -12 3 -2 
4 -3 2 -2 2 -5 3 -9 1 -5 2 -6 1 -7 1 -7 
3 -16 4 -24 2 -8 1 -7 5 -21 2 -4 3 -4 2 -2 
2 0 2 1 2 1 1 1 1 1 3 2 3 2 1 1 
2 0 2 0 2 0 4 -2 1 -1 3 -2 1 -1 13 -8 
4 -1 1 0 3 0 2 1 5 0 1 0 1 0 2 0 
1 0 1 0 2 0 4 -1 3 -1 6 -2 2 0 1 0 
1 -1 2 0 1 0 6 0 1 1 1 0 3 2 1 0 
5 3 1 1 1 0 2 1 2 2 3 1 1 1 3 1 
2 0 1 0 1 0 2 0 5 -2 1 -1 2 -1 1 0 
2 -1 2 -2 2 -1 1 -1 3 -1 1 -1 1 -1 2 0 
1 -1 2 0 1 0 1 -1 2 0 1 1 4 0 4 2 
2 1 2 1 2 1 1427 2004 300 MP stroke
1 0 1 1 3 1 1 1 4 0 2 -1 3 -1 5 -6 
1 -2 2 -2 7 -14 1 -3 1 -3 2 -3 2 -6 2 -2 
1 -3 3 -3 3 -3 4 -1 2 1 4 3 5 6 1 2 
1 2 2 3 2 5 2 3 1 2 1 3 6 9 4 5 
1 2 2 1 4 3 4 1 4 1 1 0 3 0 6 1 
1 0 1 0 3 1 12 4 2 0 4 0 2 0 2 -1 
7 -2 2 -1 3 -1 1 0 3 0 3 1 1 0 3 2 
3 2 2 3 3 4 4 5 8 8 2 1 1 1 2 0 
2 1 2 0 2 -1 2 0 1 -1 3 -1 3 -1 1 -1 
1 -1 4 -2 3 -1 3 -2 3 0 1 -1 3 0 1 -1 
1 0 2 0 4 0 1 0 3 0 4 1 3 1 4 1 
1 0 2 0 2 0 3 0 3 0 1 0 3 0 5 2 
2 1 2 2 2 1 1 1 1 2 2 2 1 2 2 2 
2 3 3 4 1 2 1151 1959 108 MP stroke
gr

c9
0 sg
 517 2390 mt  -90 rotate
(u) s
90 rotate
%%IncludeResource: font Times-Roman
/Times-Roman /ISOLatin1Encoding 192 FMSR

 637 2270 mt  -90 rotate
(x) s
90 rotate
%%IncludeResource: font Times-Roman
/Times-Roman /ISOLatin1Encoding 240 FMSR

 517 2174 mt  -90 rotate
( \(m/s\)) s
90 rotate
3564  215 mt 
(Oct25-Nov26, 2002) s
1113 3682 mt 
( ) s
7930  481 mt 
( ) s
6 w
1 sg
0 592 1835 0 0 -592 6065 1051 4 MP
PP
-1835 0 0 592 1835 0 0 -592 6065 1051 5 MP stroke
4 w
DO
SO
6 w
0 sg
6065 1051 mt 7900 1051 L
6065  459 mt 7900  459 L
6065 1051 mt 6065  459 L
7900 1051 mt 7900  459 L
6065 1051 mt 7900 1051 L
6065 1051 mt 6065  459 L
6065 1051 mt 7900 1051 L
6065  459 mt 7900  459 L
6065 1051 mt 6065  459 L
7900 1051 mt 7900  459 L
6516  698 mt 
(measurement) s
gs 6065 459 1836 593 rc
48 w
gr

48 w
gs 6137 445 341 341 rc
40 W
c8
6307 615 PD
gr

c8
gs 6065 459 1836 593 rc
gr

0 sg
6516  977 mt 
(regularization) s
gs 6065 459 1836 593 rc
c9
346 0 6134 894 2 MP stroke
6 w
gr

6 w
c9

end %%Color Dict

eplot
%%EndObject

epage
end

showpage

%%Trailer
%%EOF
