%!PS-Adobe-3.0 EPSF-3.0
%%Creator: MATLAB, The MathWorks, Inc. Version 8.1.0.604 (R2013a). Operating System: Darwin 12.5.0 Darwin Kernel Version 12.5.0: Sun Sep 29 13:33:47 PDT 2013; root:xnu-2050.48.12~1/RELEASE_X86_64 x86_64.
%%Title: /Users/bamdadhosseini/Work/Courses/apma990-machinelearning/MATLAB/wy_fit.eps
%%CreationDate: 01/06/2015  17:19:27
%%DocumentNeededFonts: Times-Roman
%%DocumentProcessColors: Cyan Magenta Yellow Black
%%LanguageLevel: 2
%%Pages: 1
%%BoundingBox:   -59   228   672   563
%%EndComments

%%BeginProlog
% MathWorks dictionary
/MathWorks 160 dict begin
% definition operators
/bdef {bind def} bind def
/ldef {load def} bind def
/xdef {exch def} bdef
/xstore {exch store} bdef
% operator abbreviations
/c  /clip ldef
/cc /concat ldef
/cp /closepath ldef
/gr /grestore ldef
/gs /gsave ldef
/mt /moveto ldef
/np /newpath ldef
/cm /currentmatrix ldef
/sm /setmatrix ldef
/rm /rmoveto ldef
/rl /rlineto ldef
/s {show newpath} bdef
/sc {setcmykcolor} bdef
/sr /setrgbcolor ldef
/sg /setgray ldef
/w /setlinewidth ldef
/j /setlinejoin ldef
/cap /setlinecap ldef
/rc {rectclip} bdef
/rf {rectfill} bdef
% page state control
/pgsv () def
/bpage {/pgsv save def} bdef
/epage {pgsv restore} bdef
/bplot /gsave ldef
/eplot {stroke grestore} bdef
% orientation switch
/portraitMode 0 def /landscapeMode 1 def /rotateMode 2 def
% coordinate system mappings
/dpi2point 0 def
% font control
/FontSize 0 def
/FMS {/FontSize xstore findfont [FontSize 0 0 FontSize neg 0 0]
  makefont setfont} bdef
/reencode {exch dup where {pop load} {pop StandardEncoding} ifelse
  exch dup 3 1 roll findfont dup length dict begin
  { 1 index /FID ne {def}{pop pop} ifelse } forall
  /Encoding exch def currentdict end definefont pop} bdef
/isroman {findfont /CharStrings get /Agrave known} bdef
/FMSR {3 1 roll 1 index dup isroman {reencode} {pop pop} ifelse
  exch FMS} bdef
/csm {1 dpi2point div -1 dpi2point div scale neg translate
 dup landscapeMode eq {pop -90 rotate}
  {rotateMode eq {90 rotate} if} ifelse} bdef
% line types: solid, dotted, dashed, dotdash
/SO { [] 0 setdash } bdef
/DO { [.5 dpi2point mul 4 dpi2point mul] 0 setdash } bdef
/DA { [6 dpi2point mul] 0 setdash } bdef
/DD { [.5 dpi2point mul 4 dpi2point mul 6 dpi2point mul 4
  dpi2point mul] 0 setdash } bdef
% macros for lines and objects
/L {lineto stroke} bdef
/MP {3 1 roll moveto 1 sub {rlineto} repeat} bdef
/AP {{rlineto} repeat} bdef
/PDlw -1 def
/W {/PDlw currentlinewidth def setlinewidth} def
/PP {closepath eofill} bdef
/DP {closepath stroke} bdef
/MR {4 -2 roll moveto dup  0 exch rlineto exch 0 rlineto
  neg 0 exch rlineto closepath} bdef
/FR {MR stroke} bdef
/PR {MR fill} bdef
/L1i {{currentfile picstr readhexstring pop} image} bdef
/tMatrix matrix def
/MakeOval {newpath tMatrix currentmatrix pop translate scale
0 0 1 0 360 arc tMatrix setmatrix} bdef
/FO {MakeOval stroke} bdef
/PO {MakeOval fill} bdef
/PD {currentlinewidth 2 div 0 360 arc fill
   PDlw -1 eq not {PDlw w /PDlw -1 def} if} def
/FA {newpath tMatrix currentmatrix pop translate scale
  0 0 1 5 -2 roll arc tMatrix setmatrix stroke} bdef
/PA {newpath tMatrix currentmatrix pop	translate 0 0 moveto scale
  0 0 1 5 -2 roll arc closepath tMatrix setmatrix fill} bdef
/FAn {newpath tMatrix currentmatrix pop translate scale
  0 0 1 5 -2 roll arcn tMatrix setmatrix stroke} bdef
/PAn {newpath tMatrix currentmatrix pop translate 0 0 moveto scale
  0 0 1 5 -2 roll arcn closepath tMatrix setmatrix fill} bdef
/vradius 0 def /hradius 0 def /lry 0 def
/lrx 0 def /uly 0 def /ulx 0 def /rad 0 def
/MRR {/vradius xdef /hradius xdef /lry xdef /lrx xdef /uly xdef
  /ulx xdef newpath tMatrix currentmatrix pop ulx hradius add uly
  vradius add translate hradius vradius scale 0 0 1 180 270 arc 
  tMatrix setmatrix lrx hradius sub uly vradius add translate
  hradius vradius scale 0 0 1 270 360 arc tMatrix setmatrix
  lrx hradius sub lry vradius sub translate hradius vradius scale
  0 0 1 0 90 arc tMatrix setmatrix ulx hradius add lry vradius sub
  translate hradius vradius scale 0 0 1 90 180 arc tMatrix setmatrix
  closepath} bdef
/FRR {MRR stroke } bdef
/PRR {MRR fill } bdef
/MlrRR {/lry xdef /lrx xdef /uly xdef /ulx xdef /rad lry uly sub 2 div def
  newpath tMatrix currentmatrix pop ulx rad add uly rad add translate
  rad rad scale 0 0 1 90 270 arc tMatrix setmatrix lrx rad sub lry rad
  sub translate rad rad scale 0 0 1 270 90 arc tMatrix setmatrix
  closepath} bdef
/FlrRR {MlrRR stroke } bdef
/PlrRR {MlrRR fill } bdef
/MtbRR {/lry xdef /lrx xdef /uly xdef /ulx xdef /rad lrx ulx sub 2 div def
  newpath tMatrix currentmatrix pop ulx rad add uly rad add translate
  rad rad scale 0 0 1 180 360 arc tMatrix setmatrix lrx rad sub lry rad
  sub translate rad rad scale 0 0 1 0 180 arc tMatrix setmatrix
  closepath} bdef
/FtbRR {MtbRR stroke } bdef
/PtbRR {MtbRR fill } bdef
/stri 6 array def /dtri 6 array def
/smat 6 array def /dmat 6 array def
/tmat1 6 array def /tmat2 6 array def /dif 3 array def
/asub {/ind2 exch def /ind1 exch def dup dup
  ind1 get exch ind2 get sub exch } bdef
/tri_to_matrix {
  2 0 asub 3 1 asub 4 0 asub 5 1 asub
  dup 0 get exch 1 get 7 -1 roll astore } bdef
/compute_transform {
  dmat dtri tri_to_matrix tmat1 invertmatrix 
  smat stri tri_to_matrix tmat2 concatmatrix } bdef
/ds {stri astore pop} bdef
/dt {dtri astore pop} bdef
/db {2 copy /cols xdef /rows xdef mul dup 3 mul string
  currentfile 
  3 index 0 eq {/ASCIIHexDecode filter}
  {/ASCII85Decode filter 3 index 2 eq {/RunLengthDecode filter} if }
  ifelse exch readstring pop
  dup 0 3 index getinterval /rbmap xdef
  dup 2 index dup getinterval /gbmap xdef
  1 index dup 2 mul exch getinterval /bbmap xdef pop pop}bdef
/it {gs np dtri aload pop moveto lineto lineto cp c
  cols rows 8 compute_transform 
  rbmap gbmap bbmap true 3 colorimage gr}bdef
/il {newpath moveto lineto stroke}bdef
currentdict end def
%%EndProlog

%%BeginSetup
MathWorks begin

0 cap

end
%%EndSetup

%%Page: 1 1
%%BeginPageSetup
%%PageBoundingBox:   -59   228   672   563
MathWorks begin
bpage
%%EndPageSetup

%%BeginObject: obj1
bplot

/dpi2point 12 def
portraitMode -0708 6756 csm

    0     0  8783  4020 rc
85 dict begin %Colortable dictionary
/c0 { 0.000000 0.000000 0.000000 sr} bdef
/c1 { 1.000000 1.000000 1.000000 sr} bdef
/c2 { 0.900000 0.000000 0.000000 sr} bdef
/c3 { 0.000000 0.820000 0.000000 sr} bdef
/c4 { 0.000000 0.000000 0.800000 sr} bdef
/c5 { 0.910000 0.820000 0.320000 sr} bdef
/c6 { 1.000000 0.260000 0.820000 sr} bdef
/c7 { 0.000000 0.820000 0.820000 sr} bdef
c0
1 j
1 sg
   0    0 8784 4021 rf
6 w
0 3198 6807 0 0 -3198 1142 3500 4 MP
PP
-6807 0 0 3198 6807 0 0 -3198 1142 3500 5 MP stroke
4 w
DO
SO
6 w
0 sg
1142 3500 mt 7949 3500 L
1142 3500 mt 1142  302 L
1142 3500 mt 1142 3431 L
%%IncludeResource: font Times-Roman
/Times-Roman /ISOLatin1Encoding 240 FMSR

1082 3749 mt 
(0) s
2503 3500 mt 2503 3431 L
2263 3749 mt 
(1000) s
3864 3500 mt 3864 3431 L
3624 3749 mt 
(2000) s
5226 3500 mt 5226 3431 L
4986 3749 mt 
(3000) s
6587 3500 mt 6587 3431 L
6347 3749 mt 
(4000) s
7949 3500 mt 7949 3431 L
7709 3749 mt 
(5000) s
1142 3500 mt 1210 3500 L
 732 3586 mt 
(-10) s
1142 2700 mt 1210 2700 L
 852 2786 mt 
(-5) s
1142 1901 mt 1210 1901 L
 987 1987 mt 
(0) s
1142 1101 mt 1210 1101 L
 987 1187 mt 
(5) s
1142  302 mt 1210  302 L
 867  388 mt 
(10) s
gs 1142 302 6808 3199 rc
48 w
gr

48 w
40 W
/c8 { 0.000000 0.000000 1.000000 sr} bdef
c8
1146 1901 PD
40 W
1150 1882 PD
40 W
1151 1876 PD
40 W
1156 1819 PD
40 W
1161 1901 PD
40 W
1163 1901 PD
40 W
1165 1901 PD
40 W
1171 1901 PD
40 W
1180 1901 PD
40 W
1182 1901 PD
40 W
1185 1901 PD
40 W
1186 1866 PD
40 W
1188 1901 PD
40 W
1189 1901 PD
40 W
1193 1901 PD
40 W
1196 1901 PD
40 W
1197 1901 PD
40 W
1199 1901 PD
40 W
1203 1901 PD
40 W
1204 1799 PD
40 W
1205 1736 PD
40 W
1211 1690 PD
40 W
1215 1675 PD
40 W
1216 1660 PD
40 W
1220 1819 PD
40 W
1223 1654 PD
40 W
1226 1699 PD
40 W
1234 1688 PD
40 W
1235 1686 PD
40 W
1237 1687 PD
40 W
1240 1995 PD
40 W
1242 2101 PD
40 W
1245 2106 PD
40 W
1246 2070 PD
40 W
1248 1854 PD
40 W
1250 1828 PD
40 W
1252 1779 PD
40 W
1259 2196 PD
40 W
1263 1939 PD
40 W
1265 2077 PD
40 W
1267 2170 PD
40 W
1272 1794 PD
40 W
1275 1897 PD
40 W
1276 1804 PD
40 W
1278 1732 PD
40 W
1279 1993 PD
40 W
1282 1900 PD
40 W
1284 1924 PD
40 W
1287 1802 PD
40 W
1293 2123 PD
40 W
1294 2062 PD
40 W
1295 1891 PD
40 W
1298 1874 PD
40 W
1304 1821 PD
40 W
1305 1786 PD
40 W
1306 1675 PD
40 W
1309 1867 PD
40 W
1314 1837 PD
40 W
1316 1875 PD
40 W
1317 1848 PD
40 W
1320 1901 PD
40 W
1323 1854 PD
40 W
1324 1960 PD
40 W
1325 1911 PD
40 W
1327 1901 PD
40 W
1332 1901 PD
40 W
1336 1894 PD
40 W
1339 1872 PD
40 W
1340 1863 PD
40 W
1342 1835 PD
40 W
1343 1881 PD
40 W
1344 1845 PD
40 W
1346 1849 PD
40 W
1347 1901 PD
40 W
1348 1813 PD
40 W
1353 1901 PD
40 W
1354 1901 PD
40 W
1355 1901 PD
40 W
1358 1901 PD
40 W
1359 1901 PD
40 W
1362 1901 PD
40 W
1363 1901 PD
40 W
1365 1886 PD
40 W
1366 1901 PD
40 W
1367 1901 PD
40 W
1373 1901 PD
40 W
1374 1901 PD
40 W
1376 1901 PD
40 W
1378 1901 PD
40 W
1380 1901 PD
40 W
1381 1886 PD
40 W
1387 1901 PD
40 W
1389 1880 PD
40 W
1392 1833 PD
40 W
1395 1925 PD
40 W
1396 1921 PD
40 W
1400 1943 PD
40 W
1404 2034 PD
40 W
1406 2017 PD
40 W
1407 2045 PD
40 W
1408 2047 PD
40 W
1417 2013 PD
40 W
1421 2029 PD
40 W
1429 2474 PD
40 W
1430 2461 PD
40 W
1431 2408 PD
40 W
1433 2347 PD
40 W
1436 2214 PD
40 W
1437 2289 PD
40 W
1438 2248 PD
40 W
1440 2437 PD
40 W
1441 1672 PD
40 W
1442 1768 PD
40 W
1445 1563 PD
40 W
1446 1350 PD
40 W
1451 1595 PD
40 W
1452 1194 PD
40 W
1453 1180 PD
40 W
1455 1523 PD
40 W
1457 1740 PD
40 W
1461 2262 PD
40 W
1463 1691 PD
40 W
1464 1283 PD
40 W
1466 2124 PD
40 W
1467 2058 PD
40 W
1470 2102 PD
40 W
1471 2361 PD
40 W
1474 1835 PD
40 W
1478 1955 PD
40 W
1480 1791 PD
40 W
1482 1575 PD
40 W
1487 2099 PD
40 W
1489 2063 PD
40 W
1493 1884 PD
40 W
1494 1499 PD
40 W
1497 2024 PD
40 W
1502 2073 PD
40 W
1504 2122 PD
40 W
1505 2076 PD
40 W
1508 2091 PD
40 W
1510 1876 PD
40 W
1513 1916 PD
40 W
1520 1978 PD
40 W
1523 1671 PD
40 W
1524 1568 PD
40 W
1528 1833 PD
40 W
1538 2077 PD
40 W
1539 2074 PD
40 W
1542 1901 PD
40 W
1543 1936 PD
40 W
1544 1901 PD
40 W
1550 2022 PD
40 W
1551 1972 PD
40 W
1554 1952 PD
40 W
1555 2051 PD
40 W
1558 2009 PD
40 W
1564 2014 PD
40 W
1572 2136 PD
40 W
1573 2107 PD
40 W
1576 2013 PD
40 W
1577 1979 PD
40 W
1579 1991 PD
40 W
1580 1939 PD
40 W
1584 2104 PD
40 W
1585 2150 PD
40 W
1588 2060 PD
40 W
1592 2211 PD
40 W
1593 2181 PD
40 W
1595 2176 PD
40 W
1598 2285 PD
40 W
1599 2173 PD
40 W
1600 2193 PD
40 W
1602 2237 PD
40 W
1603 2102 PD
40 W
1604 2054 PD
40 W
1608 2066 PD
40 W
1611 2173 PD
40 W
1613 1509 PD
40 W
1617 1758 PD
40 W
1619 2172 PD
40 W
1628 2088 PD
40 W
1629 2215 PD
40 W
1632 1239 PD
40 W
1633 1595 PD
40 W
1638 1723 PD
40 W
1640 1701 PD
40 W
1641 1759 PD
40 W
1644 1641 PD
40 W
1648 1443 PD
40 W
1649 1203 PD
40 W
1651 1332 PD
40 W
1652 1519 PD
40 W
1653 1362 PD
40 W
1656 1336 PD
40 W
1657 1440 PD
40 W
1660 1639 PD
40 W
1662 1575 PD
40 W
1664 1803 PD
40 W
1670 1771 PD
40 W
1672 1736 PD
40 W
1678 1718 PD
40 W
1681 1769 PD
40 W
1682 1816 PD
40 W
1683 1876 PD
40 W
1685 1832 PD
40 W
1686 1818 PD
40 W
1687 1901 PD
40 W
1689 1892 PD
40 W
1692 1754 PD
40 W
1697 1656 PD
40 W
1698 1754 PD
40 W
1700 1581 PD
40 W
1704 1435 PD
40 W
1711 1685 PD
40 W
1712 1621 PD
40 W
1716 1477 PD
40 W
1717 1651 PD
40 W
1719 1751 PD
40 W
1720 1752 PD
40 W
1721 1842 PD
40 W
1723 1870 PD
40 W
1726 1955 PD
40 W
1734 1709 PD
40 W
1736 1624 PD
40 W
1741 1506 PD
40 W
1742 1643 PD
40 W
1743 1444 PD
40 W
1747 1950 PD
40 W
1751 1896 PD
40 W
1754 1906 PD
40 W
1757 1787 PD
40 W
1758 2072 PD
40 W
1760 2029 PD
40 W
1761 1952 PD
40 W
1764 1948 PD
40 W
1766 2015 PD
40 W
1768 1850 PD
40 W
1769 1875 PD
40 W
1772 1901 PD
40 W
1773 1869 PD
40 W
1775 1867 PD
40 W
1777 1901 PD
40 W
1780 1916 PD
40 W
1783 1974 PD
40 W
1785 2017 PD
40 W
1787 2083 PD
40 W
1788 2134 PD
40 W
1794 2267 PD
40 W
1802 2019 PD
40 W
1805 2138 PD
40 W
1806 2185 PD
40 W
1809 2236 PD
40 W
1810 2229 PD
40 W
1814 2255 PD
40 W
1817 2367 PD
40 W
1821 2054 PD
40 W
1828 1768 PD
40 W
1829 2250 PD
40 W
1830 2067 PD
40 W
1834 1593 PD
40 W
1845 1698 PD
40 W
1847 1544 PD
40 W
1848 1648 PD
40 W
1849 1732 PD
40 W
1851 1699 PD
40 W
1852 1353 PD
40 W
1854 1475 PD
40 W
1862 1078 PD
40 W
1863 1281 PD
40 W
1866 1281 PD
40 W
1871 1678 PD
40 W
1873 1566 PD
40 W
1878 1314 PD
40 W
1879 1426 PD
40 W
1882 1532 PD
40 W
1883 1149 PD
40 W
1886 1601 PD
40 W
1888 1658 PD
40 W
1890 1635 PD
40 W
1893 1559 PD
40 W
1897 1600 PD
40 W
1898 1584 PD
40 W
1900 1548 PD
40 W
1901 1531 PD
40 W
1903 1578 PD
40 W
1904 1380 PD
40 W
1907 1515 PD
40 W
1909 1735 PD
40 W
1912 1558 PD
40 W
1916 1475 PD
40 W
1917 1570 PD
40 W
1922 1454 PD
40 W
1924 1476 PD
40 W
1928 1505 PD
40 W
1937 1571 PD
40 W
1938 1503 PD
40 W
1939 1613 PD
40 W
1945 1556 PD
40 W
1947 1642 PD
40 W
1949 1583 PD
40 W
1950 1615 PD
40 W
1953 1623 PD
40 W
1954 1629 PD
40 W
1956 1456 PD
40 W
1957 1574 PD
40 W
1958 1625 PD
40 W
1971 1728 PD
40 W
1977 1901 PD
40 W
1980 1872 PD
40 W
1990 1748 PD
40 W
1992 1877 PD
40 W
2006 2026 PD
40 W
2007 2065 PD
40 W
2010 2345 PD
40 W
2013 2238 PD
40 W
2017 1815 PD
40 W
2020 2115 PD
40 W
2021 1323 PD
40 W
2022 1704 PD
40 W
2024 1688 PD
40 W
2025 1385 PD
40 W
2026 2375 PD
40 W
2028 2656 PD
40 W
2029 1653 PD
40 W
2030 1274 PD
40 W
2033 1073 PD
40 W
2040 1367 PD
40 W
2041 967 PD
40 W
2043 1177 PD
40 W
2047 1327 PD
40 W
2048 1395 PD
40 W
2052 1702 PD
40 W
2054 1556 PD
40 W
2056 1413 PD
40 W
2058 1243 PD
40 W
2059 1658 PD
40 W
2060 1542 PD
40 W
2065 1461 PD
40 W
2070 1965 PD
40 W
2080 1516 PD
40 W
2081 1496 PD
40 W
2082 1273 PD
40 W
2084 1309 PD
40 W
2086 1639 PD
40 W
2088 1673 PD
40 W
2089 1664 PD
40 W
2090 1792 PD
40 W
2093 1743 PD
40 W
2099 1601 PD
40 W
2100 1549 PD
40 W
2101 1552 PD
40 W
2103 1716 PD
40 W
2105 1806 PD
40 W
2108 2113 PD
40 W
2115 2035 PD
40 W
2116 1959 PD
40 W
2118 1929 PD
40 W
2122 1901 PD
40 W
2123 1923 PD
40 W
2124 2004 PD
40 W
2126 1876 PD
40 W
2129 1676 PD
40 W
2130 1648 PD
40 W
2131 1677 PD
40 W
2135 1615 PD
40 W
2138 1765 PD
40 W
2143 1770 PD
40 W
2146 1612 PD
40 W
2148 1527 PD
40 W
2149 1520 PD
40 W
2152 1831 PD
40 W
2153 1787 PD
40 W
2154 1656 PD
40 W
2156 1740 PD
40 W
2157 1859 PD
40 W
2160 1808 PD
40 W
2161 1763 PD
40 W
2163 1863 PD
40 W
2164 1961 PD
40 W
2165 1934 PD
40 W
2168 1928 PD
40 W
2169 1901 PD
40 W
2171 1814 PD
40 W
2172 1901 PD
40 W
2173 1658 PD
40 W
2179 1524 PD
40 W
2180 1431 PD
40 W
2186 1387 PD
40 W
2188 1305 PD
40 W
2190 1339 PD
40 W
2193 1494 PD
40 W
2194 1367 PD
40 W
2203 1396 PD
40 W
2207 1426 PD
40 W
2209 1483 PD
40 W
2212 1440 PD
40 W
2216 1609 PD
40 W
2217 1691 PD
40 W
2220 1736 PD
40 W
2225 1793 PD
40 W
2227 1726 PD
40 W
2228 1719 PD
40 W
2233 1674 PD
40 W
2236 1917 PD
40 W
2237 1810 PD
40 W
2240 1749 PD
40 W
2247 1686 PD
40 W
2252 2121 PD
40 W
2254 2166 PD
40 W
2255 2115 PD
40 W
2261 2113 PD
40 W
2262 1998 PD
40 W
2263 1970 PD
40 W
2266 1834 PD
40 W
2267 1738 PD
40 W
2270 2119 PD
40 W
2273 2170 PD
40 W
2274 2074 PD
40 W
2277 2154 PD
40 W
2278 2081 PD
40 W
2280 2028 PD
40 W
2282 1988 PD
40 W
2284 1946 PD
40 W
2285 2011 PD
40 W
2286 2008 PD
40 W
2289 1963 PD
40 W
2293 1940 PD
40 W
2297 1935 PD
40 W
2300 1919 PD
40 W
2303 1901 PD
40 W
2304 1901 PD
40 W
2307 1927 PD
40 W
2310 1917 PD
40 W
2311 1901 PD
40 W
2312 1931 PD
40 W
2315 1919 PD
40 W
2316 1901 PD
40 W
2319 1901 PD
40 W
2320 1923 PD
40 W
2325 1901 PD
40 W
2326 1901 PD
40 W
2327 1901 PD
40 W
2329 1901 PD
40 W
2330 1933 PD
40 W
2335 1911 PD
40 W
2338 1901 PD
40 W
2340 1914 PD
40 W
2341 1901 PD
40 W
2342 1901 PD
40 W
2344 1901 PD
40 W
2345 1901 PD
40 W
2346 1901 PD
40 W
2348 1896 PD
40 W
2349 1901 PD
40 W
2350 1901 PD
40 W
2356 1901 PD
40 W
2357 1901 PD
40 W
2359 1901 PD
40 W
2364 1889 PD
40 W
2365 1891 PD
40 W
2369 1853 PD
40 W
2371 1885 PD
40 W
2372 1901 PD
40 W
2374 1901 PD
40 W
2376 1901 PD
40 W
2379 1901 PD
40 W
2382 1901 PD
40 W
2383 1867 PD
40 W
2384 1901 PD
40 W
2389 1738 PD
40 W
2391 1770 PD
40 W
2397 1440 PD
40 W
2398 1541 PD
40 W
2399 1690 PD
40 W
2401 1706 PD
40 W
2402 1698 PD
40 W
2406 1709 PD
40 W
2408 1638 PD
40 W
2409 1636 PD
40 W
2410 1631 PD
40 W
2412 1570 PD
40 W
2413 1451 PD
40 W
2418 1610 PD
40 W
2420 1645 PD
40 W
2427 1746 PD
40 W
2429 1784 PD
40 W
2431 1731 PD
40 W
2432 1740 PD
40 W
2435 1840 PD
40 W
2436 1885 PD
40 W
2443 2040 PD
40 W
2448 2353 PD
40 W
2453 2138 PD
40 W
2455 1462 PD
40 W
2458 1433 PD
40 W
2459 1759 PD
40 W
2461 1860 PD
40 W
2462 1908 PD
40 W
2463 2177 PD
40 W
2469 2308 PD
40 W
2474 2108 PD
40 W
2476 2178 PD
40 W
2478 1999 PD
40 W
2480 2009 PD
40 W
2487 1868 PD
40 W
2488 1901 PD
40 W
2491 2024 PD
40 W
2500 1861 PD
40 W
2502 1901 PD
40 W
2506 1880 PD
40 W
2508 1868 PD
40 W
2512 1901 PD
40 W
2514 1863 PD
40 W
2515 1848 PD
40 W
2517 1874 PD
40 W
2518 1878 PD
40 W
2521 1901 PD
40 W
2526 1891 PD
40 W
2529 1901 PD
40 W
2531 1900 PD
40 W
2533 1901 PD
40 W
2534 1901 PD
40 W
2537 1893 PD
40 W
2538 1897 PD
40 W
2541 1901 PD
40 W
2544 1901 PD
40 W
2546 1898 PD
40 W
2553 1899 PD
40 W
2559 1900 PD
40 W
2560 1901 PD
40 W
2561 1901 PD
40 W
2563 1901 PD
40 W
2567 1901 PD
40 W
2570 1901 PD
40 W
2574 1791 PD
40 W
2576 2053 PD
40 W
2586 1933 PD
40 W
2587 1929 PD
40 W
2589 1930 PD
40 W
2590 1921 PD
40 W
2591 1957 PD
40 W
2595 1901 PD
40 W
2597 1943 PD
40 W
2605 2133 PD
40 W
2608 2427 PD
40 W
2609 2266 PD
40 W
2613 2257 PD
40 W
2623 2270 PD
40 W
2627 2533 PD
40 W
2630 2393 PD
40 W
2632 2434 PD
40 W
2634 2533 PD
40 W
2635 2416 PD
40 W
2636 2377 PD
40 W
2638 2396 PD
40 W
2643 2290 PD
40 W
2649 2275 PD
40 W
2650 2185 PD
40 W
2654 2286 PD
40 W
2655 2129 PD
40 W
2658 1965 PD
40 W
2661 1461 PD
40 W
2662 1389 PD
40 W
2668 1684 PD
40 W
2669 1558 PD
40 W
2670 2073 PD
40 W
2672 1762 PD
40 W
2673 1228 PD
40 W
2676 1629 PD
40 W
2677 2110 PD
40 W
2681 2760 PD
40 W
2683 2833 PD
40 W
2684 2869 PD
40 W
2685 2755 PD
40 W
2691 2365 PD
40 W
2692 2407 PD
40 W
2693 2330 PD
40 W
2696 2253 PD
40 W
2700 1914 PD
40 W
2703 2310 PD
40 W
2704 2420 PD
40 W
2711 2156 PD
40 W
2714 2000 PD
40 W
2719 2085 PD
40 W
2723 2128 PD
40 W
2729 1926 PD
40 W
2732 1988 PD
40 W
2734 2079 PD
40 W
2736 1964 PD
40 W
2740 1844 PD
40 W
2745 1938 PD
40 W
2747 1979 PD
40 W
2749 2089 PD
40 W
2751 2026 PD
40 W
2757 1927 PD
40 W
2759 1936 PD
40 W
2760 1950 PD
40 W
2762 1901 PD
40 W
2766 1921 PD
40 W
2768 2159 PD
40 W
2771 2331 PD
40 W
2774 2285 PD
40 W
2778 2223 PD
40 W
2781 2189 PD
40 W
2782 2083 PD
40 W
2785 2191 PD
40 W
2787 2286 PD
40 W
2793 2341 PD
40 W
2797 2385 PD
40 W
2798 2339 PD
40 W
2802 2426 PD
40 W
2804 2332 PD
40 W
2805 2446 PD
40 W
2806 2640 PD
40 W
2808 2690 PD
40 W
2809 2647 PD
40 W
2811 2559 PD
40 W
2812 2613 PD
40 W
2813 2679 PD
40 W
2816 2637 PD
40 W
2819 2604 PD
40 W
2820 2633 PD
40 W
2821 2481 PD
40 W
2830 1680 PD
40 W
2831 1412 PD
40 W
2832 1555 PD
40 W
2834 1707 PD
40 W
2841 1582 PD
40 W
2845 761 PD
40 W
2851 2011 PD
40 W
2853 1622 PD
40 W
2856 1296 PD
40 W
2861 2229 PD
40 W
2862 2260 PD
40 W
2864 2528 PD
40 W
2865 2493 PD
40 W
2870 2158 PD
40 W
2872 2092 PD
40 W
2875 1936 PD
40 W
2879 1933 PD
40 W
2891 1938 PD
40 W
2892 1971 PD
40 W
2896 2168 PD
40 W
2902 1741 PD
40 W
2909 2212 PD
40 W
2911 2018 PD
40 W
2913 2049 PD
40 W
2918 1946 PD
40 W
2921 2090 PD
40 W
2926 2000 PD
40 W
2928 2051 PD
40 W
2929 1977 PD
40 W
2937 1870 PD
40 W
2940 1873 PD
40 W
2941 1901 PD
40 W
2947 1901 PD
40 W
2951 1901 PD
40 W
2952 1901 PD
40 W
2954 1901 PD
40 W
2956 1901 PD
40 W
2960 1901 PD
40 W
2968 1879 PD
40 W
2970 1854 PD
40 W
2975 1730 PD
40 W
2978 1715 PD
40 W
2979 1726 PD
40 W
2981 1668 PD
40 W
2983 1768 PD
40 W
2985 1683 PD
40 W
2986 1697 PD
40 W
2988 1597 PD
40 W
2992 1646 PD
40 W
2993 1746 PD
40 W
3000 1975 PD
40 W
3003 2081 PD
40 W
3004 2128 PD
40 W
3005 2095 PD
40 W
3007 2004 PD
40 W
3008 2032 PD
40 W
3009 2025 PD
40 W
3011 2016 PD
40 W
3013 2110 PD
40 W
3015 2110 PD
40 W
3026 2167 PD
40 W
3027 2218 PD
40 W
3028 2178 PD
40 W
3030 2064 PD
40 W
3032 1865 PD
40 W
3034 1771 PD
40 W
3037 2126 PD
40 W
3043 1452 PD
40 W
3045 1816 PD
40 W
3054 1599 PD
40 W
3056 1630 PD
40 W
3057 1655 PD
40 W
3064 1577 PD
40 W
3068 1225 PD
40 W
3072 2229 PD
40 W
3076 2114 PD
40 W
3077 2091 PD
40 W
3079 1990 PD
40 W
3083 1923 PD
40 W
3090 1958 PD
40 W
3091 1872 PD
40 W
3094 1787 PD
40 W
3095 1901 PD
40 W
3096 1901 PD
40 W
3099 1876 PD
40 W
3102 1901 PD
40 W
3106 1901 PD
40 W
3109 1859 PD
40 W
3113 1901 PD
40 W
3114 1889 PD
40 W
3116 1885 PD
40 W
3117 1901 PD
40 W
3118 1901 PD
40 W
3125 1864 PD
40 W
3128 1901 PD
40 W
3131 1834 PD
40 W
3133 1857 PD
40 W
3141 1674 PD
40 W
3143 1837 PD
40 W
3148 1741 PD
40 W
3152 1867 PD
40 W
3156 1901 PD
40 W
3160 1820 PD
40 W
3167 1638 PD
40 W
3169 1716 PD
40 W
3173 1602 PD
40 W
3174 1710 PD
40 W
3175 1630 PD
40 W
3177 1617 PD
40 W
3178 1586 PD
40 W
3181 1590 PD
40 W
3182 1654 PD
40 W
3184 1634 PD
40 W
3185 1661 PD
40 W
3186 1506 PD
40 W
3188 1471 PD
40 W
3189 1528 PD
40 W
3190 1554 PD
40 W
3192 1703 PD
40 W
3193 1797 PD
40 W
3194 1746 PD
40 W
3196 1740 PD
40 W
3199 1731 PD
40 W
3201 1706 PD
40 W
3203 1726 PD
40 W
3204 1684 PD
40 W
3205 1690 PD
40 W
3207 1641 PD
40 W
3208 1638 PD
40 W
3209 1681 PD
40 W
3211 1757 PD
40 W
3212 1767 PD
40 W
3214 1769 PD
40 W
3219 1666 PD
40 W
3220 1694 PD
40 W
3222 1684 PD
40 W
3224 1673 PD
40 W
3226 1648 PD
40 W
3227 2179 PD
40 W
3229 2007 PD
40 W
3230 2062 PD
40 W
3233 1781 PD
40 W
3237 1704 PD
40 W
3244 1682 PD
40 W
3246 1776 PD
40 W
3248 1787 PD
40 W
3252 1899 PD
40 W
3253 1897 PD
40 W
3260 1884 PD
40 W
3263 1881 PD
40 W
3265 1777 PD
40 W
3269 1775 PD
40 W
3271 1844 PD
40 W
3272 1840 PD
40 W
3273 1797 PD
40 W
3275 1886 PD
40 W
3278 1950 PD
40 W
3280 1901 PD
40 W
3282 1901 PD
40 W
3283 1794 PD
40 W
3284 1821 PD
40 W
3291 1765 PD
40 W
3293 1803 PD
40 W
3294 1834 PD
40 W
3295 1849 PD
40 W
3297 1880 PD
40 W
3302 1883 PD
40 W
3303 1832 PD
40 W
3313 1734 PD
40 W
3316 1701 PD
40 W
3317 1717 PD
40 W
3318 1807 PD
40 W
3320 1869 PD
40 W
3322 1754 PD
40 W
3325 1532 PD
40 W
3327 1534 PD
40 W
3329 1703 PD
40 W
3333 1704 PD
40 W
3335 1589 PD
40 W
3340 1688 PD
40 W
3342 1633 PD
40 W
3350 1705 PD
40 W
3352 1806 PD
40 W
3354 1702 PD
40 W
3356 1370 PD
40 W
3361 1487 PD
40 W
3362 1599 PD
40 W
3363 1597 PD
40 W
3366 1509 PD
40 W
3367 1593 PD
40 W
3369 1404 PD
40 W
3370 1312 PD
40 W
3371 1405 PD
40 W
3373 1316 PD
40 W
3374 1382 PD
40 W
3376 1470 PD
40 W
3378 1542 PD
40 W
3382 1617 PD
40 W
3384 1551 PD
40 W
3386 1543 PD
40 W
3391 1374 PD
40 W
3397 1554 PD
40 W
3400 1692 PD
40 W
3406 1807 PD
40 W
3407 1783 PD
40 W
3408 1773 PD
40 W
3415 2170 PD
40 W
3419 1692 PD
40 W
3422 1902 PD
40 W
3423 2074 PD
40 W
3426 2072 PD
40 W
3435 1771 PD
40 W
3437 1761 PD
40 W
3440 2040 PD
40 W
3441 1997 PD
40 W
3442 1844 PD
40 W
3448 1606 PD
40 W
3449 1680 PD
40 W
3455 1699 PD
40 W
3456 1844 PD
40 W
3461 1797 PD
40 W
3464 1625 PD
40 W
3467 1784 PD
40 W
3468 1889 PD
40 W
3469 1982 PD
40 W
3474 1853 PD
40 W
3475 1887 PD
40 W
3476 1901 PD
40 W
3480 1852 PD
40 W
3482 1774 PD
40 W
3483 1817 PD
40 W
3487 1897 PD
40 W
3489 1862 PD
40 W
3491 1901 PD
40 W
3493 1901 PD
40 W
3495 1901 PD
40 W
3501 1901 PD
40 W
3505 1901 PD
40 W
3508 1901 PD
40 W
3509 1869 PD
40 W
3510 1876 PD
40 W
3514 1878 PD
40 W
3517 1873 PD
40 W
3521 1901 PD
40 W
3527 1873 PD
40 W
3528 1770 PD
40 W
3532 1822 PD
40 W
3533 1830 PD
40 W
3536 1901 PD
40 W
3542 1841 PD
40 W
3551 1901 PD
40 W
3554 1914 PD
40 W
3555 1935 PD
40 W
3557 1876 PD
40 W
3568 1733 PD
40 W
3569 1768 PD
40 W
3570 1792 PD
40 W
3577 1771 PD
40 W
3581 1793 PD
40 W
3584 1812 PD
40 W
3585 1823 PD
40 W
3587 1733 PD
40 W
3588 1727 PD
40 W
3591 1753 PD
40 W
3592 1758 PD
40 W
3593 1666 PD
40 W
3595 1773 PD
40 W
3596 1794 PD
40 W
3599 2096 PD
40 W
3600 2137 PD
40 W
3602 2115 PD
40 W
3604 2069 PD
40 W
3608 2134 PD
40 W
3612 1587 PD
40 W
3617 1385 PD
40 W
3618 1294 PD
40 W
3623 1589 PD
40 W
3630 2008 PD
40 W
3632 2154 PD
40 W
3633 2719 PD
40 W
3634 1410 PD
40 W
3636 1638 PD
40 W
3637 2555 PD
40 W
3641 1894 PD
40 W
3642 1876 PD
40 W
3644 2403 PD
40 W
3645 2061 PD
40 W
3646 1981 PD
40 W
3648 2105 PD
40 W
3651 1385 PD
40 W
3653 1563 PD
40 W
3655 1582 PD
40 W
3656 1561 PD
40 W
3657 1605 PD
40 W
3659 1611 PD
40 W
3661 1567 PD
40 W
3667 1380 PD
40 W
3668 1507 PD
40 W
3670 1328 PD
40 W
3674 1372 PD
40 W
3675 1378 PD
40 W
3679 1375 PD
40 W
3683 1607 PD
40 W
3686 1616 PD
40 W
3687 1542 PD
40 W
3691 1579 PD
40 W
3697 1699 PD
40 W
3698 1527 PD
40 W
3700 1541 PD
40 W
3702 1440 PD
40 W
3704 1438 PD
40 W
3708 1408 PD
40 W
3709 1450 PD
40 W
3710 1374 PD
40 W
3713 1473 PD
40 W
3715 1471 PD
40 W
3717 1531 PD
40 W
3721 1428 PD
40 W
3723 1424 PD
40 W
3730 1418 PD
40 W
3732 1283 PD
40 W
3734 1416 PD
40 W
3735 1453 PD
40 W
3742 1421 PD
40 W
3750 1302 PD
40 W
3751 1380 PD
40 W
3762 1548 PD
40 W
3765 1654 PD
40 W
3766 1688 PD
40 W
3769 1755 PD
40 W
3770 1720 PD
40 W
3773 1675 PD
40 W
3774 1770 PD
40 W
3776 1773 PD
40 W
3777 1783 PD
40 W
3779 1801 PD
40 W
3781 1703 PD
40 W
3783 1867 PD
40 W
3784 2025 PD
40 W
3785 2004 PD
40 W
3788 1720 PD
40 W
3795 2164 PD
40 W
3796 2195 PD
40 W
3799 2201 PD
40 W
3804 2299 PD
40 W
3807 2184 PD
40 W
3808 2087 PD
40 W
3810 1663 PD
40 W
3817 1849 PD
40 W
3819 2078 PD
40 W
3828 1961 PD
40 W
3829 2178 PD
40 W
3832 1655 PD
40 W
3833 1767 PD
40 W
3834 1781 PD
40 W
3836 1677 PD
40 W
3841 1774 PD
40 W
3848 1739 PD
40 W
3851 1370 PD
40 W
3856 981 PD
40 W
3859 1250 PD
40 W
3860 1619 PD
40 W
3864 2081 PD
40 W
3868 1901 PD
40 W
3870 1863 PD
40 W
3871 1815 PD
40 W
3872 1888 PD
40 W
3874 1956 PD
40 W
3877 1935 PD
40 W
3879 1844 PD
40 W
3882 1971 PD
40 W
3886 1975 PD
40 W
3887 2016 PD
40 W
3889 1988 PD
40 W
3890 1957 PD
40 W
3892 1967 PD
40 W
3893 1926 PD
40 W
3898 2019 PD
40 W
3901 1981 PD
40 W
3905 2011 PD
40 W
3913 2189 PD
40 W
3915 2133 PD
40 W
3916 2129 PD
40 W
3920 2174 PD
40 W
3921 2284 PD
40 W
3927 2356 PD
40 W
3931 2392 PD
40 W
3932 2439 PD
40 W
3934 2285 PD
40 W
3938 2382 PD
40 W
3942 2421 PD
40 W
3943 2405 PD
40 W
3950 2570 PD
40 W
3951 2498 PD
40 W
3957 2222 PD
40 W
3962 2397 PD
40 W
3966 2553 PD
40 W
3970 1475 PD
40 W
3973 1811 PD
40 W
3976 1758 PD
40 W
3977 2112 PD
40 W
3980 1328 PD
40 W
3981 1428 PD
40 W
3983 2252 PD
40 W
3984 2220 PD
40 W
3988 2496 PD
40 W
3990 1890 PD
40 W
3992 1893 PD
40 W
3999 2286 PD
40 W
4007 2092 PD
40 W
4011 2587 PD
40 W
4013 2078 PD
40 W
4015 2154 PD
40 W
4022 1712 PD
40 W
4024 1621 PD
40 W
4033 2362 PD
40 W
4037 2127 PD
40 W
4041 2036 PD
40 W
4044 1862 PD
40 W
4045 2105 PD
40 W
4047 2149 PD
40 W
4048 2310 PD
40 W
4049 1685 PD
40 W
4052 1656 PD
40 W
4054 1346 PD
40 W
4055 1539 PD
40 W
4058 1609 PD
40 W
4063 1590 PD
40 W
4067 2085 PD
40 W
4069 1846 PD
40 W
4070 1770 PD
40 W
4073 1502 PD
40 W
4078 2102 PD
40 W
4079 2237 PD
40 W
4082 2157 PD
40 W
4083 2206 PD
40 W
4085 2241 PD
40 W
4086 2144 PD
40 W
4093 2246 PD
40 W
4094 2131 PD
40 W
4096 1982 PD
40 W
4100 2083 PD
40 W
4101 2182 PD
40 W
4103 2317 PD
40 W
4107 2080 PD
40 W
4108 1975 PD
40 W
4109 2010 PD
40 W
4112 2051 PD
40 W
4115 2007 PD
40 W
4123 1924 PD
40 W
4126 2019 PD
40 W
4127 1991 PD
40 W
4128 2040 PD
40 W
4131 1975 PD
40 W
4138 2045 PD
40 W
4143 2181 PD
40 W
4149 2112 PD
40 W
4150 1986 PD
40 W
4152 1994 PD
40 W
4157 1805 PD
40 W
4162 2032 PD
40 W
4164 1827 PD
40 W
4169 1543 PD
40 W
4171 1601 PD
40 W
4175 2035 PD
40 W
4176 2004 PD
40 W
4177 1848 PD
40 W
4184 1881 PD
40 W
4188 2067 PD
40 W
4190 2083 PD
40 W
4191 2222 PD
40 W
4192 2215 PD
40 W
4199 1856 PD
40 W
4202 1982 PD
40 W
4203 2053 PD
40 W
4205 2060 PD
40 W
4206 1813 PD
40 W
4209 1498 PD
40 W
4214 2152 PD
40 W
4220 2606 PD
40 W
4222 2599 PD
40 W
4224 2464 PD
40 W
4226 2320 PD
40 W
4228 2273 PD
40 W
4229 2172 PD
40 W
4232 2136 PD
40 W
4233 2153 PD
40 W
4241 1853 PD
40 W
4244 2083 PD
40 W
4247 2155 PD
40 W
4250 2417 PD
40 W
4254 2334 PD
40 W
4255 2288 PD
40 W
4256 2205 PD
40 W
4260 2209 PD
40 W
4265 2118 PD
40 W
4266 2059 PD
40 W
4267 1964 PD
40 W
4270 1917 PD
40 W
4271 1901 PD
40 W
4273 1901 PD
40 W
4274 1901 PD
40 W
4282 2007 PD
40 W
4285 2048 PD
40 W
4286 2023 PD
40 W
4288 2025 PD
40 W
4292 2098 PD
40 W
4293 2027 PD
40 W
4296 2037 PD
40 W
4300 2142 PD
40 W
4301 2023 PD
40 W
4307 1901 PD
40 W
4309 1973 PD
40 W
4314 1950 PD
40 W
4315 1918 PD
40 W
4318 1901 PD
40 W
4319 1936 PD
40 W
4322 1964 PD
40 W
4330 1947 PD
40 W
4333 2034 PD
40 W
4339 2308 PD
40 W
4346 2151 PD
40 W
4348 2238 PD
40 W
4349 2227 PD
40 W
4350 2306 PD
40 W
4352 2238 PD
40 W
4353 2190 PD
40 W
4356 2275 PD
40 W
4357 2289 PD
40 W
4358 2294 PD
40 W
4360 2313 PD
40 W
4361 2309 PD
40 W
4364 2221 PD
40 W
4365 2187 PD
40 W
4367 2194 PD
40 W
4368 2147 PD
40 W
4372 1983 PD
40 W
4375 2027 PD
40 W
4380 2252 PD
40 W
4383 2124 PD
40 W
4384 2090 PD
40 W
4388 2169 PD
40 W
4393 2041 PD
40 W
4395 1724 PD
40 W
4397 1503 PD
40 W
4398 1645 PD
40 W
4401 1520 PD
40 W
4402 1492 PD
40 W
4405 1581 PD
40 W
4412 1599 PD
40 W
4413 1466 PD
40 W
4417 1888 PD
40 W
4427 1843 PD
40 W
4428 1844 PD
40 W
4431 2033 PD
40 W
4433 1963 PD
40 W
4436 1979 PD
40 W
4437 1959 PD
40 W
4440 1893 PD
40 W
4444 1871 PD
40 W
4446 1808 PD
40 W
4448 1793 PD
40 W
4450 1834 PD
40 W
4451 1876 PD
40 W
4452 1864 PD
40 W
4454 1901 PD
40 W
4457 1901 PD
40 W
4458 1877 PD
40 W
4459 1877 PD
40 W
4462 1882 PD
40 W
4465 1767 PD
40 W
4466 1856 PD
40 W
4467 1787 PD
40 W
4471 1600 PD
40 W
4480 1665 PD
40 W
4481 1694 PD
40 W
4482 1729 PD
40 W
4484 1629 PD
40 W
4486 1856 PD
40 W
4488 1818 PD
40 W
4489 1754 PD
40 W
4492 1870 PD
40 W
4493 1852 PD
40 W
4497 1858 PD
40 W
4499 1799 PD
40 W
4500 1804 PD
40 W
4503 1901 PD
40 W
4506 1741 PD
40 W
4510 1610 PD
40 W
4512 1874 PD
40 W
4516 1901 PD
40 W
4518 1901 PD
40 W
4522 1901 PD
40 W
4523 1901 PD
40 W
4526 1901 PD
40 W
4530 1901 PD
40 W
4535 1836 PD
40 W
4537 1816 PD
40 W
4544 1740 PD
40 W
4550 1706 PD
40 W
4553 1675 PD
40 W
4563 1628 PD
40 W
4564 1712 PD
40 W
4565 1682 PD
40 W
4567 1725 PD
40 W
4568 1636 PD
40 W
4570 1614 PD
40 W
4571 1618 PD
40 W
4575 1706 PD
40 W
4576 1664 PD
40 W
4579 1807 PD
40 W
4580 1840 PD
40 W
4584 1758 PD
40 W
4589 1645 PD
40 W
4590 1658 PD
40 W
4593 1651 PD
40 W
4594 1608 PD
40 W
4595 1662 PD
40 W
4599 1707 PD
40 W
4601 1783 PD
40 W
4604 1723 PD
40 W
4606 1690 PD
40 W
4609 1748 PD
40 W
4610 1752 PD
40 W
4612 1495 PD
40 W
4613 1499 PD
40 W
4616 1571 PD
40 W
4623 1550 PD
40 W
4624 1770 PD
40 W
4629 1751 PD
40 W
4631 1726 PD
40 W
4633 1715 PD
40 W
4640 1741 PD
40 W
4642 1771 PD
40 W
4643 1632 PD
40 W
4644 1822 PD
40 W
4648 1708 PD
40 W
4650 1686 PD
40 W
4653 1738 PD
40 W
4654 1730 PD
40 W
4657 1733 PD
40 W
4659 1759 PD
40 W
4661 1699 PD
40 W
4668 1706 PD
40 W
4669 1601 PD
40 W
4672 1551 PD
40 W
4676 1612 PD
40 W
4678 1588 PD
40 W
4683 1542 PD
40 W
4687 1601 PD
40 W
4693 1598 PD
40 W
4695 1636 PD
40 W
4697 1535 PD
40 W
4703 1659 PD
40 W
4704 1593 PD
40 W
4707 1672 PD
40 W
4710 1596 PD
40 W
4712 1522 PD
40 W
4718 1484 PD
40 W
4719 1530 PD
40 W
4723 1583 PD
40 W
4727 1528 PD
40 W
4730 1558 PD
40 W
4732 1661 PD
40 W
4736 1543 PD
40 W
4738 1429 PD
40 W
4740 1307 PD
40 W
4741 1293 PD
40 W
4742 1424 PD
40 W
4744 1417 PD
40 W
4745 1382 PD
40 W
4746 1549 PD
40 W
4748 1454 PD
40 W
4749 1587 PD
40 W
4752 1694 PD
40 W
4755 1673 PD
40 W
4756 1558 PD
40 W
4757 1596 PD
40 W
4759 1641 PD
40 W
4761 1536 PD
40 W
4774 1681 PD
40 W
4775 1795 PD
40 W
4779 1751 PD
40 W
4782 1700 PD
40 W
4783 1761 PD
40 W
4785 1711 PD
40 W
4786 1547 PD
40 W
4787 1691 PD
40 W
4789 1701 PD
40 W
4790 1582 PD
40 W
4795 1699 PD
40 W
4797 1705 PD
40 W
4812 1459 PD
40 W
4813 1566 PD
40 W
4816 1582 PD
40 W
4817 1600 PD
40 W
4819 1635 PD
40 W
4821 1747 PD
40 W
4825 1636 PD
40 W
4827 1675 PD
40 W
4828 1670 PD
40 W
4832 1582 PD
40 W
4834 1630 PD
40 W
4840 1803 PD
40 W
4845 1754 PD
40 W
4849 1776 PD
40 W
4850 1796 PD
40 W
4851 1809 PD
40 W
4854 1819 PD
40 W
4855 1814 PD
40 W
4858 1883 PD
40 W
4859 1862 PD
40 W
4864 1739 PD
40 W
4866 1688 PD
40 W
4868 1612 PD
40 W
4870 1656 PD
40 W
4872 1820 PD
40 W
4877 1621 PD
40 W
4879 1704 PD
40 W
4880 1611 PD
40 W
4883 1654 PD
40 W
4884 1613 PD
40 W
4887 1796 PD
40 W
4896 1690 PD
40 W
4898 1636 PD
40 W
4899 1670 PD
40 W
4903 1595 PD
40 W
4904 1770 PD
40 W
4907 1693 PD
40 W
4908 1639 PD
40 W
4910 1591 PD
40 W
4911 1543 PD
40 W
4913 1586 PD
40 W
4914 1621 PD
40 W
4915 1607 PD
40 W
4918 1605 PD
40 W
4919 1605 PD
40 W
4923 1505 PD
40 W
4925 1515 PD
40 W
4926 1647 PD
40 W
4928 1549 PD
40 W
4930 1705 PD
40 W
4941 1583 PD
40 W
4943 1704 PD
40 W
4944 1510 PD
40 W
4947 1256 PD
40 W
4955 1491 PD
40 W
4959 1574 PD
40 W
4960 1551 PD
40 W
4962 1526 PD
40 W
4967 1689 PD
40 W
4971 1617 PD
40 W
4974 1835 PD
40 W
4978 1901 PD
40 W
4979 2073 PD
40 W
4982 2016 PD
40 W
4985 1966 PD
40 W
4986 1856 PD
40 W
4993 1962 PD
40 W
5000 2213 PD
40 W
5005 2453 PD
40 W
5007 2198 PD
40 W
5009 1890 PD
40 W
5011 2016 PD
40 W
5015 2137 PD
40 W
5017 2008 PD
40 W
5024 1694 PD
40 W
5026 1779 PD
40 W
5027 1732 PD
40 W
5028 1804 PD
40 W
5038 1997 PD
40 W
5041 1980 PD
40 W
5042 2019 PD
40 W
5046 1856 PD
40 W
5047 1843 PD
40 W
5051 2114 PD
40 W
5053 2000 PD
40 W
5054 2034 PD
40 W
5056 2305 PD
40 W
5057 1898 PD
40 W
5058 1957 PD
40 W
5061 1737 PD
40 W
5062 1814 PD
40 W
5066 2028 PD
40 W
5068 2116 PD
40 W
5071 1827 PD
40 W
5076 1858 PD
40 W
5077 1885 PD
40 W
5081 1853 PD
40 W
5084 1806 PD
40 W
5090 1860 PD
40 W
5092 1875 PD
40 W
5095 1853 PD
40 W
5096 1681 PD
40 W
5099 1854 PD
40 W
5105 1901 PD
40 W
5106 1901 PD
40 W
5107 1901 PD
40 W
5109 1901 PD
40 W
5111 1901 PD
40 W
5115 1901 PD
40 W
5122 2013 PD
40 W
5124 1959 PD
40 W
5126 2063 PD
40 W
5128 1926 PD
40 W
5134 2035 PD
40 W
5141 1854 PD
40 W
5147 2140 PD
40 W
5149 2166 PD
40 W
5152 2178 PD
40 W
5154 2231 PD
40 W
5156 2273 PD
40 W
5160 2614 PD
40 W
5162 1555 PD
40 W
5163 1433 PD
40 W
5166 1245 PD
40 W
5173 1034 PD
40 W
5174 939 PD
40 W
5178 1319 PD
40 W
5179 1354 PD
40 W
5182 2196 PD
40 W
5185 2108 PD
40 W
5186 2210 PD
40 W
5192 2188 PD
40 W
5194 2213 PD
40 W
5200 2673 PD
40 W
5205 2463 PD
40 W
5207 2504 PD
40 W
5209 2158 PD
40 W
5211 2077 PD
40 W
5218 1984 PD
40 W
5219 1924 PD
40 W
5222 1948 PD
40 W
5224 2093 PD
40 W
5227 2014 PD
40 W
5228 2002 PD
40 W
5233 1901 PD
40 W
5234 1947 PD
40 W
5238 1879 PD
40 W
5239 1880 PD
40 W
5243 1901 PD
40 W
5245 1848 PD
40 W
5246 1880 PD
40 W
5249 1857 PD
40 W
5252 1901 PD
40 W
5253 1901 PD
40 W
5256 1901 PD
40 W
5257 1868 PD
40 W
5260 1901 PD
40 W
5261 1868 PD
40 W
5267 1796 PD
40 W
5268 1901 PD
40 W
5269 1855 PD
40 W
5271 1835 PD
40 W
5275 1901 PD
40 W
5277 1901 PD
40 W
5280 1836 PD
40 W
5286 1901 PD
40 W
5287 1901 PD
40 W
5288 1810 PD
40 W
5290 1793 PD
40 W
5292 1901 PD
40 W
5299 1820 PD
40 W
5301 1901 PD
40 W
5305 1901 PD
40 W
5307 1901 PD
40 W
5310 1901 PD
40 W
5313 1843 PD
40 W
5314 1901 PD
40 W
5316 1901 PD
40 W
5318 1901 PD
40 W
5320 1955 PD
40 W
5324 1935 PD
40 W
5325 1962 PD
40 W
5329 1798 PD
40 W
5332 1865 PD
40 W
5333 1885 PD
40 W
5335 1824 PD
40 W
5336 1821 PD
40 W
5337 1808 PD
40 W
5339 1794 PD
40 W
5340 1865 PD
40 W
5341 1961 PD
40 W
5346 2077 PD
40 W
5347 2073 PD
40 W
5350 2063 PD
40 W
5351 2016 PD
40 W
5354 2163 PD
40 W
5356 2328 PD
40 W
5358 2520 PD
40 W
5362 2490 PD
40 W
5366 2163 PD
40 W
5371 1574 PD
40 W
5373 1469 PD
40 W
5374 2425 PD
40 W
5375 1988 PD
40 W
5378 1939 PD
40 W
5380 2331 PD
40 W
5381 1831 PD
40 W
5384 1796 PD
40 W
5386 1898 PD
40 W
5388 2126 PD
40 W
5389 2291 PD
40 W
5392 2181 PD
40 W
5393 2253 PD
40 W
5397 1910 PD
40 W
5401 2140 PD
40 W
5403 2068 PD
40 W
5407 1839 PD
40 W
5408 1847 PD
40 W
5414 1748 PD
40 W
5419 1735 PD
40 W
5420 1727 PD
40 W
5422 1773 PD
40 W
5426 1836 PD
40 W
5431 1758 PD
40 W
5433 1793 PD
40 W
5437 1812 PD
40 W
5438 1971 PD
40 W
5441 1933 PD
40 W
5445 1845 PD
40 W
5446 1901 PD
40 W
5448 1985 PD
40 W
5453 1867 PD
40 W
5457 1873 PD
40 W
5458 1901 PD
40 W
5464 1875 PD
40 W
5465 1901 PD
40 W
5467 1901 PD
40 W
5469 1807 PD
40 W
5471 1901 PD
40 W
5472 1901 PD
40 W
5482 1883 PD
40 W
5491 1901 PD
40 W
5493 1901 PD
40 W
5494 1875 PD
40 W
5495 1851 PD
40 W
5497 1876 PD
40 W
5499 1876 PD
40 W
5501 1887 PD
40 W
5502 1901 PD
40 W
5506 1873 PD
40 W
5508 1901 PD
40 W
5517 1901 PD
40 W
5520 1866 PD
40 W
5525 1918 PD
40 W
5527 2102 PD
40 W
5528 2088 PD
40 W
5529 1971 PD
40 W
5531 1854 PD
40 W
5532 1951 PD
40 W
5533 1897 PD
40 W
5540 2102 PD
40 W
5543 2055 PD
40 W
5544 2078 PD
40 W
5548 2125 PD
40 W
5552 2178 PD
40 W
5554 2187 PD
40 W
5559 2439 PD
40 W
5563 2335 PD
40 W
5565 2337 PD
40 W
5569 2537 PD
40 W
5570 2541 PD
40 W
5571 2309 PD
40 W
5573 2417 PD
40 W
5574 2379 PD
40 W
5577 2431 PD
40 W
5578 2523 PD
40 W
5580 2581 PD
40 W
5582 2443 PD
40 W
5585 2100 PD
40 W
5586 2095 PD
40 W
5588 2302 PD
40 W
5591 2213 PD
40 W
5593 2362 PD
40 W
5595 2450 PD
40 W
5597 2461 PD
40 W
5606 2323 PD
40 W
5607 2262 PD
40 W
5610 2075 PD
40 W
5616 1671 PD
40 W
5618 1601 PD
40 W
5631 1880 PD
40 W
5634 1901 PD
40 W
5637 1841 PD
40 W
5638 1881 PD
40 W
5653 1901 PD
40 W
5656 1837 PD
40 W
5659 1901 PD
40 W
5660 1882 PD
40 W
5665 1901 PD
40 W
5670 1901 PD
40 W
5674 1762 PD
40 W
5676 1845 PD
40 W
5678 1822 PD
40 W
5679 1901 PD
40 W
5690 1738 PD
40 W
5693 1800 PD
40 W
5694 1727 PD
40 W
5695 1713 PD
40 W
5697 1655 PD
40 W
5701 1871 PD
40 W
5702 1901 PD
40 W
5705 1871 PD
40 W
5706 1824 PD
40 W
5710 1856 PD
40 W
5712 1861 PD
40 W
5713 1822 PD
40 W
5719 1614 PD
40 W
5721 1733 PD
40 W
5725 1628 PD
40 W
5727 1623 PD
40 W
5728 1671 PD
40 W
5731 1780 PD
40 W
5732 1775 PD
40 W
5734 1788 PD
40 W
5739 1699 PD
40 W
5740 1781 PD
40 W
5743 1690 PD
40 W
5746 1743 PD
40 W
5747 1769 PD
40 W
5748 1700 PD
40 W
5754 1774 PD
40 W
5755 1787 PD
40 W
5757 1746 PD
40 W
5758 1743 PD
40 W
5765 2069 PD
40 W
5768 2082 PD
40 W
5773 2125 PD
40 W
5774 2123 PD
40 W
5785 2199 PD
40 W
5788 2150 PD
40 W
5789 2150 PD
40 W
5792 2020 PD
40 W
5795 2044 PD
40 W
5797 1775 PD
40 W
5799 1850 PD
40 W
5802 1737 PD
40 W
5803 1977 PD
40 W
5804 1913 PD
40 W
5806 1991 PD
40 W
5807 1786 PD
40 W
5814 1825 PD
40 W
5819 1735 PD
40 W
5822 1849 PD
40 W
5823 1846 PD
40 W
5825 1919 PD
40 W
5829 1850 PD
40 W
5830 1869 PD
40 W
5832 1879 PD
40 W
5834 1875 PD
40 W
5838 1901 PD
40 W
5840 1867 PD
40 W
5844 1901 PD
40 W
5845 1901 PD
40 W
5846 1901 PD
40 W
5849 1806 PD
40 W
5852 1838 PD
40 W
5853 1830 PD
40 W
5855 1797 PD
40 W
5859 1834 PD
40 W
5866 1901 PD
40 W
5867 1901 PD
40 W
5868 1844 PD
40 W
5871 2007 PD
40 W
5874 1808 PD
40 W
5878 1892 PD
40 W
5881 1984 PD
40 W
5883 1984 PD
40 W
5885 1976 PD
40 W
5886 1973 PD
40 W
5887 1986 PD
40 W
5889 1922 PD
40 W
5893 1376 PD
40 W
5894 1592 PD
40 W
5898 1811 PD
40 W
5905 1808 PD
40 W
5906 1859 PD
40 W
5909 1901 PD
40 W
5910 1885 PD
40 W
5912 1816 PD
40 W
5920 1952 PD
40 W
5924 1724 PD
40 W
5925 1713 PD
40 W
5927 1721 PD
40 W
5928 1831 PD
40 W
5930 1871 PD
40 W
5931 1895 PD
40 W
5932 1991 PD
40 W
5934 2058 PD
40 W
5935 2036 PD
40 W
5946 1991 PD
40 W
5949 1600 PD
40 W
5951 1572 PD
40 W
5953 1663 PD
40 W
5954 1677 PD
40 W
5955 1673 PD
40 W
5959 1817 PD
40 W
5965 2045 PD
40 W
5970 1762 PD
40 W
5973 2057 PD
40 W
5979 2059 PD
40 W
5983 2130 PD
40 W
5984 2125 PD
40 W
5987 2085 PD
40 W
5988 2043 PD
40 W
5994 1754 PD
40 W
5995 1804 PD
40 W
5996 1879 PD
40 W
6002 1984 PD
40 W
6003 1966 PD
40 W
6006 1864 PD
40 W
6011 2060 PD
40 W
6014 1724 PD
40 W
6017 1603 PD
40 W
6018 1587 PD
40 W
6021 1733 PD
40 W
6022 1859 PD
40 W
6023 1878 PD
40 W
6026 1806 PD
40 W
6028 1843 PD
40 W
6030 1901 PD
40 W
6032 1915 PD
40 W
6036 1836 PD
40 W
6040 1911 PD
40 W
6049 1963 PD
40 W
6051 1974 PD
40 W
6052 1967 PD
40 W
6053 2008 PD
40 W
6056 2155 PD
40 W
6059 2342 PD
40 W
6060 2464 PD
40 W
6066 2350 PD
40 W
6067 2222 PD
40 W
6070 2134 PD
40 W
6074 1800 PD
40 W
6079 2263 PD
40 W
6081 2232 PD
40 W
6082 2091 PD
40 W
6083 2223 PD
40 W
6087 2043 PD
40 W
6092 1820 PD
40 W
6093 1834 PD
40 W
6096 1856 PD
40 W
6097 1837 PD
40 W
6101 1901 PD
40 W
6104 1823 PD
40 W
6105 1804 PD
40 W
6109 2030 PD
40 W
6113 2223 PD
40 W
6117 2211 PD
40 W
6120 2591 PD
40 W
6122 2229 PD
40 W
6123 1660 PD
40 W
6126 1642 PD
40 W
6127 2136 PD
40 W
6128 2317 PD
40 W
6130 2123 PD
40 W
6136 2436 PD
40 W
6138 2592 PD
40 W
6143 2749 PD
40 W
6145 2865 PD
40 W
6146 2874 PD
40 W
6147 2965 PD
40 W
6150 2778 PD
40 W
6151 2783 PD
40 W
6154 2339 PD
40 W
6156 2408 PD
40 W
6161 2209 PD
40 W
6164 2279 PD
40 W
6169 2448 PD
40 W
6171 2222 PD
40 W
6172 2112 PD
40 W
6175 2109 PD
40 W
6176 2105 PD
40 W
6179 1432 PD
40 W
6184 1921 PD
40 W
6185 1790 PD
40 W
6188 1809 PD
40 W
6200 1883 PD
40 W
6202 1881 PD
40 W
6203 1901 PD
40 W
6206 1869 PD
40 W
6210 1904 PD
40 W
6218 1918 PD
40 W
6222 2044 PD
40 W
6224 1983 PD
40 W
6226 1947 PD
40 W
6229 1956 PD
40 W
6230 1935 PD
40 W
6233 2326 PD
40 W
6236 2306 PD
40 W
6237 2369 PD
40 W
6248 2147 PD
40 W
6249 2245 PD
40 W
6252 2511 PD
40 W
6254 2334 PD
40 W
6258 2437 PD
40 W
6260 2292 PD
40 W
6262 2064 PD
40 W
6263 2199 PD
40 W
6264 2280 PD
40 W
6266 2295 PD
40 W
6267 2386 PD
40 W
6271 2348 PD
40 W
6273 2255 PD
40 W
6274 2438 PD
40 W
6275 2467 PD
40 W
6277 2450 PD
40 W
6278 2369 PD
40 W
6279 2404 PD
40 W
6281 2762 PD
40 W
6289 2572 PD
40 W
6294 2412 PD
40 W
6297 2304 PD
40 W
6301 2105 PD
40 W
6304 2040 PD
40 W
6305 2000 PD
40 W
6307 2026 PD
40 W
6308 2082 PD
40 W
6309 2006 PD
40 W
6324 2188 PD
40 W
6327 2297 PD
40 W
6333 2225 PD
40 W
6334 2227 PD
40 W
6335 2094 PD
40 W
6339 2252 PD
40 W
6341 2403 PD
40 W
6346 1682 PD
40 W
6347 1866 PD
40 W
6350 1731 PD
40 W
6352 1459 PD
40 W
6353 1171 PD
40 W
6356 1080 PD
40 W
6358 1189 PD
40 W
6365 1916 PD
40 W
6368 1828 PD
40 W
6369 1810 PD
40 W
6371 1787 PD
40 W
6373 1806 PD
40 W
6375 1781 PD
40 W
6376 1946 PD
40 W
6379 1981 PD
40 W
6380 1983 PD
40 W
6386 1917 PD
40 W
6387 1918 PD
40 W
6392 1950 PD
40 W
6394 2096 PD
40 W
6395 1901 PD
40 W
6401 1906 PD
40 W
6402 1901 PD
40 W
6403 1901 PD
40 W
6416 1909 PD
40 W
6418 1846 PD
40 W
6421 1901 PD
40 W
6422 1901 PD
40 W
6425 1901 PD
40 W
6429 1768 PD
40 W
6432 1833 PD
40 W
6436 1901 PD
40 W
6437 1886 PD
40 W
6439 1901 PD
40 W
6440 1884 PD
40 W
6441 1901 PD
40 W
6444 1802 PD
40 W
6447 1901 PD
40 W
6450 1901 PD
40 W
6455 1901 PD
40 W
6460 1901 PD
40 W
6462 1901 PD
40 W
6465 1901 PD
40 W
6466 1901 PD
40 W
6467 1901 PD
40 W
6471 1901 PD
40 W
6481 1901 PD
40 W
6484 1901 PD
40 W
6488 2000 PD
40 W
6490 2021 PD
40 W
6492 1985 PD
40 W
6493 2008 PD
40 W
6497 2058 PD
40 W
6501 2110 PD
40 W
6503 2157 PD
40 W
6508 2280 PD
40 W
6510 2297 PD
40 W
6511 2330 PD
40 W
6512 2309 PD
40 W
6515 2253 PD
40 W
6519 2214 PD
40 W
6523 2313 PD
40 W
6526 2493 PD
40 W
6531 2357 PD
40 W
6533 2197 PD
40 W
6535 2033 PD
40 W
6537 1989 PD
40 W
6542 1592 PD
40 W
6544 1721 PD
40 W
6548 2010 PD
40 W
6549 2203 PD
40 W
6550 2168 PD
40 W
6554 1482 PD
40 W
6559 1540 PD
40 W
6560 1707 PD
40 W
6563 1964 PD
40 W
6567 2509 PD
40 W
6568 1803 PD
40 W
6569 1339 PD
40 W
6572 1578 PD
40 W
6573 1509 PD
40 W
6578 1638 PD
40 W
6580 1734 PD
40 W
6582 1657 PD
40 W
6583 1548 PD
40 W
6584 1560 PD
40 W
6586 1610 PD
40 W
6588 1715 PD
40 W
6597 1726 PD
40 W
6601 1818 PD
40 W
6606 1785 PD
40 W
6610 1752 PD
40 W
6612 1702 PD
40 W
6616 1756 PD
40 W
6617 1693 PD
40 W
6618 1688 PD
40 W
6621 1530 PD
40 W
6624 1632 PD
40 W
6627 1502 PD
40 W
6629 1541 PD
40 W
6633 1536 PD
40 W
6635 1561 PD
40 W
6637 1638 PD
40 W
6639 1638 PD
40 W
6640 1710 PD
40 W
6642 1691 PD
40 W
6643 1655 PD
40 W
6646 1559 PD
40 W
6650 1670 PD
40 W
6651 1653 PD
40 W
6654 1737 PD
40 W
6662 1832 PD
40 W
6663 1840 PD
40 W
6665 1879 PD
40 W
6672 1801 PD
40 W
6676 1852 PD
40 W
6677 1901 PD
40 W
6678 1774 PD
40 W
6682 1904 PD
40 W
6688 1972 PD
40 W
6689 2005 PD
40 W
6691 2039 PD
40 W
6695 2050 PD
40 W
6696 2001 PD
40 W
6697 2085 PD
40 W
6699 2103 PD
40 W
6703 2246 PD
40 W
6708 2146 PD
40 W
6711 1572 PD
40 W
6714 1688 PD
40 W
6718 2064 PD
40 W
6721 2013 PD
40 W
6722 1822 PD
40 W
6723 1719 PD
40 W
6727 1689 PD
40 W
6729 1884 PD
40 W
6730 2118 PD
40 W
6734 1787 PD
40 W
6737 1618 PD
40 W
6738 1385 PD
40 W
6744 1439 PD
40 W
6745 1402 PD
40 W
6746 1755 PD
40 W
6748 1661 PD
40 W
6749 1537 PD
40 W
6753 1766 PD
40 W
6759 1558 PD
40 W
6760 1619 PD
40 W
6761 1813 PD
40 W
6763 1831 PD
40 W
6765 1852 PD
40 W
6771 1612 PD
40 W
6772 1474 PD
40 W
6775 1651 PD
40 W
6778 1933 PD
40 W
6783 1993 PD
40 W
6785 1936 PD
40 W
6786 1985 PD
40 W
6790 1776 PD
40 W
6791 1832 PD
40 W
6793 1746 PD
40 W
6801 1901 PD
40 W
6804 1884 PD
40 W
6805 1865 PD
40 W
6810 1876 PD
40 W
6812 1888 PD
40 W
6814 1860 PD
40 W
6817 1872 PD
40 W
6821 1876 PD
40 W
6823 1886 PD
40 W
6824 1804 PD
40 W
6827 1802 PD
40 W
6828 1878 PD
40 W
6829 1870 PD
40 W
6832 1901 PD
40 W
6835 1880 PD
40 W
6836 1901 PD
40 W
6839 1901 PD
40 W
6842 1901 PD
40 W
6843 1901 PD
40 W
6848 1884 PD
40 W
6850 1901 PD
40 W
6854 1901 PD
40 W
6855 1901 PD
40 W
6861 1850 PD
40 W
6862 1883 PD
40 W
6865 1901 PD
40 W
6868 1901 PD
40 W
6869 1901 PD
40 W
6872 1901 PD
40 W
6876 1901 PD
40 W
6877 1901 PD
40 W
6878 1901 PD
40 W
6880 1901 PD
40 W
6884 1866 PD
40 W
6885 1931 PD
40 W
6887 1950 PD
40 W
6895 1712 PD
40 W
6897 1751 PD
40 W
6899 1756 PD
40 W
6900 1707 PD
40 W
6902 1672 PD
40 W
6903 1738 PD
40 W
6907 1722 PD
40 W
6908 1734 PD
40 W
6910 1793 PD
40 W
6911 1760 PD
40 W
6912 1737 PD
40 W
6914 1733 PD
40 W
6917 1966 PD
40 W
6918 1995 PD
40 W
6919 1973 PD
40 W
6929 2168 PD
40 W
6936 2415 PD
40 W
6937 2285 PD
40 W
6938 2283 PD
40 W
6940 2338 PD
40 W
6944 2097 PD
40 W
6945 2186 PD
40 W
6947 2062 PD
40 W
6951 2063 PD
40 W
6952 1734 PD
40 W
6957 1669 PD
40 W
6961 1374 PD
40 W
6963 1310 PD
40 W
6966 1084 PD
40 W
6967 1270 PD
40 W
6975 1459 PD
40 W
6976 1423 PD
40 W
6978 1576 PD
40 W
6979 1671 PD
40 W
6982 1721 PD
40 W
6983 1778 PD
40 W
6985 1663 PD
40 W
6994 1726 PD
40 W
6998 1678 PD
40 W
7000 1824 PD
40 W
7004 1853 PD
40 W
7008 1847 PD
40 W
7009 1815 PD
40 W
7010 1849 PD
40 W
7012 1930 PD
40 W
7013 1901 PD
40 W
7015 1921 PD
40 W
7016 1901 PD
40 W
7019 1901 PD
40 W
7020 1879 PD
40 W
7021 1836 PD
40 W
7023 1901 PD
gs 1142 302 6808 3199 rc
/c9 { 1.000000 0.000000 0.000000 sr} bdef
c9
2 2 1 2 1 3 3 5 1 4 2 3 1 3 2 4 
1 3 1 4 4 14 4 19 2 9 4 33 9 132 2 24 
1 25 3 49 1 23 2 22 1 19 8 39 1 -11 3 -39 
2 -27 4 -110 5 -192 1 -50 4 -144 2 -43 1 -39 4 -88 
2 -18 1 -12 1 -7 7 49 10 209 1 33 1 31 3 57 
2 25 1 22 1 19 2 16 1 13 4 18 1 0 2 -3 
1 -5 2 -7 2 -19 8 -73 2 -11 1 -10 4 -24 2 -5 
1 -5 1 -3 4 -4 3 1 1 1 3 3 3 3 1 2 
6 4 1 1 4 1 2 1 5 2 1 1 3 2 3 3 
1 2 3 4 3 3 1 2 1 1 3 3 1 1 2 1 
4 1 3 -1 2 -2 2 -1 5 -4 1 -1 3 -1 8 5 
2 2 1 3 4 14 1 5 2 7 5 30 3 18 3 20 
1 10 6 43 2 21 2 11 1 10 1 9 6 30 4 11 
1 0 2 -1 1 -3 1 -4 6 -34 1 -12 3 -28 4 -46 
1 -17 2 -16 4 -50 1 -16 1 -16 3 -31 4 -41 3 -25 
3 -21 5 -29 4 -8 2 1 1 2 1 4 4 18 2 9 
1 9 6 44 4 35 1 10 1 11 4 29 7 43 2 8 
1 8 8 57 3 21 1 11 4 34 3 20 1 10 2 8 
1 8 2 6 2 9 2 2 4 -3 2 -9 3 -15 3 -19 
3 -22 1 -10 1 -11 4 -29 2 -7 4 -14 5 4 4 17 
9 45 2 10 2 3 1 2 1 0 2 -1 2 -7 5 -21 
1 -9 3 -19 1 -11 1 -11 4 -32 3 -21 1 -10 5 -32 
4 -36 1 -14 1 -14 4 -51 2 -20 5 -87 2 -23 2 -46 
2 -22 5 -78 3 -27 4 -22 4 2 3 14 1 11 1 12 
2 15 5 70 2 19 4 58 4 53 1 16 2 15 2 27 
4 31 3 14 10 23 4 2 1 0 1 0 3 0 2 1 
5 2 5 5 3 3 3 4 3 3 1 2 1 1 2 2 
1 1 4 2 3 1 4 0 3 -1 1 -1 3 -3 2 -3 
13 -40 1 -7 1 -7 6 -29 1 -6 2 -5 5 -3 1 4 
6 47 1 19 3 46 1 27 2 28 2 60 2 30 1 29 
3 53 7 65 2 -11 3 -35 1 -26 2 -31 3 -73 1 -42 
5 -174 2 -41 4 -105 1 -26 1 -22 6 -39 3 6 15 94 
1 -3 1 -7 2 -10 1 -13 3 -35 4 -66 3 -48 5 -84 
8 -53 2 1 1 3 1 6 2 7 1 9 1 11 2 10 
4 34 1 10 2 10 1 8 1 8 2 7 2 10 4 11 
2 3 3 7 1 4 11 73 1 15 3 32 3 34 1 18 
3 35 2 33 2 15 4 42 8 61 4 22 3 13 1 6 
2 5 12 11 3 -16 6185 1853 300 MP stroke
1 -11 5 -72 3 -53 1 -31 3 -68 1 -37 2 -39 5 -165 
3 -81 5 -135 2 -25 3 -38 1 -11 3 -7 1 5 1 9 
2 15 5 98 2 32 6 179 2 36 1 34 1 33 3 60 
1 27 2 25 3 44 4 51 4 37 4 23 1 5 3 4 
4 -7 1 -6 3 -17 1 -12 5 -43 4 -53 1 -18 1 -18 
2 -18 5 -60 4 -26 3 -6 1 1 6 25 1 11 3 28 
3 33 1 18 1 18 2 19 9 123 4 42 4 33 2 9 
2 15 2 6 3 8 1 3 1 2 3 0 1 -2 3 -6 
3 -11 5 -34 3 -23 1 -12 6 -51 1 -13 1 -12 6 -39 
1 -6 3 -7 1 -1 4 12 6 44 3 31 5 70 6 59 
4 27 1 4 1 2 2 1 2 -6 3 -13 11 -71 1 -7 
2 -6 1 -4 1 -3 2 -2 1 0 2 1 1 2 4 12 
8 39 2 6 1 5 3 9 1 3 7 -2 4 -16 1 -7 
4 -24 2 -9 1 -9 1 -8 2 -8 2 -12 3 -9 4 -4 
3 2 3 7 1 4 1 5 7 22 4 8 2 1 1 1 
3 -1 3 -3 1 -2 1 -1 4 -5 2 -1 4 0 2 3 
2 2 1 3 4 11 2 4 1 4 3 7 5 4 7 -24 
1 -10 2 -11 1 -12 1 -14 3 -31 2 -17 2 -35 3 -34 
3 -31 1 -14 3 -23 11 5 1 12 5 66 3 40 7 104 
1 19 2 18 1 16 6 54 1 9 1 9 3 12 3 8 
1 2 5 0 2 -2 1 -3 3 -7 1 -5 2 -5 4 -17 
2 -12 6 -21 1 -4 2 -4 4 -7 1 -1 3 -1 1 1 
4 3 2 1 1 1 1 0 3 1 11 -22 1 -5 2 -6 
2 -11 4 -17 5 -15 5 -15 1 -3 3 -3 3 0 15 45 
1 6 3 10 3 7 13 -75 2 -20 6 -118 3 -51 1 -25 
9 -129 2 -33 2 -15 2 -25 3 -21 2 -9 1 -8 3 -15 
2 -11 2 -4 1 -3 3 -2 1 0 2 3 1 4 1 5 
4 27 2 12 4 46 5 76 2 20 4 59 4 55 1 16 
3 30 7 56 1 8 1 8 2 7 1 6 1 6 2 5 
5 18 3 8 9 21 2 2 4 6 1 1 2 1 2 2 
2 1 1 1 1 0 2 1 9 2 10 -2 1 -1 2 -2 
2 -3 2 -2 1 -2 6 -9 1 -2 4 -4 5 6 2 3 
1 4 4 19 3 17 1 8 4 27 2 8 5 23 4 -1 
2 -4 1 -7 5 -46 6 -67 1 -17 4 -49 2 -14 4 -30 
4 -12 1 0 3 4 1 3 2 3 2 7 3 4 1 -1 
2 -2 3 -9 1 -7 1 -9 2 -10 5 -48 4 -29 4 -11 
2 2 2 13 3 24 1 16 3 37 1 20 5 62 1 19 
1 19 2 16 1 15 5336 1899 300 MP stroke
1 12 2 11 1 8 3 9 4 0 1 -2 4 -13 2 -4 
2 -9 2 -3 1 -3 3 -4 3 0 2 2 4 8 2 3 
7 15 2 4 2 1 1 2 1 1 6 0 3 -1 2 -2 
4 -3 2 -1 1 -1 1 -1 6 -5 1 -1 3 -3 1 -1 
3 -2 1 -1 3 -1 3 -2 1 0 2 -1 4 -5 1 -2 
4 -13 1 -6 5 -29 1 -13 3 -33 2 -41 3 -48 1 -26 
7 -135 2 -23 2 -37 2 -13 5 1 6 102 2 85 6 213 
1 56 3 106 3 91 1 37 4 69 1 7 7 -81 3 -74 
1 -42 2 -44 4 -133 2 -78 2 -34 3 -54 2 -35 6 -13 
7 55 6 75 2 14 2 24 2 10 7 40 4 17 2 10 
2 5 1 5 1 5 6 18 3 7 1 3 3 4 2 1 
6 -7 3 -8 4 -18 1 -8 5 -34 3 -18 2 -8 4 -24 
1 -6 3 -9 1 -3 1 -1 2 0 1 1 2 3 4 18 
1 8 4 29 1 11 3 20 10 29 1 -5 1 -6 2 -9 
7 -72 2 -37 4 -54 2 -15 2 -28 2 -10 5 -19 7 33 
7 82 1 20 3 45 3 47 1 24 4 73 3 47 4 67 
5 72 2 15 1 12 4 27 8 10 3 -5 1 -4 2 -5 
11 -34 2 -5 2 -3 1 -2 2 -3 4 -7 1 -3 3 -6 
1 -4 1 -4 2 -4 1 -4 2 -5 1 -4 3 -9 1 -5 
4 -11 1 -2 2 -3 9 -7 3 -1 1 -1 3 -4 1 -3 
2 -3 5 -21 2 -7 2 -15 2 -8 2 -16 5 -21 1 -5 
3 -8 1 -3 3 0 1 1 1 3 4 15 5 24 6 50 
2 10 4 28 1 8 2 8 4 18 2 9 2 3 1 2 
3 2 1 0 15 -38 2 -6 5 -23 1 -6 2 -5 1 -5 
1 -5 2 -4 1 -4 3 -5 4 -2 1 2 13 70 2 27 
2 14 1 14 1 14 3 27 3 25 1 10 2 10 1 7 
1 7 2 4 1 3 1 2 2 0 2 -5 4 -16 2 -7 
3 -16 4 -26 4 -23 1 -7 6 -21 2 -7 3 -5 3 -2 
1 0 6 2 2 3 2 1 6 4 4 -3 5 -7 2 -8 
4 -16 3 -13 1 -7 7 -37 2 -7 2 -12 3 -11 1 -4 
3 -7 2 -2 4 -3 1 1 1 2 2 2 7 21 2 11 
2 6 5 23 1 5 7 16 3 1 1 -1 2 -1 1 -2 
3 -5 2 -8 3 -8 2 -4 4 -13 1 -3 1 -4 3 -5 
1 -2 5 -2 4 3 1 2 3 6 1 2 4 9 1 3 
2 2 1 2 2 1 1 1 1 0 10 -27 3 -16 6 -50 
7 -50 2 -9 5 -25 4 -9 3 -1 1 1 4 5 2 3 
4 11 2 8 4 13 3 8 3 9 1 5 2 5 4 15 
1 5 3 10 1 4 4488 1772 300 MP stroke
2 5 2 7 2 3 1 2 1 2 9 -11 4 -17 1 -6 
1 -8 3 -16 3 -17 1 -8 1 -9 3 -17 2 -9 1 -8 
1 -8 2 -7 2 -13 2 -6 4 -9 3 0 1 3 3 11 
2 20 3 27 1 16 10 138 4 49 1 12 7 9 3 -22 
1 -16 3 -42 1 -24 2 -27 2 -58 5 -89 4 -85 1 -25 
3 -46 5 -70 3 -26 4 -30 1 -8 2 -6 1 -7 3 -9 
1 -4 2 -2 1 -2 1 0 3 3 1 3 2 5 1 7 
1 8 2 10 7 67 6 83 3 31 8 64 3 8 1 1 
3 -3 1 -3 5 -17 2 -14 6 -25 1 -5 4 -6 3 1 
1 2 4 11 2 4 1 5 3 7 8 -6 1 -6 2 -8 
1 -9 3 -20 1 -12 1 -12 5 -36 4 -32 1 -10 1 -8 
4 -23 3 -12 3 -12 3 -12 8 -33 1 -3 3 -3 1 1 
2 3 2 12 2 9 2 24 6 62 5 66 3 26 1 12 
2 9 1 8 3 12 7 15 1 3 1 3 2 5 4 20 
7 49 1 10 1 10 4 23 2 4 5 -4 2 -6 5 -41 
5 -55 2 -13 1 -12 6 -36 5 -10 7 16 3 10 1 5 
1 4 3 6 8 -13 3 -16 3 -21 1 -12 1 -12 4 -40 
2 -12 1 -12 4 -26 2 -5 1 -3 7 31 1 15 2 19 
1 21 3 49 1 28 5 116 3 54 1 24 2 21 4 43 
5 0 3 -22 1 -16 2 -18 3 -41 1 -22 1 -22 2 -22 
1 -20 3 -37 4 -41 4 -24 9 -23 2 -4 7 -34 2 -17 
2 -8 4 -20 8 15 7 77 2 39 2 20 4 50 1 13 
2 9 1 6 3 1 1 -6 3 -24 3 -39 4 -80 4 -95 
5 -122 6 -91 1 -15 7 -34 1 2 4 18 4 34 2 13 
1 15 4 48 6 69 1 18 4 51 1 17 2 16 8 80 
4 25 3 11 5 11 1 2 2 1 1 2 2 2 1 4 
4 17 3 21 2 30 3 38 2 22 1 24 1 25 2 26 
4 79 4 71 1 19 3 30 5 17 3 -13 7 -85 5 -97 
2 -24 1 -25 1 -23 3 -45 1 -21 9 -101 2 -25 7 -47 
2 -6 1 -5 3 -6 5 8 3 15 1 10 7 76 3 38 
1 20 1 21 2 21 2 43 2 21 1 22 2 20 1 21 
3 39 1 20 3 37 1 17 3 34 11 108 1 10 8 38 
7 8 1 0 2 -1 2 -2 7 -10 2 -3 4 -12 2 -11 
2 -6 3 -13 1 -7 1 -8 4 -24 2 -7 2 -13 2 -6 
1 -4 6 -3 4 15 1 8 3 19 4 33 4 27 1 6 
4 2 2 -6 1 -9 6 -75 2 -57 2 -33 1 -35 1 -35 
2 -37 2 -72 3 -66 2 -29 1 -26 1 -22 2 -17 1 -13 
4 -9 1 5 2 10 3634 1977 300 MP stroke
1 13 1 15 2 18 7 94 5 46 1 4 5 -4 4 -23 
4 -27 2 -15 2 -5 1 -3 3 0 1 2 2 5 1 6 
1 7 3 18 1 9 2 9 1 9 3 14 4 12 7 -13 
1 -6 1 -8 11 -65 2 -5 1 -5 3 -7 9 5 6 12 
3 5 1 2 4 2 1 0 6 -5 4 -8 3 -6 4 -7 
1 -2 1 -2 3 -3 4 -2 6 1 2 2 2 1 2 3 
2 2 4 7 1 3 2 4 4 13 1 5 1 6 5 19 
1 7 1 6 3 13 3 12 5 12 1 0 6 -12 1 -7 
6 -37 1 -12 1 -12 3 -23 2 -12 9 -53 3 -2 1 3 
3 10 4 30 7 80 1 19 1 20 6 82 3 40 6 92 
5 43 2 23 2 9 4 18 2 3 2 -1 1 -2 2 -5 
1 -6 1 -7 2 -9 1 -10 3 -23 1 -12 1 -13 5 -39 
2 -23 2 -10 2 -18 8 -27 2 -1 5 -3 2 -1 4 -5 
2 -7 2 -5 3 -12 2 -15 2 -8 1 -9 1 -8 3 -18 
10 -51 1 -6 5 -14 2 -3 1 -2 1 -1 2 -2 7 -3 
1 0 1 0 2 -1 2 1 3 0 2 1 1 1 1 0 
2 1 4 4 2 3 3 3 7 5 1 1 4 0 2 -1 
2 -1 7 0 4 5 3 7 1 4 2 4 1 6 2 5 
2 13 2 7 1 7 5 28 2 7 1 7 2 7 1 7 
1 6 2 7 1 6 1 7 2 6 2 13 3 12 2 7 
1 5 1 6 2 5 1 4 1 4 2 2 1 2 1 0 
2 0 1 -2 3 -8 1 -6 2 -7 1 -8 1 -10 4 -31 
2 -11 7 -54 4 -24 4 -17 4 -11 5 -10 2 -2 8 -17 
2 -7 3 -7 3 -6 7 -10 1 -1 1 -1 2 0 1 0 
4 -2 3 -2 4 -9 3 -9 3 -11 1 -7 1 -6 3 -12 
1 -5 7 -4 4 22 2 12 1 14 4 53 4 62 4 61 
7 66 1 4 2 2 9 -84 2 -23 6 -135 3 -56 2 -26 
2 -50 2 -22 1 -19 1 -17 11 -35 2 9 2 25 2 16 
1 19 1 20 2 21 1 23 1 24 3 48 7 110 1 18 
4 40 2 8 1 6 2 3 2 -1 2 -4 1 -5 3 -17 
5 -45 2 -11 8 -60 4 -17 2 -8 2 -3 1 -2 4 -7 
6 -11 1 -5 3 -10 8 -42 1 -7 2 -7 5 -24 3 -6 
5 0 2 2 2 8 7 26 6 12 4 -8 1 -6 12 -123 
4 -37 3 -9 2 1 5 57 1 27 2 32 1 36 5 179 
3 95 2 45 6 155 4 7 7 -160 2 -54 1 -59 1 -63 
9 -398 1 -58 1 -52 3 -87 3 -60 1 -19 1 -12 2 -6 
1 0 2 7 1 11 1 15 2 19 4 70 1 26 4 74 
6 83 2 32 3 27 2782 2184 300 MP stroke
1 12 3 22 4 32 3 21 3 22 2 23 4 32 2 10 
1 10 2 9 6 29 2 3 2 2 2 0 5 -7 4 -9 
2 -3 2 -7 3 -8 6 -19 4 -22 5 -53 3 -37 7 -124 
1 -26 3 -52 4 -61 3 -21 1 -3 1 2 6 72 1 32 
1 37 2 41 4 139 1 48 3 90 1 40 2 35 1 30 
1 24 6 25 1 -12 3 -42 3 -64 1 -38 4 -125 1 -42 
6 -153 5 -102 2 -16 1 -12 1 -8 2 -4 2 0 3 11 
4 32 10 117 4 60 1 20 3 40 8 113 2 16 4 41 
1 12 1 10 2 9 1 7 10 26 2 1 4 -1 3 -1 
4 -1 2 0 1 -1 1 0 6 0 7 0 2 0 3 1 
3 0 1 1 3 1 1 1 2 1 2 2 3 4 5 7 
3 4 1 2 2 1 1 2 2 0 4 -1 2 -4 4 -13 
2 -6 9 -62 3 -19 1 -8 7 -28 2 -1 2 2 2 4 
5 24 6 33 1 8 1 7 2 7 1 5 3 9 2 5 
5 6 5 12 7 40 1 12 3 28 1 16 2 16 2 33 
7 78 2 13 5 34 1 5 2 2 1 0 1 -2 2 -3 
4 -21 1 -10 2 -11 1 -13 1 -13 6 -59 2 -30 5 -42 
1 -13 1 -11 3 -20 3 -16 2 -11 2 -4 1 -3 2 -2 
4 -3 1 0 5 3 2 1 1 1 6 1 1 -1 1 0 
2 -1 1 0 1 -1 2 -1 1 -1 1 -1 2 -1 3 -1 
5 -3 1 0 2 0 1 0 1 0 5 1 1 1 3 0 
1 0 3 -1 1 0 1 -1 3 -4 3 -5 1 -3 3 -9 
3 -10 4 -18 4 -19 3 -13 1 -6 1 -6 2 -5 2 -10 
2 -4 1 -4 3 -5 1 -1 3 -1 3 2 1 2 3 7 
1 5 1 5 6 30 1 9 2 10 5 45 7 60 3 24 
1 12 3 24 5 48 1 13 2 14 5 60 3 34 1 18 
4 56 3 38 2 18 4 48 9 37 1 -6 3 -23 2 -16 
2 -40 6 -104 1 -28 6 -105 1 -22 1 -20 2 -16 1 -14 
3 -16 1 -3 1 0 2 4 1 6 3 20 1 13 2 14 
1 14 1 14 3 26 1 11 2 9 3 12 5 -12 3 -21 
4 -48 1 -18 1 -18 3 -36 2 -16 1 -15 1 -13 4 -24 
2 -2 1 1 7 50 3 36 2 41 2 22 1 22 1 21 
6 74 3 27 1 10 1 8 2 6 2 6 2 1 1 -1 
1 -2 10 -11 5 22 5 38 1 15 1 17 2 17 2 35 
2 16 4 38 1 8 4 1 2 -8 1 -12 7 -119 3 -70 
1 -38 1 -39 2 -39 1 -39 1 -39 2 -37 1 -35 1 -34 
3 -58 4 -62 3 -23 3 -10 1 0 14 106 2 29 10 92 
3 24 6 57 13 94 1958 1648 300 MP stroke
1 9 1 8 2 7 1 7 3 13 1 5 2 5 2 9 
6 14 1 3 1 3 9 13 4 3 2 0 5 -2 1 -2 
4 -7 3 -5 2 -5 3 -4 1 -1 2 -1 1 0 2 1 
1 1 4 10 3 11 2 15 2 9 3 19 1 10 3 21 
1 10 5 36 2 6 5 11 3 -6 1 -7 8 -80 2 -20 
1 -22 2 -23 1 -24 1 -25 2 -27 11 -223 4 -80 1 -26 
1 -24 7 -104 4 -43 3 -19 4 -14 1 -1 3 4 1 5 
3 14 8 69 6 54 1 13 2 12 2 22 3 18 3 14 
2 11 2 4 1 4 3 7 1 4 2 4 2 10 3 14 
1 8 2 10 1 10 3 23 3 26 4 37 4 32 1 8 
1 7 5 13 2 4 8 3 3 3 2 3 1 4 1 4 
2 4 1 5 4 14 1 4 7 0 4 -19 2 -9 1 -10 
5 -48 3 -22 2 -10 1 -8 1 -6 2 -3 1 -2 1 2 
3 11 6 54 2 39 6 90 2 43 2 19 3 32 1 11 
3 15 1 2 1 -2 2 -4 1 -8 4 -42 3 -39 1 -22 
2 -24 5 -96 1 -24 3 -46 1 -21 9 -111 2 -32 4 -45 
2 -15 3 -27 4 -36 1 -11 1 -9 2 -7 1 -7 1 -4 
3 -5 2 0 1 2 4 14 3 15 1 9 4 27 1 8 
2 9 1 8 3 13 1 5 8 18 6 4 3 3 1 3 
3 8 1 5 6 28 1 9 1 9 3 20 1 9 10 45 
4 -1 1 -3 3 -10 7 -35 3 -14 2 -10 3 -7 1 -2 
2 -2 5 -1 3 0 1 0 4 -4 2 -1 5 -5 2 2 
2 7 4 29 3 33 1 20 3 45 1 25 2 25 1 24 
2 23 4 52 2 14 2 -2 1 -8 1 -13 5 -76 1 -36 
3 -83 1 -44 1 -46 2 -46 1 -45 1 -43 3 -75 2 -31 
1 -26 1 -20 8 -5 4 56 9 150 1 24 1 21 2 20 
4 48 4 30 1 7 3 8 3 4 2 1 6 -4 1 -1 
2 -1 2 -3 2 0 1 -1 6 1 1 1 1 1 2 2 
1 1 3 4 1 2 3 4 1 2 1 1 5 3 1 1 
1 0 2 0 1 -1 1 0 2 -1 1 -1 3 -1 4 -1 
5 3 2 1 1 2 1 2 3 5 3 4 1 1 2 2 
5 1 3 -3 1 -1 1 -3 6 -10 3 -6 1 -2 1 -3 
6 -8 3 -4 2 -5 3 -7 1 -4 2 -5 1 -5 3 -12 
5 -26 2 -6 2 -10 4 -10 7 13 2 8 2 19 2 12 
1 13 3 30 2 32 3 33 2 16 1 15 8 71 3 10 
3 3 4 -8 1 -6 4 -25 6 -45 1 -11 1 -12 4 -31 
2 -9 1 -9 3 -14 4 -14 1 -3 2 -2 1 -2 3 -1 
2 2 9 10 6 8 1165 1888 300 MP stroke
2 2 2 2 5 2 5 0 1 0 4 -2 1146 1884 7 MP stroke
gr

c9
0 sg
 516 2010 mt  -90 rotate
(u) s
90 rotate
%%IncludeResource: font Times-Roman
/Times-Roman /ISOLatin1Encoding 192 FMSR

 636 1890 mt  -90 rotate
(y) s
90 rotate
%%IncludeResource: font Times-Roman
/Times-Roman /ISOLatin1Encoding 240 FMSR

4107 3966 mt 
(time step) s
1112 3583 mt 
( ) s
7920  384 mt 
( ) s
6 w
1 sg
0 726 1906 0 0 -726 5874 1163 4 MP
PP
-1906 0 0 726 1906 0 0 -726 5874 1163 5 MP stroke
4 w
DO
SO
6 w
0 sg
5874 1163 mt 7780 1163 L
5874  437 mt 7780  437 L
5874 1163 mt 5874  437 L
7780 1163 mt 7780  437 L
5874 1163 mt 7780 1163 L
5874 1163 mt 5874  437 L
5874 1163 mt 7780 1163 L
5874  437 mt 7780  437 L
5874 1163 mt 5874  437 L
7780 1163 mt 7780  437 L
6342  711 mt 
(measurement) s
gs 5874 437 1907 727 rc
48 w
gs 5955 459 341 341 rc
40 W
c8
6125 629 PD
gr

c8
gr

48 w
c8
0 sg
6342 1054 mt 
(regularization) s
gs 5874 437 1907 727 rc
c9
360 0 5945 970 2 MP stroke
6 w
gr

6 w
c9

end %%Color Dict

eplot
%%EndObject

epage
end

showpage

%%Trailer
%%EOF
