%!PS-Adobe-3.0 EPSF-3.0
%%Creator: MATLAB, The MathWorks, Inc. Version 8.1.0.604 (R2013a). Operating System: Darwin 12.5.0 Darwin Kernel Version 12.5.0: Sun Sep 29 13:33:47 PDT 2013; root:xnu-2050.48.12~1/RELEASE_X86_64 x86_64.
%%Title: /Users/bamdadhosseini/Work/Courses/apma990-machinelearning/MATLAB/wy_jun_jul_fit.eps
%%CreationDate: 01/12/2015  15:31:08
%%DocumentNeededFonts: Times-Roman
%%DocumentProcessColors: Cyan Magenta Yellow Black
%%LanguageLevel: 2
%%Pages: 1
%%BoundingBox:   -59   228   672   563
%%EndComments

%%BeginProlog
% MathWorks dictionary
/MathWorks 160 dict begin
% definition operators
/bdef {bind def} bind def
/ldef {load def} bind def
/xdef {exch def} bdef
/xstore {exch store} bdef
% operator abbreviations
/c  /clip ldef
/cc /concat ldef
/cp /closepath ldef
/gr /grestore ldef
/gs /gsave ldef
/mt /moveto ldef
/np /newpath ldef
/cm /currentmatrix ldef
/sm /setmatrix ldef
/rm /rmoveto ldef
/rl /rlineto ldef
/s {show newpath} bdef
/sc {setcmykcolor} bdef
/sr /setrgbcolor ldef
/sg /setgray ldef
/w /setlinewidth ldef
/j /setlinejoin ldef
/cap /setlinecap ldef
/rc {rectclip} bdef
/rf {rectfill} bdef
% page state control
/pgsv () def
/bpage {/pgsv save def} bdef
/epage {pgsv restore} bdef
/bplot /gsave ldef
/eplot {stroke grestore} bdef
% orientation switch
/portraitMode 0 def /landscapeMode 1 def /rotateMode 2 def
% coordinate system mappings
/dpi2point 0 def
% font control
/FontSize 0 def
/FMS {/FontSize xstore findfont [FontSize 0 0 FontSize neg 0 0]
  makefont setfont} bdef
/reencode {exch dup where {pop load} {pop StandardEncoding} ifelse
  exch dup 3 1 roll findfont dup length dict begin
  { 1 index /FID ne {def}{pop pop} ifelse } forall
  /Encoding exch def currentdict end definefont pop} bdef
/isroman {findfont /CharStrings get /Agrave known} bdef
/FMSR {3 1 roll 1 index dup isroman {reencode} {pop pop} ifelse
  exch FMS} bdef
/csm {1 dpi2point div -1 dpi2point div scale neg translate
 dup landscapeMode eq {pop -90 rotate}
  {rotateMode eq {90 rotate} if} ifelse} bdef
% line types: solid, dotted, dashed, dotdash
/SO { [] 0 setdash } bdef
/DO { [.5 dpi2point mul 4 dpi2point mul] 0 setdash } bdef
/DA { [6 dpi2point mul] 0 setdash } bdef
/DD { [.5 dpi2point mul 4 dpi2point mul 6 dpi2point mul 4
  dpi2point mul] 0 setdash } bdef
% macros for lines and objects
/L {lineto stroke} bdef
/MP {3 1 roll moveto 1 sub {rlineto} repeat} bdef
/AP {{rlineto} repeat} bdef
/PDlw -1 def
/W {/PDlw currentlinewidth def setlinewidth} def
/PP {closepath eofill} bdef
/DP {closepath stroke} bdef
/MR {4 -2 roll moveto dup  0 exch rlineto exch 0 rlineto
  neg 0 exch rlineto closepath} bdef
/FR {MR stroke} bdef
/PR {MR fill} bdef
/L1i {{currentfile picstr readhexstring pop} image} bdef
/tMatrix matrix def
/MakeOval {newpath tMatrix currentmatrix pop translate scale
0 0 1 0 360 arc tMatrix setmatrix} bdef
/FO {MakeOval stroke} bdef
/PO {MakeOval fill} bdef
/PD {currentlinewidth 2 div 0 360 arc fill
   PDlw -1 eq not {PDlw w /PDlw -1 def} if} def
/FA {newpath tMatrix currentmatrix pop translate scale
  0 0 1 5 -2 roll arc tMatrix setmatrix stroke} bdef
/PA {newpath tMatrix currentmatrix pop	translate 0 0 moveto scale
  0 0 1 5 -2 roll arc closepath tMatrix setmatrix fill} bdef
/FAn {newpath tMatrix currentmatrix pop translate scale
  0 0 1 5 -2 roll arcn tMatrix setmatrix stroke} bdef
/PAn {newpath tMatrix currentmatrix pop translate 0 0 moveto scale
  0 0 1 5 -2 roll arcn closepath tMatrix setmatrix fill} bdef
/vradius 0 def /hradius 0 def /lry 0 def
/lrx 0 def /uly 0 def /ulx 0 def /rad 0 def
/MRR {/vradius xdef /hradius xdef /lry xdef /lrx xdef /uly xdef
  /ulx xdef newpath tMatrix currentmatrix pop ulx hradius add uly
  vradius add translate hradius vradius scale 0 0 1 180 270 arc 
  tMatrix setmatrix lrx hradius sub uly vradius add translate
  hradius vradius scale 0 0 1 270 360 arc tMatrix setmatrix
  lrx hradius sub lry vradius sub translate hradius vradius scale
  0 0 1 0 90 arc tMatrix setmatrix ulx hradius add lry vradius sub
  translate hradius vradius scale 0 0 1 90 180 arc tMatrix setmatrix
  closepath} bdef
/FRR {MRR stroke } bdef
/PRR {MRR fill } bdef
/MlrRR {/lry xdef /lrx xdef /uly xdef /ulx xdef /rad lry uly sub 2 div def
  newpath tMatrix currentmatrix pop ulx rad add uly rad add translate
  rad rad scale 0 0 1 90 270 arc tMatrix setmatrix lrx rad sub lry rad
  sub translate rad rad scale 0 0 1 270 90 arc tMatrix setmatrix
  closepath} bdef
/FlrRR {MlrRR stroke } bdef
/PlrRR {MlrRR fill } bdef
/MtbRR {/lry xdef /lrx xdef /uly xdef /ulx xdef /rad lrx ulx sub 2 div def
  newpath tMatrix currentmatrix pop ulx rad add uly rad add translate
  rad rad scale 0 0 1 180 360 arc tMatrix setmatrix lrx rad sub lry rad
  sub translate rad rad scale 0 0 1 0 180 arc tMatrix setmatrix
  closepath} bdef
/FtbRR {MtbRR stroke } bdef
/PtbRR {MtbRR fill } bdef
/stri 6 array def /dtri 6 array def
/smat 6 array def /dmat 6 array def
/tmat1 6 array def /tmat2 6 array def /dif 3 array def
/asub {/ind2 exch def /ind1 exch def dup dup
  ind1 get exch ind2 get sub exch } bdef
/tri_to_matrix {
  2 0 asub 3 1 asub 4 0 asub 5 1 asub
  dup 0 get exch 1 get 7 -1 roll astore } bdef
/compute_transform {
  dmat dtri tri_to_matrix tmat1 invertmatrix 
  smat stri tri_to_matrix tmat2 concatmatrix } bdef
/ds {stri astore pop} bdef
/dt {dtri astore pop} bdef
/db {2 copy /cols xdef /rows xdef mul dup 3 mul string
  currentfile 
  3 index 0 eq {/ASCIIHexDecode filter}
  {/ASCII85Decode filter 3 index 2 eq {/RunLengthDecode filter} if }
  ifelse exch readstring pop
  dup 0 3 index getinterval /rbmap xdef
  dup 2 index dup getinterval /gbmap xdef
  1 index dup 2 mul exch getinterval /bbmap xdef pop pop}bdef
/it {gs np dtri aload pop moveto lineto lineto cp c
  cols rows 8 compute_transform 
  rbmap gbmap bbmap true 3 colorimage gr}bdef
/il {newpath moveto lineto stroke}bdef
currentdict end def
%%EndProlog

%%BeginSetup
MathWorks begin

0 cap

end
%%EndSetup

%%Page: 1 1
%%BeginPageSetup
%%PageBoundingBox:   -59   228   672   563
MathWorks begin
bpage
%%EndPageSetup

%%BeginObject: obj1
bplot

/dpi2point 12 def
portraitMode -0708 6756 csm

    0     0  8783  4020 rc
85 dict begin %Colortable dictionary
/c0 { 0.000000 0.000000 0.000000 sr} bdef
/c1 { 1.000000 1.000000 1.000000 sr} bdef
/c2 { 0.900000 0.000000 0.000000 sr} bdef
/c3 { 0.000000 0.820000 0.000000 sr} bdef
/c4 { 0.000000 0.000000 0.800000 sr} bdef
/c5 { 0.910000 0.820000 0.320000 sr} bdef
/c6 { 1.000000 0.260000 0.820000 sr} bdef
/c7 { 0.000000 0.820000 0.820000 sr} bdef
c0
1 j
1 sg
   0    0 8784 4021 rf
6 w
0 3101 6807 0 0 -3101 1142 3500 4 MP
PP
-6807 0 0 3101 6807 0 0 -3101 1142 3500 5 MP stroke
4 w
DO
SO
6 w
0 sg
1142 3500 mt 7949 3500 L
1142 3500 mt 1142  399 L
1142 3500 mt 1142 3431 L
%%IncludeResource: font Times-Roman
/Times-Roman /ISOLatin1Encoding 240 FMSR

1082 3749 mt 
(0) s
2503 3500 mt 2503 3431 L
2263 3749 mt 
(1000) s
3864 3500 mt 3864 3431 L
3624 3749 mt 
(2000) s
5226 3500 mt 5226 3431 L
4986 3749 mt 
(3000) s
6587 3500 mt 6587 3431 L
6347 3749 mt 
(4000) s
7949 3500 mt 7949 3431 L
7709 3749 mt 
(5000) s
1142 3500 mt 1210 3500 L
 732 3586 mt 
(-10) s
1142 2724 mt 1210 2724 L
 852 2810 mt 
(-5) s
1142 1949 mt 1210 1949 L
 987 2035 mt 
(0) s
1142 1174 mt 1210 1174 L
 987 1260 mt 
(5) s
1142  399 mt 1210  399 L
 867  485 mt 
(10) s
gs 1142 399 6808 3102 rc
48 w
gr

48 w
40 W
/c8 { 0.000000 0.000000 1.000000 sr} bdef
c8
1146 1949 PD
40 W
1150 1931 PD
40 W
1151 1925 PD
40 W
1156 1870 PD
40 W
1161 1949 PD
40 W
1163 1949 PD
40 W
1165 1949 PD
40 W
1171 1949 PD
40 W
1180 1949 PD
40 W
1182 1949 PD
40 W
1185 1949 PD
40 W
1186 1916 PD
40 W
1188 1949 PD
40 W
1189 1949 PD
40 W
1193 1949 PD
40 W
1196 1949 PD
40 W
1197 1949 PD
40 W
1199 1949 PD
40 W
1203 1949 PD
40 W
1204 1851 PD
40 W
1205 1789 PD
40 W
1211 1745 PD
40 W
1215 1731 PD
40 W
1216 1715 PD
40 W
1220 1870 PD
40 W
1223 1710 PD
40 W
1226 1753 PD
40 W
1234 1743 PD
40 W
1235 1741 PD
40 W
1237 1742 PD
40 W
1240 2040 PD
40 W
1242 2144 PD
40 W
1245 2148 PD
40 W
1246 2113 PD
40 W
1248 1904 PD
40 W
1250 1879 PD
40 W
1252 1832 PD
40 W
1259 2236 PD
40 W
1263 1986 PD
40 W
1265 2120 PD
40 W
1267 2211 PD
40 W
1272 1846 PD
40 W
1275 1945 PD
40 W
1276 1856 PD
40 W
1278 1786 PD
40 W
1279 2039 PD
40 W
1282 1948 PD
40 W
1284 1972 PD
40 W
1287 1853 PD
40 W
1293 2165 PD
40 W
1294 2106 PD
40 W
1295 1940 PD
40 W
1298 1923 PD
40 W
1304 1872 PD
40 W
1305 1838 PD
40 W
1306 1730 PD
40 W
1309 1917 PD
40 W
1314 1888 PD
40 W
1316 1925 PD
40 W
1317 1898 PD
40 W
1320 1949 PD
40 W
1323 1904 PD
40 W
1324 2006 PD
40 W
1325 1959 PD
40 W
1327 1949 PD
40 W
1332 1949 PD
40 W
1336 1943 PD
40 W
1339 1922 PD
40 W
1340 1913 PD
40 W
1342 1885 PD
40 W
1343 1930 PD
40 W
1344 1895 PD
40 W
1346 1899 PD
40 W
1347 1949 PD
40 W
1348 1864 PD
40 W
1353 1949 PD
40 W
1354 1949 PD
40 W
1355 1949 PD
40 W
1358 1949 PD
40 W
1359 1949 PD
40 W
1362 1949 PD
40 W
1363 1949 PD
40 W
1365 1935 PD
40 W
1366 1949 PD
40 W
1367 1949 PD
40 W
1373 1949 PD
40 W
1374 1949 PD
40 W
1376 1949 PD
40 W
1378 1949 PD
40 W
1380 1949 PD
40 W
1381 1935 PD
40 W
1387 1949 PD
40 W
1389 1929 PD
40 W
1392 1883 PD
40 W
1395 1973 PD
40 W
1396 1969 PD
40 W
1400 1990 PD
40 W
1404 2079 PD
40 W
1406 2062 PD
40 W
1407 2089 PD
40 W
1408 2091 PD
40 W
1417 2058 PD
40 W
1421 2073 PD
40 W
1429 2506 PD
40 W
1430 2493 PD
40 W
1431 2442 PD
40 W
1433 2382 PD
40 W
1436 2253 PD
40 W
1437 2326 PD
40 W
1438 2286 PD
40 W
1440 2469 PD
40 W
1441 1728 PD
40 W
1442 1820 PD
40 W
1445 1621 PD
40 W
1446 1415 PD
40 W
1451 1652 PD
40 W
1452 1264 PD
40 W
1453 1251 PD
40 W
1455 1583 PD
40 W
1457 1794 PD
40 W
1461 2299 PD
40 W
1463 1746 PD
40 W
1464 1350 PD
40 W
1466 2166 PD
40 W
1467 2102 PD
40 W
1470 2145 PD
40 W
1471 2396 PD
40 W
1474 1886 PD
40 W
1478 2002 PD
40 W
1480 1843 PD
40 W
1482 1634 PD
40 W
1487 2141 PD
40 W
1489 2106 PD
40 W
1493 1933 PD
40 W
1494 1560 PD
40 W
1497 2068 PD
40 W
1502 2116 PD
40 W
1504 2164 PD
40 W
1505 2119 PD
40 W
1508 2134 PD
40 W
1510 1926 PD
40 W
1513 1964 PD
40 W
1520 2024 PD
40 W
1523 1727 PD
40 W
1524 1627 PD
40 W
1528 1884 PD
40 W
1538 2120 PD
40 W
1539 2117 PD
40 W
1542 1949 PD
40 W
1543 1983 PD
40 W
1544 1949 PD
40 W
1550 2067 PD
40 W
1551 2018 PD
40 W
1554 1999 PD
40 W
1555 2095 PD
40 W
1558 2054 PD
40 W
1564 2059 PD
40 W
1572 2178 PD
40 W
1573 2150 PD
40 W
1576 2059 PD
40 W
1577 2025 PD
40 W
1579 2037 PD
40 W
1580 1986 PD
40 W
1584 2146 PD
40 W
1585 2191 PD
40 W
1588 2103 PD
40 W
1592 2250 PD
40 W
1593 2221 PD
40 W
1595 2216 PD
40 W
1598 2322 PD
40 W
1599 2214 PD
40 W
1600 2232 PD
40 W
1602 2275 PD
40 W
1603 2144 PD
40 W
1604 2098 PD
40 W
1608 2110 PD
40 W
1611 2213 PD
40 W
1613 1569 PD
40 W
1617 1811 PD
40 W
1619 2212 PD
40 W
1628 2130 PD
40 W
1629 2254 PD
40 W
1632 1308 PD
40 W
1633 1652 PD
40 W
1638 1777 PD
40 W
1640 1756 PD
40 W
1641 1811 PD
40 W
1644 1697 PD
40 W
1648 1506 PD
40 W
1649 1273 PD
40 W
1651 1398 PD
40 W
1652 1579 PD
40 W
1653 1427 PD
40 W
1656 1402 PD
40 W
1657 1502 PD
40 W
1660 1695 PD
40 W
1662 1633 PD
40 W
1664 1854 PD
40 W
1670 1824 PD
40 W
1672 1789 PD
40 W
1678 1772 PD
40 W
1681 1822 PD
40 W
1682 1867 PD
40 W
1683 1925 PD
40 W
1685 1883 PD
40 W
1686 1869 PD
40 W
1687 1949 PD
40 W
1689 1940 PD
40 W
1692 1807 PD
40 W
1697 1712 PD
40 W
1698 1807 PD
40 W
1700 1639 PD
40 W
1704 1498 PD
40 W
1711 1740 PD
40 W
1712 1678 PD
40 W
1716 1539 PD
40 W
1717 1708 PD
40 W
1719 1804 PD
40 W
1720 1805 PD
40 W
1721 1892 PD
40 W
1723 1919 PD
40 W
1726 2002 PD
40 W
1734 1764 PD
40 W
1736 1681 PD
40 W
1741 1566 PD
40 W
1742 1700 PD
40 W
1743 1507 PD
40 W
1747 1997 PD
40 W
1751 1945 PD
40 W
1754 1954 PD
40 W
1757 1839 PD
40 W
1758 2116 PD
40 W
1760 2074 PD
40 W
1761 1999 PD
40 W
1764 1995 PD
40 W
1766 2060 PD
40 W
1768 1900 PD
40 W
1769 1925 PD
40 W
1772 1949 PD
40 W
1773 1918 PD
40 W
1775 1917 PD
40 W
1777 1949 PD
40 W
1780 1964 PD
40 W
1783 2020 PD
40 W
1785 2062 PD
40 W
1787 2126 PD
40 W
1788 2175 PD
40 W
1794 2304 PD
40 W
1802 2064 PD
40 W
1805 2179 PD
40 W
1806 2225 PD
40 W
1809 2275 PD
40 W
1810 2268 PD
40 W
1814 2293 PD
40 W
1817 2402 PD
40 W
1821 2098 PD
40 W
1828 1820 PD
40 W
1829 2287 PD
40 W
1830 2110 PD
40 W
1834 1651 PD
40 W
1845 1752 PD
40 W
1847 1603 PD
40 W
1848 1704 PD
40 W
1849 1786 PD
40 W
1851 1753 PD
40 W
1852 1418 PD
40 W
1854 1536 PD
40 W
1862 1152 PD
40 W
1863 1348 PD
40 W
1866 1349 PD
40 W
1871 1733 PD
40 W
1873 1624 PD
40 W
1878 1380 PD
40 W
1879 1489 PD
40 W
1882 1591 PD
40 W
1883 1220 PD
40 W
1886 1659 PD
40 W
1888 1714 PD
40 W
1890 1692 PD
40 W
1893 1618 PD
40 W
1897 1658 PD
40 W
1898 1642 PD
40 W
1900 1607 PD
40 W
1901 1591 PD
40 W
1903 1637 PD
40 W
1904 1444 PD
40 W
1907 1575 PD
40 W
1909 1788 PD
40 W
1912 1617 PD
40 W
1916 1536 PD
40 W
1917 1628 PD
40 W
1922 1516 PD
40 W
1924 1537 PD
40 W
1928 1566 PD
40 W
1937 1630 PD
40 W
1938 1564 PD
40 W
1939 1671 PD
40 W
1945 1615 PD
40 W
1947 1698 PD
40 W
1949 1641 PD
40 W
1950 1672 PD
40 W
1953 1679 PD
40 W
1954 1686 PD
40 W
1956 1518 PD
40 W
1957 1632 PD
40 W
1958 1681 PD
40 W
1971 1782 PD
40 W
1977 1949 PD
40 W
1980 1922 PD
40 W
1990 1801 PD
40 W
1992 1926 PD
40 W
2006 2070 PD
40 W
2007 2108 PD
40 W
2010 2380 PD
40 W
2013 2276 PD
40 W
2017 1866 PD
40 W
2020 2157 PD
40 W
2021 1389 PD
40 W
2022 1759 PD
40 W
2024 1743 PD
40 W
2025 1449 PD
40 W
2026 2409 PD
40 W
2028 2681 PD
40 W
2029 1709 PD
40 W
2030 1341 PD
40 W
2033 1146 PD
40 W
2040 1432 PD
40 W
2041 1044 PD
40 W
2043 1247 PD
40 W
2047 1393 PD
40 W
2048 1459 PD
40 W
2052 1756 PD
40 W
2054 1615 PD
40 W
2056 1476 PD
40 W
2058 1311 PD
40 W
2059 1714 PD
40 W
2060 1601 PD
40 W
2065 1523 PD
40 W
2070 2012 PD
40 W
2080 1576 PD
40 W
2081 1557 PD
40 W
2082 1340 PD
40 W
2084 1376 PD
40 W
2086 1695 PD
40 W
2088 1728 PD
40 W
2089 1720 PD
40 W
2090 1843 PD
40 W
2093 1796 PD
40 W
2099 1659 PD
40 W
2100 1608 PD
40 W
2101 1611 PD
40 W
2103 1770 PD
40 W
2105 1858 PD
40 W
2108 2155 PD
40 W
2115 2079 PD
40 W
2116 2006 PD
40 W
2118 1976 PD
40 W
2122 1949 PD
40 W
2123 1971 PD
40 W
2124 2050 PD
40 W
2126 1925 PD
40 W
2129 1731 PD
40 W
2130 1704 PD
40 W
2131 1732 PD
40 W
2135 1672 PD
40 W
2138 1818 PD
40 W
2143 1822 PD
40 W
2146 1669 PD
40 W
2148 1587 PD
40 W
2149 1580 PD
40 W
2152 1882 PD
40 W
2153 1839 PD
40 W
2154 1712 PD
40 W
2156 1793 PD
40 W
2157 1909 PD
40 W
2160 1859 PD
40 W
2161 1816 PD
40 W
2163 1913 PD
40 W
2164 2007 PD
40 W
2165 1982 PD
40 W
2168 1976 PD
40 W
2169 1949 PD
40 W
2171 1865 PD
40 W
2172 1949 PD
40 W
2173 1714 PD
40 W
2179 1584 PD
40 W
2180 1494 PD
40 W
2186 1451 PD
40 W
2188 1372 PD
40 W
2190 1405 PD
40 W
2193 1555 PD
40 W
2194 1432 PD
40 W
2203 1460 PD
40 W
2207 1489 PD
40 W
2209 1544 PD
40 W
2212 1503 PD
40 W
2216 1666 PD
40 W
2217 1746 PD
40 W
2220 1790 PD
40 W
2225 1845 PD
40 W
2227 1780 PD
40 W
2228 1773 PD
40 W
2233 1729 PD
40 W
2236 1965 PD
40 W
2237 1861 PD
40 W
2240 1802 PD
40 W
2247 1741 PD
40 W
2252 2163 PD
40 W
2254 2206 PD
40 W
2255 2157 PD
40 W
2261 2155 PD
40 W
2262 2044 PD
40 W
2263 2016 PD
40 W
2266 1885 PD
40 W
2267 1791 PD
40 W
2270 2161 PD
40 W
2273 2211 PD
40 W
2274 2118 PD
40 W
2277 2195 PD
40 W
2278 2124 PD
40 W
2280 2072 PD
40 W
2282 2034 PD
40 W
2284 1993 PD
40 W
2285 2056 PD
40 W
2286 2053 PD
40 W
2289 2009 PD
40 W
2293 1988 PD
40 W
2297 1983 PD
40 W
2300 1967 PD
40 W
2303 1949 PD
40 W
2304 1949 PD
40 W
2307 1975 PD
40 W
2310 1965 PD
40 W
2311 1949 PD
40 W
2312 1979 PD
40 W
2315 1967 PD
40 W
2316 1949 PD
40 W
2319 1949 PD
40 W
2320 1971 PD
40 W
2325 1949 PD
40 W
2326 1949 PD
40 W
2327 1949 PD
40 W
2329 1949 PD
40 W
2330 1980 PD
40 W
2335 1959 PD
40 W
2338 1949 PD
40 W
2340 1962 PD
40 W
2341 1949 PD
40 W
2342 1949 PD
40 W
2344 1949 PD
40 W
2345 1949 PD
40 W
2346 1949 PD
40 W
2348 1945 PD
40 W
2349 1949 PD
40 W
2350 1949 PD
40 W
2356 1949 PD
40 W
2357 1949 PD
40 W
2359 1949 PD
40 W
2364 1938 PD
40 W
2365 1940 PD
40 W
2369 1902 PD
40 W
2371 1934 PD
40 W
2372 1949 PD
40 W
2374 1949 PD
40 W
2376 1949 PD
40 W
2379 1949 PD
40 W
2382 1949 PD
40 W
2383 1916 PD
40 W
2384 1949 PD
40 W
2389 1791 PD
40 W
2391 1823 PD
40 W
2397 1502 PD
40 W
2398 1601 PD
40 W
2399 1745 PD
40 W
2401 1760 PD
40 W
2402 1753 PD
40 W
2406 1763 PD
40 W
2408 1694 PD
40 W
2409 1693 PD
40 W
2410 1687 PD
40 W
2412 1628 PD
40 W
2413 1513 PD
40 W
2418 1668 PD
40 W
2420 1702 PD
40 W
2427 1799 PD
40 W
2429 1836 PD
40 W
2431 1785 PD
40 W
2432 1793 PD
40 W
2435 1890 PD
40 W
2436 1934 PD
40 W
2443 2084 PD
40 W
2448 2388 PD
40 W
2453 2179 PD
40 W
2455 1524 PD
40 W
2458 1495 PD
40 W
2459 1812 PD
40 W
2461 1910 PD
40 W
2462 1957 PD
40 W
2463 2217 PD
40 W
2469 2344 PD
40 W
2474 2150 PD
40 W
2476 2218 PD
40 W
2478 2045 PD
40 W
2480 2054 PD
40 W
2487 1917 PD
40 W
2488 1949 PD
40 W
2491 2069 PD
40 W
2500 1911 PD
40 W
2502 1949 PD
40 W
2506 1929 PD
40 W
2508 1917 PD
40 W
2512 1949 PD
40 W
2514 1913 PD
40 W
2515 1898 PD
40 W
2517 1923 PD
40 W
2518 1927 PD
40 W
2521 1949 PD
40 W
2526 1939 PD
40 W
2529 1949 PD
40 W
2531 1948 PD
40 W
2533 1949 PD
40 W
2534 1949 PD
40 W
2537 1941 PD
40 W
2538 1945 PD
40 W
2541 1949 PD
40 W
2544 1949 PD
40 W
2546 1947 PD
40 W
2553 1947 PD
40 W
2559 1949 PD
40 W
2560 1949 PD
40 W
2561 1949 PD
40 W
2563 1949 PD
40 W
2567 1949 PD
40 W
2570 1949 PD
40 W
2574 1843 PD
40 W
2576 2097 PD
40 W
2586 1981 PD
40 W
2587 1977 PD
40 W
2589 1978 PD
40 W
2590 1969 PD
40 W
2591 2004 PD
40 W
2595 1949 PD
40 W
2597 1990 PD
40 W
2605 2174 PD
40 W
2608 2459 PD
40 W
2609 2303 PD
40 W
2613 2295 PD
40 W
2623 2308 PD
40 W
2627 2563 PD
40 W
2630 2426 PD
40 W
2632 2466 PD
40 W
2634 2562 PD
40 W
2635 2449 PD
40 W
2636 2411 PD
40 W
2638 2430 PD
40 W
2643 2327 PD
40 W
2649 2312 PD
40 W
2650 2225 PD
40 W
2654 2323 PD
40 W
2655 2170 PD
40 W
2658 2012 PD
40 W
2661 1523 PD
40 W
2662 1453 PD
40 W
2668 1739 PD
40 W
2669 1617 PD
40 W
2670 2116 PD
40 W
2672 1815 PD
40 W
2673 1297 PD
40 W
2676 1686 PD
40 W
2677 2152 PD
40 W
2681 2782 PD
40 W
2683 2853 PD
40 W
2684 2888 PD
40 W
2685 2777 PD
40 W
2691 2400 PD
40 W
2692 2440 PD
40 W
2693 2366 PD
40 W
2696 2291 PD
40 W
2700 1963 PD
40 W
2703 2346 PD
40 W
2704 2452 PD
40 W
2711 2197 PD
40 W
2714 2046 PD
40 W
2719 2128 PD
40 W
2723 2170 PD
40 W
2729 1973 PD
40 W
2732 2033 PD
40 W
2734 2122 PD
40 W
2736 2011 PD
40 W
2740 1895 PD
40 W
2745 1986 PD
40 W
2747 2025 PD
40 W
2749 2131 PD
40 W
2751 2071 PD
40 W
2757 1975 PD
40 W
2759 1984 PD
40 W
2760 1997 PD
40 W
2762 1949 PD
40 W
2766 1969 PD
40 W
2768 2199 PD
40 W
2771 2367 PD
40 W
2774 2322 PD
40 W
2778 2262 PD
40 W
2781 2229 PD
40 W
2782 2126 PD
40 W
2785 2230 PD
40 W
2787 2323 PD
40 W
2793 2376 PD
40 W
2797 2419 PD
40 W
2798 2374 PD
40 W
2802 2458 PD
40 W
2804 2368 PD
40 W
2805 2478 PD
40 W
2806 2666 PD
40 W
2808 2714 PD
40 W
2809 2673 PD
40 W
2811 2588 PD
40 W
2812 2640 PD
40 W
2813 2704 PD
40 W
2816 2663 PD
40 W
2819 2631 PD
40 W
2820 2659 PD
40 W
2821 2511 PD
40 W
2830 1736 PD
40 W
2831 1475 PD
40 W
2832 1614 PD
40 W
2834 1761 PD
40 W
2841 1640 PD
40 W
2845 844 PD
40 W
2851 2056 PD
40 W
2853 1679 PD
40 W
2856 1363 PD
40 W
2861 2268 PD
40 W
2862 2298 PD
40 W
2864 2557 PD
40 W
2865 2524 PD
40 W
2870 2199 PD
40 W
2872 2134 PD
40 W
2875 1984 PD
40 W
2879 1981 PD
40 W
2891 1986 PD
40 W
2892 2018 PD
40 W
2896 2208 PD
40 W
2902 1794 PD
40 W
2909 2251 PD
40 W
2911 2063 PD
40 W
2913 2093 PD
40 W
2918 1993 PD
40 W
2921 2132 PD
40 W
2926 2046 PD
40 W
2928 2095 PD
40 W
2929 2024 PD
40 W
2937 1919 PD
40 W
2940 1923 PD
40 W
2941 1949 PD
40 W
2947 1949 PD
40 W
2951 1949 PD
40 W
2952 1949 PD
40 W
2954 1949 PD
40 W
2956 1949 PD
40 W
2960 1949 PD
40 W
2968 1928 PD
40 W
2970 1904 PD
40 W
2975 1784 PD
40 W
2978 1770 PD
40 W
2979 1780 PD
40 W
2981 1723 PD
40 W
2983 1820 PD
40 W
2985 1738 PD
40 W
2986 1752 PD
40 W
2988 1654 PD
40 W
2992 1703 PD
40 W
2993 1799 PD
40 W
3000 2021 PD
40 W
3003 2124 PD
40 W
3004 2169 PD
40 W
3005 2137 PD
40 W
3007 2050 PD
40 W
3008 2077 PD
40 W
3009 2070 PD
40 W
3011 2061 PD
40 W
3013 2152 PD
40 W
3015 2152 PD
40 W
3026 2208 PD
40 W
3027 2257 PD
40 W
3028 2218 PD
40 W
3030 2107 PD
40 W
3032 1915 PD
40 W
3034 1824 PD
40 W
3037 2168 PD
40 W
3043 1515 PD
40 W
3045 1867 PD
40 W
3054 1657 PD
40 W
3056 1687 PD
40 W
3057 1711 PD
40 W
3064 1636 PD
40 W
3068 1294 PD
40 W
3072 2267 PD
40 W
3076 2156 PD
40 W
3077 2134 PD
40 W
3079 2036 PD
40 W
3083 1971 PD
40 W
3090 2005 PD
40 W
3091 1921 PD
40 W
3094 1839 PD
40 W
3095 1949 PD
40 W
3096 1949 PD
40 W
3099 1925 PD
40 W
3102 1949 PD
40 W
3106 1949 PD
40 W
3109 1909 PD
40 W
3113 1949 PD
40 W
3114 1938 PD
40 W
3116 1934 PD
40 W
3117 1949 PD
40 W
3118 1949 PD
40 W
3125 1914 PD
40 W
3128 1949 PD
40 W
3131 1885 PD
40 W
3133 1906 PD
40 W
3141 1729 PD
40 W
3143 1888 PD
40 W
3148 1794 PD
40 W
3152 1917 PD
40 W
3156 1949 PD
40 W
3160 1871 PD
40 W
3167 1694 PD
40 W
3169 1770 PD
40 W
3173 1659 PD
40 W
3174 1765 PD
40 W
3175 1687 PD
40 W
3177 1674 PD
40 W
3178 1645 PD
40 W
3181 1648 PD
40 W
3182 1710 PD
40 W
3184 1691 PD
40 W
3185 1717 PD
40 W
3186 1566 PD
40 W
3188 1532 PD
40 W
3189 1587 PD
40 W
3190 1613 PD
40 W
3192 1757 PD
40 W
3193 1849 PD
40 W
3194 1800 PD
40 W
3196 1793 PD
40 W
3199 1785 PD
40 W
3201 1760 PD
40 W
3203 1780 PD
40 W
3204 1740 PD
40 W
3205 1745 PD
40 W
3207 1697 PD
40 W
3208 1695 PD
40 W
3209 1736 PD
40 W
3211 1809 PD
40 W
3212 1820 PD
40 W
3214 1822 PD
40 W
3219 1721 PD
40 W
3220 1749 PD
40 W
3222 1739 PD
40 W
3224 1729 PD
40 W
3226 1704 PD
40 W
3227 2219 PD
40 W
3229 2053 PD
40 W
3230 2105 PD
40 W
3233 1833 PD
40 W
3237 1758 PD
40 W
3244 1737 PD
40 W
3246 1828 PD
40 W
3248 1839 PD
40 W
3252 1947 PD
40 W
3253 1945 PD
40 W
3260 1933 PD
40 W
3263 1930 PD
40 W
3265 1829 PD
40 W
3269 1827 PD
40 W
3271 1894 PD
40 W
3272 1890 PD
40 W
3273 1849 PD
40 W
3275 1934 PD
40 W
3278 1997 PD
40 W
3280 1949 PD
40 W
3282 1949 PD
40 W
3283 1846 PD
40 W
3284 1872 PD
40 W
3291 1818 PD
40 W
3293 1854 PD
40 W
3294 1884 PD
40 W
3295 1899 PD
40 W
3297 1929 PD
40 W
3302 1932 PD
40 W
3303 1882 PD
40 W
3313 1788 PD
40 W
3316 1755 PD
40 W
3317 1771 PD
40 W
3318 1858 PD
40 W
3320 1918 PD
40 W
3322 1807 PD
40 W
3325 1591 PD
40 W
3327 1593 PD
40 W
3329 1757 PD
40 W
3333 1759 PD
40 W
3335 1647 PD
40 W
3340 1743 PD
40 W
3342 1689 PD
40 W
3350 1760 PD
40 W
3352 1858 PD
40 W
3354 1757 PD
40 W
3356 1435 PD
40 W
3361 1548 PD
40 W
3362 1656 PD
40 W
3363 1655 PD
40 W
3366 1570 PD
40 W
3367 1651 PD
40 W
3369 1468 PD
40 W
3370 1379 PD
40 W
3371 1469 PD
40 W
3373 1382 PD
40 W
3374 1446 PD
40 W
3376 1531 PD
40 W
3378 1601 PD
40 W
3382 1674 PD
40 W
3384 1610 PD
40 W
3386 1602 PD
40 W
3391 1439 PD
40 W
3397 1613 PD
40 W
3400 1747 PD
40 W
3406 1858 PD
40 W
3407 1835 PD
40 W
3408 1825 PD
40 W
3415 2210 PD
40 W
3419 1747 PD
40 W
3422 1950 PD
40 W
3423 2117 PD
40 W
3426 2116 PD
40 W
3435 1823 PD
40 W
3437 1814 PD
40 W
3440 2084 PD
40 W
3441 2043 PD
40 W
3442 1894 PD
40 W
3448 1664 PD
40 W
3449 1735 PD
40 W
3455 1754 PD
40 W
3456 1895 PD
40 W
3461 1849 PD
40 W
3464 1682 PD
40 W
3467 1836 PD
40 W
3468 1937 PD
40 W
3469 2028 PD
40 W
3474 1902 PD
40 W
3475 1936 PD
40 W
3476 1949 PD
40 W
3480 1902 PD
40 W
3482 1826 PD
40 W
3483 1868 PD
40 W
3487 1946 PD
40 W
3489 1912 PD
40 W
3491 1949 PD
40 W
3493 1949 PD
40 W
3495 1949 PD
40 W
3501 1949 PD
40 W
3505 1949 PD
40 W
3508 1949 PD
40 W
3509 1919 PD
40 W
3510 1925 PD
40 W
3514 1927 PD
40 W
3517 1923 PD
40 W
3521 1949 PD
40 W
3527 1922 PD
40 W
3528 1822 PD
40 W
3532 1873 PD
40 W
3533 1880 PD
40 W
3536 1949 PD
40 W
3542 1891 PD
40 W
3551 1949 PD
40 W
3554 1962 PD
40 W
3555 1983 PD
40 W
3557 1926 PD
40 W
3568 1786 PD
40 W
3569 1821 PD
40 W
3570 1844 PD
40 W
3577 1823 PD
40 W
3581 1845 PD
40 W
3584 1863 PD
40 W
3585 1874 PD
40 W
3587 1787 PD
40 W
3588 1781 PD
40 W
3591 1806 PD
40 W
3592 1811 PD
40 W
3593 1722 PD
40 W
3595 1825 PD
40 W
3596 1845 PD
40 W
3599 2139 PD
40 W
3600 2178 PD
40 W
3602 2157 PD
40 W
3604 2112 PD
40 W
3608 2176 PD
40 W
3612 1645 PD
40 W
3617 1449 PD
40 W
3618 1361 PD
40 W
3623 1647 PD
40 W
3630 2053 PD
40 W
3632 2194 PD
40 W
3633 2742 PD
40 W
3634 1474 PD
40 W
3636 1694 PD
40 W
3637 2584 PD
40 W
3641 1942 PD
40 W
3642 1925 PD
40 W
3644 2436 PD
40 W
3645 2104 PD
40 W
3646 2027 PD
40 W
3648 2148 PD
40 W
3651 1449 PD
40 W
3653 1621 PD
40 W
3655 1641 PD
40 W
3656 1619 PD
40 W
3657 1662 PD
40 W
3659 1668 PD
40 W
3661 1625 PD
40 W
3667 1444 PD
40 W
3668 1568 PD
40 W
3670 1394 PD
40 W
3674 1437 PD
40 W
3675 1442 PD
40 W
3679 1440 PD
40 W
3683 1664 PD
40 W
3686 1673 PD
40 W
3687 1601 PD
40 W
3691 1637 PD
40 W
3697 1754 PD
40 W
3698 1587 PD
40 W
3700 1600 PD
40 W
3702 1502 PD
40 W
3704 1500 PD
40 W
3708 1471 PD
40 W
3709 1512 PD
40 W
3710 1438 PD
40 W
3713 1534 PD
40 W
3715 1533 PD
40 W
3717 1590 PD
40 W
3721 1491 PD
40 W
3723 1487 PD
40 W
3730 1481 PD
40 W
3732 1350 PD
40 W
3734 1479 PD
40 W
3735 1515 PD
40 W
3742 1484 PD
40 W
3750 1368 PD
40 W
3751 1444 PD
40 W
3762 1608 PD
40 W
3765 1710 PD
40 W
3766 1743 PD
40 W
3769 1808 PD
40 W
3770 1774 PD
40 W
3773 1731 PD
40 W
3774 1822 PD
40 W
3776 1825 PD
40 W
3777 1835 PD
40 W
3779 1852 PD
40 W
3781 1757 PD
40 W
3783 1917 PD
40 W
3784 2069 PD
40 W
3785 2049 PD
40 W
3788 1774 PD
40 W
3795 2205 PD
40 W
3796 2235 PD
40 W
3799 2240 PD
40 W
3804 2336 PD
40 W
3807 2223 PD
40 W
3808 2130 PD
40 W
3810 1719 PD
40 W
3817 1899 PD
40 W
3819 2121 PD
40 W
3828 2008 PD
40 W
3829 2218 PD
40 W
3832 1711 PD
40 W
3833 1819 PD
40 W
3834 1833 PD
40 W
3836 1733 PD
40 W
3841 1826 PD
40 W
3848 1792 PD
40 W
3851 1435 PD
40 W
3856 1057 PD
40 W
3859 1318 PD
40 W
3860 1676 PD
40 W
3864 2124 PD
40 W
3868 1949 PD
40 W
3870 1913 PD
40 W
3871 1866 PD
40 W
3872 1937 PD
40 W
3874 2003 PD
40 W
3877 1983 PD
40 W
3879 1894 PD
40 W
3882 2018 PD
40 W
3886 2022 PD
40 W
3887 2061 PD
40 W
3889 2034 PD
40 W
3890 2004 PD
40 W
3892 2013 PD
40 W
3893 1974 PD
40 W
3898 2064 PD
40 W
3901 2027 PD
40 W
3905 2056 PD
40 W
3913 2229 PD
40 W
3915 2175 PD
40 W
3916 2171 PD
40 W
3920 2214 PD
40 W
3921 2321 PD
40 W
3927 2390 PD
40 W
3931 2426 PD
40 W
3932 2471 PD
40 W
3934 2322 PD
40 W
3938 2416 PD
40 W
3942 2454 PD
40 W
3943 2438 PD
40 W
3950 2599 PD
40 W
3951 2528 PD
40 W
3957 2261 PD
40 W
3962 2430 PD
40 W
3966 2581 PD
40 W
3970 1536 PD
40 W
3973 1862 PD
40 W
3976 1811 PD
40 W
3977 2154 PD
40 W
3980 1394 PD
40 W
3981 1491 PD
40 W
3983 2290 PD
40 W
3984 2258 PD
40 W
3988 2526 PD
40 W
3990 1939 PD
40 W
3992 1942 PD
40 W
3999 2323 PD
40 W
4007 2135 PD
40 W
4011 2615 PD
40 W
4013 2121 PD
40 W
4015 2195 PD
40 W
4022 1766 PD
40 W
4024 1678 PD
40 W
4033 2396 PD
40 W
4037 2169 PD
40 W
4041 2081 PD
40 W
4044 1912 PD
40 W
4045 2148 PD
40 W
4047 2190 PD
40 W
4048 2346 PD
40 W
4049 1740 PD
40 W
4052 1712 PD
40 W
4054 1412 PD
40 W
4055 1598 PD
40 W
4058 1666 PD
40 W
4063 1648 PD
40 W
4067 2128 PD
40 W
4069 1897 PD
40 W
4070 1823 PD
40 W
4073 1562 PD
40 W
4078 2144 PD
40 W
4079 2275 PD
40 W
4082 2198 PD
40 W
4083 2245 PD
40 W
4085 2279 PD
40 W
4086 2186 PD
40 W
4093 2284 PD
40 W
4094 2172 PD
40 W
4096 2028 PD
40 W
4100 2126 PD
40 W
4101 2222 PD
40 W
4103 2352 PD
40 W
4107 2123 PD
40 W
4108 2021 PD
40 W
4109 2055 PD
40 W
4112 2095 PD
40 W
4115 2053 PD
40 W
4123 1972 PD
40 W
4126 2063 PD
40 W
4127 2037 PD
40 W
4128 2085 PD
40 W
4131 2022 PD
40 W
4138 2089 PD
40 W
4143 2221 PD
40 W
4149 2154 PD
40 W
4150 2032 PD
40 W
4152 2040 PD
40 W
4157 1857 PD
40 W
4162 2077 PD
40 W
4164 1878 PD
40 W
4169 1603 PD
40 W
4171 1659 PD
40 W
4175 2079 PD
40 W
4176 2049 PD
40 W
4177 1899 PD
40 W
4184 1930 PD
40 W
4188 2110 PD
40 W
4190 2126 PD
40 W
4191 2261 PD
40 W
4192 2254 PD
40 W
4199 1905 PD
40 W
4202 2028 PD
40 W
4203 2097 PD
40 W
4205 2104 PD
40 W
4206 1864 PD
40 W
4209 1559 PD
40 W
4214 2193 PD
40 W
4220 2633 PD
40 W
4222 2626 PD
40 W
4224 2495 PD
40 W
4226 2355 PD
40 W
4228 2310 PD
40 W
4229 2212 PD
40 W
4232 2178 PD
40 W
4233 2194 PD
40 W
4241 1903 PD
40 W
4244 2126 PD
40 W
4247 2196 PD
40 W
4250 2450 PD
40 W
4254 2370 PD
40 W
4255 2325 PD
40 W
4256 2244 PD
40 W
4260 2248 PD
40 W
4265 2160 PD
40 W
4266 2103 PD
40 W
4267 2010 PD
40 W
4270 1965 PD
40 W
4271 1949 PD
40 W
4273 1949 PD
40 W
4274 1949 PD
40 W
4282 2053 PD
40 W
4285 2092 PD
40 W
4286 2068 PD
40 W
4288 2070 PD
40 W
4292 2141 PD
40 W
4293 2072 PD
40 W
4296 2081 PD
40 W
4300 2183 PD
40 W
4301 2067 PD
40 W
4307 1949 PD
40 W
4309 2019 PD
40 W
4314 1997 PD
40 W
4315 1966 PD
40 W
4318 1949 PD
40 W
4319 1984 PD
40 W
4322 2011 PD
40 W
4330 1994 PD
40 W
4333 2079 PD
40 W
4339 2344 PD
40 W
4346 2192 PD
40 W
4348 2276 PD
40 W
4349 2266 PD
40 W
4350 2342 PD
40 W
4352 2276 PD
40 W
4353 2229 PD
40 W
4356 2312 PD
40 W
4357 2325 PD
40 W
4358 2330 PD
40 W
4360 2349 PD
40 W
4361 2345 PD
40 W
4364 2260 PD
40 W
4365 2226 PD
40 W
4367 2234 PD
40 W
4368 2188 PD
40 W
4372 2029 PD
40 W
4375 2072 PD
40 W
4380 2290 PD
40 W
4383 2166 PD
40 W
4384 2133 PD
40 W
4388 2209 PD
40 W
4393 2085 PD
40 W
4395 1778 PD
40 W
4397 1564 PD
40 W
4398 1701 PD
40 W
4401 1580 PD
40 W
4402 1552 PD
40 W
4405 1639 PD
40 W
4412 1657 PD
40 W
4413 1528 PD
40 W
4417 1937 PD
40 W
4427 1893 PD
40 W
4428 1894 PD
40 W
4431 2077 PD
40 W
4433 2009 PD
40 W
4436 2025 PD
40 W
4437 2006 PD
40 W
4440 1942 PD
40 W
4444 1920 PD
40 W
4446 1859 PD
40 W
4448 1845 PD
40 W
4450 1885 PD
40 W
4451 1925 PD
40 W
4452 1914 PD
40 W
4454 1949 PD
40 W
4457 1949 PD
40 W
4458 1927 PD
40 W
4459 1926 PD
40 W
4462 1931 PD
40 W
4465 1820 PD
40 W
4466 1906 PD
40 W
4467 1839 PD
40 W
4471 1658 PD
40 W
4480 1721 PD
40 W
4481 1749 PD
40 W
4482 1782 PD
40 W
4484 1686 PD
40 W
4486 1905 PD
40 W
4488 1869 PD
40 W
4489 1807 PD
40 W
4492 1920 PD
40 W
4493 1902 PD
40 W
4497 1908 PD
40 W
4499 1850 PD
40 W
4500 1855 PD
40 W
4503 1949 PD
40 W
4506 1794 PD
40 W
4510 1667 PD
40 W
4512 1923 PD
40 W
4516 1949 PD
40 W
4518 1949 PD
40 W
4522 1949 PD
40 W
4523 1949 PD
40 W
4526 1949 PD
40 W
4530 1949 PD
40 W
4535 1887 PD
40 W
4537 1867 PD
40 W
4544 1794 PD
40 W
4550 1760 PD
40 W
4553 1730 PD
40 W
4563 1685 PD
40 W
4564 1766 PD
40 W
4565 1737 PD
40 W
4567 1778 PD
40 W
4568 1692 PD
40 W
4570 1671 PD
40 W
4571 1675 PD
40 W
4575 1760 PD
40 W
4576 1720 PD
40 W
4579 1858 PD
40 W
4580 1890 PD
40 W
4584 1811 PD
40 W
4589 1701 PD
40 W
4590 1713 PD
40 W
4593 1707 PD
40 W
4594 1665 PD
40 W
4595 1717 PD
40 W
4599 1761 PD
40 W
4601 1835 PD
40 W
4604 1777 PD
40 W
4606 1744 PD
40 W
4609 1801 PD
40 W
4610 1805 PD
40 W
4612 1556 PD
40 W
4613 1560 PD
40 W
4616 1629 PD
40 W
4623 1609 PD
40 W
4624 1823 PD
40 W
4629 1804 PD
40 W
4631 1780 PD
40 W
4633 1769 PD
40 W
4640 1794 PD
40 W
4642 1824 PD
40 W
4643 1688 PD
40 W
4644 1873 PD
40 W
4648 1763 PD
40 W
4650 1741 PD
40 W
4653 1791 PD
40 W
4654 1784 PD
40 W
4657 1786 PD
40 W
4659 1811 PD
40 W
4661 1754 PD
40 W
4668 1761 PD
40 W
4669 1659 PD
40 W
4672 1610 PD
40 W
4676 1669 PD
40 W
4678 1646 PD
40 W
4683 1602 PD
40 W
4687 1659 PD
40 W
4693 1656 PD
40 W
4695 1693 PD
40 W
4697 1595 PD
40 W
4703 1714 PD
40 W
4704 1651 PD
40 W
4707 1727 PD
40 W
4710 1653 PD
40 W
4712 1582 PD
40 W
4718 1545 PD
40 W
4719 1590 PD
40 W
4723 1641 PD
40 W
4727 1587 PD
40 W
4730 1617 PD
40 W
4732 1717 PD
40 W
4736 1602 PD
40 W
4738 1492 PD
40 W
4740 1374 PD
40 W
4741 1360 PD
40 W
4742 1487 PD
40 W
4744 1480 PD
40 W
4745 1446 PD
40 W
4746 1608 PD
40 W
4748 1517 PD
40 W
4749 1645 PD
40 W
4752 1749 PD
40 W
4755 1728 PD
40 W
4756 1617 PD
40 W
4757 1654 PD
40 W
4759 1698 PD
40 W
4761 1595 PD
40 W
4774 1736 PD
40 W
4775 1847 PD
40 W
4779 1804 PD
40 W
4782 1755 PD
40 W
4783 1814 PD
40 W
4785 1765 PD
40 W
4786 1606 PD
40 W
4787 1746 PD
40 W
4789 1756 PD
40 W
4790 1641 PD
40 W
4795 1754 PD
40 W
4797 1760 PD
40 W
4812 1521 PD
40 W
4813 1625 PD
40 W
4816 1640 PD
40 W
4817 1658 PD
40 W
4819 1691 PD
40 W
4821 1801 PD
40 W
4825 1692 PD
40 W
4827 1730 PD
40 W
4828 1725 PD
40 W
4832 1640 PD
40 W
4834 1686 PD
40 W
4840 1854 PD
40 W
4845 1807 PD
40 W
4849 1828 PD
40 W
4850 1848 PD
40 W
4851 1860 PD
40 W
4854 1870 PD
40 W
4855 1865 PD
40 W
4858 1932 PD
40 W
4859 1912 PD
40 W
4864 1792 PD
40 W
4866 1743 PD
40 W
4868 1670 PD
40 W
4870 1712 PD
40 W
4872 1871 PD
40 W
4877 1678 PD
40 W
4879 1758 PD
40 W
4880 1668 PD
40 W
4883 1710 PD
40 W
4884 1670 PD
40 W
4887 1848 PD
40 W
4896 1745 PD
40 W
4898 1693 PD
40 W
4899 1726 PD
40 W
4903 1653 PD
40 W
4904 1823 PD
40 W
4907 1748 PD
40 W
4908 1696 PD
40 W
4910 1649 PD
40 W
4911 1602 PD
40 W
4913 1644 PD
40 W
4914 1678 PD
40 W
4915 1664 PD
40 W
4918 1663 PD
40 W
4919 1662 PD
40 W
4923 1566 PD
40 W
4925 1575 PD
40 W
4926 1703 PD
40 W
4928 1609 PD
40 W
4930 1760 PD
40 W
4941 1642 PD
40 W
4943 1759 PD
40 W
4944 1570 PD
40 W
4947 1324 PD
40 W
4955 1552 PD
40 W
4959 1633 PD
40 W
4960 1610 PD
40 W
4962 1586 PD
40 W
4967 1744 PD
40 W
4971 1674 PD
40 W
4974 1885 PD
40 W
4978 1949 PD
40 W
4979 2116 PD
40 W
4982 2061 PD
40 W
4985 2012 PD
40 W
4986 1905 PD
40 W
4993 2008 PD
40 W
5000 2252 PD
40 W
5005 2485 PD
40 W
5007 2237 PD
40 W
5009 1939 PD
40 W
5011 2061 PD
40 W
5015 2178 PD
40 W
5017 2053 PD
40 W
5024 1748 PD
40 W
5026 1831 PD
40 W
5027 1786 PD
40 W
5028 1855 PD
40 W
5038 2043 PD
40 W
5041 2026 PD
40 W
5042 2064 PD
40 W
5046 1906 PD
40 W
5047 1893 PD
40 W
5051 2156 PD
40 W
5053 2045 PD
40 W
5054 2079 PD
40 W
5056 2342 PD
40 W
5057 1947 PD
40 W
5058 2004 PD
40 W
5061 1790 PD
40 W
5062 1866 PD
40 W
5066 2073 PD
40 W
5068 2158 PD
40 W
5071 1878 PD
40 W
5076 1908 PD
40 W
5077 1934 PD
40 W
5081 1903 PD
40 W
5084 1857 PD
40 W
5090 1909 PD
40 W
5092 1924 PD
40 W
5095 1903 PD
40 W
5096 1736 PD
40 W
5099 1904 PD
40 W
5105 1949 PD
40 W
5106 1949 PD
40 W
5107 1949 PD
40 W
5109 1949 PD
40 W
5111 1949 PD
40 W
5115 1949 PD
40 W
5122 2058 PD
40 W
5124 2006 PD
40 W
5126 2107 PD
40 W
5128 1974 PD
40 W
5134 2079 PD
40 W
5141 1903 PD
40 W
5147 2182 PD
40 W
5149 2206 PD
40 W
5152 2218 PD
40 W
5154 2270 PD
40 W
5156 2311 PD
40 W
5160 2641 PD
40 W
5162 1614 PD
40 W
5163 1496 PD
40 W
5166 1314 PD
40 W
5173 1109 PD
40 W
5174 1017 PD
40 W
5178 1385 PD
40 W
5179 1419 PD
40 W
5182 2235 PD
40 W
5185 2150 PD
40 W
5186 2250 PD
40 W
5192 2228 PD
40 W
5194 2253 PD
40 W
5200 2698 PD
40 W
5205 2495 PD
40 W
5207 2534 PD
40 W
5209 2198 PD
40 W
5211 2120 PD
40 W
5218 2030 PD
40 W
5219 1972 PD
40 W
5222 1995 PD
40 W
5224 2136 PD
40 W
5227 2059 PD
40 W
5228 2047 PD
40 W
5233 1949 PD
40 W
5234 1994 PD
40 W
5238 1928 PD
40 W
5239 1929 PD
40 W
5243 1949 PD
40 W
5245 1898 PD
40 W
5246 1929 PD
40 W
5249 1907 PD
40 W
5252 1949 PD
40 W
5253 1949 PD
40 W
5256 1949 PD
40 W
5257 1918 PD
40 W
5260 1949 PD
40 W
5261 1917 PD
40 W
5267 1848 PD
40 W
5268 1949 PD
40 W
5269 1905 PD
40 W
5271 1885 PD
40 W
5275 1949 PD
40 W
5277 1949 PD
40 W
5280 1887 PD
40 W
5286 1949 PD
40 W
5287 1949 PD
40 W
5288 1862 PD
40 W
5290 1844 PD
40 W
5292 1949 PD
40 W
5299 1871 PD
40 W
5301 1949 PD
40 W
5305 1949 PD
40 W
5307 1949 PD
40 W
5310 1949 PD
40 W
5313 1893 PD
40 W
5314 1949 PD
40 W
5316 1949 PD
40 W
5318 1949 PD
40 W
5320 2002 PD
40 W
5324 1982 PD
40 W
5325 2009 PD
40 W
5329 1850 PD
40 W
5332 1915 PD
40 W
5333 1934 PD
40 W
5335 1874 PD
40 W
5336 1872 PD
40 W
5337 1859 PD
40 W
5339 1845 PD
40 W
5340 1914 PD
40 W
5341 2007 PD
40 W
5346 2120 PD
40 W
5347 2117 PD
40 W
5350 2107 PD
40 W
5351 2061 PD
40 W
5354 2204 PD
40 W
5356 2364 PD
40 W
5358 2550 PD
40 W
5362 2520 PD
40 W
5366 2203 PD
40 W
5371 1632 PD
40 W
5373 1530 PD
40 W
5374 2457 PD
40 W
5375 2034 PD
40 W
5378 1987 PD
40 W
5380 2367 PD
40 W
5381 1882 PD
40 W
5384 1847 PD
40 W
5386 1946 PD
40 W
5388 2168 PD
40 W
5389 2327 PD
40 W
5392 2221 PD
40 W
5393 2291 PD
40 W
5397 1959 PD
40 W
5401 2181 PD
40 W
5403 2111 PD
40 W
5407 1890 PD
40 W
5408 1897 PD
40 W
5414 1801 PD
40 W
5419 1789 PD
40 W
5420 1781 PD
40 W
5422 1826 PD
40 W
5426 1886 PD
40 W
5431 1811 PD
40 W
5433 1845 PD
40 W
5437 1863 PD
40 W
5438 2017 PD
40 W
5441 1980 PD
40 W
5445 1895 PD
40 W
5446 1949 PD
40 W
5448 2031 PD
40 W
5453 1916 PD
40 W
5457 1922 PD
40 W
5458 1949 PD
40 W
5464 1924 PD
40 W
5465 1949 PD
40 W
5467 1949 PD
40 W
5469 1858 PD
40 W
5471 1949 PD
40 W
5472 1949 PD
40 W
5482 1932 PD
40 W
5491 1949 PD
40 W
5493 1949 PD
40 W
5494 1924 PD
40 W
5495 1901 PD
40 W
5497 1925 PD
40 W
5499 1925 PD
40 W
5501 1936 PD
40 W
5502 1949 PD
40 W
5506 1923 PD
40 W
5508 1949 PD
40 W
5517 1949 PD
40 W
5520 1916 PD
40 W
5525 1966 PD
40 W
5527 2144 PD
40 W
5528 2131 PD
40 W
5529 2018 PD
40 W
5531 1904 PD
40 W
5532 1998 PD
40 W
5533 1945 PD
40 W
5540 2144 PD
40 W
5543 2099 PD
40 W
5544 2121 PD
40 W
5548 2167 PD
40 W
5552 2218 PD
40 W
5554 2227 PD
40 W
5559 2471 PD
40 W
5563 2371 PD
40 W
5565 2372 PD
40 W
5569 2566 PD
40 W
5570 2570 PD
40 W
5571 2345 PD
40 W
5573 2450 PD
40 W
5574 2413 PD
40 W
5577 2463 PD
40 W
5578 2553 PD
40 W
5580 2609 PD
40 W
5582 2475 PD
40 W
5585 2143 PD
40 W
5586 2137 PD
40 W
5588 2339 PD
40 W
5591 2252 PD
40 W
5593 2396 PD
40 W
5595 2481 PD
40 W
5597 2492 PD
40 W
5606 2359 PD
40 W
5607 2300 PD
40 W
5610 2118 PD
40 W
5616 1726 PD
40 W
5618 1659 PD
40 W
5631 1929 PD
40 W
5634 1949 PD
40 W
5637 1891 PD
40 W
5638 1930 PD
40 W
5653 1949 PD
40 W
5656 1887 PD
40 W
5659 1949 PD
40 W
5660 1931 PD
40 W
5665 1949 PD
40 W
5670 1949 PD
40 W
5674 1815 PD
40 W
5676 1895 PD
40 W
5678 1873 PD
40 W
5679 1949 PD
40 W
5690 1792 PD
40 W
5693 1851 PD
40 W
5694 1781 PD
40 W
5695 1767 PD
40 W
5697 1711 PD
40 W
5701 1920 PD
40 W
5702 1949 PD
40 W
5705 1920 PD
40 W
5706 1875 PD
40 W
5710 1905 PD
40 W
5712 1910 PD
40 W
5713 1873 PD
40 W
5719 1671 PD
40 W
5721 1787 PD
40 W
5725 1685 PD
40 W
5727 1680 PD
40 W
5728 1726 PD
40 W
5731 1832 PD
40 W
5732 1827 PD
40 W
5734 1840 PD
40 W
5739 1753 PD
40 W
5740 1833 PD
40 W
5743 1745 PD
40 W
5746 1796 PD
40 W
5747 1821 PD
40 W
5748 1755 PD
40 W
5754 1826 PD
40 W
5755 1839 PD
40 W
5757 1799 PD
40 W
5758 1796 PD
40 W
5765 2112 PD
40 W
5768 2125 PD
40 W
5773 2167 PD
40 W
5774 2165 PD
40 W
5785 2239 PD
40 W
5788 2191 PD
40 W
5789 2190 PD
40 W
5792 2065 PD
40 W
5795 2088 PD
40 W
5797 1827 PD
40 W
5799 1900 PD
40 W
5802 1791 PD
40 W
5803 2023 PD
40 W
5804 1961 PD
40 W
5806 2037 PD
40 W
5807 1838 PD
40 W
5814 1875 PD
40 W
5819 1789 PD
40 W
5822 1899 PD
40 W
5823 1896 PD
40 W
5825 1967 PD
40 W
5829 1900 PD
40 W
5830 1918 PD
40 W
5832 1929 PD
40 W
5834 1924 PD
40 W
5838 1949 PD
40 W
5840 1917 PD
40 W
5844 1949 PD
40 W
5845 1949 PD
40 W
5846 1949 PD
40 W
5849 1857 PD
40 W
5852 1889 PD
40 W
5853 1880 PD
40 W
5855 1849 PD
40 W
5859 1885 PD
40 W
5866 1949 PD
40 W
5867 1949 PD
40 W
5868 1894 PD
40 W
5871 2053 PD
40 W
5874 1860 PD
40 W
5878 1941 PD
40 W
5881 2030 PD
40 W
5883 2030 PD
40 W
5885 2022 PD
40 W
5886 2019 PD
40 W
5887 2032 PD
40 W
5889 1970 PD
40 W
5893 1440 PD
40 W
5894 1650 PD
40 W
5898 1862 PD
40 W
5905 1859 PD
40 W
5906 1909 PD
40 W
5909 1949 PD
40 W
5910 1934 PD
40 W
5912 1867 PD
40 W
5920 1999 PD
40 W
5924 1778 PD
40 W
5925 1767 PD
40 W
5927 1775 PD
40 W
5928 1881 PD
40 W
5930 1920 PD
40 W
5931 1943 PD
40 W
5932 2037 PD
40 W
5934 2101 PD
40 W
5935 2081 PD
40 W
5946 2037 PD
40 W
5949 1658 PD
40 W
5951 1630 PD
40 W
5953 1719 PD
40 W
5954 1732 PD
40 W
5955 1729 PD
40 W
5959 1868 PD
40 W
5965 2090 PD
40 W
5970 1815 PD
40 W
5973 2101 PD
40 W
5979 2103 PD
40 W
5983 2172 PD
40 W
5984 2166 PD
40 W
5987 2128 PD
40 W
5988 2087 PD
40 W
5994 1807 PD
40 W
5995 1856 PD
40 W
5996 1928 PD
40 W
6002 2030 PD
40 W
6003 2012 PD
40 W
6006 1913 PD
40 W
6011 2104 PD
40 W
6014 1778 PD
40 W
6017 1661 PD
40 W
6018 1645 PD
40 W
6021 1786 PD
40 W
6022 1908 PD
40 W
6023 1927 PD
40 W
6026 1857 PD
40 W
6028 1894 PD
40 W
6030 1949 PD
40 W
6032 1963 PD
40 W
6036 1886 PD
40 W
6040 1960 PD
40 W
6049 2010 PD
40 W
6051 2021 PD
40 W
6052 2013 PD
40 W
6053 2053 PD
40 W
6056 2196 PD
40 W
6059 2377 PD
40 W
6060 2496 PD
40 W
6066 2385 PD
40 W
6067 2260 PD
40 W
6070 2176 PD
40 W
6074 1851 PD
40 W
6079 2300 PD
40 W
6081 2270 PD
40 W
6082 2134 PD
40 W
6083 2262 PD
40 W
6087 2087 PD
40 W
6092 1871 PD
40 W
6093 1884 PD
40 W
6096 1906 PD
40 W
6097 1888 PD
40 W
6101 1949 PD
40 W
6104 1874 PD
40 W
6105 1856 PD
40 W
6109 2074 PD
40 W
6113 2262 PD
40 W
6117 2250 PD
40 W
6120 2618 PD
40 W
6122 2267 PD
40 W
6123 1716 PD
40 W
6126 1699 PD
40 W
6127 2178 PD
40 W
6128 2353 PD
40 W
6130 2165 PD
40 W
6136 2468 PD
40 W
6138 2620 PD
40 W
6143 2772 PD
40 W
6145 2884 PD
40 W
6146 2893 PD
40 W
6147 2981 PD
40 W
6150 2800 PD
40 W
6151 2804 PD
40 W
6154 2374 PD
40 W
6156 2441 PD
40 W
6161 2248 PD
40 W
6164 2316 PD
40 W
6169 2480 PD
40 W
6171 2261 PD
40 W
6172 2154 PD
40 W
6175 2151 PD
40 W
6176 2147 PD
40 W
6179 1494 PD
40 W
6184 1969 PD
40 W
6185 1842 PD
40 W
6188 1860 PD
40 W
6200 1933 PD
40 W
6202 1930 PD
40 W
6203 1949 PD
40 W
6206 1918 PD
40 W
6210 1952 PD
40 W
6218 1966 PD
40 W
6222 2088 PD
40 W
6224 2029 PD
40 W
6226 1994 PD
40 W
6229 2003 PD
40 W
6230 1982 PD
40 W
6233 2361 PD
40 W
6236 2342 PD
40 W
6237 2403 PD
40 W
6248 2188 PD
40 W
6249 2283 PD
40 W
6252 2541 PD
40 W
6254 2370 PD
40 W
6258 2469 PD
40 W
6260 2329 PD
40 W
6262 2107 PD
40 W
6263 2238 PD
40 W
6264 2317 PD
40 W
6266 2331 PD
40 W
6267 2420 PD
40 W
6271 2383 PD
40 W
6273 2293 PD
40 W
6274 2470 PD
40 W
6275 2499 PD
40 W
6277 2482 PD
40 W
6278 2403 PD
40 W
6279 2437 PD
40 W
6281 2784 PD
40 W
6289 2600 PD
40 W
6294 2445 PD
40 W
6297 2340 PD
40 W
6301 2147 PD
40 W
6304 2085 PD
40 W
6305 2045 PD
40 W
6307 2071 PD
40 W
6308 2125 PD
40 W
6309 2052 PD
40 W
6324 2228 PD
40 W
6327 2334 PD
40 W
6333 2263 PD
40 W
6334 2265 PD
40 W
6335 2137 PD
40 W
6339 2290 PD
40 W
6341 2436 PD
40 W
6346 1737 PD
40 W
6347 1915 PD
40 W
6350 1785 PD
40 W
6352 1521 PD
40 W
6353 1242 PD
40 W
6356 1153 PD
40 W
6358 1259 PD
40 W
6365 1964 PD
40 W
6368 1878 PD
40 W
6369 1861 PD
40 W
6371 1839 PD
40 W
6373 1857 PD
40 W
6375 1833 PD
40 W
6376 1993 PD
40 W
6379 2027 PD
40 W
6380 2029 PD
40 W
6386 1965 PD
40 W
6387 1966 PD
40 W
6392 1997 PD
40 W
6394 2138 PD
40 W
6395 1949 PD
40 W
6401 1954 PD
40 W
6402 1949 PD
40 W
6403 1949 PD
40 W
6416 1957 PD
40 W
6418 1896 PD
40 W
6421 1949 PD
40 W
6422 1949 PD
40 W
6425 1949 PD
40 W
6429 1821 PD
40 W
6432 1883 PD
40 W
6436 1949 PD
40 W
6437 1935 PD
40 W
6439 1949 PD
40 W
6440 1933 PD
40 W
6441 1949 PD
40 W
6444 1854 PD
40 W
6447 1949 PD
40 W
6450 1949 PD
40 W
6455 1949 PD
40 W
6460 1949 PD
40 W
6462 1949 PD
40 W
6465 1949 PD
40 W
6466 1949 PD
40 W
6467 1949 PD
40 W
6471 1949 PD
40 W
6481 1949 PD
40 W
6484 1949 PD
40 W
6488 2046 PD
40 W
6490 2066 PD
40 W
6492 2031 PD
40 W
6493 2054 PD
40 W
6497 2102 PD
40 W
6501 2152 PD
40 W
6503 2198 PD
40 W
6508 2317 PD
40 W
6510 2334 PD
40 W
6511 2365 PD
40 W
6512 2345 PD
40 W
6515 2291 PD
40 W
6519 2253 PD
40 W
6523 2349 PD
40 W
6526 2524 PD
40 W
6531 2392 PD
40 W
6533 2236 PD
40 W
6535 2077 PD
40 W
6537 2035 PD
40 W
6542 1649 PD
40 W
6544 1775 PD
40 W
6548 2055 PD
40 W
6549 2243 PD
40 W
6550 2209 PD
40 W
6554 1543 PD
40 W
6559 1599 PD
40 W
6560 1762 PD
40 W
6563 2011 PD
40 W
6567 2539 PD
40 W
6568 1855 PD
40 W
6569 1405 PD
40 W
6572 1637 PD
40 W
6573 1569 PD
40 W
6578 1695 PD
40 W
6580 1788 PD
40 W
6582 1712 PD
40 W
6583 1607 PD
40 W
6584 1619 PD
40 W
6586 1667 PD
40 W
6588 1769 PD
40 W
6597 1779 PD
40 W
6601 1869 PD
40 W
6606 1837 PD
40 W
6610 1805 PD
40 W
6612 1756 PD
40 W
6616 1808 PD
40 W
6617 1748 PD
40 W
6618 1743 PD
40 W
6621 1590 PD
40 W
6624 1688 PD
40 W
6627 1562 PD
40 W
6629 1600 PD
40 W
6633 1595 PD
40 W
6635 1620 PD
40 W
6637 1694 PD
40 W
6639 1695 PD
40 W
6640 1764 PD
40 W
6642 1746 PD
40 W
6643 1711 PD
40 W
6646 1618 PD
40 W
6650 1726 PD
40 W
6651 1709 PD
40 W
6654 1790 PD
40 W
6662 1883 PD
40 W
6663 1890 PD
40 W
6665 1929 PD
40 W
6672 1853 PD
40 W
6676 1902 PD
40 W
6677 1949 PD
40 W
6678 1827 PD
40 W
6682 1952 PD
40 W
6688 2019 PD
40 W
6689 2051 PD
40 W
6691 2083 PD
40 W
6695 2094 PD
40 W
6696 2047 PD
40 W
6697 2128 PD
40 W
6699 2145 PD
40 W
6703 2284 PD
40 W
6708 2187 PD
40 W
6711 1630 PD
40 W
6714 1743 PD
40 W
6718 2108 PD
40 W
6721 2058 PD
40 W
6722 1873 PD
40 W
6723 1773 PD
40 W
6727 1744 PD
40 W
6729 1933 PD
40 W
6730 2160 PD
40 W
6734 1839 PD
40 W
6737 1675 PD
40 W
6738 1449 PD
40 W
6744 1501 PD
40 W
6745 1466 PD
40 W
6746 1808 PD
40 W
6748 1717 PD
40 W
6749 1597 PD
40 W
6753 1819 PD
40 W
6759 1617 PD
40 W
6760 1676 PD
40 W
6761 1864 PD
40 W
6763 1882 PD
40 W
6765 1902 PD
40 W
6771 1669 PD
40 W
6772 1535 PD
40 W
6775 1708 PD
40 W
6778 1981 PD
40 W
6783 2039 PD
40 W
6785 1984 PD
40 W
6786 2031 PD
40 W
6790 1828 PD
40 W
6791 1883 PD
40 W
6793 1800 PD
40 W
6801 1949 PD
40 W
6804 1933 PD
40 W
6805 1915 PD
40 W
6810 1925 PD
40 W
6812 1937 PD
40 W
6814 1909 PD
40 W
6817 1921 PD
40 W
6821 1925 PD
40 W
6823 1935 PD
40 W
6824 1855 PD
40 W
6827 1853 PD
40 W
6828 1927 PD
40 W
6829 1919 PD
40 W
6832 1949 PD
40 W
6835 1929 PD
40 W
6836 1949 PD
40 W
6839 1949 PD
40 W
6842 1949 PD
40 W
6843 1949 PD
40 W
6848 1933 PD
40 W
6850 1949 PD
40 W
6854 1949 PD
40 W
6855 1949 PD
40 W
6861 1900 PD
40 W
6862 1932 PD
40 W
6865 1949 PD
40 W
6868 1949 PD
40 W
6869 1949 PD
40 W
6872 1949 PD
40 W
6876 1949 PD
40 W
6877 1949 PD
40 W
6878 1949 PD
40 W
6880 1949 PD
40 W
6884 1915 PD
40 W
6885 1978 PD
40 W
6887 1997 PD
40 W
6895 1766 PD
40 W
6897 1804 PD
40 W
6899 1809 PD
40 W
6900 1762 PD
40 W
6902 1728 PD
40 W
6903 1791 PD
40 W
6907 1776 PD
40 W
6908 1788 PD
40 W
6910 1844 PD
40 W
6911 1812 PD
40 W
6912 1790 PD
40 W
6914 1787 PD
40 W
6917 2012 PD
40 W
6918 2040 PD
40 W
6919 2019 PD
40 W
6929 2208 PD
40 W
6936 2448 PD
40 W
6937 2322 PD
40 W
6938 2320 PD
40 W
6940 2374 PD
40 W
6944 2140 PD
40 W
6945 2226 PD
40 W
6947 2106 PD
40 W
6951 2107 PD
40 W
6952 1788 PD
40 W
6957 1724 PD
40 W
6961 1439 PD
40 W
6963 1376 PD
40 W
6966 1157 PD
40 W
6967 1337 PD
40 W
6975 1520 PD
40 W
6976 1486 PD
40 W
6978 1634 PD
40 W
6979 1726 PD
40 W
6982 1775 PD
40 W
6983 1830 PD
40 W
6985 1719 PD
40 W
6994 1780 PD
40 W
6998 1734 PD
40 W
7000 1875 PD
40 W
7004 1903 PD
40 W
7008 1897 PD
40 W
7009 1866 PD
40 W
7010 1899 PD
40 W
7012 1977 PD
40 W
7013 1949 PD
40 W
7015 1969 PD
40 W
7016 1949 PD
40 W
7019 1949 PD
40 W
7020 1928 PD
40 W
7021 1887 PD
40 W
7023 1949 PD
gs 1142 399 6808 3102 rc
/c9 { 1.000000 0.000000 0.000000 sr} bdef
c9
2 2 1 2 1 3 3 5 1 3 2 3 1 4 2 3 
1 4 1 3 4 14 4 19 2 8 4 32 9 128 2 24 
1 24 3 47 1 23 2 21 1 18 8 37 1 -10 3 -37 
2 -27 4 -107 5 -185 1 -49 4 -140 2 -41 1 -38 4 -85 
2 -18 1 -12 1 -6 7 47 10 203 1 32 1 30 3 55 
2 24 1 22 1 18 2 16 1 12 4 17 1 0 2 -2 
1 -5 2 -7 2 -19 8 -70 2 -10 1 -10 4 -23 2 -6 
1 -4 1 -3 4 -4 3 0 1 1 3 3 3 4 1 1 
6 5 1 0 4 2 2 0 5 2 1 1 3 2 3 3 
1 2 3 3 3 4 1 2 1 1 3 3 1 1 2 0 
4 1 3 -1 2 -1 2 -1 5 -4 1 -1 3 -2 8 5 
2 3 1 3 4 13 1 5 2 6 5 30 3 18 3 19 
1 10 6 41 2 21 2 10 1 9 1 10 6 29 4 10 
1 0 2 -1 1 -2 1 -5 6 -33 1 -12 3 -26 4 -45 
1 -16 2 -16 4 -49 1 -15 1 -16 3 -29 4 -41 3 -23 
3 -21 5 -28 4 -7 2 0 1 2 1 4 4 18 2 8 
1 9 6 43 4 33 1 11 1 10 4 28 7 42 2 8 
1 8 8 54 3 21 1 11 4 32 3 20 1 9 2 8 
1 8 2 6 2 9 2 2 4 -3 2 -9 3 -15 3 -18 
3 -21 1 -11 1 -10 4 -27 2 -8 4 -13 5 4 4 16 
9 44 2 9 2 3 1 2 1 0 2 -1 2 -7 5 -20 
1 -8 3 -19 1 -10 1 -11 4 -31 3 -20 1 -10 5 -31 
4 -35 1 -14 1 -14 4 -49 2 -19 5 -84 2 -23 2 -45 
2 -21 5 -75 3 -27 4 -21 4 2 3 14 1 10 1 12 
2 14 5 68 2 19 4 55 4 52 1 16 2 14 2 26 
4 30 3 14 10 22 4 2 1 0 1 0 3 1 2 0 
5 2 5 5 3 4 3 3 3 3 1 2 1 1 2 1 
1 2 4 2 3 1 4 0 3 -1 1 -1 3 -3 2 -4 
13 -38 1 -7 1 -7 6 -28 1 -5 2 -5 5 -4 1 5 
6 45 1 19 3 44 1 26 2 28 2 58 2 29 1 28 
3 51 7 63 2 -11 3 -34 1 -25 2 -29 3 -72 1 -40 
5 -169 2 -40 4 -101 1 -26 1 -21 6 -38 3 6 15 92 
1 -4 1 -6 2 -10 1 -13 3 -33 4 -65 3 -46 5 -82 
8 -51 2 1 1 3 1 5 2 8 1 9 1 9 2 11 
4 32 1 10 2 10 1 8 1 8 2 6 2 10 4 10 
2 3 3 7 1 4 11 71 1 14 3 32 3 33 1 17 
3 34 2 32 2 15 4 40 8 59 4 22 3 12 1 6 
2 5 12 10 3 -15 6185 1903 300 MP stroke
1 -10 5 -71 3 -51 1 -29 3 -67 1 -36 2 -38 5 -160 
3 -78 5 -131 2 -25 3 -36 1 -11 3 -6 1 4 1 9 
2 14 5 96 2 31 6 174 2 34 1 33 1 32 3 58 
1 26 2 24 3 43 4 50 4 36 4 22 1 5 3 4 
4 -7 1 -6 3 -17 1 -11 5 -42 4 -51 1 -18 1 -17 
2 -17 5 -58 4 -26 3 -6 1 1 6 24 1 11 3 28 
3 32 1 17 1 18 2 18 9 119 4 40 4 33 2 8 
2 15 2 5 3 9 1 3 1 1 3 0 1 -1 3 -6 
3 -11 5 -33 3 -22 1 -12 6 -49 1 -13 1 -11 6 -38 
1 -6 3 -7 1 -1 4 11 6 43 3 31 5 67 6 58 
4 25 1 5 1 2 2 0 2 -6 3 -12 11 -69 1 -7 
2 -5 1 -4 1 -3 2 -2 1 0 2 1 1 2 4 12 
8 37 2 6 1 5 3 9 1 3 7 -2 4 -16 1 -6 
4 -24 2 -9 1 -8 1 -8 2 -8 2 -12 3 -9 4 -4 
3 3 3 6 1 4 1 5 7 21 4 8 2 1 1 1 
3 -1 3 -2 1 -2 1 -2 4 -5 2 -1 4 0 2 3 
2 3 1 3 4 10 2 4 1 4 3 6 5 4 7 -23 
1 -9 2 -11 1 -12 1 -14 3 -30 2 -16 2 -34 3 -33 
3 -30 1 -14 3 -21 11 4 1 12 5 63 3 40 7 100 
1 18 2 18 1 16 6 52 1 9 1 8 3 12 3 8 
1 2 5 0 2 -2 1 -3 3 -7 1 -4 2 -5 4 -17 
2 -11 6 -21 1 -4 2 -4 4 -7 1 -1 3 0 1 0 
4 3 2 1 1 1 1 1 3 0 11 -21 1 -5 2 -5 
2 -11 4 -16 5 -15 5 -15 1 -2 3 -3 3 -1 15 44 
1 5 3 11 3 7 13 -74 2 -19 6 -114 3 -49 1 -25 
9 -125 2 -32 2 -14 2 -25 3 -20 2 -9 1 -8 3 -14 
2 -11 2 -4 1 -3 3 -2 1 1 2 2 1 4 1 5 
4 26 2 12 4 45 5 73 2 19 4 58 4 53 1 16 
3 28 7 55 1 8 1 7 2 7 1 6 1 6 2 5 
5 17 3 8 9 20 2 3 4 5 1 1 2 1 2 2 
2 1 1 1 1 0 2 1 9 2 10 -2 1 -1 2 -2 
2 -3 2 -2 1 -2 6 -9 1 -2 4 -3 5 5 2 3 
1 5 4 18 3 16 1 8 4 26 2 8 5 22 4 -1 
2 -4 1 -6 5 -45 6 -65 1 -17 4 -47 2 -14 4 -29 
4 -11 1 0 3 3 1 3 2 4 2 6 3 4 1 -1 
2 -2 3 -8 1 -8 1 -8 2 -10 5 -46 4 -29 4 -10 
2 2 2 12 3 24 1 15 3 36 1 19 5 60 1 19 
1 18 2 16 1 14 5336 1948 300 MP stroke
1 12 2 10 1 8 3 9 4 1 1 -3 4 -12 2 -5 
2 -8 2 -3 1 -3 3 -3 3 -1 2 3 4 7 2 3 
7 14 2 4 2 2 1 1 1 1 6 0 3 -1 2 -1 
4 -3 2 -1 1 -2 1 -1 6 -5 1 -1 3 -2 1 -1 
3 -2 1 -1 3 -1 3 -2 1 0 2 -1 4 -5 1 -2 
4 -12 1 -6 5 -28 1 -13 3 -32 2 -40 3 -46 1 -26 
7 -130 2 -22 2 -37 2 -12 5 1 6 98 2 83 6 207 
1 54 3 103 3 88 1 36 4 66 1 7 7 -78 3 -72 
1 -41 2 -42 4 -129 2 -76 2 -33 3 -52 2 -33 6 -13 
7 53 6 73 2 13 2 23 2 10 7 38 4 17 2 10 
2 5 1 5 1 5 6 17 3 7 1 3 3 4 2 1 
6 -7 3 -8 4 -18 1 -7 5 -33 3 -17 2 -9 4 -22 
1 -6 3 -9 1 -3 1 -1 2 0 1 1 2 3 4 17 
1 8 4 29 1 10 3 19 10 28 1 -4 1 -6 2 -9 
7 -70 2 -36 4 -52 2 -15 2 -26 2 -11 5 -18 7 32 
7 79 1 20 3 43 3 46 1 23 4 71 3 46 4 65 
5 70 2 14 1 12 4 26 8 10 3 -6 1 -3 2 -5 
11 -32 2 -6 2 -2 1 -3 2 -2 4 -7 1 -3 3 -6 
1 -4 1 -3 2 -4 1 -5 2 -4 1 -5 3 -8 1 -4 
4 -11 1 -3 2 -2 9 -7 3 -1 1 -1 3 -4 1 -2 
2 -4 5 -20 2 -7 2 -15 2 -7 2 -16 5 -20 1 -5 
3 -8 1 -2 3 -1 1 1 1 3 4 15 5 23 6 48 
2 10 4 27 1 8 2 8 4 18 2 8 2 3 1 2 
3 2 1 0 15 -37 2 -6 5 -22 1 -6 2 -5 1 -5 
1 -5 2 -4 1 -3 3 -5 4 -2 1 2 13 68 2 26 
2 14 1 13 1 14 3 26 3 24 1 10 2 9 1 8 
1 6 2 4 1 3 1 2 2 0 2 -5 4 -16 2 -7 
3 -15 4 -25 4 -22 1 -7 6 -21 2 -6 3 -5 3 -2 
1 0 6 2 2 2 2 2 6 3 4 -2 5 -7 2 -8 
4 -15 3 -13 1 -7 7 -35 2 -7 2 -12 3 -11 1 -4 
3 -6 2 -3 4 -2 1 1 1 2 2 2 7 20 2 11 
2 6 5 22 1 5 7 15 3 1 1 0 2 -2 1 -1 
3 -6 2 -7 3 -8 2 -4 4 -12 1 -4 1 -3 3 -5 
1 -2 5 -2 4 3 1 2 3 5 1 3 4 9 1 2 
2 2 1 2 2 1 1 1 1 0 10 -27 3 -15 6 -48 
7 -49 2 -8 5 -25 4 -8 3 -1 1 0 4 6 2 3 
4 10 2 8 4 12 3 8 3 9 1 5 2 4 4 15 
1 5 3 10 1 4 4488 1824 300 MP stroke
2 4 2 8 2 2 1 2 1 2 9 -10 4 -17 1 -6 
1 -7 3 -16 3 -16 1 -9 1 -8 3 -17 2 -8 1 -8 
1 -8 2 -7 2 -13 2 -5 4 -9 3 0 1 3 3 11 
2 19 3 26 1 16 10 134 4 47 1 12 7 9 3 -22 
1 -16 3 -40 1 -24 2 -26 2 -55 5 -87 4 -82 1 -25 
3 -44 5 -68 3 -25 4 -29 1 -8 2 -7 1 -6 3 -9 
1 -3 2 -3 1 -1 1 -1 3 3 1 4 2 5 1 6 
1 8 2 9 7 65 6 81 3 30 8 62 3 8 1 1 
3 -3 1 -3 5 -17 2 -13 6 -25 1 -4 4 -6 3 1 
1 2 4 11 2 4 1 4 3 7 8 -6 1 -6 2 -7 
1 -9 3 -20 1 -11 1 -11 5 -35 4 -32 1 -9 1 -8 
4 -22 3 -12 3 -12 3 -12 8 -31 1 -3 3 -3 1 1 
2 3 2 12 2 8 2 23 6 61 5 63 3 26 1 11 
2 9 1 8 3 11 7 15 1 3 1 3 2 5 4 19 
7 48 1 10 1 9 4 22 2 4 5 -3 2 -6 5 -41 
5 -52 2 -13 1 -12 6 -35 5 -10 7 16 3 10 1 5 
1 4 3 6 8 -13 3 -16 3 -20 1 -12 1 -12 4 -38 
2 -12 1 -11 4 -26 2 -5 1 -2 7 30 1 15 2 17 
1 21 3 48 1 27 5 113 3 52 1 23 2 20 4 42 
5 0 3 -21 1 -16 2 -17 3 -40 1 -22 1 -21 2 -21 
1 -20 3 -36 4 -40 4 -23 9 -22 2 -4 7 -32 2 -17 
2 -8 4 -19 8 14 7 75 2 38 2 19 4 49 1 12 
2 9 1 6 3 0 1 -5 3 -24 3 -37 4 -78 4 -92 
5 -118 6 -88 1 -15 7 -32 1 1 4 18 4 32 2 13 
1 14 4 47 6 67 1 17 4 50 1 16 2 16 8 77 
4 25 3 11 5 10 1 2 2 1 1 2 2 2 1 3 
4 17 3 21 2 28 3 37 2 22 1 23 1 24 2 25 
4 77 4 69 1 18 3 29 5 17 3 -13 7 -82 5 -94 
2 -24 1 -23 1 -23 3 -43 1 -21 9 -97 2 -25 7 -46 
2 -6 1 -5 3 -5 5 8 3 14 1 10 7 73 3 37 
1 20 1 20 2 21 2 41 2 21 1 20 2 21 1 19 
3 39 1 19 3 35 1 18 3 32 11 105 1 9 8 37 
7 8 1 0 2 0 2 -2 7 -11 2 -3 4 -11 2 -10 
2 -6 3 -13 1 -7 1 -8 4 -22 2 -8 2 -12 2 -6 
1 -4 6 -2 4 14 1 8 3 18 4 32 4 26 1 6 
4 2 2 -6 1 -9 6 -72 2 -56 2 -32 1 -33 1 -35 
2 -35 2 -71 3 -64 2 -28 1 -25 1 -21 2 -16 1 -13 
4 -9 1 5 2 10 3634 2023 300 MP stroke
1 12 1 15 2 18 7 91 5 44 1 4 5 -4 4 -22 
4 -26 2 -15 2 -4 1 -4 3 0 1 3 2 4 1 6 
1 7 3 17 1 9 2 9 1 8 3 14 4 11 7 -12 
1 -6 1 -7 11 -63 2 -6 1 -4 3 -7 9 5 6 11 
3 5 1 2 4 2 1 0 6 -5 4 -7 3 -6 4 -7 
1 -2 1 -2 3 -3 4 -2 6 1 2 2 2 1 2 3 
2 2 4 7 1 3 2 4 4 12 1 5 1 6 5 18 
1 7 1 6 3 13 3 11 5 12 1 0 6 -12 1 -7 
6 -36 1 -11 1 -12 3 -23 2 -11 9 -52 3 -1 1 3 
3 10 4 29 7 77 1 18 1 20 6 79 3 40 6 88 
5 42 2 22 2 9 4 17 2 4 2 -1 1 -3 2 -4 
1 -6 1 -7 2 -8 1 -10 3 -22 1 -13 1 -12 5 -37 
2 -23 2 -10 2 -17 8 -26 2 -1 5 -3 2 -1 4 -5 
2 -7 2 -5 3 -11 2 -15 2 -8 1 -8 1 -8 3 -17 
10 -50 1 -5 5 -15 2 -2 1 -2 1 -1 2 -2 7 -3 
1 0 1 0 2 0 2 0 3 0 2 1 1 1 1 0 
2 1 4 4 2 3 3 3 7 5 1 0 4 0 2 0 
2 -1 7 0 4 5 3 6 1 4 2 4 1 5 2 6 
2 12 2 7 1 7 5 27 2 7 1 7 2 6 1 7 
1 6 2 6 1 7 1 6 2 6 2 13 3 12 2 6 
1 5 1 6 2 4 1 5 1 3 2 2 1 2 1 1 
2 -1 1 -2 3 -8 1 -6 2 -6 1 -8 1 -9 4 -31 
2 -10 7 -52 4 -24 4 -17 4 -10 5 -9 2 -3 8 -16 
2 -7 3 -7 3 -6 7 -9 1 -1 1 -1 2 0 1 0 
4 -2 3 -2 4 -9 3 -9 3 -11 1 -6 1 -6 3 -11 
1 -5 7 -4 4 21 2 12 1 13 4 51 4 61 4 59 
7 64 1 4 2 2 9 -81 2 -23 6 -131 3 -54 2 -26 
2 -47 2 -22 1 -19 1 -16 11 -34 2 8 2 25 2 16 
1 18 1 19 2 21 1 22 1 23 3 47 7 107 1 17 
4 39 2 8 1 5 2 3 2 -1 2 -3 1 -6 3 -16 
5 -43 2 -12 8 -57 4 -17 2 -8 2 -2 1 -3 4 -6 
6 -11 1 -4 3 -10 8 -41 1 -7 2 -7 5 -23 3 -6 
5 0 2 2 2 8 7 25 6 11 4 -7 1 -6 12 -120 
4 -35 3 -9 2 2 5 54 1 26 2 31 1 36 5 173 
3 92 2 43 6 152 4 6 7 -155 2 -52 1 -58 1 -61 
9 -386 1 -56 1 -51 3 -84 3 -58 1 -19 1 -11 2 -6 
1 0 2 6 1 11 1 15 2 18 4 68 1 25 4 73 
6 80 2 31 3 26 2782 2224 300 MP stroke
1 12 3 21 4 31 3 21 3 21 2 22 4 31 2 10 
1 10 2 8 6 28 2 3 2 2 2 0 5 -6 4 -9 
2 -4 2 -6 3 -8 6 -18 4 -22 5 -51 3 -36 7 -120 
1 -26 3 -49 4 -60 3 -20 1 -3 1 2 6 69 1 32 
1 36 2 40 4 134 1 46 3 88 1 39 2 34 1 29 
1 23 6 24 1 -11 3 -41 3 -62 1 -37 4 -121 1 -41 
6 -148 5 -99 2 -15 1 -12 1 -8 2 -4 2 0 3 11 
4 31 10 113 4 58 1 20 3 39 8 109 2 15 4 41 
1 11 1 9 2 9 1 8 10 24 2 1 4 0 3 -1 
4 -2 2 0 1 0 1 0 6 0 7 0 2 0 3 0 
3 1 1 0 3 1 1 1 2 1 2 3 3 3 5 7 
3 4 1 2 2 1 1 1 2 1 4 -1 2 -4 4 -13 
2 -6 9 -59 3 -19 1 -8 7 -27 2 -1 2 2 2 3 
5 25 6 31 1 8 1 7 2 6 1 5 3 9 2 5 
5 6 5 12 7 38 1 12 3 27 1 15 2 16 2 32 
7 76 2 12 5 33 1 4 2 3 1 0 1 -2 2 -3 
4 -20 1 -10 2 -11 1 -12 1 -13 6 -57 2 -29 5 -41 
1 -12 1 -11 3 -20 3 -15 2 -11 2 -4 1 -2 2 -3 
4 -2 1 0 5 3 2 0 1 1 6 1 1 0 1 -1 
2 0 1 -1 1 0 2 -1 1 -1 1 -1 2 -1 3 -2 
5 -2 1 0 2 0 1 0 1 0 5 1 1 0 3 1 
1 0 3 -1 1 -1 1 -1 3 -3 3 -5 1 -3 3 -8 
3 -10 4 -17 4 -19 3 -13 1 -6 1 -5 2 -6 2 -9 
2 -4 1 -3 3 -5 1 -2 3 -1 3 2 1 2 3 7 
1 5 1 5 6 29 1 9 2 10 5 43 7 59 3 23 
1 11 3 23 5 47 1 13 2 13 5 58 3 33 1 17 
4 55 3 37 2 17 4 47 9 36 1 -6 3 -22 2 -16 
2 -39 6 -100 1 -27 6 -103 1 -21 1 -19 2 -16 1 -13 
3 -16 1 -3 1 1 2 3 1 6 3 20 1 12 2 13 
1 14 1 14 3 25 1 11 2 9 3 10 5 -10 3 -21 
4 -46 1 -18 1 -18 3 -34 2 -16 1 -15 1 -12 4 -23 
2 -2 1 1 7 48 3 35 2 40 2 21 1 21 1 21 
6 72 3 26 1 10 1 8 2 5 2 6 2 1 1 -1 
1 -2 10 -11 5 22 5 36 1 15 1 17 2 16 2 34 
2 16 4 37 1 7 4 1 2 -7 1 -12 7 -116 3 -68 
1 -36 1 -38 2 -38 1 -38 1 -37 2 -37 1 -34 1 -32 
3 -56 4 -61 3 -22 3 -10 1 0 14 103 2 28 10 89 
3 23 6 55 13 92 1958 1704 300 MP stroke
1 8 1 8 2 8 1 6 3 12 1 6 2 5 2 8 
6 14 1 3 1 2 9 13 4 3 2 0 5 -2 1 -2 
4 -6 3 -5 2 -5 3 -4 1 -1 2 -1 1 0 2 1 
1 1 4 10 3 10 2 15 2 8 3 18 1 10 3 21 
1 10 5 34 2 6 5 11 3 -6 1 -6 8 -79 2 -19 
1 -21 2 -22 1 -24 1 -24 2 -26 11 -216 4 -78 1 -25 
1 -24 7 -100 4 -42 3 -18 4 -14 1 -1 3 4 1 4 
3 14 8 67 6 53 1 12 2 12 2 21 3 18 3 13 
2 11 2 4 1 3 3 7 1 4 2 4 2 10 3 13 
1 9 2 9 1 10 3 22 3 25 4 36 4 31 1 8 
1 7 5 13 2 3 8 3 3 3 2 3 1 3 1 4 
2 5 1 5 4 13 1 4 7 0 4 -18 2 -9 1 -10 
5 -46 3 -22 2 -9 1 -8 1 -6 2 -3 1 -2 1 2 
3 10 6 53 2 38 6 87 2 42 2 18 3 31 1 11 
3 14 1 2 1 -1 2 -5 1 -8 4 -40 3 -38 1 -22 
2 -22 5 -94 1 -23 3 -44 1 -21 9 -107 2 -31 4 -44 
2 -14 3 -27 4 -35 1 -10 1 -9 2 -7 1 -6 1 -5 
3 -4 2 0 1 2 4 13 3 15 1 8 4 26 1 9 
2 8 1 7 3 13 1 6 8 16 6 4 3 4 1 2 
3 8 1 5 6 27 1 9 1 9 3 19 1 9 10 43 
4 0 1 -3 3 -10 7 -34 3 -13 2 -11 3 -6 1 -2 
2 -2 5 -1 3 0 1 0 4 -3 2 -2 5 -4 2 1 
2 7 4 28 3 32 1 19 3 44 1 24 2 24 1 24 
2 22 4 51 2 13 2 -2 1 -7 1 -13 5 -74 1 -35 
3 -80 1 -43 1 -45 2 -44 1 -44 1 -41 3 -73 2 -30 
1 -25 1 -20 8 -5 4 55 9 145 1 23 1 21 2 19 
4 47 4 29 1 6 3 9 3 4 2 0 6 -3 1 -2 
2 -1 2 -2 2 -1 1 -1 6 1 1 1 1 1 2 2 
1 2 3 3 1 2 3 4 1 2 1 1 5 3 1 0 
1 1 2 -1 1 0 1 -1 2 0 1 -1 3 -2 4 0 
5 3 2 1 1 2 1 2 3 4 3 4 1 2 2 1 
5 1 3 -2 1 -2 1 -2 6 -11 3 -5 1 -2 1 -3 
6 -8 3 -4 2 -5 3 -6 1 -4 2 -5 1 -5 3 -11 
5 -25 2 -6 2 -10 4 -9 7 12 2 7 2 19 2 12 
1 13 3 28 2 31 3 32 2 16 1 15 8 68 3 10 
3 3 4 -8 1 -6 4 -24 6 -43 1 -11 1 -11 4 -31 
2 -9 1 -8 3 -14 4 -14 1 -2 2 -3 1 -1 3 -1 
2 1 9 10 6 9 1165 1936 300 MP stroke
2 1 2 2 5 2 5 0 1 0 4 -2 1146 1933 7 MP stroke
gr

c9
0 sg
 516 2340 mt  -90 rotate
(u) s
90 rotate
%%IncludeResource: font Times-Roman
/Times-Roman /ISOLatin1Encoding 192 FMSR

 636 2220 mt  -90 rotate
(y) s
90 rotate
%%IncludeResource: font Times-Roman
/Times-Roman /ISOLatin1Encoding 240 FMSR

 516 2124 mt  -90 rotate
( \(m/s\)) s
90 rotate
4107 3966 mt 
(time step) s
3751  215 mt 
(Jun2-Jul3, 2002) s
1112 3583 mt 
( ) s
7920  481 mt 
( ) s
6 w
1 sg
0 726 1906 0 0 -726 5874 1163 4 MP
PP
-1906 0 0 726 1906 0 0 -726 5874 1163 5 MP stroke
4 w
DO
SO
6 w
0 sg
5874 1163 mt 7780 1163 L
5874  437 mt 7780  437 L
5874 1163 mt 5874  437 L
7780 1163 mt 7780  437 L
5874 1163 mt 7780 1163 L
5874 1163 mt 5874  437 L
5874 1163 mt 7780 1163 L
5874  437 mt 7780  437 L
5874 1163 mt 5874  437 L
7780 1163 mt 7780  437 L
6342  711 mt 
(measurement) s
gs 5874 437 1907 727 rc
48 w
gs 5955 459 341 341 rc
40 W
c8
6125 629 PD
gr

c8
gr

48 w
c8
0 sg
6342 1054 mt 
(regularization) s
gs 5874 437 1907 727 rc
c9
360 0 5945 970 2 MP stroke
6 w
gr

6 w
c9

end %%Color Dict

eplot
%%EndObject

epage
end

showpage

%%Trailer
%%EOF
