%!PS-Adobe-3.0 EPSF-3.0
%%Creator: MATLAB, The MathWorks, Inc. Version 8.1.0.604 (R2013a). Operating System: Darwin 12.5.0 Darwin Kernel Version 12.5.0: Sun Sep 29 13:33:47 PDT 2013; root:xnu-2050.48.12~1/RELEASE_X86_64 x86_64.
%%Title: /Users/bamdadhosseini/Work/Courses/apma990-machinelearning/MATLAB/wy_jul_aug_fit.eps
%%CreationDate: 01/12/2015  12:59:41
%%DocumentNeededFonts: Times-Roman
%%DocumentProcessColors: Cyan Magenta Yellow Black
%%LanguageLevel: 2
%%Pages: 1
%%BoundingBox:   -61   229   672   563
%%EndComments

%%BeginProlog
% MathWorks dictionary
/MathWorks 160 dict begin
% definition operators
/bdef {bind def} bind def
/ldef {load def} bind def
/xdef {exch def} bdef
/xstore {exch store} bdef
% operator abbreviations
/c  /clip ldef
/cc /concat ldef
/cp /closepath ldef
/gr /grestore ldef
/gs /gsave ldef
/mt /moveto ldef
/np /newpath ldef
/cm /currentmatrix ldef
/sm /setmatrix ldef
/rm /rmoveto ldef
/rl /rlineto ldef
/s {show newpath} bdef
/sc {setcmykcolor} bdef
/sr /setrgbcolor ldef
/sg /setgray ldef
/w /setlinewidth ldef
/j /setlinejoin ldef
/cap /setlinecap ldef
/rc {rectclip} bdef
/rf {rectfill} bdef
% page state control
/pgsv () def
/bpage {/pgsv save def} bdef
/epage {pgsv restore} bdef
/bplot /gsave ldef
/eplot {stroke grestore} bdef
% orientation switch
/portraitMode 0 def /landscapeMode 1 def /rotateMode 2 def
% coordinate system mappings
/dpi2point 0 def
% font control
/FontSize 0 def
/FMS {/FontSize xstore findfont [FontSize 0 0 FontSize neg 0 0]
  makefont setfont} bdef
/reencode {exch dup where {pop load} {pop StandardEncoding} ifelse
  exch dup 3 1 roll findfont dup length dict begin
  { 1 index /FID ne {def}{pop pop} ifelse } forall
  /Encoding exch def currentdict end definefont pop} bdef
/isroman {findfont /CharStrings get /Agrave known} bdef
/FMSR {3 1 roll 1 index dup isroman {reencode} {pop pop} ifelse
  exch FMS} bdef
/csm {1 dpi2point div -1 dpi2point div scale neg translate
 dup landscapeMode eq {pop -90 rotate}
  {rotateMode eq {90 rotate} if} ifelse} bdef
% line types: solid, dotted, dashed, dotdash
/SO { [] 0 setdash } bdef
/DO { [.5 dpi2point mul 4 dpi2point mul] 0 setdash } bdef
/DA { [6 dpi2point mul] 0 setdash } bdef
/DD { [.5 dpi2point mul 4 dpi2point mul 6 dpi2point mul 4
  dpi2point mul] 0 setdash } bdef
% macros for lines and objects
/L {lineto stroke} bdef
/MP {3 1 roll moveto 1 sub {rlineto} repeat} bdef
/AP {{rlineto} repeat} bdef
/PDlw -1 def
/W {/PDlw currentlinewidth def setlinewidth} def
/PP {closepath eofill} bdef
/DP {closepath stroke} bdef
/MR {4 -2 roll moveto dup  0 exch rlineto exch 0 rlineto
  neg 0 exch rlineto closepath} bdef
/FR {MR stroke} bdef
/PR {MR fill} bdef
/L1i {{currentfile picstr readhexstring pop} image} bdef
/tMatrix matrix def
/MakeOval {newpath tMatrix currentmatrix pop translate scale
0 0 1 0 360 arc tMatrix setmatrix} bdef
/FO {MakeOval stroke} bdef
/PO {MakeOval fill} bdef
/PD {currentlinewidth 2 div 0 360 arc fill
   PDlw -1 eq not {PDlw w /PDlw -1 def} if} def
/FA {newpath tMatrix currentmatrix pop translate scale
  0 0 1 5 -2 roll arc tMatrix setmatrix stroke} bdef
/PA {newpath tMatrix currentmatrix pop	translate 0 0 moveto scale
  0 0 1 5 -2 roll arc closepath tMatrix setmatrix fill} bdef
/FAn {newpath tMatrix currentmatrix pop translate scale
  0 0 1 5 -2 roll arcn tMatrix setmatrix stroke} bdef
/PAn {newpath tMatrix currentmatrix pop translate 0 0 moveto scale
  0 0 1 5 -2 roll arcn closepath tMatrix setmatrix fill} bdef
/vradius 0 def /hradius 0 def /lry 0 def
/lrx 0 def /uly 0 def /ulx 0 def /rad 0 def
/MRR {/vradius xdef /hradius xdef /lry xdef /lrx xdef /uly xdef
  /ulx xdef newpath tMatrix currentmatrix pop ulx hradius add uly
  vradius add translate hradius vradius scale 0 0 1 180 270 arc 
  tMatrix setmatrix lrx hradius sub uly vradius add translate
  hradius vradius scale 0 0 1 270 360 arc tMatrix setmatrix
  lrx hradius sub lry vradius sub translate hradius vradius scale
  0 0 1 0 90 arc tMatrix setmatrix ulx hradius add lry vradius sub
  translate hradius vradius scale 0 0 1 90 180 arc tMatrix setmatrix
  closepath} bdef
/FRR {MRR stroke } bdef
/PRR {MRR fill } bdef
/MlrRR {/lry xdef /lrx xdef /uly xdef /ulx xdef /rad lry uly sub 2 div def
  newpath tMatrix currentmatrix pop ulx rad add uly rad add translate
  rad rad scale 0 0 1 90 270 arc tMatrix setmatrix lrx rad sub lry rad
  sub translate rad rad scale 0 0 1 270 90 arc tMatrix setmatrix
  closepath} bdef
/FlrRR {MlrRR stroke } bdef
/PlrRR {MlrRR fill } bdef
/MtbRR {/lry xdef /lrx xdef /uly xdef /ulx xdef /rad lrx ulx sub 2 div def
  newpath tMatrix currentmatrix pop ulx rad add uly rad add translate
  rad rad scale 0 0 1 180 360 arc tMatrix setmatrix lrx rad sub lry rad
  sub translate rad rad scale 0 0 1 0 180 arc tMatrix setmatrix
  closepath} bdef
/FtbRR {MtbRR stroke } bdef
/PtbRR {MtbRR fill } bdef
/stri 6 array def /dtri 6 array def
/smat 6 array def /dmat 6 array def
/tmat1 6 array def /tmat2 6 array def /dif 3 array def
/asub {/ind2 exch def /ind1 exch def dup dup
  ind1 get exch ind2 get sub exch } bdef
/tri_to_matrix {
  2 0 asub 3 1 asub 4 0 asub 5 1 asub
  dup 0 get exch 1 get 7 -1 roll astore } bdef
/compute_transform {
  dmat dtri tri_to_matrix tmat1 invertmatrix 
  smat stri tri_to_matrix tmat2 concatmatrix } bdef
/ds {stri astore pop} bdef
/dt {dtri astore pop} bdef
/db {2 copy /cols xdef /rows xdef mul dup 3 mul string
  currentfile 
  3 index 0 eq {/ASCIIHexDecode filter}
  {/ASCII85Decode filter 3 index 2 eq {/RunLengthDecode filter} if }
  ifelse exch readstring pop
  dup 0 3 index getinterval /rbmap xdef
  dup 2 index dup getinterval /gbmap xdef
  1 index dup 2 mul exch getinterval /bbmap xdef pop pop}bdef
/it {gs np dtri aload pop moveto lineto lineto cp c
  cols rows 8 compute_transform 
  rbmap gbmap bbmap true 3 colorimage gr}bdef
/il {newpath moveto lineto stroke}bdef
currentdict end def
%%EndProlog

%%BeginSetup
MathWorks begin

0 cap

end
%%EndSetup

%%Page: 1 1
%%BeginPageSetup
%%PageBoundingBox:   -61   229   672   563
MathWorks begin
bpage
%%EndPageSetup

%%BeginObject: obj1
bplot

/dpi2point 12 def
portraitMode -0732 6756 csm

    0     0  8807  4008 rc
85 dict begin %Colortable dictionary
/c0 { 0.000000 0.000000 0.000000 sr} bdef
/c1 { 1.000000 1.000000 1.000000 sr} bdef
/c2 { 0.900000 0.000000 0.000000 sr} bdef
/c3 { 0.000000 0.820000 0.000000 sr} bdef
/c4 { 0.000000 0.000000 0.800000 sr} bdef
/c5 { 0.910000 0.820000 0.320000 sr} bdef
/c6 { 1.000000 0.260000 0.820000 sr} bdef
/c7 { 0.000000 0.820000 0.820000 sr} bdef
c0
1 j
1 sg
   0    0 8808 4009 rf
6 w
0 3090 6825 0 0 -3090 1145 3488 4 MP
PP
-6825 0 0 3090 6825 0 0 -3090 1145 3488 5 MP stroke
4 w
DO
SO
6 w
0 sg
1145 3488 mt 7970 3488 L
1145 3488 mt 1145  398 L
1145 3488 mt 1145 3419 L
%%IncludeResource: font Times-Roman
/Times-Roman /ISOLatin1Encoding 240 FMSR

1085 3737 mt 
(0) s
2510 3488 mt 2510 3419 L
2270 3737 mt 
(1000) s
3875 3488 mt 3875 3419 L
3635 3737 mt 
(2000) s
5240 3488 mt 5240 3419 L
5000 3737 mt 
(3000) s
6605 3488 mt 6605 3419 L
6365 3737 mt 
(4000) s
7970 3488 mt 7970 3419 L
7730 3737 mt 
(5000) s
1145 3488 mt 1213 3488 L
 735 3574 mt 
(-10) s
1145 2715 mt 1213 2715 L
 855 2801 mt 
(-5) s
1145 1943 mt 1213 1943 L
 990 2029 mt 
(0) s
1145 1171 mt 1213 1171 L
 990 1257 mt 
(5) s
1145  399 mt 1213  399 L
 870  485 mt 
(10) s
gs 1145 399 6826 3090 rc
48 w
gr

48 w
40 W
/c8 { 0.000000 0.000000 1.000000 sr} bdef
c8
1146 1919 PD
40 W
1150 1786 PD
40 W
1151 1893 PD
40 W
1158 1894 PD
40 W
1160 1895 PD
40 W
1161 1893 PD
40 W
1166 1893 PD
40 W
1175 1879 PD
40 W
1176 2006 PD
40 W
1183 1896 PD
40 W
1185 1893 PD
40 W
1188 1920 PD
40 W
1190 1948 PD
40 W
1191 1893 PD
40 W
1192 1893 PD
40 W
1196 1897 PD
40 W
1199 1917 PD
40 W
1200 1896 PD
40 W
1203 1783 PD
40 W
1205 1853 PD
40 W
1211 1725 PD
40 W
1213 1748 PD
40 W
1217 1884 PD
40 W
1220 1868 PD
40 W
1221 1843 PD
40 W
1224 2008 PD
40 W
1225 1868 PD
40 W
1235 1925 PD
40 W
1236 1866 PD
40 W
1240 1751 PD
40 W
1241 1678 PD
40 W
1244 1688 PD
40 W
1247 1573 PD
40 W
1248 1722 PD
40 W
1250 1597 PD
40 W
1251 1653 PD
40 W
1252 1715 PD
40 W
1255 1514 PD
40 W
1256 1480 PD
40 W
1265 1521 PD
40 W
1266 1574 PD
40 W
1267 1421 PD
40 W
1271 1566 PD
40 W
1273 1425 PD
40 W
1274 1316 PD
40 W
1276 1753 PD
40 W
1280 1198 PD
40 W
1286 1415 PD
40 W
1292 2205 PD
40 W
1295 2043 PD
40 W
1296 2179 PD
40 W
1303 2077 PD
40 W
1304 2105 PD
40 W
1306 2094 PD
40 W
1311 2109 PD
40 W
1314 2005 PD
40 W
1318 2060 PD
40 W
1321 2139 PD
40 W
1323 2050 PD
40 W
1325 2237 PD
40 W
1326 2079 PD
40 W
1332 2068 PD
40 W
1342 2034 PD
40 W
1344 2123 PD
40 W
1345 1894 PD
40 W
1347 2047 PD
40 W
1348 1956 PD
40 W
1351 1919 PD
40 W
1353 2062 PD
40 W
1357 2186 PD
40 W
1359 2092 PD
40 W
1366 2216 PD
40 W
1368 2349 PD
40 W
1370 2099 PD
40 W
1371 2207 PD
40 W
1375 2110 PD
40 W
1378 2404 PD
40 W
1381 2224 PD
40 W
1382 2293 PD
40 W
1383 2431 PD
40 W
1385 2314 PD
40 W
1387 2330 PD
40 W
1390 2337 PD
40 W
1393 2435 PD
40 W
1396 2242 PD
40 W
1400 2121 PD
40 W
1401 1983 PD
40 W
1402 2363 PD
40 W
1408 2026 PD
40 W
1409 2090 PD
40 W
1411 2068 PD
40 W
1412 1973 PD
40 W
1413 2390 PD
40 W
1415 2531 PD
40 W
1418 2366 PD
40 W
1424 2043 PD
40 W
1428 2228 PD
40 W
1434 2432 PD
40 W
1439 2135 PD
40 W
1442 2002 PD
40 W
1446 2218 PD
40 W
1448 2285 PD
40 W
1450 1950 PD
40 W
1454 2109 PD
40 W
1458 1973 PD
40 W
1460 2134 PD
40 W
1461 1838 PD
40 W
1463 1603 PD
40 W
1465 1819 PD
40 W
1467 2011 PD
40 W
1468 1936 PD
40 W
1471 1965 PD
40 W
1473 2351 PD
40 W
1475 2164 PD
40 W
1476 2046 PD
40 W
1478 2112 PD
40 W
1480 2284 PD
40 W
1483 2215 PD
40 W
1484 2084 PD
40 W
1487 2179 PD
40 W
1488 2134 PD
40 W
1490 2107 PD
40 W
1494 2052 PD
40 W
1495 2080 PD
40 W
1497 2026 PD
40 W
1498 1991 PD
40 W
1499 2036 PD
40 W
1506 2032 PD
40 W
1509 1933 PD
40 W
1510 2089 PD
40 W
1512 2060 PD
40 W
1514 2113 PD
40 W
1516 2077 PD
40 W
1517 1922 PD
40 W
1519 2076 PD
40 W
1521 2128 PD
40 W
1523 2006 PD
40 W
1525 2160 PD
40 W
1527 2017 PD
40 W
1528 1979 PD
40 W
1529 1919 PD
40 W
1532 1917 PD
40 W
1534 2125 PD
40 W
1535 1954 PD
40 W
1536 2117 PD
40 W
1538 2018 PD
40 W
1542 2081 PD
40 W
1546 2030 PD
40 W
1547 2060 PD
40 W
1549 2201 PD
40 W
1550 2073 PD
40 W
1553 1950 PD
40 W
1554 1916 PD
40 W
1564 2083 PD
40 W
1566 1961 PD
40 W
1568 2011 PD
40 W
1569 1961 PD
40 W
1572 1962 PD
40 W
1573 2036 PD
40 W
1577 2142 PD
40 W
1580 1945 PD
40 W
1581 2076 PD
40 W
1583 1948 PD
40 W
1584 2037 PD
40 W
1585 2196 PD
40 W
1588 1926 PD
40 W
1589 2076 PD
40 W
1591 2067 PD
40 W
1592 2046 PD
40 W
1595 2049 PD
40 W
1596 2014 PD
40 W
1600 2078 PD
40 W
1602 1912 PD
40 W
1603 1991 PD
40 W
1610 2259 PD
40 W
1614 2034 PD
40 W
1617 2278 PD
40 W
1624 2249 PD
40 W
1625 2688 PD
40 W
1628 2471 PD
40 W
1629 2131 PD
40 W
1630 2223 PD
40 W
1639 2190 PD
40 W
1648 1739 PD
40 W
1650 1816 PD
40 W
1652 1712 PD
40 W
1656 1616 PD
40 W
1658 1730 PD
40 W
1659 1707 PD
40 W
1660 1865 PD
40 W
1663 1796 PD
40 W
1666 1947 PD
40 W
1669 1865 PD
40 W
1670 1918 PD
40 W
1671 1876 PD
40 W
1673 1786 PD
40 W
1674 1839 PD
40 W
1675 1908 PD
40 W
1680 1895 PD
40 W
1684 1926 PD
40 W
1685 1951 PD
40 W
1686 1928 PD
40 W
1688 2061 PD
40 W
1689 2071 PD
40 W
1691 2182 PD
40 W
1692 2082 PD
40 W
1695 1923 PD
40 W
1697 1990 PD
40 W
1700 1910 PD
40 W
1708 1987 PD
40 W
1710 1903 PD
40 W
1712 2027 PD
40 W
1714 2063 PD
40 W
1719 2041 PD
40 W
1726 1925 PD
40 W
1727 1893 PD
40 W
1737 1911 PD
40 W
1740 1920 PD
40 W
1742 2082 PD
40 W
1745 1903 PD
40 W
1746 1909 PD
40 W
1748 1953 PD
40 W
1749 2030 PD
40 W
1751 1950 PD
40 W
1761 1897 PD
40 W
1764 1893 PD
40 W
1767 1933 PD
40 W
1771 1893 PD
40 W
1772 1832 PD
40 W
1774 1894 PD
40 W
1782 2004 PD
40 W
1786 2076 PD
40 W
1793 1905 PD
40 W
1797 1893 PD
40 W
1801 1893 PD
40 W
1805 1850 PD
40 W
1807 1810 PD
40 W
1808 1886 PD
40 W
1812 2202 PD
40 W
1813 1896 PD
40 W
1816 1893 PD
40 W
1819 1896 PD
40 W
1820 1807 PD
40 W
1823 1895 PD
40 W
1824 1958 PD
40 W
1826 2011 PD
40 W
1828 2210 PD
40 W
1831 1898 PD
40 W
1832 1925 PD
40 W
1834 1826 PD
40 W
1837 1912 PD
40 W
1839 1915 PD
40 W
1841 1854 PD
40 W
1845 1738 PD
40 W
1846 1753 PD
40 W
1849 1723 PD
40 W
1854 1610 PD
40 W
1857 1344 PD
40 W
1858 1344 PD
40 W
1860 1508 PD
40 W
1861 1912 PD
40 W
1864 2070 PD
40 W
1868 2189 PD
40 W
1869 2073 PD
40 W
1872 2363 PD
40 W
1873 2197 PD
40 W
1875 2339 PD
40 W
1876 2403 PD
40 W
1878 2355 PD
40 W
1880 2244 PD
40 W
1882 2100 PD
40 W
1883 2051 PD
40 W
1886 2246 PD
40 W
1887 2085 PD
40 W
1893 2034 PD
40 W
1894 1894 PD
40 W
1897 1893 PD
40 W
1899 1939 PD
40 W
1902 1933 PD
40 W
1905 1935 PD
40 W
1906 2127 PD
40 W
1908 1945 PD
40 W
1909 1925 PD
40 W
1912 1925 PD
40 W
1913 1943 PD
40 W
1917 1965 PD
40 W
1923 2017 PD
40 W
1925 1992 PD
40 W
1929 1965 PD
40 W
1931 1958 PD
40 W
1933 1994 PD
40 W
1935 2072 PD
40 W
1936 2114 PD
40 W
1939 1979 PD
40 W
1940 1967 PD
40 W
1943 1930 PD
40 W
1944 1984 PD
40 W
1947 1931 PD
40 W
1948 1950 PD
40 W
1951 1962 PD
40 W
1954 1997 PD
40 W
1955 2000 PD
40 W
1957 2050 PD
40 W
1958 1942 PD
40 W
1962 1968 PD
40 W
1970 1979 PD
40 W
1972 1959 PD
40 W
1973 2001 PD
40 W
1980 1953 PD
40 W
1983 1954 PD
40 W
1984 1984 PD
40 W
1987 1930 PD
40 W
1991 2012 PD
40 W
1992 1950 PD
40 W
1995 2048 PD
40 W
2002 2034 PD
40 W
2004 2133 PD
40 W
2013 1829 PD
40 W
2014 1961 PD
40 W
2017 1897 PD
40 W
2019 1859 PD
40 W
2021 1888 PD
40 W
2022 1844 PD
40 W
2025 1958 PD
40 W
2026 1988 PD
40 W
2028 2008 PD
40 W
2034 1851 PD
40 W
2036 1894 PD
40 W
2041 1896 PD
40 W
2043 1927 PD
40 W
2044 2072 PD
40 W
2047 1926 PD
40 W
2051 1963 PD
40 W
2052 1962 PD
40 W
2054 2038 PD
40 W
2055 2051 PD
40 W
2056 2021 PD
40 W
2059 1891 PD
40 W
2060 2191 PD
40 W
2066 2313 PD
40 W
2073 2080 PD
40 W
2077 2153 PD
40 W
2081 2092 PD
40 W
2084 2075 PD
40 W
2085 2112 PD
40 W
2086 2101 PD
40 W
2088 2062 PD
40 W
2090 2071 PD
40 W
2093 2073 PD
40 W
2096 2132 PD
40 W
2103 1927 PD
40 W
2104 1897 PD
40 W
2108 1955 PD
40 W
2110 2206 PD
40 W
2111 1997 PD
40 W
2119 1950 PD
40 W
2120 1972 PD
40 W
2125 1960 PD
40 W
2127 1955 PD
40 W
2130 2012 PD
40 W
2131 1932 PD
40 W
2137 1893 PD
40 W
2140 1893 PD
40 W
2146 1893 PD
40 W
2156 1927 PD
40 W
2157 1911 PD
40 W
2161 1920 PD
40 W
2163 1893 PD
40 W
2164 1893 PD
40 W
2171 1896 PD
40 W
2172 1893 PD
40 W
2176 1893 PD
40 W
2183 1893 PD
40 W
2185 1917 PD
40 W
2186 1893 PD
40 W
2189 1893 PD
40 W
2193 1893 PD
40 W
2197 1882 PD
40 W
2198 1916 PD
40 W
2205 1797 PD
40 W
2206 1714 PD
40 W
2209 1893 PD
40 W
2211 1777 PD
40 W
2213 1675 PD
40 W
2220 1731 PD
40 W
2221 1668 PD
40 W
2224 1885 PD
40 W
2226 1902 PD
40 W
2228 1694 PD
40 W
2230 1655 PD
40 W
2232 1842 PD
40 W
2235 1771 PD
40 W
2241 1947 PD
40 W
2246 1689 PD
40 W
2247 1682 PD
40 W
2249 1784 PD
40 W
2250 1758 PD
40 W
2252 1861 PD
40 W
2257 1713 PD
40 W
2258 1890 PD
40 W
2261 1908 PD
40 W
2267 2111 PD
40 W
2271 2041 PD
40 W
2272 2039 PD
40 W
2273 2029 PD
40 W
2277 2133 PD
40 W
2279 2095 PD
40 W
2282 2000 PD
40 W
2284 2177 PD
40 W
2286 1940 PD
40 W
2290 1893 PD
40 W
2291 2026 PD
40 W
2292 2091 PD
40 W
2294 2035 PD
40 W
2295 1973 PD
40 W
2297 1933 PD
40 W
2298 2076 PD
40 W
2301 2006 PD
40 W
2302 1950 PD
40 W
2305 2011 PD
40 W
2307 1921 PD
40 W
2309 1964 PD
40 W
2310 1911 PD
40 W
2312 1898 PD
40 W
2313 2829 PD
40 W
2314 1807 PD
40 W
2316 2062 PD
40 W
2320 1259 PD
40 W
2322 1738 PD
40 W
2325 2133 PD
40 W
2327 1997 PD
40 W
2335 1944 PD
40 W
2336 1908 PD
40 W
2338 1907 PD
40 W
2340 1882 PD
40 W
2346 1884 PD
40 W
2357 1944 PD
40 W
2358 1934 PD
40 W
2359 1852 PD
40 W
2366 1578 PD
40 W
2369 1540 PD
40 W
2370 1616 PD
40 W
2372 1698 PD
40 W
2376 1779 PD
40 W
2377 1803 PD
40 W
2378 1762 PD
40 W
2383 1694 PD
40 W
2387 1614 PD
40 W
2388 1651 PD
40 W
2392 1641 PD
40 W
2393 1797 PD
40 W
2399 1832 PD
40 W
2400 1839 PD
40 W
2403 1899 PD
40 W
2404 1917 PD
40 W
2410 1767 PD
40 W
2411 1593 PD
40 W
2415 1539 PD
40 W
2418 1629 PD
40 W
2421 1685 PD
40 W
2424 1843 PD
40 W
2426 1750 PD
40 W
2428 1865 PD
40 W
2432 1728 PD
40 W
2434 1764 PD
40 W
2440 1728 PD
40 W
2441 1890 PD
40 W
2443 1870 PD
40 W
2447 1730 PD
40 W
2449 1669 PD
40 W
2451 1601 PD
40 W
2452 1308 PD
40 W
2454 1858 PD
40 W
2467 2143 PD
40 W
2470 2250 PD
40 W
2474 2020 PD
40 W
2475 1949 PD
40 W
2477 1912 PD
40 W
2478 2042 PD
40 W
2479 1937 PD
40 W
2481 1931 PD
40 W
2482 2202 PD
40 W
2485 2073 PD
40 W
2488 1893 PD
40 W
2489 1957 PD
40 W
2494 1893 PD
40 W
2501 1975 PD
40 W
2504 1931 PD
40 W
2508 1893 PD
40 W
2510 1868 PD
40 W
2512 1893 PD
40 W
2515 1850 PD
40 W
2518 1893 PD
40 W
2523 1893 PD
40 W
2529 1864 PD
40 W
2530 1864 PD
40 W
2531 1887 PD
40 W
2533 1835 PD
40 W
2537 1744 PD
40 W
2538 1851 PD
40 W
2540 1964 PD
40 W
2541 1895 PD
40 W
2549 1893 PD
40 W
2550 1895 PD
40 W
2555 1885 PD
40 W
2560 1893 PD
40 W
2567 1893 PD
40 W
2570 1893 PD
40 W
2571 1893 PD
40 W
2575 1893 PD
40 W
2578 1893 PD
40 W
2582 1757 PD
40 W
2587 1826 PD
40 W
2589 1793 PD
40 W
2591 1810 PD
40 W
2598 1708 PD
40 W
2602 1781 PD
40 W
2609 1816 PD
40 W
2612 1696 PD
40 W
2615 1811 PD
40 W
2617 1827 PD
40 W
2620 1681 PD
40 W
2621 1572 PD
40 W
2624 1587 PD
40 W
2635 1388 PD
40 W
2638 1530 PD
40 W
2641 1884 PD
40 W
2642 1827 PD
40 W
2646 1613 PD
40 W
2647 1645 PD
40 W
2649 1799 PD
40 W
2650 2249 PD
40 W
2653 2232 PD
40 W
2654 1767 PD
40 W
2656 1593 PD
40 W
2657 1705 PD
40 W
2660 1630 PD
40 W
2661 1541 PD
40 W
2668 2010 PD
40 W
2671 2022 PD
40 W
2673 2205 PD
40 W
2677 2150 PD
40 W
2679 2075 PD
40 W
2681 2362 PD
40 W
2684 1915 PD
40 W
2687 2135 PD
40 W
2688 2020 PD
40 W
2691 2039 PD
40 W
2692 1902 PD
40 W
2695 1893 PD
40 W
2697 1898 PD
40 W
2698 1903 PD
40 W
2701 1896 PD
40 W
2703 1966 PD
40 W
2705 1893 PD
40 W
2706 1936 PD
40 W
2707 1927 PD
40 W
2713 2013 PD
40 W
2714 2065 PD
40 W
2716 1993 PD
40 W
2717 1938 PD
40 W
2718 1899 PD
40 W
2720 1898 PD
40 W
2724 1911 PD
40 W
2727 1953 PD
40 W
2728 2076 PD
40 W
2731 1920 PD
40 W
2733 1942 PD
40 W
2735 2044 PD
40 W
2736 1950 PD
40 W
2737 1954 PD
40 W
2739 1945 PD
40 W
2743 1931 PD
40 W
2744 1947 PD
40 W
2752 1970 PD
40 W
2754 1977 PD
40 W
2757 1930 PD
40 W
2759 1918 PD
40 W
2763 1906 PD
40 W
2765 1908 PD
40 W
2766 1914 PD
40 W
2770 1946 PD
40 W
2772 1950 PD
40 W
2774 1902 PD
40 W
2776 2061 PD
40 W
2778 1926 PD
40 W
2785 1956 PD
40 W
2788 2013 PD
40 W
2789 2319 PD
40 W
2791 2160 PD
40 W
2793 2421 PD
40 W
2796 2073 PD
40 W
2799 1924 PD
40 W
2803 1879 PD
40 W
2804 1677 PD
40 W
2806 1845 PD
40 W
2810 1928 PD
40 W
2815 1895 PD
40 W
2817 1911 PD
40 W
2818 2071 PD
40 W
2819 1928 PD
40 W
2821 2099 PD
40 W
2828 1730 PD
40 W
2830 1897 PD
40 W
2832 1877 PD
40 W
2833 1899 PD
40 W
2834 1812 PD
40 W
2836 1858 PD
40 W
2838 1704 PD
40 W
2841 1410 PD
40 W
2843 1477 PD
40 W
2844 1342 PD
40 W
2845 1178 PD
40 W
2851 1357 PD
40 W
2858 1396 PD
40 W
2860 1855 PD
40 W
2864 1980 PD
40 W
2868 2073 PD
40 W
2870 2225 PD
40 W
2874 1920 PD
40 W
2877 1919 PD
40 W
2879 2198 PD
40 W
2882 2157 PD
40 W
2884 1893 PD
40 W
2885 2070 PD
40 W
2886 2092 PD
40 W
2889 2102 PD
40 W
2890 2144 PD
40 W
2897 2059 PD
40 W
2899 1968 PD
40 W
2900 1968 PD
40 W
2903 2109 PD
40 W
2904 1953 PD
40 W
2905 1907 PD
40 W
2908 1933 PD
40 W
2909 1901 PD
40 W
2915 1965 PD
40 W
2918 1898 PD
40 W
2920 2026 PD
40 W
2923 1968 PD
40 W
2926 2213 PD
40 W
2929 1992 PD
40 W
2930 1975 PD
40 W
2931 2092 PD
40 W
2933 1958 PD
40 W
2935 1955 PD
40 W
2937 2027 PD
40 W
2938 2042 PD
40 W
2941 2396 PD
40 W
2945 2057 PD
40 W
2949 2007 PD
40 W
2953 2005 PD
40 W
2954 1968 PD
40 W
2956 2004 PD
40 W
2957 2010 PD
40 W
2959 1995 PD
40 W
2960 1939 PD
40 W
2963 2015 PD
40 W
2964 2030 PD
40 W
2965 1971 PD
40 W
2968 1909 PD
40 W
2970 1938 PD
40 W
2972 1912 PD
40 W
2978 1935 PD
40 W
2979 1937 PD
40 W
2982 1963 PD
40 W
2985 1923 PD
40 W
2986 2031 PD
40 W
2987 2094 PD
40 W
2989 2091 PD
40 W
2991 2206 PD
40 W
2993 1955 PD
40 W
2997 1933 PD
40 W
2998 2063 PD
40 W
3000 1996 PD
40 W
3004 1904 PD
40 W
3005 2321 PD
40 W
3006 1935 PD
40 W
3008 1918 PD
40 W
3013 2194 PD
40 W
3015 1910 PD
40 W
3019 2117 PD
40 W
3020 1984 PD
40 W
3021 1937 PD
40 W
3023 1975 PD
40 W
3024 2028 PD
40 W
3027 1707 PD
40 W
3032 1910 PD
40 W
3034 1917 PD
40 W
3042 1750 PD
40 W
3045 1763 PD
40 W
3047 1513 PD
40 W
3049 1502 PD
40 W
3050 1373 PD
40 W
3057 2114 PD
40 W
3058 2115 PD
40 W
3060 2073 PD
40 W
3062 2236 PD
40 W
3064 2125 PD
40 W
3069 2123 PD
40 W
3075 2008 PD
40 W
3076 2019 PD
40 W
3079 2181 PD
40 W
3087 1916 PD
40 W
3088 1970 PD
40 W
3090 2022 PD
40 W
3091 2150 PD
40 W
3092 2003 PD
40 W
3094 2077 PD
40 W
3101 1904 PD
40 W
3114 1961 PD
40 W
3117 1961 PD
40 W
3118 1916 PD
40 W
3122 1936 PD
40 W
3124 1906 PD
40 W
3126 2065 PD
40 W
3128 1946 PD
40 W
3132 1897 PD
40 W
3133 1893 PD
40 W
3136 2008 PD
40 W
3137 1913 PD
40 W
3141 1936 PD
40 W
3143 1913 PD
40 W
3150 1904 PD
40 W
3151 1970 PD
40 W
3152 1893 PD
40 W
3154 1899 PD
40 W
3155 1920 PD
40 W
3157 1919 PD
40 W
3158 1901 PD
40 W
3159 1894 PD
40 W
3167 1893 PD
40 W
3172 1791 PD
40 W
3173 1677 PD
40 W
3177 1768 PD
40 W
3184 1640 PD
40 W
3187 1652 PD
40 W
3189 1772 PD
40 W
3195 1562 PD
40 W
3199 1448 PD
40 W
3203 1686 PD
40 W
3206 2029 PD
40 W
3207 1923 PD
40 W
3210 1998 PD
40 W
3211 1987 PD
40 W
3215 1919 PD
40 W
3219 2183 PD
40 W
3222 1744 PD
40 W
3223 2003 PD
40 W
3233 2319 PD
40 W
3236 2363 PD
40 W
3237 2241 PD
40 W
3238 2105 PD
40 W
3240 2160 PD
40 W
3247 2203 PD
40 W
3248 2035 PD
40 W
3249 1919 PD
40 W
3252 1870 PD
40 W
3255 2060 PD
40 W
3256 1989 PD
40 W
3258 2388 PD
40 W
3259 2165 PD
40 W
3260 2116 PD
40 W
3262 2093 PD
40 W
3263 2172 PD
40 W
3264 2285 PD
40 W
3267 1962 PD
40 W
3271 2139 PD
40 W
3273 1916 PD
40 W
3274 2030 PD
40 W
3275 2189 PD
40 W
3277 1921 PD
40 W
3278 1958 PD
40 W
3281 1968 PD
40 W
3285 1972 PD
40 W
3288 1917 PD
40 W
3289 1919 PD
40 W
3292 1933 PD
40 W
3293 1952 PD
40 W
3294 1933 PD
40 W
3297 1981 PD
40 W
3298 1924 PD
40 W
3301 1921 PD
40 W
3303 2024 PD
40 W
3305 1939 PD
40 W
3309 2019 PD
40 W
3311 2028 PD
40 W
3312 1986 PD
40 W
3313 1969 PD
40 W
3318 1946 PD
40 W
3320 1954 PD
40 W
3322 1949 PD
40 W
3323 1984 PD
40 W
3329 1981 PD
40 W
3330 1984 PD
40 W
3337 1974 PD
40 W
3344 1987 PD
40 W
3345 1969 PD
40 W
3350 1953 PD
40 W
3352 1956 PD
40 W
3354 1934 PD
40 W
3360 1975 PD
40 W
3363 1936 PD
40 W
3364 1920 PD
40 W
3367 1943 PD
40 W
3368 2014 PD
40 W
3369 1963 PD
40 W
3372 1994 PD
40 W
3379 2000 PD
40 W
3380 1938 PD
40 W
3382 2019 PD
40 W
3383 1965 PD
40 W
3384 1953 PD
40 W
3387 1951 PD
40 W
3389 1967 PD
40 W
3390 2112 PD
40 W
3394 2112 PD
40 W
3395 1969 PD
40 W
3397 1934 PD
40 W
3399 2039 PD
40 W
3401 2233 PD
40 W
3402 1970 PD
40 W
3404 2102 PD
40 W
3405 1945 PD
40 W
3406 1972 PD
40 W
3409 1951 PD
40 W
3410 2148 PD
40 W
3412 2151 PD
40 W
3413 1933 PD
40 W
3414 1947 PD
40 W
3416 2013 PD
40 W
3417 2123 PD
40 W
3424 1729 PD
40 W
3427 1852 PD
40 W
3432 1693 PD
40 W
3434 1727 PD
40 W
3438 1641 PD
40 W
3440 1660 PD
40 W
3442 1671 PD
40 W
3445 1906 PD
40 W
3451 1915 PD
40 W
3453 1982 PD
40 W
3458 2047 PD
40 W
3461 1962 PD
40 W
3466 2157 PD
40 W
3472 2065 PD
40 W
3475 2109 PD
40 W
3477 2023 PD
40 W
3479 1917 PD
40 W
3484 1930 PD
40 W
3490 2128 PD
40 W
3492 2150 PD
40 W
3494 1898 PD
40 W
3499 2357 PD
40 W
3500 2175 PD
40 W
3503 2132 PD
40 W
3506 2018 PD
40 W
3507 2304 PD
40 W
3511 1980 PD
40 W
3513 2041 PD
40 W
3514 1980 PD
40 W
3516 1927 PD
40 W
3524 1914 PD
40 W
3525 1905 PD
40 W
3526 1904 PD
40 W
3533 1910 PD
40 W
3536 1901 PD
40 W
3539 1913 PD
40 W
3540 1913 PD
40 W
3547 1918 PD
40 W
3554 1935 PD
40 W
3555 1933 PD
40 W
3556 1939 PD
40 W
3558 1920 PD
40 W
3561 1921 PD
40 W
3562 1895 PD
40 W
3565 1894 PD
40 W
3569 1922 PD
40 W
3570 1933 PD
40 W
3571 1922 PD
40 W
3573 2034 PD
40 W
3574 1928 PD
40 W
3577 1918 PD
40 W
3581 1902 PD
40 W
3589 2055 PD
40 W
3591 1930 PD
40 W
3592 1920 PD
40 W
3593 2046 PD
40 W
3595 1940 PD
40 W
3596 2043 PD
40 W
3599 2240 PD
40 W
3600 2086 PD
40 W
3602 2072 PD
40 W
3603 2315 PD
40 W
3606 2187 PD
40 W
3611 2156 PD
40 W
3612 2037 PD
40 W
3618 2084 PD
40 W
3619 2025 PD
40 W
3622 2210 PD
40 W
3623 2034 PD
40 W
3626 2133 PD
40 W
3627 1978 PD
40 W
3630 2167 PD
40 W
3633 2243 PD
40 W
3636 2216 PD
40 W
3641 2228 PD
40 W
3642 1911 PD
40 W
3648 1938 PD
40 W
3649 1921 PD
40 W
3651 1897 PD
40 W
3652 1988 PD
40 W
3655 1931 PD
40 W
3656 1916 PD
40 W
3659 1958 PD
40 W
3660 1960 PD
40 W
3662 1989 PD
40 W
3664 2033 PD
40 W
3668 2022 PD
40 W
3670 2056 PD
40 W
3674 1976 PD
40 W
3678 1991 PD
40 W
3685 1975 PD
40 W
3689 1946 PD
40 W
3692 1967 PD
40 W
3693 1974 PD
40 W
3694 2018 PD
40 W
3696 2006 PD
40 W
3703 1992 PD
40 W
3704 1939 PD
40 W
3709 1940 PD
40 W
3711 1920 PD
40 W
3713 2001 PD
40 W
3716 1980 PD
40 W
3718 1986 PD
40 W
3722 1952 PD
40 W
3723 1938 PD
40 W
3724 1977 PD
40 W
3728 1958 PD
40 W
3734 1909 PD
40 W
3741 1937 PD
40 W
3742 1939 PD
40 W
3745 1920 PD
40 W
3749 1917 PD
40 W
3752 1913 PD
40 W
3760 1904 PD
40 W
3761 1912 PD
40 W
3765 1904 PD
40 W
3768 1951 PD
40 W
3771 1899 PD
40 W
3775 1907 PD
40 W
3776 1908 PD
40 W
3779 1879 PD
40 W
3783 1906 PD
40 W
3784 1907 PD
40 W
3793 1900 PD
40 W
3798 1946 PD
40 W
3799 1957 PD
40 W
3802 1903 PD
40 W
3804 1933 PD
40 W
3808 1988 PD
40 W
3809 1915 PD
40 W
3812 1906 PD
40 W
3814 1951 PD
40 W
3817 1963 PD
40 W
3824 1865 PD
40 W
3828 1935 PD
40 W
3829 1921 PD
40 W
3831 1919 PD
40 W
3832 1904 PD
40 W
3834 1893 PD
40 W
3840 1757 PD
40 W
3843 1650 PD
40 W
3844 1809 PD
40 W
3849 1697 PD
40 W
3850 1859 PD
40 W
3851 1766 PD
40 W
3854 1753 PD
40 W
3857 1883 PD
40 W
3858 1983 PD
40 W
3861 2044 PD
40 W
3864 1894 PD
40 W
3865 1894 PD
40 W
3866 2010 PD
40 W
3870 1993 PD
40 W
3872 1893 PD
40 W
3873 1826 PD
40 W
3875 1893 PD
40 W
3879 1893 PD
40 W
3883 1991 PD
40 W
3884 1786 PD
40 W
3885 1873 PD
40 W
3887 1893 PD
40 W
3891 1915 PD
40 W
3892 1903 PD
40 W
3905 2042 PD
40 W
3906 1913 PD
40 W
3909 1893 PD
40 W
3910 1893 PD
40 W
3914 1893 PD
40 W
3920 1893 PD
40 W
3921 1894 PD
40 W
3922 2082 PD
40 W
3924 2080 PD
40 W
3932 2036 PD
40 W
3935 2110 PD
40 W
3936 2127 PD
40 W
3939 2118 PD
40 W
3943 1965 PD
40 W
3944 1987 PD
40 W
3950 2014 PD
40 W
3951 1915 PD
40 W
3952 2196 PD
40 W
3955 2009 PD
40 W
3958 1934 PD
40 W
3960 1895 PD
40 W
3963 1897 PD
40 W
3965 1895 PD
40 W
3967 1929 PD
40 W
3971 1908 PD
40 W
3973 1913 PD
40 W
3976 1990 PD
40 W
3978 1984 PD
40 W
3980 1919 PD
40 W
3982 1915 PD
40 W
3986 1967 PD
40 W
3989 2010 PD
40 W
3991 1976 PD
40 W
3996 1892 PD
40 W
3997 1896 PD
40 W
4000 2049 PD
40 W
4001 1946 PD
40 W
4004 1891 PD
40 W
4006 2078 PD
40 W
4008 2141 PD
40 W
4010 1853 PD
40 W
4011 1809 PD
40 W
4012 1896 PD
40 W
4015 1796 PD
40 W
4016 1977 PD
40 W
4019 1878 PD
40 W
4027 1890 PD
40 W
4029 1576 PD
40 W
4031 1063 PD
40 W
4033 711 PD
40 W
4036 1613 PD
40 W
4037 1777 PD
40 W
4045 1463 PD
40 W
4046 1561 PD
40 W
4048 1110 PD
40 W
4051 1131 PD
40 W
4053 1625 PD
40 W
4055 1770 PD
40 W
4056 1781 PD
40 W
4057 1894 PD
40 W
4060 1866 PD
40 W
4062 1967 PD
40 W
4063 1893 PD
40 W
4066 2016 PD
40 W
4074 2043 PD
40 W
4077 2000 PD
40 W
4079 2051 PD
40 W
4083 1967 PD
40 W
4087 1997 PD
40 W
4089 1897 PD
40 W
4090 1904 PD
40 W
4097 1893 PD
40 W
4098 1893 PD
40 W
4101 1910 PD
40 W
4108 1893 PD
40 W
4111 2008 PD
40 W
4112 1974 PD
40 W
4117 1958 PD
40 W
4120 1925 PD
40 W
4122 1967 PD
40 W
4123 1912 PD
40 W
4130 1907 PD
40 W
4132 1988 PD
40 W
4137 2069 PD
40 W
4142 1906 PD
40 W
4143 2036 PD
40 W
4148 1918 PD
40 W
4152 1943 PD
40 W
4153 1979 PD
40 W
4154 1908 PD
40 W
4157 1921 PD
40 W
4158 1943 PD
40 W
4163 1964 PD
40 W
4165 1951 PD
40 W
4171 1918 PD
40 W
4172 1951 PD
40 W
4173 1911 PD
40 W
4175 1926 PD
40 W
4176 2140 PD
40 W
4178 2077 PD
40 W
4179 2219 PD
40 W
4191 1989 PD
40 W
4195 2029 PD
40 W
4197 2066 PD
40 W
4202 2235 PD
40 W
4203 1966 PD
40 W
4208 1963 PD
40 W
4209 2052 PD
40 W
4210 1987 PD
40 W
4213 2097 PD
40 W
4216 2184 PD
40 W
4218 2003 PD
40 W
4221 1990 PD
40 W
4223 2150 PD
40 W
4224 1967 PD
40 W
4227 2295 PD
40 W
4228 1963 PD
40 W
4229 1963 PD
40 W
4232 2096 PD
40 W
4235 2038 PD
40 W
4236 1977 PD
40 W
4239 2065 PD
40 W
4240 1946 PD
40 W
4244 1972 PD
40 W
4246 2013 PD
40 W
4247 2042 PD
40 W
4249 2390 PD
40 W
4251 2257 PD
40 W
4257 2144 PD
40 W
4259 2279 PD
40 W
4269 1956 PD
40 W
4270 1934 PD
40 W
4273 1940 PD
40 W
4274 1925 PD
40 W
4276 1947 PD
40 W
4277 1988 PD
40 W
4280 1991 PD
40 W
4284 2053 PD
40 W
4285 1996 PD
40 W
4292 1931 PD
40 W
4295 2023 PD
40 W
4296 1941 PD
40 W
4300 1893 PD
40 W
4302 1896 PD
40 W
4303 1985 PD
40 W
4304 1968 PD
40 W
4309 1965 PD
40 W
4313 1946 PD
40 W
4315 1942 PD
40 W
4318 1948 PD
40 W
4319 1989 PD
40 W
4321 1968 PD
40 W
4333 2188 PD
40 W
4336 2075 PD
40 W
4344 1918 PD
40 W
4347 2122 PD
40 W
4348 2100 PD
40 W
4352 2058 PD
40 W
4354 1904 PD
40 W
4356 2036 PD
40 W
4358 1901 PD
40 W
4359 1900 PD
40 W
4360 2198 PD
40 W
4362 1954 PD
40 W
4367 1896 PD
40 W
4369 1960 PD
40 W
4371 1899 PD
40 W
4373 1908 PD
40 W
4374 1916 PD
40 W
4382 2115 PD
40 W
4384 2140 PD
40 W
4386 1938 PD
40 W
4388 2080 PD
40 W
4389 2084 PD
40 W
4393 2617 PD
40 W
4397 1994 PD
40 W
4400 2072 PD
40 W
4405 2116 PD
40 W
4408 1992 PD
40 W
4412 2054 PD
40 W
4422 2029 PD
40 W
4423 2039 PD
40 W
4426 1946 PD
40 W
4430 1943 PD
40 W
4437 2100 PD
40 W
4438 2069 PD
40 W
4441 1903 PD
40 W
4442 1920 PD
40 W
4444 1908 PD
40 W
4445 1932 PD
40 W
4451 2173 PD
40 W
4455 1962 PD
40 W
4456 1895 PD
40 W
4457 2090 PD
40 W
4460 2052 PD
40 W
4464 1917 PD
40 W
4467 1900 PD
40 W
4470 1993 PD
40 W
4474 2100 PD
40 W
4478 1999 PD
40 W
4479 2316 PD
40 W
4481 2258 PD
40 W
4482 2222 PD
40 W
4487 1917 PD
40 W
4490 2160 PD
40 W
4496 1984 PD
40 W
4501 1995 PD
40 W
4504 2006 PD
40 W
4505 2081 PD
40 W
4506 2052 PD
40 W
4508 1950 PD
40 W
4509 1972 PD
40 W
4512 1907 PD
40 W
4513 2073 PD
40 W
4516 1895 PD
40 W
4517 1987 PD
40 W
4520 1883 PD
40 W
4522 1912 PD
40 W
4523 1896 PD
40 W
4528 1895 PD
40 W
4530 1893 PD
40 W
4531 1937 PD
40 W
4535 1984 PD
40 W
4537 1944 PD
40 W
4538 1930 PD
40 W
4541 1957 PD
40 W
4556 1895 PD
40 W
4557 1895 PD
40 W
4558 1906 PD
40 W
4560 2308 PD
40 W
4564 1880 PD
40 W
4565 1639 PD
40 W
4569 1747 PD
40 W
4571 1594 PD
40 W
4573 1991 PD
40 W
4576 1674 PD
40 W
4577 1500 PD
40 W
4586 1873 PD
40 W
4587 1709 PD
40 W
4588 1861 PD
40 W
4590 2021 PD
40 W
4592 1857 PD
40 W
4594 1839 PD
40 W
4598 1877 PD
40 W
4599 2421 PD
40 W
4601 2319 PD
40 W
4606 1893 PD
40 W
4608 2146 PD
40 W
4609 2130 PD
40 W
4613 2100 PD
40 W
4616 1967 PD
40 W
4617 1977 PD
40 W
4621 1893 PD
40 W
4624 2068 PD
40 W
4625 2047 PD
40 W
4628 1905 PD
40 W
4629 2042 PD
40 W
4631 1934 PD
40 W
4633 2099 PD
40 W
4635 2211 PD
40 W
4638 2004 PD
40 W
4639 2144 PD
40 W
4642 1893 PD
40 W
4644 2080 PD
40 W
4646 2452 PD
40 W
4647 2427 PD
40 W
4648 2098 PD
40 W
4650 1818 PD
40 W
4651 1835 PD
40 W
4654 1912 PD
40 W
4655 1866 PD
40 W
4658 1887 PD
40 W
4659 1890 PD
40 W
4663 1893 PD
40 W
4669 1689 PD
40 W
4670 1876 PD
40 W
4674 1749 PD
40 W
4677 1893 PD
40 W
4678 1886 PD
40 W
4681 1764 PD
40 W
4688 1885 PD
40 W
4694 1881 PD
40 W
4699 1861 PD
40 W
4702 1893 PD
40 W
4703 1893 PD
40 W
4704 1857 PD
40 W
4706 1862 PD
40 W
4710 1886 PD
40 W
4711 1892 PD
40 W
4714 1893 PD
40 W
4715 1893 PD
40 W
4717 1893 PD
40 W
4719 1893 PD
40 W
4724 1958 PD
40 W
4725 2081 PD
40 W
4728 2071 PD
40 W
4729 2046 PD
40 W
4734 2082 PD
40 W
4739 2139 PD
40 W
4741 2067 PD
40 W
4745 2017 PD
40 W
4749 1920 PD
40 W
4752 2000 PD
40 W
4754 1898 PD
40 W
4755 1980 PD
40 W
4758 1898 PD
40 W
4759 1894 PD
40 W
4760 1904 PD
40 W
4762 1908 PD
40 W
4763 1924 PD
40 W
4764 2077 PD
40 W
4767 1895 PD
40 W
4769 1908 PD
40 W
4770 1893 PD
40 W
4771 1952 PD
40 W
4773 1981 PD
40 W
4779 1918 PD
40 W
4782 1964 PD
40 W
4786 1965 PD
40 W
4790 1925 PD
40 W
4792 1917 PD
40 W
4793 1917 PD
40 W
4795 1893 PD
40 W
4800 1847 PD
40 W
4803 1902 PD
40 W
4804 1908 PD
40 W
4807 1914 PD
40 W
4810 1896 PD
40 W
4811 1893 PD
40 W
4812 1966 PD
40 W
4814 1896 PD
40 W
4819 2002 PD
40 W
4822 1873 PD
40 W
4823 1893 PD
40 W
4827 1926 PD
40 W
4833 1896 PD
40 W
4834 1899 PD
40 W
4840 1897 PD
40 W
4845 1912 PD
40 W
4849 1920 PD
40 W
4850 1908 PD
40 W
4853 1917 PD
40 W
4855 1904 PD
40 W
4856 1906 PD
40 W
4857 1916 PD
40 W
4861 2019 PD
40 W
4863 1937 PD
40 W
4864 1919 PD
40 W
4867 1915 PD
40 W
4870 2068 PD
40 W
4871 1919 PD
40 W
4874 1901 PD
40 W
4875 1909 PD
40 W
4882 1897 PD
40 W
4883 1896 PD
40 W
4885 1893 PD
40 W
4886 1893 PD
40 W
4894 1897 PD
40 W
4896 1893 PD
40 W
4901 1897 PD
40 W
4902 1893 PD
40 W
4905 1897 PD
40 W
4911 1895 PD
40 W
4913 1896 PD
40 W
4921 1893 PD
40 W
4923 1936 PD
40 W
4924 1904 PD
40 W
4926 2002 PD
40 W
4927 1905 PD
40 W
4928 1670 PD
40 W
4932 1912 PD
40 W
4936 1894 PD
40 W
4939 1893 PD
40 W
4941 1905 PD
40 W
4943 1943 PD
40 W
4945 1898 PD
40 W
4949 1851 PD
40 W
4951 1805 PD
40 W
4953 1779 PD
40 W
4960 1893 PD
40 W
4961 1859 PD
40 W
4962 1879 PD
40 W
4965 1804 PD
40 W
4969 1723 PD
40 W
4973 1888 PD
40 W
4975 1938 PD
40 W
4977 1838 PD
40 W
4979 1891 PD
40 W
4980 1892 PD
40 W
4983 2003 PD
40 W
4984 1911 PD
40 W
4988 1815 PD
40 W
4995 1719 PD
40 W
4998 1787 PD
40 W
5001 1763 PD
40 W
5002 1687 PD
40 W
5003 1705 PD
40 W
5007 1646 PD
40 W
5010 1718 PD
40 W
5013 1871 PD
40 W
5014 1837 PD
40 W
5017 1724 PD
40 W
5018 1884 PD
40 W
5021 1934 PD
40 W
5022 1919 PD
40 W
5024 1893 PD
40 W
5025 1698 PD
40 W
5028 1837 PD
40 W
5031 1893 PD
40 W
5033 1893 PD
40 W
5035 1977 PD
40 W
5036 1968 PD
40 W
5037 1924 PD
40 W
5042 1911 PD
40 W
5043 1990 PD
40 W
5044 1920 PD
40 W
5046 1917 PD
40 W
5047 1894 PD
40 W
5048 1893 PD
40 W
5050 1879 PD
40 W
5054 1893 PD
40 W
5055 1893 PD
40 W
5059 1896 PD
40 W
5061 1899 PD
40 W
5063 1900 PD
40 W
5072 1893 PD
40 W
5073 1836 PD
40 W
5083 1893 PD
40 W
5085 1893 PD
40 W
5087 1931 PD
40 W
5089 1901 PD
40 W
5092 1893 PD
40 W
5099 1899 PD
40 W
5100 1893 PD
40 W
5102 1893 PD
40 W
5103 1893 PD
40 W
5104 1902 PD
40 W
5106 1899 PD
40 W
5108 1935 PD
40 W
5111 1896 PD
40 W
5114 2035 PD
40 W
5115 1897 PD
40 W
5121 1897 PD
40 W
5122 1925 PD
40 W
5126 1914 PD
40 W
5128 1897 PD
40 W
5129 1902 PD
40 W
5130 1922 PD
40 W
5132 2007 PD
40 W
5136 1894 PD
40 W
5138 1942 PD
40 W
5140 2009 PD
40 W
5143 2005 PD
40 W
5144 1936 PD
40 W
5145 1966 PD
40 W
5147 1950 PD
40 W
5148 1903 PD
40 W
5149 1894 PD
40 W
5151 1896 PD
40 W
5152 1981 PD
40 W
5155 1897 PD
40 W
5160 1930 PD
40 W
5162 1897 PD
40 W
5171 1898 PD
40 W
5173 1899 PD
40 W
5174 1908 PD
40 W
5175 1895 PD
40 W
5177 1898 PD
40 W
5179 1890 PD
40 W
5181 1791 PD
40 W
5186 1793 PD
40 W
5193 1698 PD
40 W
5194 1662 PD
40 W
5199 1734 PD
40 W
5201 1705 PD
40 W
5203 1699 PD
40 W
5205 1958 PD
40 W
5208 1905 PD
40 W
5211 2001 PD
40 W
5212 1871 PD
40 W
5214 1904 PD
40 W
5215 1876 PD
40 W
5218 1948 PD
40 W
5219 1893 PD
40 W
5222 2006 PD
40 W
5223 2051 PD
40 W
5224 1991 PD
40 W
5226 1893 PD
40 W
5229 2109 PD
40 W
5234 1990 PD
40 W
5241 2200 PD
40 W
5242 2071 PD
40 W
5244 2213 PD
40 W
5245 2150 PD
40 W
5246 2354 PD
40 W
5248 1989 PD
40 W
5249 2036 PD
40 W
5250 2038 PD
40 W
5253 1977 PD
40 W
5255 2003 PD
40 W
5256 1903 PD
40 W
5257 1920 PD
40 W
5259 2009 PD
40 W
5260 1901 PD
40 W
5261 1905 PD
40 W
5263 1901 PD
40 W
5265 1912 PD
40 W
5271 1993 PD
40 W
5272 1984 PD
40 W
5276 1925 PD
40 W
5279 1964 PD
40 W
5280 1956 PD
40 W
5282 1918 PD
40 W
5283 1936 PD
40 W
5286 1912 PD
40 W
5287 1951 PD
40 W
5289 1939 PD
40 W
5293 1931 PD
40 W
5294 1912 PD
40 W
5300 1916 PD
40 W
5301 1915 PD
40 W
5304 1964 PD
40 W
5306 1916 PD
40 W
5310 1913 PD
40 W
5312 1927 PD
40 W
5315 1925 PD
40 W
5317 1904 PD
40 W
5319 1921 PD
40 W
5323 1969 PD
40 W
5324 1934 PD
40 W
5325 1979 PD
40 W
5331 2190 PD
40 W
5335 1980 PD
40 W
5338 2037 PD
40 W
5341 1923 PD
40 W
5342 2133 PD
40 W
5345 2217 PD
40 W
5346 1931 PD
40 W
5350 1954 PD
40 W
5354 2045 PD
40 W
5356 2173 PD
40 W
5357 2111 PD
40 W
5358 1926 PD
40 W
5360 2000 PD
40 W
5375 1920 PD
40 W
5379 2071 PD
40 W
5380 1904 PD
40 W
5381 1900 PD
40 W
5383 1898 PD
40 W
5384 2089 PD
40 W
5387 1944 PD
40 W
5392 1900 PD
40 W
5396 1953 PD
40 W
5399 1896 PD
40 W
5402 1936 PD
40 W
5403 1920 PD
40 W
5405 2057 PD
40 W
5407 2006 PD
40 W
5410 1966 PD
40 W
5411 2118 PD
40 W
5420 1904 PD
40 W
5425 1944 PD
40 W
5432 1947 PD
40 W
5433 2129 PD
40 W
5435 2023 PD
40 W
5437 2135 PD
40 W
5439 1970 PD
40 W
5440 2213 PD
40 W
5443 1957 PD
40 W
5447 1991 PD
40 W
5450 1952 PD
40 W
5459 1912 PD
40 W
5461 2001 PD
40 W
5465 1951 PD
40 W
5467 1917 PD
40 W
5470 1923 PD
40 W
5472 1950 PD
40 W
5473 1929 PD
40 W
5474 1925 PD
40 W
5476 2042 PD
40 W
5477 1997 PD
40 W
5480 1984 PD
40 W
5481 1956 PD
40 W
5482 2047 PD
40 W
5485 1988 PD
40 W
5487 1919 PD
40 W
5489 2003 PD
40 W
5491 1911 PD
40 W
5493 1915 PD
40 W
5496 2169 PD
40 W
5497 1969 PD
40 W
5499 1947 PD
40 W
5500 1941 PD
40 W
5502 1995 PD
40 W
5504 2064 PD
40 W
5506 1985 PD
40 W
5513 1942 PD
40 W
5514 2108 PD
40 W
5517 2262 PD
40 W
5519 2013 PD
40 W
5522 1970 PD
40 W
5526 1941 PD
40 W
5528 1994 PD
40 W
5529 2043 PD
40 W
5530 2042 PD
40 W
5532 1952 PD
40 W
5533 1927 PD
40 W
5534 2080 PD
40 W
5537 1970 PD
40 W
5538 1924 PD
40 W
5545 2268 PD
40 W
5552 1954 PD
40 W
5553 1958 PD
40 W
5556 1947 PD
40 W
5558 1933 PD
40 W
5559 1932 PD
40 W
5560 1925 PD
40 W
5564 2010 PD
40 W
5566 2238 PD
40 W
5568 2370 PD
40 W
5571 1987 PD
40 W
5573 1928 PD
40 W
5578 1922 PD
40 W
5579 1913 PD
40 W
5585 1987 PD
40 W
5588 2255 PD
40 W
5589 2086 PD
40 W
5592 2069 PD
40 W
5593 2149 PD
40 W
5594 1984 PD
40 W
5597 2109 PD
40 W
5598 1921 PD
40 W
5600 1946 PD
40 W
5601 1913 PD
40 W
5603 2031 PD
40 W
5604 2402 PD
40 W
5605 1924 PD
40 W
5607 2000 PD
40 W
5608 1928 PD
40 W
5609 1904 PD
40 W
5611 1908 PD
40 W
5612 1946 PD
40 W
5616 2082 PD
40 W
5618 1912 PD
40 W
5620 2150 PD
40 W
5626 2124 PD
40 W
5627 2263 PD
40 W
5631 1924 PD
40 W
5633 1915 PD
40 W
5634 1989 PD
40 W
5638 1943 PD
40 W
5644 1942 PD
40 W
5645 2173 PD
40 W
5648 2261 PD
40 W
5649 2176 PD
40 W
5650 2017 PD
40 W
5653 2020 PD
40 W
5654 2171 PD
40 W
5657 1909 PD
40 W
5659 1917 PD
40 W
5667 2147 PD
40 W
5669 1974 PD
40 W
5672 1991 PD
40 W
5674 2157 PD
40 W
5676 1992 PD
40 W
5678 1920 PD
40 W
5679 1913 PD
40 W
5683 1998 PD
40 W
5689 1930 PD
40 W
5691 2062 PD
40 W
5693 1994 PD
40 W
5698 1936 PD
40 W
5700 2236 PD
40 W
5701 2139 PD
40 W
5702 2366 PD
40 W
5704 2273 PD
40 W
5706 2239 PD
40 W
5712 2142 PD
40 W
5716 2058 PD
40 W
5720 2123 PD
40 W
5723 1936 PD
40 W
5724 2036 PD
40 W
5725 1952 PD
40 W
5727 2170 PD
40 W
5731 2099 PD
40 W
5734 2109 PD
40 W
5735 2247 PD
40 W
5743 2259 PD
40 W
5746 1957 PD
40 W
5749 2193 PD
40 W
5755 2082 PD
40 W
5757 2048 PD
40 W
5765 2170 PD
40 W
5769 2312 PD
40 W
5770 2012 PD
40 W
5775 2130 PD
40 W
5776 2054 PD
40 W
5777 2093 PD
40 W
5779 1979 PD
40 W
5781 2218 PD
40 W
5783 1981 PD
40 W
5787 1908 PD
40 W
5794 1950 PD
40 W
5795 2350 PD
40 W
5796 1908 PD
40 W
5798 1912 PD
40 W
5801 1901 PD
40 W
5802 1951 PD
40 W
5803 1929 PD
40 W
5805 2113 PD
40 W
5807 1685 PD
40 W
5811 1962 PD
40 W
5817 2115 PD
40 W
5820 1918 PD
40 W
5821 2181 PD
40 W
5822 2010 PD
40 W
5824 1998 PD
40 W
5826 2147 PD
40 W
5828 2131 PD
40 W
5833 1904 PD
40 W
5836 2113 PD
40 W
5837 1984 PD
40 W
5843 1939 PD
40 W
5846 1903 PD
40 W
5848 2129 PD
40 W
5851 2029 PD
40 W
5852 2219 PD
40 W
5854 1976 PD
40 W
5855 1935 PD
40 W
5856 2004 PD
40 W
5858 1900 PD
40 W
5859 1963 PD
40 W
5862 1931 PD
40 W
5865 1953 PD
40 W
5867 1991 PD
40 W
5874 1899 PD
40 W
5880 1991 PD
40 W
5882 1898 PD
40 W
5885 1899 PD
40 W
5887 1977 PD
40 W
5889 1917 PD
40 W
5892 1928 PD
40 W
5893 1898 PD
40 W
5895 1916 PD
40 W
5896 1897 PD
40 W
5897 1897 PD
40 W
5899 1945 PD
40 W
5900 1919 PD
40 W
5902 1964 PD
40 W
5903 1962 PD
40 W
5904 2035 PD
40 W
5906 1990 PD
40 W
5910 1913 PD
40 W
5911 1900 PD
40 W
5912 1953 PD
40 W
5917 1903 PD
40 W
5932 2004 PD
40 W
5933 1865 PD
40 W
5936 1989 PD
40 W
5938 2022 PD
40 W
5944 2085 PD
40 W
5945 1946 PD
40 W
5951 2191 PD
40 W
5952 1988 PD
40 W
5957 2037 PD
40 W
5960 2072 PD
40 W
5964 2153 PD
40 W
5966 1997 PD
40 W
5967 1923 PD
40 W
5968 2088 PD
40 W
5973 2031 PD
40 W
5974 1938 PD
40 W
5978 2003 PD
40 W
5981 1989 PD
40 W
5982 2001 PD
40 W
5985 2057 PD
40 W
5986 1962 PD
40 W
5989 2164 PD
40 W
5994 2052 PD
40 W
5998 1990 PD
40 W
6000 2066 PD
40 W
6007 2091 PD
40 W
6008 2126 PD
40 W
6013 2135 PD
40 W
6015 2308 PD
40 W
6022 2008 PD
40 W
6026 2058 PD
40 W
6027 2105 PD
40 W
6028 1917 PD
40 W
6030 1928 PD
40 W
6033 2043 PD
40 W
6037 1966 PD
40 W
6041 1911 PD
40 W
6043 2030 PD
40 W
6045 2018 PD
40 W
6046 1904 PD
40 W
6049 2070 PD
40 W
6050 2300 PD
40 W
6053 2026 PD
40 W
6056 2165 PD
40 W
6059 2093 PD
40 W
6060 1936 PD
40 W
6061 2183 PD
40 W
6063 1984 PD
40 W
6064 1916 PD
40 W
6067 1984 PD
40 W
6068 1924 PD
40 W
6069 2073 PD
40 W
6071 2023 PD
40 W
6074 1950 PD
40 W
6082 1913 PD
40 W
6090 1924 PD
40 W
6095 1955 PD
40 W
6098 1921 PD
40 W
6101 1938 PD
40 W
6105 1906 PD
40 W
6112 1930 PD
40 W
6113 1929 PD
40 W
6114 1956 PD
40 W
6116 1951 PD
40 W
6120 1928 PD
40 W
6123 1935 PD
40 W
6124 1990 PD
40 W
6125 1902 PD
40 W
6128 1899 PD
40 W
6138 1941 PD
40 W
6139 2023 PD
40 W
6140 2104 PD
40 W
6142 2005 PD
40 W
6143 1901 PD
40 W
6147 2026 PD
40 W
6149 1993 PD
40 W
6155 1912 PD
40 W
6157 1900 PD
40 W
6162 2240 PD
40 W
6165 2070 PD
40 W
6168 2182 PD
40 W
6169 2038 PD
40 W
6170 1945 PD
40 W
6172 2015 PD
40 W
6175 2088 PD
40 W
6176 1954 PD
40 W
6180 1936 PD
40 W
6181 1899 PD
40 W
6184 1903 PD
40 W
6194 1962 PD
40 W
6199 1947 PD
40 W
6203 1942 PD
40 W
6207 1923 PD
40 W
6210 1908 PD
40 W
6214 1916 PD
40 W
6215 1914 PD
40 W
6217 1904 PD
40 W
6218 1915 PD
40 W
6220 1912 PD
40 W
6224 1914 PD
40 W
6228 1915 PD
40 W
6233 1938 PD
40 W
6235 2006 PD
40 W
6243 1924 PD
40 W
6246 1940 PD
40 W
6248 1928 PD
40 W
6251 1966 PD
40 W
6252 1915 PD
40 W
6256 1931 PD
40 W
6258 1929 PD
40 W
6262 1913 PD
40 W
6263 1922 PD
40 W
6267 1941 PD
40 W
6271 1985 PD
40 W
6273 1972 PD
40 W
6277 1918 PD
40 W
6278 1935 PD
40 W
6282 1934 PD
40 W
6286 1927 PD
40 W
6297 1941 PD
40 W
6300 1937 PD
40 W
6301 1915 PD
40 W
6303 1936 PD
40 W
6304 1910 PD
40 W
6307 1908 PD
40 W
6308 1912 PD
40 W
6311 1907 PD
40 W
6312 1915 PD
40 W
6315 1911 PD
40 W
6316 1899 PD
40 W
6319 1884 PD
40 W
6321 1901 PD
40 W
6327 1897 PD
40 W
6329 1910 PD
40 W
6332 2073 PD
40 W
6336 1912 PD
40 W
6338 1918 PD
40 W
6345 1902 PD
40 W
6348 1941 PD
40 W
6352 1897 PD
40 W
6356 1927 PD
40 W
6357 1926 PD
40 W
6360 1900 PD
40 W
6363 1915 PD
40 W
6364 1901 PD
40 W
6367 1942 PD
40 W
6370 1923 PD
40 W
6371 2014 PD
40 W
6374 1949 PD
40 W
6375 1934 PD
40 W
6378 1916 PD
40 W
6381 2061 PD
40 W
6385 2012 PD
40 W
6387 2076 PD
40 W
6389 1913 PD
40 W
6390 1940 PD
40 W
6392 1896 PD
40 W
6394 1923 PD
40 W
6396 1887 PD
40 W
6397 1892 PD
40 W
6398 1892 PD
40 W
6401 1903 PD
40 W
6402 1822 PD
40 W
6404 1892 PD
40 W
6405 1896 PD
40 W
6409 1972 PD
40 W
6412 1906 PD
40 W
6413 1934 PD
40 W
6415 1913 PD
40 W
6417 1910 PD
40 W
6420 1940 PD
40 W
6422 1894 PD
40 W
6424 1906 PD
40 W
6426 1909 PD
40 W
6427 1973 PD
40 W
6434 1895 PD
40 W
6442 1917 PD
40 W
6443 1958 PD
40 W
6445 2038 PD
40 W
6446 1908 PD
40 W
6450 2662 PD
40 W
6456 1473 PD
40 W
6458 1077 PD
40 W
6460 1346 PD
40 W
6463 1546 PD
40 W
6465 2131 PD
40 W
6468 2172 PD
40 W
6471 2080 PD
40 W
6479 1567 PD
40 W
6482 1556 PD
40 W
6487 1774 PD
40 W
6490 1879 PD
40 W
6493 1872 PD
40 W
6494 1837 PD
40 W
6495 1886 PD
40 W
6499 1881 PD
40 W
6501 1786 PD
40 W
6506 1689 PD
40 W
6508 1662 PD
40 W
6509 1639 PD
40 W
6514 1593 PD
40 W
6517 1295 PD
40 W
6523 1798 PD
40 W
6524 1506 PD
40 W
6525 1690 PD
40 W
6528 1491 PD
40 W
6536 1420 PD
40 W
6538 1270 PD
40 W
6540 1545 PD
40 W
6544 1603 PD
40 W
6546 1534 PD
40 W
6550 1621 PD
40 W
6551 1481 PD
40 W
6557 1515 PD
40 W
6559 1448 PD
40 W
6562 1921 PD
40 W
6565 1472 PD
40 W
6566 1616 PD
40 W
6568 1789 PD
40 W
6574 1947 PD
40 W
6577 1797 PD
40 W
6580 1815 PD
40 W
6581 1653 PD
40 W
6585 1598 PD
40 W
6587 1813 PD
40 W
6588 1866 PD
40 W
6591 2064 PD
40 W
6592 2136 PD
40 W
6594 2158 PD
40 W
6595 2077 PD
40 W
6603 2106 PD
40 W
6606 2309 PD
40 W
6609 1769 PD
40 W
6613 2017 PD
40 W
6614 1904 PD
40 W
6615 1893 PD
40 W
6617 1808 PD
40 W
6618 1880 PD
40 W
6620 1669 PD
40 W
6622 1876 PD
40 W
6628 2020 PD
40 W
6629 1893 PD
40 W
6630 1769 PD
40 W
6635 1903 PD
40 W
6637 1902 PD
40 W
6643 1985 PD
40 W
6644 1893 PD
40 W
6645 1898 PD
40 W
6647 1893 PD
40 W
6651 1893 PD
40 W
6652 1842 PD
40 W
6654 1860 PD
40 W
6655 1869 PD
40 W
6658 1864 PD
40 W
6667 1901 PD
40 W
6670 2087 PD
40 W
6671 2030 PD
40 W
6674 1893 PD
40 W
6677 1893 PD
40 W
6680 1893 PD
40 W
6681 1893 PD
40 W
6682 1893 PD
40 W
6684 1928 PD
40 W
6685 1976 PD
40 W
6686 2065 PD
40 W
6688 2211 PD
40 W
6692 2032 PD
40 W
6696 1895 PD
40 W
6697 1894 PD
40 W
6699 1996 PD
40 W
6700 1966 PD
40 W
6707 1893 PD
40 W
6711 1935 PD
40 W
6715 1896 PD
40 W
6721 1895 PD
40 W
6722 1904 PD
40 W
6723 1954 PD
40 W
6725 1897 PD
40 W
6729 1895 PD
40 W
6731 1905 PD
40 W
6733 1899 PD
40 W
6734 1896 PD
40 W
6736 1923 PD
40 W
6738 1904 PD
40 W
6741 1900 PD
40 W
6742 1897 PD
40 W
6745 1968 PD
40 W
6749 1893 PD
40 W
6751 1904 PD
40 W
6752 1902 PD
40 W
6757 1880 PD
40 W
6759 1779 PD
40 W
6760 1814 PD
40 W
6761 1938 PD
40 W
6766 1866 PD
40 W
6768 1899 PD
40 W
6770 1896 PD
40 W
6771 1869 PD
40 W
6772 1929 PD
40 W
6774 1864 PD
40 W
6782 2147 PD
40 W
6785 1940 PD
40 W
6786 1969 PD
40 W
6787 2011 PD
40 W
6790 1985 PD
40 W
6792 1937 PD
40 W
6793 1939 PD
40 W
6800 1904 PD
40 W
6801 1957 PD
40 W
6804 1924 PD
40 W
6805 1906 PD
40 W
6807 1909 PD
40 W
6808 1999 PD
40 W
6813 1952 PD
40 W
6815 2040 PD
40 W
6816 2528 PD
40 W
6817 2728 PD
40 W
6822 988 PD
40 W
6826 1454 PD
40 W
6830 1289 PD
40 W
6835 1654 PD
40 W
6839 1746 PD
40 W
6842 1719 PD
40 W
6845 1547 PD
40 W
6846 1714 PD
40 W
6849 1781 PD
40 W
6850 2057 PD
40 W
6852 1847 PD
40 W
6856 1905 PD
40 W
6857 1563 PD
40 W
6858 1684 PD
40 W
6862 1619 PD
40 W
6864 2025 PD
40 W
6865 1666 PD
40 W
6868 2292 PD
40 W
6873 2083 PD
40 W
6878 2123 PD
40 W
6880 1857 PD
40 W
6882 1780 PD
40 W
6888 1966 PD
40 W
6891 1578 PD
40 W
6893 1736 PD
40 W
6894 1862 PD
40 W
6897 1809 PD
40 W
6898 2004 PD
40 W
6902 1751 PD
40 W
6906 1907 PD
40 W
6909 1760 PD
40 W
6912 1763 PD
40 W
6913 2061 PD
40 W
6917 2178 PD
40 W
6920 2274 PD
40 W
6921 1903 PD
40 W
6924 1659 PD
40 W
6925 1966 PD
40 W
6928 2043 PD
40 W
6932 1847 PD
40 W
6935 1852 PD
40 W
6940 1752 PD
40 W
6943 1784 PD
40 W
6944 1589 PD
40 W
6948 1858 PD
40 W
6950 1803 PD
40 W
6951 1609 PD
40 W
6955 2359 PD
40 W
6957 2218 PD
40 W
6958 2387 PD
40 W
6959 2369 PD
40 W
6961 2423 PD
40 W
6963 2343 PD
40 W
6965 1979 PD
40 W
6966 2102 PD
40 W
6969 2185 PD
40 W
6972 2181 PD
40 W
6976 1957 PD
40 W
6979 1990 PD
40 W
6983 2077 PD
40 W
6984 2314 PD
40 W
6985 2343 PD
40 W
6987 2196 PD
40 W
6988 2085 PD
40 W
6992 1800 PD
40 W
6994 1903 PD
40 W
6995 1907 PD
40 W
6999 1917 PD
40 W
7002 1957 PD
40 W
7006 1927 PD
40 W
7007 2068 PD
40 W
7010 1980 PD
40 W
7013 1895 PD
40 W
7014 1894 PD
40 W
7017 1971 PD
40 W
7022 1893 PD
40 W
7025 1901 PD
40 W
7026 1900 PD
40 W
7029 1905 PD
40 W
7033 1895 PD
40 W
7034 1902 PD
40 W
7036 1893 PD
40 W
7039 1893 PD
40 W
7041 1894 PD
40 W
7043 1895 PD
40 W
7044 1895 PD
40 W
7047 1897 PD
40 W
7052 1893 PD
40 W
7054 1893 PD
40 W
7055 1893 PD
40 W
7056 1893 PD
40 W
7063 1893 PD
40 W
7065 1893 PD
40 W
7066 1896 PD
40 W
7074 1950 PD
40 W
7075 1893 PD
40 W
7080 1893 PD
40 W
7081 1893 PD
40 W
7084 1893 PD
40 W
7085 1893 PD
40 W
7086 1893 PD
40 W
7088 1893 PD
40 W
7089 1894 PD
40 W
7095 1893 PD
40 W
7096 1893 PD
40 W
7097 1903 PD
40 W
7100 1893 PD
40 W
7103 1893 PD
40 W
7104 1903 PD
40 W
7108 1840 PD
40 W
7110 1812 PD
40 W
7112 1932 PD
40 W
7115 1821 PD
40 W
7116 2006 PD
40 W
7118 1936 PD
40 W
7119 1889 PD
40 W
7122 1834 PD
40 W
7123 1845 PD
40 W
7126 1877 PD
40 W
7127 1895 PD
40 W
7131 1728 PD
40 W
7133 1809 PD
40 W
7137 1882 PD
40 W
7140 1706 PD
40 W
7141 1824 PD
40 W
7142 1797 PD
40 W
7144 1877 PD
40 W
7145 1716 PD
40 W
7146 1709 PD
40 W
7149 1844 PD
40 W
7156 1722 PD
40 W
7157 1674 PD
40 W
7166 1456 PD
40 W
7167 1758 PD
40 W
7170 1557 PD
40 W
7171 1441 PD
40 W
7172 1385 PD
40 W
7175 1938 PD
40 W
7176 1876 PD
40 W
7178 1815 PD
40 W
7179 1903 PD
40 W
7181 1883 PD
40 W
7187 1940 PD
40 W
7190 1893 PD
40 W
7193 1900 PD
40 W
7196 1893 PD
40 W
7197 1902 PD
40 W
7201 1860 PD
40 W
7202 1915 PD
40 W
7206 1949 PD
40 W
7208 2069 PD
40 W
7209 1893 PD
40 W
7215 1961 PD
40 W
7216 1908 PD
40 W
7217 1896 PD
40 W
7220 1894 PD
40 W
7221 1893 PD
40 W
7223 1893 PD
40 W
7227 1934 PD
40 W
7231 1893 PD
40 W
7238 1893 PD
40 W
7239 1962 PD
40 W
7243 1909 PD
40 W
7245 1951 PD
40 W
7247 1905 PD
40 W
7250 1920 PD
40 W
7252 1927 PD
40 W
7254 1985 PD
40 W
7256 2147 PD
40 W
7258 1968 PD
40 W
7264 1900 PD
40 W
7265 1895 PD
40 W
7268 1898 PD
40 W
7271 1899 PD
40 W
7273 1900 PD
40 W
7277 1900 PD
40 W
7279 1919 PD
40 W
7283 1917 PD
40 W
7284 1900 PD
40 W
7287 1930 PD
40 W
7290 2017 PD
40 W
7291 1897 PD
40 W
7292 1909 PD
40 W
7298 1925 PD
40 W
7299 1894 PD
40 W
7301 1898 PD
40 W
7309 1911 PD
40 W
7313 2033 PD
40 W
7314 1925 PD
40 W
7324 1896 PD
40 W
7325 1895 PD
40 W
7327 1909 PD
40 W
7333 1910 PD
40 W
7339 1927 PD
40 W
7342 1936 PD
40 W
7343 1974 PD
40 W
7348 1978 PD
40 W
7351 1982 PD
40 W
7354 1967 PD
40 W
7358 1967 PD
40 W
7359 1965 PD
40 W
7363 1989 PD
40 W
7365 1979 PD
40 W
7366 1964 PD
40 W
7368 2061 PD
40 W
7369 2006 PD
40 W
7370 1952 PD
40 W
7372 2212 PD
40 W
7376 2227 PD
40 W
7380 2203 PD
40 W
7381 2211 PD
40 W
7383 1932 PD
40 W
7384 1995 PD
40 W
7385 1950 PD
40 W
7392 1917 PD
40 W
7400 1919 PD
40 W
7402 1911 PD
40 W
7403 1911 PD
40 W
7404 1900 PD
40 W
7407 1914 PD
40 W
7408 1914 PD
40 W
7410 1908 PD
40 W
7411 1907 PD
40 W
7415 1908 PD
40 W
7417 1929 PD
40 W
7418 1962 PD
40 W
7419 1907 PD
40 W
7422 1918 PD
40 W
7425 1922 PD
40 W
7426 1963 PD
40 W
7430 1915 PD
40 W
7434 1900 PD
gs 1145 399 6826 3090 rc
/c9 { 1.000000 0.000000 0.000000 sr} bdef
c9
4 5 4 5 1 2 3 2 3 1 1 0 1 0 2 -1 
4 -5 1 -2 2 -3 1 -4 3 -8 1 -5 1 -5 2 -6 
8 -38 7 -30 1 -5 1 -4 2 -4 1 -3 4 -6 4 1 
2 1 1 2 1 3 2 4 1 3 2 5 4 15 1 6 
4 17 3 12 3 10 5 18 1 4 3 6 6 9 6 3 
2 0 1 0 10 -3 1 0 4 0 8 2 2 0 1 1 
6 1 1 1 1 0 3 0 3 0 1 -1 4 -2 2 -1 
4 -4 2 -3 3 -2 3 -3 1 -1 6 -4 2 0 2 0 
2 1 2 1 3 2 2 2 2 1 4 5 1 1 7 4 
4 1 4 -2 2 -1 1 -1 3 -3 1 -1 1 -1 6 -2 
1 0 2 1 4 7 1 3 4 16 1 6 3 16 3 18 
3 21 6 57 2 11 1 11 2 11 1 10 3 19 1 8 
1 7 3 11 1 4 9 1 1 -4 7 -30 3 -17 1 -8 
1 -9 2 -9 1 -9 1 -9 3 -17 4 -24 2 -7 4 -19 
1 -5 3 -9 1 -3 3 -7 1 -2 2 -2 1 -2 3 -3 
2 -1 2 -1 4 -1 1 0 3 -1 3 0 1 0 1 -1 
6 -1 1 0 2 0 1 0 1 -1 3 0 1 -1 5 0 
1 0 8 0 1 0 2 0 7 0 1 0 1 0 2 0 
5 0 3 -1 1 0 2 0 2 0 3 -1 2 0 1 0 
4 -1 3 -1 1 0 3 -2 5 -6 3 -5 1 -3 3 -8 
3 -11 1 -6 4 -23 3 -18 4 -32 1 -11 2 -12 4 -35 
1 -11 2 -11 1 -11 1 -10 4 -24 3 -10 4 -6 3 4 
3 10 1 8 2 8 2 21 2 12 1 12 1 13 2 14 
4 43 1 13 2 14 4 37 1 11 3 18 5 25 3 6 
4 4 3 0 1 0 3 -2 1 -1 3 -2 4 -1 1 0 
3 1 3 1 4 2 4 1 1 0 3 -1 1 -1 2 -1 
3 -2 6 -7 2 -1 2 0 5 3 5 16 3 13 1 8 
2 9 4 30 1 11 1 11 4 32 2 11 1 9 3 17 
1 7 3 10 3 4 4 -5 5 -28 4 -35 4 -43 5 -46 
1 -15 1 -15 2 -14 5 -49 1 -9 2 -9 1 -7 3 -10 
1 -4 7 1 1 3 2 4 3 9 1 6 1 6 3 13 
8 37 2 5 1 5 1 4 2 4 2 7 5 6 1 1 
1 1 2 1 5 -2 1 -1 2 -1 4 -4 3 -3 1 -1 
3 -3 2 -3 2 -2 1 -1 2 -1 2 -3 4 -5 2 -2 
1 -1 1 -2 6 -9 4 -7 4 -7 7 -13 1 -2 2 -2 
1 -2 4 -5 4 -2 2 0 1 1 1 0 2 1 1 1 
1 2 3 4 3 4 3 6 1 3 3 7 9 28 3 8 
1 4 2 4 1 3 6651 1892 300 MP stroke
4 10 2 3 1 2 1 2 6 3 2 -1 5 -7 1 -3 
1 -4 6 -20 2 -12 2 -6 1 -7 2 -6 1 -7 1 -6 
4 -16 3 -7 3 -4 8 12 1 6 2 7 1 9 3 20 
1 11 2 12 4 42 1 15 3 31 3 32 6 80 2 15 
1 15 3 28 3 26 2 24 6 38 1 7 4 18 2 4 
4 7 2 0 2 -1 8 -27 3 -16 1 -9 1 -9 6 -44 
3 -23 5 -48 1 -11 2 -11 5 -38 2 -8 4 -18 1 -5 
1 -3 3 -5 3 -2 5 2 3 3 8 6 3 -2 3 -4 
2 -6 3 -10 2 -6 2 -13 6 -30 4 -24 1 -7 2 -7 
1 -7 8 -29 7 -6 1 0 2 1 2 3 2 2 3 4 
2 4 2 2 1 2 3 2 4 2 1 0 2 -1 1 -1 
3 -3 1 -1 1 -2 2 -3 2 -4 2 -3 1 -2 2 -2 
2 -5 4 -5 3 -2 3 0 1 0 3 1 1 0 3 3 
3 2 1 2 3 3 3 4 1 1 4 5 4 3 3 2 
7 2 2 1 4 1 3 0 2 0 6 1 2 0 3 0 
1 0 3 0 1 0 3 -1 1 0 3 -2 1 0 2 -1 
1 -1 3 -2 11 -8 4 -2 4 -2 1 -1 4 -1 2 -1 
4 0 4 0 1 0 4 0 2 0 4 1 1 0 3 0 
2 1 3 1 8 4 2 1 5 4 4 3 4 3 2 1 
1 0 2 1 1 1 4 0 3 -1 4 -3 4 -6 5 -12 
10 -31 3 -9 1 -5 4 -13 1 -4 3 -7 2 -3 1 -3 
1 -2 3 -4 3 -1 5 1 2 2 6 12 2 4 4 10 
1 4 2 4 1 4 1 4 10 25 3 5 1 3 1 3 
3 4 4 6 2 2 1 1 1 1 7 3 4 -1 3 -2 
3 -3 5 -10 8 -23 8 -26 3 -9 2 -4 1 -4 1 -3 
3 -6 1 -3 2 -2 1 -2 1 -2 3 -2 3 -1 3 -1 
1 0 3 1 1 0 2 0 2 -1 4 -2 4 -4 3 -4 
2 -2 1 -2 1 -3 4 -8 7 -12 2 -2 5 -4 1 0 
7 7 2 2 4 8 5 12 3 6 1 2 3 5 1 1 
3 3 4 2 1 0 5 -1 1 -1 1 0 2 -1 4 -1 
3 -1 5 3 1 1 6 8 1 3 6 13 2 8 3 7 
1 4 15 34 5 6 1 2 1 1 4 3 2 1 1 1 
1 1 2 1 1 0 2 1 1 0 1 1 2 0 1 0 
3 0 2 0 2 -1 3 -1 2 -2 6 -7 7 -14 2 -7 
3 -8 3 -9 1 -4 2 -4 1 -5 1 -4 2 -4 1 -4 
3 -8 2 -7 3 -6 6 -6 1 -1 3 0 5 6 2 3 
2 5 2 3 1 4 1 3 3 7 6 13 4 6 2 2 
2 0 1 -1 1 -1 5801 1982 300 MP stroke
3 -4 2 -3 1 -4 1 -4 7 -27 4 -19 2 -7 2 -13 
2 -6 1 -6 1 -6 5 -15 1 -4 4 -10 8 -6 2 0 
6 6 3 3 3 3 8 5 1 0 3 -1 4 -4 2 -1 
1 -2 1 -2 3 -3 4 -4 4 -2 6 5 2 5 2 3 
1 4 1 5 2 5 5 22 2 5 2 12 6 21 4 12 
1 2 2 3 2 2 2 1 3 -1 2 -3 8 -15 2 -3 
3 -6 1 -2 3 -5 1 -1 1 -2 3 -1 1 -1 6 3 
4 6 1 2 2 2 4 8 1 3 6 8 2 4 2 1 
4 1 1 0 2 0 1 -1 1 -1 2 -1 1 -1 1 -2 
2 -2 1 -2 2 -2 1 -2 3 -4 1 -2 1 -1 3 -4 
1 -1 3 -2 6 0 1 0 5 5 2 2 3 4 2 5 
2 2 4 8 1 2 1 2 2 2 3 4 1 2 7 4 
7 -3 1 -1 3 -2 1 -2 1 -1 2 -2 1 -1 1 -2 
2 -1 4 -4 3 -2 2 -1 3 0 1 1 7 6 2 2 
2 5 2 3 1 2 2 3 1 3 3 7 2 6 2 3 
2 6 2 3 3 5 1 2 1 2 3 3 1 1 2 0 
1 1 1 0 2 -1 3 -2 2 -3 4 -7 2 -3 9 -23 
3 -7 4 -9 3 -4 1 -2 2 -2 2 -1 2 -1 1 0 
7 6 5 10 9 21 1 3 3 7 2 7 2 3 1 3 
3 5 3 4 4 3 5 -1 3 -3 1 -2 2 -3 1 -2 
1 -4 4 -10 15 -48 2 -3 1 -3 1 -3 2 -2 4 -5 
4 0 1 1 3 4 1 2 3 7 3 7 4 14 6 20 
1 5 1 5 4 14 2 5 2 8 3 6 2 3 4 7 
2 4 3 2 1 2 6 2 1 1 4 0 2 0 1 -1 
3 -1 1 -1 2 -1 1 -2 3 -4 4 -9 1 -4 6 -20 
2 -13 2 -7 1 -7 1 -7 2 -8 1 -7 1 -7 2 -8 
3 -14 1 -6 1 -6 2 -5 1 -4 1 -4 2 -2 1 -2 
7 8 5 27 3 19 2 11 1 12 1 12 3 26 1 13 
3 27 1 13 2 12 1 13 3 23 3 20 2 17 2 7 
2 10 5 8 1 0 7 -12 5 -23 2 -7 2 -14 2 -8 
1 -7 1 -7 2 -7 9 -42 2 -4 5 -13 3 -4 1 -1 
2 -1 1 -1 1 -1 2 0 1 0 1 1 3 1 2 0 
2 2 4 4 2 1 1 1 1 1 2 1 4 4 1 1 
6 5 1 2 3 2 3 3 2 3 2 1 1 1 1 2 
2 1 1 2 7 7 3 3 2 2 2 1 2 2 10 1 
1 -1 9 -9 2 -4 2 -2 4 -7 1 -1 4 -5 2 0 
1 -1 1 0 2 1 1 1 1 2 5 8 1 3 1 5 
2 4 2 11 3 13 5028 1871 300 MP stroke
3 14 1 6 2 7 1 7 3 14 1 6 3 11 1 5 
3 8 3 5 4 2 1 0 1 -2 3 -4 3 -7 7 -22 
4 -14 1 -5 3 -8 1 -4 2 -3 2 -6 2 -2 4 -5 
4 -2 3 0 1 0 1 0 7 0 2 0 2 -1 4 -3 
2 -1 2 -2 2 -2 3 -3 4 -4 4 -5 1 -1 1 -1 
2 -1 1 -1 2 -1 8 -3 2 0 6 0 3 0 1 -1 
5 -2 2 -1 8 -8 1 -2 2 -1 1 -2 7 -8 1 -2 
3 -2 1 -1 3 -1 3 -1 1 0 2 0 4 1 1 1 
1 1 2 1 3 2 1 2 4 3 5 5 6 4 1 0 
6 2 4 0 1 0 3 -1 5 -1 2 -1 1 0 1 -1 
3 -1 3 -1 1 -1 3 0 5 -1 2 -1 1 0 2 0 
4 0 4 -1 3 -1 6 -5 2 -2 1 -2 1 -3 2 -2 
3 -6 1 -4 1 -4 2 -4 1 -4 1 -5 3 -9 1 -4 
2 -5 3 -9 4 -12 4 -9 2 -3 5 0 5 9 1 4 
3 9 1 5 5 20 2 14 2 8 1 7 3 16 1 8 
4 23 2 7 1 7 1 7 3 12 5 20 6 11 7 0 
3 -4 1 -4 3 -9 4 -19 1 -7 6 -35 4 -28 1 -10 
3 -20 1 -9 3 -18 1 -9 2 -8 1 -7 1 -8 2 -6 
2 -12 3 -10 1 -4 3 -7 2 -3 2 -4 2 -2 1 -1 
3 -1 1 1 3 1 4 5 1 3 3 8 4 16 1 6 
2 8 5 35 2 10 1 11 4 34 2 12 2 22 2 11 
1 11 1 10 9 41 1 4 3 3 2 -2 2 -2 4 -12 
1 -5 4 -20 2 -7 1 -7 1 -7 15 -53 3 -3 1 -1 
2 0 4 -1 1 0 2 0 5 -4 1 -2 2 -2 3 -6 
1 -4 3 -9 1 -6 3 -12 1 -6 2 -7 1 -7 1 -7 
3 -15 5 -27 6 -21 3 -6 5 -5 1 1 2 1 1 2 
4 10 4 14 3 11 3 12 4 18 3 11 1 5 1 5 
4 12 6 9 1 1 2 1 1 0 3 -2 1 -1 7 -17 
4 -15 3 -11 1 -7 10 -43 4 -15 3 -8 5 -7 3 1 
4 7 4 13 1 5 2 6 2 13 2 6 8 38 1 5 
2 5 2 7 2 3 5 4 2 -1 1 -1 1 -2 2 -2 
2 -6 2 -3 4 -10 1 -4 3 -6 8 -10 3 1 12 27 
2 4 1 5 3 10 2 9 4 13 5 10 1 3 1 2 
2 2 4 2 1 -1 3 -2 7 -16 1 -5 4 -16 3 -13 
1 -6 2 -7 1 -7 3 -13 1 -7 10 -37 2 -7 6 -7 
2 -1 2 1 1 1 2 2 4 6 1 2 3 6 1 2 
3 6 3 4 1 3 1 1 3 3 1 2 2 0 3 1 
2 0 3 -1 3 -1 4210 2048 300 MP stroke
1 -1 1 -1 5 -2 1 0 5 0 2 1 4 5 12 31 
1 4 2 5 1 4 2 5 1 5 1 4 6 16 2 6 
5 7 1 1 3 3 1 0 1 1 4 0 5 -1 1 0 
5 -1 5 2 2 2 7 8 1 2 2 2 3 4 5 4 
1 0 3 -1 7 -11 3 -8 1 -5 7 -24 1 -4 2 -3 
4 -5 4 6 2 11 3 19 8 99 3 45 1 24 2 25 
3 50 1 25 1 25 2 24 2 45 3 38 2 17 1 14 
8 29 1 -5 3 -18 2 -13 2 -32 2 -20 8 -140 3 -49 
1 -24 3 -46 1 -20 1 -20 2 -18 2 -31 2 -13 3 -21 
1 -7 3 -10 1 -3 5 2 2 3 3 7 4 14 2 9 
2 4 2 6 3 4 2 1 4 -2 2 -5 2 -4 3 -9 
2 -10 3 -12 3 -12 1 -6 1 -6 6 -19 1 -4 4 -6 
3 -1 1 1 3 3 8 26 2 6 1 6 1 6 6 26 
4 17 1 5 3 10 1 3 13 16 1 0 4 -1 2 -1 
1 0 1 -1 4 1 4 3 2 1 1 2 2 3 4 9 
1 4 1 4 3 8 3 8 1 4 3 8 3 7 1 2 
1 2 5 3 1 0 3 -2 6 -15 2 -4 1 -5 2 -5 
1 -5 4 -16 7 -24 3 -8 2 -6 3 -4 1 -1 4 -1 
2 0 3 1 1 2 5 6 9 12 1 2 4 4 3 2 
1 1 4 1 3 -1 3 0 4 -3 1 -1 8 -8 3 -3 
4 -5 3 -3 1 -2 7 -8 6 -6 4 -5 1 -1 1 -2 
4 -4 2 -2 3 -3 2 -3 2 -1 5 -6 1 -1 7 -5 
2 0 1 -1 1 0 3 -1 4 1 7 4 4 3 4 2 
2 1 4 0 2 -2 2 -1 1 -2 3 -5 1 -3 3 -8 
1 -4 2 -5 1 -6 6 -25 1 -6 5 -28 3 -14 3 -12 
3 -11 1 -5 3 -8 1 -3 3 -4 1 -1 6 4 1 2 
5 17 3 12 1 7 2 7 1 7 3 15 1 8 2 8 
1 8 1 8 2 7 8 43 4 17 3 9 1 5 2 4 
1 3 1 4 4 8 3 5 1 2 3 3 2 2 1 1 
1 1 7 3 7 -5 1 -2 3 -6 3 -7 7 -27 1 -7 
1 -7 8 -47 2 -8 1 -8 2 -8 4 -21 1 -7 3 -11 
3 -9 1 -4 5 -9 2 0 2 0 6 8 5 18 2 6 
2 14 3 16 6 39 5 46 3 24 5 47 2 11 6 43 
3 10 2 4 2 2 4 -7 2 -4 5 -32 3 -21 7 -60 
1 -12 2 -11 1 -12 1 -10 2 -10 1 -9 3 -16 1 -6 
1 -6 2 -4 1 -3 2 -2 2 -2 2 1 1 1 4 9 
1 4 2 4 3 10 1 5 1 5 2 5 1 5 7 21 
3 7 1 2 1 2 3367 1955 300 MP stroke
3 3 1 1 3 1 6 -3 2 -3 2 -1 5 -7 1 -2 
7 -7 7 -4 1 0 6 1 1 1 2 1 2 3 5 4 
1 2 1 2 2 1 4 4 2 2 2 1 3 0 1 -1 
3 -2 1 -1 1 -2 3 -6 1 -3 3 -8 4 -15 3 -12 
1 -6 2 -6 1 -7 1 -7 2 -6 4 -22 3 -14 1 -6 
1 -7 2 -7 1 -6 1 -6 2 -6 1 -5 3 -10 3 -8 
1 -3 1 -3 7 -2 2 2 1 3 1 4 3 11 10 71 
1 14 3 30 4 50 4 53 1 18 3 34 1 17 3 31 
4 41 4 30 6 21 2 2 3 -3 7 -28 4 -28 1 -10 
5 -32 8 -62 1 -9 1 -8 2 -8 1 -8 2 -7 1 -6 
1 -5 7 -18 2 -2 4 -3 1 0 3 1 1 0 4 3 
2 1 2 1 2 1 4 -1 1 -1 3 -3 13 -44 7 -35 
2 -7 1 -7 1 -6 2 -6 1 -5 8 -13 3 5 1 5 
6 31 5 48 2 14 2 29 2 14 1 15 7 64 1 9 
2 9 2 12 3 6 8 -21 2 -9 5 -44 3 -26 1 -13 
2 -13 1 -13 1 -13 4 -34 2 -10 5 -29 2 -4 1 -4 
1 -2 4 0 2 2 1 2 4 12 2 5 2 11 2 5 
1 6 1 5 3 9 3 8 1 3 6 6 2 -1 2 -2 
3 -5 1 -4 1 -4 3 -8 1 -5 2 -5 1 -5 2 -5 
1 -5 4 -13 4 -8 4 -3 3 2 1 2 2 2 2 6 
2 4 1 4 1 5 3 8 3 9 3 7 2 5 3 2 
6 -5 1 -3 3 -9 1 -5 1 -6 3 -12 1 -6 2 -6 
7 -22 1 -1 3 2 1 3 1 5 2 7 3 19 2 26 
3 33 4 59 2 22 4 67 4 66 2 40 7 70 6 16 
1 -1 1 -4 2 -6 3 -18 2 -25 2 -15 1 -16 1 -17 
2 -18 2 -36 7 -92 2 -18 1 -16 1 -16 2 -14 5 -49 
4 -26 2 -6 1 -6 4 -11 3 -3 3 0 2 3 2 2 
1 3 3 8 7 23 2 10 2 5 2 10 2 5 4 12 
1 3 2 3 4 7 2 2 3 0 2 0 8 -6 1 -1 
4 -3 2 -1 1 0 1 -1 2 0 2 1 3 1 1 1 
3 2 4 2 2 1 1 0 1 0 2 0 1 -1 6 -7 
1 -3 1 -4 2 -4 2 -9 3 -9 1 -6 2 -5 3 -10 
1 -4 3 -8 1 -3 3 -4 3 -1 2 4 2 3 4 17 
2 17 3 20 7 64 1 15 3 29 1 14 2 15 1 14 
3 27 1 12 2 13 1 11 4 30 1 8 3 13 3 9 
11 3 3 -6 1 -4 3 -10 2 -11 3 -11 3 -13 7 -31 
4 -17 7 -28 2 -10 2 -4 5 -18 4 -12 3 -8 4 -9 
1 -2 3 -5 7 -7 2560 1892 300 MP stroke
5 0 5 2 1 1 8 11 1 1 2 2 1 2 4 5 
2 1 1 1 1 0 6 -1 5 -9 3 -7 3 -9 2 -10 
2 -6 4 -20 3 -13 7 -34 5 -19 1 -4 3 -4 3 0 
1 2 2 2 1 4 1 4 2 6 1 7 4 25 3 21 
13 120 2 10 1 10 2 10 2 16 4 19 2 4 1 4 
6 6 2 -1 4 -5 2 -2 2 -5 3 -5 3 -5 3 -4 
4 -4 1 0 6 2 1 1 3 4 1 3 6 12 1 3 
4 8 1 2 4 5 5 0 1 -2 1 -1 4 -10 2 -5 
1 -5 3 -12 7 -37 1 -8 1 -8 11 -60 6 -22 2 -9 
2 -4 1 -4 8 -18 2 -3 3 -6 2 -6 4 -11 2 -4 
1 -5 1 -4 2 -5 1 -5 2 -5 2 -10 3 -10 1 -5 
3 -9 1 -5 2 -4 1 -4 2 -3 1 -3 1 -2 4 -3 
2 1 2 4 3 6 2 5 4 19 1 7 1 9 4 29 
6 43 3 23 1 11 5 43 2 9 1 10 2 8 1 8 
5 26 6 14 3 3 2 1 2 0 2 -3 2 -2 3 -5 
1 -4 7 -21 2 -10 2 -5 3 -11 1 -5 7 -27 1 -5 
4 -13 4 -12 3 -7 1 -2 2 -3 7 -8 4 -3 1 0 
7 -1 1 0 2 0 4 -1 1 0 10 -6 6 -10 3 -5 
6 -11 1 -3 3 -6 2 -7 5 -10 1 -4 8 -25 1 -5 
2 -5 4 -15 1 -5 7 -27 3 -10 3 -11 2 -9 2 -4 
1 -4 1 -3 3 -5 4 -4 4 2 7 18 6 25 1 7 
3 16 1 8 1 9 2 8 1 9 4 25 3 15 1 7 
2 7 5 20 2 4 6 7 2 0 1 -1 3 -4 1 -2 
2 -3 2 -7 3 -8 1 -4 9 -22 2 -6 7 -10 3 -1 
1 0 4 1 3 1 1 1 3 2 7 5 1 0 2 1 
8 -3 4 -4 1 -1 2 -2 1 -1 3 -2 3 -2 1 -1 
3 0 1 0 3 2 1 2 3 4 1 3 2 3 2 6 
2 3 4 10 2 5 6 2 4 -7 1 -5 3 -12 1 -7 
2 -9 1 -9 3 -21 3 -23 2 -23 3 -22 1 -9 6 -28 
1 -3 3 -1 1 3 2 5 2 16 2 10 1 13 2 14 
1 16 3 36 1 19 4 59 3 39 1 18 2 17 1 16 
3 27 5 32 3 4 1 -1 4 -12 2 -7 2 -18 3 -20 
2 -11 1 -11 3 -21 2 -19 2 -9 1 -8 3 -14 1 -5 
3 -8 3 -4 1 -1 4 2 1 2 2 2 4 8 4 9 
4 7 7 8 4 1 8 -4 2 -1 1 -1 4 -4 3 -3 
3 -3 10 -9 2 -1 1 -1 2 -1 1 -1 3 -2 2 -2 
3 -2 10 -12 1 -2 7 -16 5 -14 2 -3 2 -7 2 -3 
8 -8 3 3 2 6 1695 2005 300 MP stroke
3 10 1 6 2 7 1 8 2 9 1 10 1 10 4 33 
5 34 1 11 1 10 2 10 1 9 1 7 3 11 3 5 
3 -2 1 -4 1 -6 2 -8 4 -34 2 -32 2 -18 9 -144 
9 -108 1 -13 1 -12 3 -17 1 -6 7 0 3 11 4 27 
7 57 1 12 2 12 4 32 1 10 3 17 1 7 2 7 
1 5 3 9 1 3 1 2 2 2 1 1 3 1 4 -3 
1 -2 3 -3 1 -2 2 -2 2 -4 10 -12 1 -1 3 -1 
1 0 2 0 1 0 4 1 4 2 2 1 1 1 1 0 
2 1 3 1 1 0 1 0 2 0 2 -1 2 -2 2 -3 
2 -2 1 -2 2 -3 2 -6 2 -4 1 -4 3 -8 7 -18 
1 -3 1 -2 2 -2 1 -2 4 -1 2 1 1 2 3 5 
1 3 3 8 2 9 2 5 1 5 2 5 2 9 3 8 
1 2 2 3 2 2 2 0 1 -2 2 -2 4 -11 4 -19 
2 -15 2 -8 4 -26 3 -17 5 -31 6 -22 4 -12 6 -11 
3 -4 2 -2 1 -2 1 -2 2 -2 1 -3 6 -13 1 -4 
1 -3 4 -12 3 -7 3 -6 3 -3 2 -1 2 1 1 2 
1 2 3 9 3 12 4 25 1 10 2 10 2 22 7 59 
2 11 4 30 2 16 3 12 1 5 2 3 1 2 2 2 
10 -27 6 -25 1 -7 2 -5 2 -10 3 -6 4 1 3 8 
5 38 2 14 1 16 7 103 1 24 3 51 6 105 6 120 
4 54 2 15 1 12 2 10 4 17 1 1 1 0 9 -46 
1 -13 3 -29 1 -15 1 -16 2 -16 1 -17 3 -32 3 -32 
1 -14 4 -40 1 -11 10 -53 1 -3 3 -6 1 -2 3 -3 
4 -2 2 0 6 -3 2 -1 3 -3 1 -2 3 -3 4 -7 
1 -3 1 -2 2 -2 3 -5 2 -4 7 -5 1 0 9 4 
5 6 1 2 2 1 7 8 1 1 4 2 1146 1887 207 MP stroke
gr

c9
0 sg
4119 3954 mt 
(time step) s
 519 2334 mt  -90 rotate
(u) s
90 rotate
%%IncludeResource: font Times-Roman
/Times-Roman /ISOLatin1Encoding 192 FMSR

 639 2214 mt  -90 rotate
(y) s
90 rotate
%%IncludeResource: font Times-Roman
/Times-Roman /ISOLatin1Encoding 240 FMSR

 519 2118 mt  -90 rotate
( \(m/s\)) s
90 rotate
3603  215 mt 
(Jul20-Aug21, 2013) s
1115 3571 mt 
( ) s
7941  481 mt 
( ) s
6 w
1 sg
0 592 1835 0 0 -592 6076 1051 4 MP
PP
-1835 0 0 592 1835 0 0 -592 6076 1051 5 MP stroke
4 w
DO
SO
6 w
0 sg
6076 1051 mt 7911 1051 L
6076  459 mt 7911  459 L
6076 1051 mt 6076  459 L
7911 1051 mt 7911  459 L
6076 1051 mt 7911 1051 L
6076 1051 mt 6076  459 L
6076 1051 mt 7911 1051 L
6076  459 mt 7911  459 L
6076 1051 mt 6076  459 L
7911 1051 mt 7911  459 L
6527  698 mt 
(measurement) s
gs 6076 459 1836 593 rc
48 w
gr

48 w
gs 6148 445 341 341 rc
40 W
c8
6318 615 PD
gr

c8
gs 6076 459 1836 593 rc
gr

0 sg
6527  977 mt 
(regularization) s
gs 6076 459 1836 593 rc
c9
346 0 6145 894 2 MP stroke
6 w
gr

6 w
c9

end %%Color Dict

eplot
%%EndObject

epage
end

showpage

%%Trailer
%%EOF
