%!PS-Adobe-3.0 EPSF-3.0
%%Creator: MATLAB, The MathWorks, Inc. Version 8.1.0.604 (R2013a). Operating System: Darwin 12.5.0 Darwin Kernel Version 12.5.0: Sun Sep 29 13:33:47 PDT 2013; root:xnu-2050.48.12~1/RELEASE_X86_64 x86_64.
%%Title: /Users/bamdadhosseini/Work/Courses/apma990-machinelearning/MATLAB/wy_oct_fit.eps
%%CreationDate: 01/09/2015  13:50:16
%%DocumentNeededFonts: Times-Roman
%%DocumentProcessColors: Cyan Magenta Yellow Black
%%LanguageLevel: 2
%%Pages: 1
%%BoundingBox:   -59   226   672   565
%%EndComments

%%BeginProlog
% MathWorks dictionary
/MathWorks 160 dict begin
% definition operators
/bdef {bind def} bind def
/ldef {load def} bind def
/xdef {exch def} bdef
/xstore {exch store} bdef
% operator abbreviations
/c  /clip ldef
/cc /concat ldef
/cp /closepath ldef
/gr /grestore ldef
/gs /gsave ldef
/mt /moveto ldef
/np /newpath ldef
/cm /currentmatrix ldef
/sm /setmatrix ldef
/rm /rmoveto ldef
/rl /rlineto ldef
/s {show newpath} bdef
/sc {setcmykcolor} bdef
/sr /setrgbcolor ldef
/sg /setgray ldef
/w /setlinewidth ldef
/j /setlinejoin ldef
/cap /setlinecap ldef
/rc {rectclip} bdef
/rf {rectfill} bdef
% page state control
/pgsv () def
/bpage {/pgsv save def} bdef
/epage {pgsv restore} bdef
/bplot /gsave ldef
/eplot {stroke grestore} bdef
% orientation switch
/portraitMode 0 def /landscapeMode 1 def /rotateMode 2 def
% coordinate system mappings
/dpi2point 0 def
% font control
/FontSize 0 def
/FMS {/FontSize xstore findfont [FontSize 0 0 FontSize neg 0 0]
  makefont setfont} bdef
/reencode {exch dup where {pop load} {pop StandardEncoding} ifelse
  exch dup 3 1 roll findfont dup length dict begin
  { 1 index /FID ne {def}{pop pop} ifelse } forall
  /Encoding exch def currentdict end definefont pop} bdef
/isroman {findfont /CharStrings get /Agrave known} bdef
/FMSR {3 1 roll 1 index dup isroman {reencode} {pop pop} ifelse
  exch FMS} bdef
/csm {1 dpi2point div -1 dpi2point div scale neg translate
 dup landscapeMode eq {pop -90 rotate}
  {rotateMode eq {90 rotate} if} ifelse} bdef
% line types: solid, dotted, dashed, dotdash
/SO { [] 0 setdash } bdef
/DO { [.5 dpi2point mul 4 dpi2point mul] 0 setdash } bdef
/DA { [6 dpi2point mul] 0 setdash } bdef
/DD { [.5 dpi2point mul 4 dpi2point mul 6 dpi2point mul 4
  dpi2point mul] 0 setdash } bdef
% macros for lines and objects
/L {lineto stroke} bdef
/MP {3 1 roll moveto 1 sub {rlineto} repeat} bdef
/AP {{rlineto} repeat} bdef
/PDlw -1 def
/W {/PDlw currentlinewidth def setlinewidth} def
/PP {closepath eofill} bdef
/DP {closepath stroke} bdef
/MR {4 -2 roll moveto dup  0 exch rlineto exch 0 rlineto
  neg 0 exch rlineto closepath} bdef
/FR {MR stroke} bdef
/PR {MR fill} bdef
/L1i {{currentfile picstr readhexstring pop} image} bdef
/tMatrix matrix def
/MakeOval {newpath tMatrix currentmatrix pop translate scale
0 0 1 0 360 arc tMatrix setmatrix} bdef
/FO {MakeOval stroke} bdef
/PO {MakeOval fill} bdef
/PD {currentlinewidth 2 div 0 360 arc fill
   PDlw -1 eq not {PDlw w /PDlw -1 def} if} def
/FA {newpath tMatrix currentmatrix pop translate scale
  0 0 1 5 -2 roll arc tMatrix setmatrix stroke} bdef
/PA {newpath tMatrix currentmatrix pop	translate 0 0 moveto scale
  0 0 1 5 -2 roll arc closepath tMatrix setmatrix fill} bdef
/FAn {newpath tMatrix currentmatrix pop translate scale
  0 0 1 5 -2 roll arcn tMatrix setmatrix stroke} bdef
/PAn {newpath tMatrix currentmatrix pop translate 0 0 moveto scale
  0 0 1 5 -2 roll arcn closepath tMatrix setmatrix fill} bdef
/vradius 0 def /hradius 0 def /lry 0 def
/lrx 0 def /uly 0 def /ulx 0 def /rad 0 def
/MRR {/vradius xdef /hradius xdef /lry xdef /lrx xdef /uly xdef
  /ulx xdef newpath tMatrix currentmatrix pop ulx hradius add uly
  vradius add translate hradius vradius scale 0 0 1 180 270 arc 
  tMatrix setmatrix lrx hradius sub uly vradius add translate
  hradius vradius scale 0 0 1 270 360 arc tMatrix setmatrix
  lrx hradius sub lry vradius sub translate hradius vradius scale
  0 0 1 0 90 arc tMatrix setmatrix ulx hradius add lry vradius sub
  translate hradius vradius scale 0 0 1 90 180 arc tMatrix setmatrix
  closepath} bdef
/FRR {MRR stroke } bdef
/PRR {MRR fill } bdef
/MlrRR {/lry xdef /lrx xdef /uly xdef /ulx xdef /rad lry uly sub 2 div def
  newpath tMatrix currentmatrix pop ulx rad add uly rad add translate
  rad rad scale 0 0 1 90 270 arc tMatrix setmatrix lrx rad sub lry rad
  sub translate rad rad scale 0 0 1 270 90 arc tMatrix setmatrix
  closepath} bdef
/FlrRR {MlrRR stroke } bdef
/PlrRR {MlrRR fill } bdef
/MtbRR {/lry xdef /lrx xdef /uly xdef /ulx xdef /rad lrx ulx sub 2 div def
  newpath tMatrix currentmatrix pop ulx rad add uly rad add translate
  rad rad scale 0 0 1 180 360 arc tMatrix setmatrix lrx rad sub lry rad
  sub translate rad rad scale 0 0 1 0 180 arc tMatrix setmatrix
  closepath} bdef
/FtbRR {MtbRR stroke } bdef
/PtbRR {MtbRR fill } bdef
/stri 6 array def /dtri 6 array def
/smat 6 array def /dmat 6 array def
/tmat1 6 array def /tmat2 6 array def /dif 3 array def
/asub {/ind2 exch def /ind1 exch def dup dup
  ind1 get exch ind2 get sub exch } bdef
/tri_to_matrix {
  2 0 asub 3 1 asub 4 0 asub 5 1 asub
  dup 0 get exch 1 get 7 -1 roll astore } bdef
/compute_transform {
  dmat dtri tri_to_matrix tmat1 invertmatrix 
  smat stri tri_to_matrix tmat2 concatmatrix } bdef
/ds {stri astore pop} bdef
/dt {dtri astore pop} bdef
/db {2 copy /cols xdef /rows xdef mul dup 3 mul string
  currentfile 
  3 index 0 eq {/ASCIIHexDecode filter}
  {/ASCII85Decode filter 3 index 2 eq {/RunLengthDecode filter} if }
  ifelse exch readstring pop
  dup 0 3 index getinterval /rbmap xdef
  dup 2 index dup getinterval /gbmap xdef
  1 index dup 2 mul exch getinterval /bbmap xdef pop pop}bdef
/it {gs np dtri aload pop moveto lineto lineto cp c
  cols rows 8 compute_transform 
  rbmap gbmap bbmap true 3 colorimage gr}bdef
/il {newpath moveto lineto stroke}bdef
currentdict end def
%%EndProlog

%%BeginSetup
MathWorks begin

0 cap

end
%%EndSetup

%%Page: 1 1
%%BeginPageSetup
%%PageBoundingBox:   -59   226   672   565
MathWorks begin
bpage
%%EndPageSetup

%%BeginObject: obj1
bplot

/dpi2point 12 def
portraitMode -0708 6780 csm

    0     0  8783  4068 rc
85 dict begin %Colortable dictionary
/c0 { 0.000000 0.000000 0.000000 sr} bdef
/c1 { 1.000000 1.000000 1.000000 sr} bdef
/c2 { 0.900000 0.000000 0.000000 sr} bdef
/c3 { 0.000000 0.820000 0.000000 sr} bdef
/c4 { 0.000000 0.000000 0.800000 sr} bdef
/c5 { 0.910000 0.820000 0.320000 sr} bdef
/c6 { 1.000000 0.260000 0.820000 sr} bdef
/c7 { 0.000000 0.820000 0.820000 sr} bdef
c0
1 j
1 sg
   0    0 8784 4069 rf
6 w
0 3150 6807 0 0 -3150 1142 3548 4 MP
PP
-6807 0 0 3150 6807 0 0 -3150 1142 3548 5 MP stroke
4 w
DO
SO
6 w
0 sg
1142 3548 mt 7949 3548 L
1142 3548 mt 1142  398 L
1142 3548 mt 1142 3479 L
%%IncludeResource: font Times-Roman
/Times-Roman /ISOLatin1Encoding 240 FMSR

1082 3797 mt 
(0) s
2503 3548 mt 2503 3479 L
2263 3797 mt 
(1000) s
3864 3548 mt 3864 3479 L
3624 3797 mt 
(2000) s
5226 3548 mt 5226 3479 L
4986 3797 mt 
(3000) s
6587 3548 mt 6587 3479 L
6347 3797 mt 
(4000) s
7949 3548 mt 7949 3479 L
7709 3797 mt 
(5000) s
1142 3548 mt 1210 3548 L
 732 3634 mt 
(-10) s
1142 2760 mt 1210 2760 L
 852 2846 mt 
(-5) s
1142 1973 mt 1210 1973 L
 987 2059 mt 
(0) s
1142 1186 mt 1210 1186 L
 987 1272 mt 
(5) s
1142  399 mt 1210  399 L
 867  485 mt 
(10) s
gs 1142 399 6808 3150 rc
48 w
gr

48 w
40 W
/c8 { 0.000000 0.000000 1.000000 sr} bdef
c8
1150 2107 PD
40 W
1151 2116 PD
40 W
1154 2085 PD
40 W
1156 1973 PD
40 W
1158 1973 PD
40 W
1159 1973 PD
40 W
1161 1973 PD
40 W
1162 1973 PD
40 W
1163 1988 PD
40 W
1165 1986 PD
40 W
1167 1973 PD
40 W
1169 2040 PD
40 W
1174 2064 PD
40 W
1177 2001 PD
40 W
1178 1973 PD
40 W
1181 2019 PD
40 W
1184 1996 PD
40 W
1186 1997 PD
40 W
1188 1998 PD
40 W
1189 2008 PD
40 W
1193 2030 PD
40 W
1196 1973 PD
40 W
1200 2051 PD
40 W
1203 1998 PD
40 W
1204 1989 PD
40 W
1208 1973 PD
40 W
1210 1973 PD
40 W
1211 1973 PD
40 W
1212 1991 PD
40 W
1215 2033 PD
40 W
1216 1973 PD
40 W
1219 2103 PD
40 W
1222 1973 PD
40 W
1225 1973 PD
40 W
1229 2007 PD
40 W
1230 2026 PD
40 W
1231 2038 PD
40 W
1234 2024 PD
40 W
1237 2041 PD
40 W
1238 2008 PD
40 W
1240 2052 PD
40 W
1242 2013 PD
40 W
1244 1973 PD
40 W
1246 1973 PD
40 W
1248 1973 PD
40 W
1249 2025 PD
40 W
1250 2060 PD
40 W
1259 1982 PD
40 W
1263 1973 PD
40 W
1265 1973 PD
40 W
1268 1973 PD
40 W
1271 2008 PD
40 W
1274 1944 PD
40 W
1275 1945 PD
40 W
1278 1973 PD
40 W
1280 1973 PD
40 W
1282 1973 PD
40 W
1284 1973 PD
40 W
1287 1973 PD
40 W
1294 1998 PD
40 W
1295 1973 PD
40 W
1298 1973 PD
40 W
1302 1973 PD
40 W
1304 1973 PD
40 W
1316 1973 PD
40 W
1318 1973 PD
40 W
1320 1973 PD
40 W
1321 1973 PD
40 W
1327 1973 PD
40 W
1329 1890 PD
40 W
1331 1936 PD
40 W
1335 1973 PD
40 W
1339 1973 PD
40 W
1343 1973 PD
40 W
1344 1955 PD
40 W
1346 1973 PD
40 W
1350 1973 PD
40 W
1355 1897 PD
40 W
1357 1927 PD
40 W
1358 1875 PD
40 W
1359 1936 PD
40 W
1362 1948 PD
40 W
1363 1911 PD
40 W
1365 1958 PD
40 W
1366 1944 PD
40 W
1370 1882 PD
40 W
1374 1915 PD
40 W
1377 1926 PD
40 W
1381 1941 PD
40 W
1384 1804 PD
40 W
1387 1803 PD
40 W
1388 1814 PD
40 W
1389 1773 PD
40 W
1392 1910 PD
40 W
1393 1973 PD
40 W
1395 1973 PD
40 W
1396 1973 PD
40 W
1403 1973 PD
40 W
1404 1952 PD
40 W
1406 1949 PD
40 W
1411 1973 PD
40 W
1414 1973 PD
40 W
1415 1973 PD
40 W
1419 1962 PD
40 W
1421 1973 PD
40 W
1423 1973 PD
40 W
1425 1973 PD
40 W
1426 1971 PD
40 W
1427 1980 PD
40 W
1430 1953 PD
40 W
1431 1973 PD
40 W
1436 1987 PD
40 W
1440 1973 PD
40 W
1441 1938 PD
40 W
1442 2013 PD
40 W
1444 2004 PD
40 W
1445 1973 PD
40 W
1446 1926 PD
40 W
1448 1973 PD
40 W
1449 1973 PD
40 W
1451 1973 PD
40 W
1452 1973 PD
40 W
1455 1983 PD
40 W
1456 2020 PD
40 W
1457 1973 PD
40 W
1460 1973 PD
40 W
1461 1901 PD
40 W
1463 1973 PD
40 W
1464 1973 PD
40 W
1466 1973 PD
40 W
1471 1973 PD
40 W
1472 1973 PD
40 W
1474 1973 PD
40 W
1475 1973 PD
40 W
1476 1973 PD
40 W
1479 1973 PD
40 W
1480 1973 PD
40 W
1483 1958 PD
40 W
1486 1929 PD
40 W
1487 1928 PD
40 W
1489 1973 PD
40 W
1490 1973 PD
40 W
1494 1973 PD
40 W
1495 1965 PD
40 W
1498 1966 PD
40 W
1500 1973 PD
40 W
1501 1966 PD
40 W
1506 1973 PD
40 W
1508 1973 PD
40 W
1509 1973 PD
40 W
1510 1973 PD
40 W
1512 1959 PD
40 W
1513 1965 PD
40 W
1520 1973 PD
40 W
1523 1952 PD
40 W
1527 1973 PD
40 W
1528 1973 PD
40 W
1529 1973 PD
40 W
1531 1973 PD
40 W
1532 1973 PD
40 W
1534 1973 PD
40 W
1535 1973 PD
40 W
1539 1973 PD
40 W
1542 1952 PD
40 W
1544 1973 PD
40 W
1546 1952 PD
40 W
1550 2029 PD
40 W
1562 2001 PD
40 W
1564 1973 PD
40 W
1566 1973 PD
40 W
1568 1973 PD
40 W
1572 1973 PD
40 W
1573 1973 PD
40 W
1576 1973 PD
40 W
1577 1973 PD
40 W
1579 1931 PD
40 W
1581 1973 PD
40 W
1584 1996 PD
40 W
1585 2057 PD
40 W
1587 1973 PD
40 W
1588 1973 PD
40 W
1591 1973 PD
40 W
1592 1973 PD
40 W
1595 2009 PD
40 W
1598 1973 PD
40 W
1599 2004 PD
40 W
1604 2012 PD
40 W
1606 2047 PD
40 W
1607 2018 PD
40 W
1611 2014 PD
40 W
1614 2024 PD
40 W
1615 2003 PD
40 W
1617 2116 PD
40 W
1618 2350 PD
40 W
1619 2326 PD
40 W
1622 2601 PD
40 W
1625 2538 PD
40 W
1626 2446 PD
40 W
1630 2363 PD
40 W
1633 2101 PD
40 W
1638 2515 PD
40 W
1640 2173 PD
40 W
1641 2085 PD
40 W
1642 2339 PD
40 W
1649 2395 PD
40 W
1653 2390 PD
40 W
1655 2301 PD
40 W
1660 2471 PD
40 W
1662 2671 PD
40 W
1664 2474 PD
40 W
1666 2327 PD
40 W
1671 2242 PD
40 W
1679 1973 PD
40 W
1681 1850 PD
40 W
1682 1695 PD
40 W
1683 1773 PD
40 W
1685 1835 PD
40 W
1690 1881 PD
40 W
1693 1801 PD
40 W
1694 1765 PD
40 W
1696 1938 PD
40 W
1697 1881 PD
40 W
1702 1873 PD
40 W
1704 1860 PD
40 W
1709 1940 PD
40 W
1712 1973 PD
40 W
1717 1861 PD
40 W
1719 1754 PD
40 W
1721 1841 PD
40 W
1723 1757 PD
40 W
1724 1959 PD
40 W
1726 1984 PD
40 W
1727 1949 PD
40 W
1730 1917 PD
40 W
1732 1842 PD
40 W
1734 1783 PD
40 W
1735 1939 PD
40 W
1738 1845 PD
40 W
1739 1922 PD
40 W
1742 1863 PD
40 W
1743 1935 PD
40 W
1747 1901 PD
40 W
1749 1788 PD
40 W
1751 1891 PD
40 W
1754 1838 PD
40 W
1757 1769 PD
40 W
1758 1858 PD
40 W
1760 1923 PD
40 W
1764 1973 PD
40 W
1765 1973 PD
40 W
1770 1973 PD
40 W
1772 1973 PD
40 W
1775 1973 PD
40 W
1776 1973 PD
40 W
1780 1973 PD
40 W
1783 1893 PD
40 W
1787 1973 PD
40 W
1788 1973 PD
40 W
1791 1973 PD
40 W
1792 1973 PD
40 W
1795 1951 PD
40 W
1798 1973 PD
40 W
1809 1948 PD
40 W
1811 1909 PD
40 W
1813 1886 PD
40 W
1814 1805 PD
40 W
1825 1909 PD
40 W
1826 1877 PD
40 W
1829 1831 PD
40 W
1832 1802 PD
40 W
1833 1876 PD
40 W
1837 1917 PD
40 W
1840 1894 PD
40 W
1845 1948 PD
40 W
1849 1904 PD
40 W
1851 1973 PD
40 W
1854 1914 PD
40 W
1856 1828 PD
40 W
1860 1769 PD
40 W
1862 1805 PD
40 W
1863 1713 PD
40 W
1867 1704 PD
40 W
1871 1885 PD
40 W
1874 1951 PD
40 W
1877 1760 PD
40 W
1878 1724 PD
40 W
1879 1782 PD
40 W
1881 1769 PD
40 W
1883 1622 PD
40 W
1885 1815 PD
40 W
1886 1921 PD
40 W
1888 1826 PD
40 W
1889 1818 PD
40 W
1890 1860 PD
40 W
1892 1890 PD
40 W
1894 1853 PD
40 W
1896 1890 PD
40 W
1897 1859 PD
40 W
1900 1863 PD
40 W
1903 1816 PD
40 W
1904 1791 PD
40 W
1905 1930 PD
40 W
1907 1848 PD
40 W
1909 1881 PD
40 W
1911 1915 PD
40 W
1912 1821 PD
40 W
1916 1898 PD
40 W
1922 1850 PD
40 W
1924 1881 PD
40 W
1926 1814 PD
40 W
1930 1960 PD
40 W
1931 1973 PD
40 W
1932 1973 PD
40 W
1934 1959 PD
40 W
1935 1954 PD
40 W
1938 1963 PD
40 W
1945 1951 PD
40 W
1946 1973 PD
40 W
1947 1973 PD
40 W
1952 1959 PD
40 W
1953 1927 PD
40 W
1956 1852 PD
40 W
1957 1820 PD
40 W
1960 1786 PD
40 W
1962 1802 PD
40 W
1965 1824 PD
40 W
1967 1773 PD
40 W
1968 1850 PD
40 W
1969 1774 PD
40 W
1972 1781 PD
40 W
1973 1772 PD
40 W
1975 1603 PD
40 W
1976 1710 PD
40 W
1979 1788 PD
40 W
1981 1844 PD
40 W
1983 1774 PD
40 W
1986 1902 PD
40 W
1987 1824 PD
40 W
1990 1808 PD
40 W
1994 1840 PD
40 W
1996 1829 PD
40 W
1999 1880 PD
40 W
2002 1947 PD
40 W
2009 1743 PD
40 W
2016 1774 PD
40 W
2017 1773 PD
40 W
2018 1842 PD
40 W
2020 1889 PD
40 W
2021 1830 PD
40 W
2024 1794 PD
40 W
2025 1825 PD
40 W
2029 1781 PD
40 W
2030 1843 PD
40 W
2032 1827 PD
40 W
2033 1805 PD
40 W
2040 1810 PD
40 W
2044 1961 PD
40 W
2050 1832 PD
40 W
2051 1790 PD
40 W
2060 1775 PD
40 W
2063 1734 PD
40 W
2066 1693 PD
40 W
2067 1717 PD
40 W
2073 1684 PD
40 W
2077 1589 PD
40 W
2078 1626 PD
40 W
2080 1721 PD
40 W
2081 1650 PD
40 W
2082 1733 PD
40 W
2085 1859 PD
40 W
2088 1841 PD
40 W
2090 1812 PD
40 W
2092 1840 PD
40 W
2093 1863 PD
40 W
2096 1929 PD
40 W
2100 1934 PD
40 W
2111 1973 PD
40 W
2114 1848 PD
40 W
2115 1895 PD
40 W
2116 1897 PD
40 W
2118 1907 PD
40 W
2119 1965 PD
40 W
2120 1973 PD
40 W
2123 1973 PD
40 W
2124 1961 PD
40 W
2129 1973 PD
40 W
2133 1849 PD
40 W
2134 1790 PD
40 W
2138 1822 PD
40 W
2139 1825 PD
40 W
2141 1838 PD
40 W
2145 1934 PD
40 W
2148 1792 PD
40 W
2150 1687 PD
40 W
2156 1867 PD
40 W
2160 1856 PD
40 W
2161 1767 PD
40 W
2163 1720 PD
40 W
2165 1853 PD
40 W
2173 1820 PD
40 W
2175 1873 PD
40 W
2179 1884 PD
40 W
2180 1871 PD
40 W
2187 1808 PD
40 W
2188 1811 PD
40 W
2191 1831 PD
40 W
2193 1786 PD
40 W
2194 1794 PD
40 W
2195 1825 PD
40 W
2199 1716 PD
40 W
2201 1752 PD
40 W
2203 1726 PD
40 W
2205 1733 PD
40 W
2206 1792 PD
40 W
2213 1796 PD
40 W
2214 1697 PD
40 W
2216 1815 PD
40 W
2218 1867 PD
40 W
2220 1799 PD
40 W
2222 1678 PD
40 W
2225 1733 PD
40 W
2228 1593 PD
40 W
2232 1678 PD
40 W
2235 1689 PD
40 W
2236 1696 PD
40 W
2239 1622 PD
40 W
2242 1668 PD
40 W
2243 1642 PD
40 W
2246 1757 PD
40 W
2248 1574 PD
40 W
2250 1663 PD
40 W
2251 1787 PD
40 W
2252 1834 PD
40 W
2261 1753 PD
40 W
2262 1749 PD
40 W
2263 1768 PD
40 W
2266 1866 PD
40 W
2267 1820 PD
40 W
2271 1821 PD
40 W
2273 1894 PD
40 W
2274 1794 PD
40 W
2281 1927 PD
40 W
2284 1989 PD
40 W
2285 1989 PD
40 W
2286 1936 PD
40 W
2289 1955 PD
40 W
2292 1893 PD
40 W
2293 1948 PD
40 W
2296 1899 PD
40 W
2305 1946 PD
40 W
2308 1973 PD
40 W
2312 1937 PD
40 W
2314 1973 PD
40 W
2315 1973 PD
40 W
2316 1973 PD
40 W
2318 1973 PD
40 W
2320 1857 PD
40 W
2323 1973 PD
40 W
2326 1973 PD
40 W
2329 2081 PD
40 W
2333 2036 PD
40 W
2335 2143 PD
40 W
2337 2123 PD
40 W
2340 2122 PD
40 W
2344 2015 PD
40 W
2345 2047 PD
40 W
2346 2045 PD
40 W
2348 2160 PD
40 W
2350 2052 PD
40 W
2352 2103 PD
40 W
2356 2280 PD
40 W
2359 2618 PD
40 W
2360 2553 PD
40 W
2361 2399 PD
40 W
2365 2365 PD
40 W
2367 2365 PD
40 W
2368 2422 PD
40 W
2369 2545 PD
40 W
2371 2613 PD
40 W
2374 2537 PD
40 W
2375 2237 PD
40 W
2382 2108 PD
40 W
2383 2157 PD
40 W
2386 2009 PD
40 W
2387 2096 PD
40 W
2391 2295 PD
40 W
2393 2598 PD
40 W
2394 2452 PD
40 W
2397 2284 PD
40 W
2398 2291 PD
40 W
2399 2270 PD
40 W
2401 2316 PD
40 W
2406 2145 PD
40 W
2408 2102 PD
40 W
2410 2113 PD
40 W
2413 2231 PD
40 W
2414 2242 PD
40 W
2417 2184 PD
40 W
2418 2169 PD
40 W
2425 1991 PD
40 W
2427 2226 PD
40 W
2428 2121 PD
40 W
2429 2210 PD
40 W
2431 1923 PD
40 W
2432 1724 PD
40 W
2436 2234 PD
40 W
2438 1972 PD
40 W
2439 1884 PD
40 W
2448 1794 PD
40 W
2453 1436 PD
40 W
2454 1592 PD
40 W
2455 1676 PD
40 W
2457 1591 PD
40 W
2461 1756 PD
40 W
2463 1787 PD
40 W
2468 1973 PD
40 W
2472 1973 PD
40 W
2477 1973 PD
40 W
2478 1973 PD
40 W
2482 1973 PD
40 W
2488 2032 PD
40 W
2491 2006 PD
40 W
2492 1973 PD
40 W
2496 1993 PD
40 W
2497 2016 PD
40 W
2500 2160 PD
40 W
2502 2115 PD
40 W
2504 2153 PD
40 W
2506 2053 PD
40 W
2507 2131 PD
40 W
2508 2032 PD
40 W
2514 1998 PD
40 W
2515 2035 PD
40 W
2518 1989 PD
40 W
2523 2062 PD
40 W
2525 2068 PD
40 W
2529 2000 PD
40 W
2530 2049 PD
40 W
2533 2009 PD
40 W
2534 2071 PD
40 W
2536 2006 PD
40 W
2537 1996 PD
40 W
2538 1973 PD
40 W
2542 2015 PD
40 W
2546 2069 PD
40 W
2548 2068 PD
40 W
2552 2381 PD
40 W
2553 2449 PD
40 W
2556 2513 PD
40 W
2557 2428 PD
40 W
2560 1973 PD
40 W
2564 2083 PD
40 W
2566 2314 PD
40 W
2570 2255 PD
40 W
2571 2373 PD
40 W
2572 2226 PD
40 W
2574 2175 PD
40 W
2575 1881 PD
40 W
2578 2230 PD
40 W
2579 2251 PD
40 W
2601 2436 PD
40 W
2608 2428 PD
40 W
2609 2304 PD
40 W
2612 2461 PD
40 W
2616 2232 PD
40 W
2617 2236 PD
40 W
2623 2236 PD
40 W
2624 2190 PD
40 W
2625 2319 PD
40 W
2627 2230 PD
40 W
2631 2043 PD
40 W
2635 2003 PD
40 W
2636 2077 PD
40 W
2638 2062 PD
40 W
2642 2118 PD
40 W
2644 2151 PD
40 W
2650 2065 PD
40 W
2651 2107 PD
40 W
2653 2011 PD
40 W
2654 2040 PD
40 W
2655 2102 PD
40 W
2657 2089 PD
40 W
2658 1996 PD
40 W
2661 1973 PD
40 W
2662 2056 PD
40 W
2666 2047 PD
40 W
2670 2055 PD
40 W
2672 2043 PD
40 W
2676 2014 PD
40 W
2681 2088 PD
40 W
2683 2102 PD
40 W
2685 1995 PD
40 W
2688 2251 PD
40 W
2689 2119 PD
40 W
2691 2213 PD
40 W
2693 2134 PD
40 W
2696 2141 PD
40 W
2698 2111 PD
40 W
2699 2059 PD
40 W
2702 2032 PD
40 W
2703 2002 PD
40 W
2707 1987 PD
40 W
2708 1973 PD
40 W
2713 1973 PD
40 W
2719 2029 PD
40 W
2722 2139 PD
40 W
2725 2167 PD
40 W
2726 2159 PD
40 W
2728 2114 PD
40 W
2729 2156 PD
40 W
2730 2088 PD
40 W
2732 2040 PD
40 W
2733 2058 PD
40 W
2734 2082 PD
40 W
2738 2141 PD
40 W
2743 2165 PD
40 W
2745 2237 PD
40 W
2748 2287 PD
40 W
2749 2129 PD
40 W
2752 2121 PD
40 W
2755 2017 PD
40 W
2756 2037 PD
40 W
2757 2046 PD
40 W
2759 2061 PD
40 W
2763 1973 PD
40 W
2764 2066 PD
40 W
2766 2061 PD
40 W
2768 2088 PD
40 W
2772 2110 PD
40 W
2779 1973 PD
40 W
2781 2076 PD
40 W
2783 2230 PD
40 W
2785 2149 PD
40 W
2786 2059 PD
40 W
2787 2048 PD
40 W
2794 2026 PD
40 W
2797 2019 PD
40 W
2798 2054 PD
40 W
2800 1973 PD
40 W
2801 2089 PD
40 W
2802 2186 PD
40 W
2804 2116 PD
40 W
2805 2043 PD
40 W
2806 2073 PD
40 W
2808 1990 PD
40 W
2813 2224 PD
40 W
2815 2198 PD
40 W
2817 2158 PD
40 W
2819 2173 PD
40 W
2823 1998 PD
40 W
2824 2012 PD
40 W
2827 2005 PD
40 W
2828 1973 PD
40 W
2830 1973 PD
40 W
2832 2045 PD
40 W
2834 2023 PD
40 W
2835 1987 PD
40 W
2836 1995 PD
40 W
2838 1984 PD
40 W
2842 1973 PD
40 W
2843 1973 PD
40 W
2847 1973 PD
40 W
2849 1973 PD
40 W
2850 1973 PD
40 W
2854 1973 PD
40 W
2856 1973 PD
40 W
2857 1973 PD
40 W
2860 1973 PD
40 W
2866 1973 PD
40 W
2868 1973 PD
40 W
2870 1973 PD
40 W
2873 1973 PD
40 W
2875 1973 PD
40 W
2876 1990 PD
40 W
2880 2043 PD
40 W
2881 2021 PD
40 W
2884 1973 PD
40 W
2885 1983 PD
40 W
2887 1973 PD
40 W
2888 1973 PD
40 W
2890 1973 PD
40 W
2891 1973 PD
40 W
2892 1973 PD
40 W
2894 1973 PD
40 W
2895 1973 PD
40 W
2896 1973 PD
40 W
2898 1973 PD
40 W
2899 1973 PD
40 W
2903 1973 PD
40 W
2907 1973 PD
40 W
2909 2042 PD
40 W
2910 2126 PD
40 W
2911 2018 PD
40 W
2913 1973 PD
40 W
2917 1973 PD
40 W
2918 1973 PD
40 W
2919 1973 PD
40 W
2926 1959 PD
40 W
2928 1933 PD
40 W
2930 1954 PD
40 W
2934 1973 PD
40 W
2936 1973 PD
40 W
2939 1965 PD
40 W
2941 1970 PD
40 W
2943 1970 PD
40 W
2944 1968 PD
40 W
2947 1970 PD
40 W
2948 1946 PD
40 W
2949 1930 PD
40 W
2954 1892 PD
40 W
2959 1956 PD
40 W
2967 1920 PD
40 W
2968 1916 PD
40 W
2970 1953 PD
40 W
2971 1973 PD
40 W
2975 1963 PD
40 W
2977 1966 PD
40 W
2978 1972 PD
40 W
2983 1973 PD
40 W
2985 1973 PD
40 W
2986 1973 PD
40 W
2988 1973 PD
40 W
2989 1973 PD
40 W
2990 1973 PD
40 W
2992 1973 PD
40 W
2993 1973 PD
40 W
2994 1972 PD
40 W
2998 1972 PD
40 W
3000 1972 PD
40 W
3003 1952 PD
40 W
3004 1882 PD
40 W
3005 1864 PD
40 W
3009 1864 PD
40 W
3011 1864 PD
40 W
3016 1864 PD
40 W
3020 1872 PD
40 W
3022 1779 PD
40 W
3024 1808 PD
40 W
3030 1768 PD
40 W
3031 1859 PD
40 W
3035 1916 PD
40 W
3038 1932 PD
40 W
3042 1928 PD
40 W
3043 1904 PD
40 W
3045 1892 PD
40 W
3046 1915 PD
40 W
3047 1886 PD
40 W
3049 1745 PD
40 W
3052 1784 PD
40 W
3053 1752 PD
40 W
3058 1891 PD
40 W
3060 1772 PD
40 W
3061 1816 PD
40 W
3062 1910 PD
40 W
3064 1874 PD
40 W
3065 1906 PD
40 W
3068 1877 PD
40 W
3071 1957 PD
40 W
3072 1960 PD
40 W
3073 1925 PD
40 W
3075 1773 PD
40 W
3076 1939 PD
40 W
3077 1880 PD
40 W
3080 1936 PD
40 W
3081 1956 PD
40 W
3086 1973 PD
40 W
3090 1954 PD
40 W
3094 1919 PD
40 W
3096 1973 PD
40 W
3099 1973 PD
40 W
3101 1890 PD
40 W
3105 1973 PD
40 W
3106 1973 PD
40 W
3107 1973 PD
40 W
3109 1973 PD
40 W
3111 1931 PD
40 W
3118 1973 PD
40 W
3120 1973 PD
40 W
3121 1973 PD
40 W
3131 1973 PD
40 W
3132 1973 PD
40 W
3136 1973 PD
40 W
3139 1973 PD
40 W
3140 1973 PD
40 W
3143 1973 PD
40 W
3144 1958 PD
40 W
3145 1973 PD
40 W
3147 1973 PD
40 W
3148 1973 PD
40 W
3152 1973 PD
40 W
3154 1973 PD
40 W
3155 1973 PD
40 W
3158 1973 PD
40 W
3162 1973 PD
40 W
3163 1973 PD
40 W
3165 1973 PD
40 W
3167 1973 PD
40 W
3169 1973 PD
40 W
3175 1973 PD
40 W
3177 1958 PD
40 W
3181 2049 PD
40 W
3184 2000 PD
40 W
3185 2000 PD
40 W
3188 2000 PD
40 W
3189 2000 PD
40 W
3190 2000 PD
40 W
3192 2000 PD
40 W
3193 2000 PD
40 W
3194 2000 PD
40 W
3196 2004 PD
40 W
3199 2060 PD
40 W
3203 2087 PD
40 W
3209 1992 PD
40 W
3211 2008 PD
40 W
3220 1920 PD
40 W
3223 1961 PD
40 W
3226 2128 PD
40 W
3229 2188 PD
40 W
3230 2110 PD
40 W
3235 2182 PD
40 W
3239 2301 PD
40 W
3241 2380 PD
40 W
3244 2137 PD
40 W
3249 2084 PD
40 W
3250 2093 PD
40 W
3252 2047 PD
40 W
3253 2053 PD
40 W
3254 2012 PD
40 W
3258 2043 PD
40 W
3261 1991 PD
40 W
3263 2017 PD
40 W
3265 2015 PD
40 W
3267 2023 PD
40 W
3272 1973 PD
40 W
3280 2095 PD
40 W
3283 2113 PD
40 W
3286 2069 PD
40 W
3290 2086 PD
40 W
3293 2102 PD
40 W
3298 2096 PD
40 W
3301 1995 PD
40 W
3302 1973 PD
40 W
3309 2020 PD
40 W
3313 2008 PD
40 W
3316 2014 PD
40 W
3317 2004 PD
40 W
3321 2035 PD
40 W
3322 2009 PD
40 W
3324 2080 PD
40 W
3327 2047 PD
40 W
3328 1992 PD
40 W
3329 2049 PD
40 W
3331 1973 PD
40 W
3332 1990 PD
40 W
3333 2021 PD
40 W
3336 2017 PD
40 W
3337 1991 PD
40 W
3339 1973 PD
40 W
3340 1973 PD
40 W
3342 1999 PD
40 W
3344 1999 PD
40 W
3346 2089 PD
40 W
3347 2098 PD
40 W
3352 2110 PD
40 W
3355 2206 PD
40 W
3359 2395 PD
40 W
3361 2523 PD
40 W
3363 2259 PD
40 W
3365 2207 PD
40 W
3366 2224 PD
40 W
3369 2342 PD
40 W
3370 2270 PD
40 W
3373 2694 PD
40 W
3374 2538 PD
40 W
3377 2282 PD
40 W
3378 2348 PD
40 W
3384 2455 PD
40 W
3385 2330 PD
40 W
3388 2377 PD
40 W
3389 2081 PD
40 W
3391 1891 PD
40 W
3392 1870 PD
40 W
3393 1888 PD
40 W
3396 1882 PD
40 W
3399 1854 PD
40 W
3401 1838 PD
40 W
3404 1887 PD
40 W
3407 1777 PD
40 W
3411 1998 PD
40 W
3412 1913 PD
40 W
3414 1854 PD
40 W
3418 1865 PD
40 W
3423 1875 PD
40 W
3425 1854 PD
40 W
3429 1637 PD
40 W
3433 1967 PD
40 W
3434 1889 PD
40 W
3437 1876 PD
40 W
3438 1941 PD
40 W
3441 1860 PD
40 W
3444 1733 PD
40 W
3452 1973 PD
40 W
3453 1874 PD
40 W
3455 1973 PD
40 W
3457 1973 PD
40 W
3459 1973 PD
40 W
3464 1973 PD
40 W
3467 1973 PD
40 W
3468 1973 PD
40 W
3474 1973 PD
40 W
3476 1928 PD
40 W
3480 1853 PD
40 W
3482 1917 PD
40 W
3484 1857 PD
40 W
3486 1843 PD
40 W
3487 1833 PD
40 W
3489 1973 PD
40 W
3491 1828 PD
40 W
3493 1755 PD
40 W
3501 1744 PD
40 W
3502 1910 PD
40 W
3504 1973 PD
40 W
3505 1845 PD
40 W
3506 1837 PD
40 W
3508 1973 PD
40 W
3510 1973 PD
40 W
3512 1973 PD
40 W
3514 1973 PD
40 W
3516 1973 PD
40 W
3517 1973 PD
40 W
3520 1951 PD
40 W
3533 1881 PD
40 W
3535 1850 PD
40 W
3536 1919 PD
40 W
3538 1955 PD
40 W
3539 1973 PD
40 W
3546 1911 PD
40 W
3550 1940 PD
40 W
3551 1953 PD
40 W
3554 1897 PD
40 W
3555 1939 PD
40 W
3557 1908 PD
40 W
3558 1939 PD
40 W
3559 1921 PD
40 W
3563 2019 PD
40 W
3565 2045 PD
40 W
3568 1830 PD
40 W
3572 1816 PD
40 W
3573 1781 PD
40 W
3574 1824 PD
40 W
3582 1604 PD
40 W
3584 1502 PD
40 W
3585 1537 PD
40 W
3587 1754 PD
40 W
3588 1747 PD
40 W
3589 1763 PD
40 W
3591 1497 PD
40 W
3593 1594 PD
40 W
3595 1473 PD
40 W
3597 1425 PD
40 W
3600 1485 PD
40 W
3602 1432 PD
40 W
3603 1606 PD
40 W
3606 1557 PD
40 W
3607 1657 PD
40 W
3608 1573 PD
40 W
3610 1587 PD
40 W
3611 1652 PD
40 W
3612 1732 PD
40 W
3615 1682 PD
40 W
3617 1624 PD
40 W
3618 1632 PD
40 W
3619 1654 PD
40 W
3621 1739 PD
40 W
3623 1833 PD
40 W
3625 1943 PD
40 W
3629 1940 PD
40 W
3632 1973 PD
40 W
3634 1858 PD
40 W
3636 1870 PD
40 W
3638 1900 PD
40 W
3644 1973 PD
40 W
3645 1973 PD
40 W
3646 1948 PD
40 W
3648 1948 PD
40 W
3655 1942 PD
40 W
3656 1973 PD
40 W
3663 1973 PD
40 W
3664 1973 PD
40 W
3666 1973 PD
40 W
3668 1973 PD
40 W
3672 1973 PD
40 W
3674 1973 PD
40 W
3675 1973 PD
40 W
3676 1973 PD
40 W
3679 1973 PD
40 W
3681 1973 PD
40 W
3686 1973 PD
40 W
3690 1973 PD
40 W
3693 1973 PD
40 W
3694 1948 PD
40 W
3695 1942 PD
40 W
3697 1951 PD
40 W
3706 1973 PD
40 W
3709 1976 PD
40 W
3713 1973 PD
40 W
3716 2001 PD
40 W
3721 1973 PD
40 W
3723 2058 PD
40 W
3724 2093 PD
40 W
3727 2146 PD
40 W
3728 2116 PD
40 W
3730 2172 PD
40 W
3731 2175 PD
40 W
3734 2108 PD
40 W
3735 2085 PD
40 W
3739 2074 PD
40 W
3742 2129 PD
40 W
3746 2009 PD
40 W
3753 2146 PD
40 W
3758 2254 PD
40 W
3761 2102 PD
40 W
3762 2104 PD
40 W
3764 2060 PD
40 W
3765 2109 PD
40 W
3768 2021 PD
40 W
3773 1973 PD
40 W
3774 1997 PD
40 W
3776 1973 PD
40 W
3777 2041 PD
40 W
3780 1973 PD
40 W
3781 1993 PD
40 W
3785 1973 PD
40 W
3787 1988 PD
40 W
3788 1994 PD
40 W
3789 2015 PD
40 W
3791 2007 PD
40 W
3796 1973 PD
40 W
3802 1993 PD
40 W
3804 1973 PD
40 W
3806 1973 PD
40 W
3810 1973 PD
40 W
3811 1973 PD
40 W
3813 1973 PD
40 W
3822 1973 PD
40 W
3823 1973 PD
40 W
3828 1997 PD
40 W
3830 1809 PD
40 W
3832 1877 PD
40 W
3838 1973 PD
40 W
3840 1973 PD
40 W
3841 1973 PD
40 W
3843 1973 PD
40 W
3844 1973 PD
40 W
3847 1973 PD
40 W
3848 1973 PD
40 W
3849 1973 PD
40 W
3851 1983 PD
40 W
3856 1994 PD
40 W
3859 2001 PD
40 W
3862 1973 PD
40 W
3863 1973 PD
40 W
3866 1973 PD
40 W
3867 1994 PD
40 W
3868 1973 PD
40 W
3870 1992 PD
40 W
3879 1973 PD
40 W
3882 1973 PD
40 W
3883 1973 PD
40 W
3887 1973 PD
40 W
3889 1973 PD
40 W
3890 1973 PD
40 W
3893 1973 PD
40 W
3894 1973 PD
40 W
3897 1973 PD
40 W
3900 1973 PD
40 W
3902 1973 PD
40 W
3908 1973 PD
40 W
3911 1973 PD
40 W
3912 1973 PD
40 W
3915 1973 PD
40 W
3916 1973 PD
40 W
3926 1973 PD
40 W
3927 1973 PD
40 W
3928 1987 PD
40 W
3930 1985 PD
40 W
3931 2039 PD
40 W
3932 2031 PD
40 W
3934 1995 PD
40 W
3936 1973 PD
40 W
3939 1973 PD
40 W
3941 1973 PD
40 W
3942 1973 PD
40 W
3943 1973 PD
40 W
3945 1973 PD
40 W
3946 1973 PD
40 W
3947 1988 PD
40 W
3949 1973 PD
40 W
3951 1973 PD
40 W
3953 1973 PD
40 W
3962 2051 PD
40 W
3965 2014 PD
40 W
3970 1991 PD
40 W
3972 2014 PD
40 W
3973 1973 PD
40 W
3976 1989 PD
40 W
3977 1989 PD
40 W
3979 2017 PD
40 W
3980 1973 PD
40 W
3981 2020 PD
40 W
3988 1973 PD
40 W
3991 1973 PD
40 W
3994 1973 PD
40 W
3995 1973 PD
40 W
3998 1973 PD
40 W
4002 1973 PD
40 W
4003 1973 PD
40 W
4006 1973 PD
40 W
4007 1989 PD
40 W
4009 1973 PD
40 W
4010 1973 PD
40 W
4014 1973 PD
40 W
4015 1973 PD
40 W
4022 1973 PD
40 W
4024 1973 PD
40 W
4025 1973 PD
40 W
4026 1973 PD
40 W
4028 1999 PD
40 W
4029 1973 PD
40 W
4032 1973 PD
40 W
4034 1973 PD
40 W
4037 1973 PD
40 W
4040 1973 PD
40 W
4044 1973 PD
40 W
4045 1973 PD
40 W
4047 1973 PD
40 W
4048 1973 PD
40 W
4049 1973 PD
40 W
4052 1973 PD
40 W
4055 1973 PD
40 W
4056 1973 PD
40 W
4058 1973 PD
40 W
4059 1973 PD
40 W
4063 1973 PD
40 W
4064 1973 PD
40 W
4066 1973 PD
40 W
4069 1973 PD
40 W
4070 1973 PD
40 W
4071 1973 PD
40 W
4073 1973 PD
40 W
4074 1973 PD
40 W
4078 1973 PD
40 W
4079 1971 PD
40 W
4082 1973 PD
40 W
4089 1973 PD
40 W
4096 1973 PD
40 W
4097 1973 PD
40 W
4100 1973 PD
40 W
4101 1973 PD
40 W
4104 1973 PD
40 W
4108 1973 PD
40 W
4113 1973 PD
40 W
4115 1973 PD
40 W
4120 1973 PD
40 W
4122 1935 PD
40 W
4124 1973 PD
40 W
4126 1973 PD
40 W
4127 1973 PD
40 W
4130 1973 PD
40 W
4131 1973 PD
40 W
4132 1973 PD
40 W
4134 1973 PD
40 W
4135 1973 PD
40 W
4137 1973 PD
40 W
4139 1941 PD
40 W
4146 2055 PD
40 W
4147 2049 PD
40 W
4152 2047 PD
40 W
4157 1973 PD
40 W
4158 1973 PD
40 W
4161 2021 PD
40 W
4162 1989 PD
40 W
4164 1988 PD
40 W
4165 2008 PD
40 W
4167 1990 PD
40 W
4168 1973 PD
40 W
4172 1982 PD
40 W
4176 1980 PD
40 W
4177 1973 PD
40 W
4179 1980 PD
40 W
4180 1973 PD
40 W
4182 1973 PD
40 W
4183 1973 PD
40 W
4184 1987 PD
40 W
4186 1973 PD
40 W
4188 1973 PD
40 W
4191 1973 PD
40 W
4199 1891 PD
40 W
4202 1947 PD
40 W
4203 1973 PD
40 W
4207 1973 PD
40 W
4211 1973 PD
40 W
4213 1973 PD
40 W
4214 1973 PD
40 W
4216 1973 PD
40 W
4217 1973 PD
40 W
4220 1973 PD
40 W
4221 1973 PD
40 W
4226 1973 PD
40 W
4229 1973 PD
40 W
4231 1973 PD
40 W
4235 1973 PD
40 W
4237 1973 PD
40 W
4240 1973 PD
40 W
4243 1947 PD
40 W
4244 1906 PD
40 W
4247 1973 PD
40 W
4254 1973 PD
40 W
4258 1973 PD
40 W
4259 1973 PD
40 W
4260 1973 PD
40 W
4263 1973 PD
40 W
4266 1973 PD
40 W
4267 1973 PD
40 W
4270 1973 PD
40 W
4271 1973 PD
40 W
4275 1973 PD
40 W
4280 1926 PD
40 W
4281 1947 PD
40 W
4284 1968 PD
40 W
4285 1972 PD
40 W
4286 1968 PD
40 W
4292 1925 PD
40 W
4293 1973 PD
40 W
4297 1957 PD
40 W
4300 1907 PD
40 W
4304 1964 PD
40 W
4305 1926 PD
40 W
4307 1916 PD
40 W
4309 1948 PD
40 W
4311 1925 PD
40 W
4312 1945 PD
40 W
4320 1893 PD
40 W
4322 1845 PD
40 W
4324 1886 PD
40 W
4326 1835 PD
40 W
4327 1843 PD
40 W
4329 1845 PD
40 W
4330 1827 PD
40 W
4335 1773 PD
40 W
4337 1839 PD
40 W
4339 1743 PD
40 W
4342 1786 PD
40 W
4349 1816 PD
40 W
4350 1729 PD
40 W
4353 1592 PD
40 W
4354 1644 PD
40 W
4361 1665 PD
40 W
4365 1897 PD
40 W
4368 1759 PD
40 W
4375 1911 PD
40 W
4376 1912 PD
40 W
4379 1862 PD
40 W
4382 1949 PD
40 W
4383 1966 PD
40 W
4384 2006 PD
40 W
4386 1980 PD
40 W
4391 1761 PD
40 W
4395 1658 PD
40 W
4398 1815 PD
40 W
4399 1833 PD
40 W
4401 1721 PD
40 W
4402 1739 PD
40 W
4407 1735 PD
40 W
4413 1704 PD
40 W
4416 1636 PD
40 W
4420 1610 PD
40 W
4422 1712 PD
40 W
4425 1715 PD
40 W
4427 1662 PD
40 W
4431 1675 PD
40 W
4433 1732 PD
40 W
4437 1714 PD
40 W
4440 1609 PD
40 W
4442 1736 PD
40 W
4444 1739 PD
40 W
4446 1713 PD
40 W
4447 1681 PD
40 W
4448 1742 PD
40 W
4450 1769 PD
40 W
4451 1716 PD
40 W
4452 1594 PD
40 W
4454 1622 PD
40 W
4457 1727 PD
40 W
4458 1615 PD
40 W
4461 1600 PD
40 W
4463 1582 PD
40 W
4465 1612 PD
40 W
4469 1677 PD
40 W
4470 1726 PD
40 W
4473 1569 PD
40 W
4474 1455 PD
40 W
4477 1639 PD
40 W
4478 1482 PD
40 W
4480 1511 PD
40 W
4481 1485 PD
40 W
4482 1530 PD
40 W
4484 1454 PD
40 W
4485 1590 PD
40 W
4488 1561 PD
40 W
4489 1546 PD
40 W
4493 1517 PD
40 W
4495 1572 PD
40 W
4496 1432 PD
40 W
4499 1636 PD
40 W
4500 1613 PD
40 W
4504 1635 PD
40 W
4506 1572 PD
40 W
4507 1588 PD
40 W
4510 1637 PD
40 W
4515 1633 PD
40 W
4518 1656 PD
40 W
4520 1688 PD
40 W
4522 1771 PD
40 W
4523 1757 PD
40 W
4525 1725 PD
40 W
4526 1743 PD
40 W
4529 1686 PD
40 W
4530 1709 PD
40 W
4531 1679 PD
40 W
4533 1688 PD
40 W
4538 1736 PD
40 W
4541 1732 PD
40 W
4544 1741 PD
40 W
4548 1755 PD
40 W
4549 1780 PD
40 W
4553 1679 PD
40 W
4556 1579 PD
40 W
4557 1605 PD
40 W
4559 1633 PD
40 W
4560 1655 PD
40 W
4564 1662 PD
40 W
4568 1607 PD
40 W
4570 1625 PD
40 W
4571 1633 PD
40 W
4575 1649 PD
40 W
4576 1661 PD
40 W
4579 1718 PD
40 W
4582 1735 PD
40 W
4586 1726 PD
40 W
4587 1735 PD
40 W
4590 1697 PD
40 W
4591 1736 PD
40 W
4593 1804 PD
40 W
4594 1737 PD
40 W
4597 1907 PD
40 W
4598 1925 PD
40 W
4599 1651 PD
40 W
4604 1401 PD
40 W
4606 1330 PD
40 W
4608 1401 PD
40 W
4609 1314 PD
40 W
4612 1525 PD
40 W
4613 1628 PD
40 W
4616 1580 PD
40 W
4617 1607 PD
40 W
4619 1581 PD
40 W
4621 1633 PD
40 W
4624 1721 PD
40 W
4625 1689 PD
40 W
4627 1689 PD
40 W
4628 1710 PD
40 W
4633 1722 PD
40 W
4638 1844 PD
40 W
4639 1741 PD
40 W
4643 1782 PD
40 W
4644 1685 PD
40 W
4647 1814 PD
40 W
4648 1699 PD
40 W
4659 1787 PD
40 W
4661 1660 PD
40 W
4665 1747 PD
40 W
4666 1725 PD
40 W
4669 1806 PD
40 W
4670 1833 PD
40 W
4674 1889 PD
40 W
4677 1803 PD
40 W
4683 1794 PD
40 W
4687 1760 PD
40 W
4688 1667 PD
40 W
4689 1837 PD
40 W
4692 1816 PD
40 W
4693 1763 PD
40 W
4695 1787 PD
40 W
4696 1781 PD
40 W
4704 1866 PD
40 W
4706 1862 PD
40 W
4707 1890 PD
40 W
4708 1895 PD
40 W
4710 1829 PD
40 W
4711 1844 PD
40 W
4715 1792 PD
40 W
4717 1716 PD
40 W
4718 1704 PD
40 W
4719 1768 PD
40 W
4721 1761 PD
40 W
4722 1765 PD
40 W
4723 1700 PD
40 W
4729 1783 PD
40 W
4730 1667 PD
40 W
4732 1803 PD
40 W
4733 1844 PD
40 W
4734 1873 PD
40 W
4736 1802 PD
40 W
4738 1760 PD
40 W
4740 1773 PD
40 W
4741 1876 PD
40 W
4742 1869 PD
40 W
4744 1882 PD
40 W
4745 1887 PD
40 W
4746 1888 PD
40 W
4748 1883 PD
40 W
4752 1854 PD
40 W
4755 1895 PD
40 W
4757 1820 PD
40 W
4759 1771 PD
40 W
4760 1779 PD
40 W
4761 1845 PD
40 W
4764 1873 PD
40 W
4766 1878 PD
40 W
4767 1856 PD
40 W
4772 1800 PD
40 W
4774 1824 PD
40 W
4776 1822 PD
40 W
4783 1723 PD
40 W
4785 1733 PD
40 W
4787 1586 PD
40 W
4790 1752 PD
40 W
4791 1872 PD
40 W
4794 1880 PD
40 W
4795 1831 PD
40 W
4800 1758 PD
40 W
4801 1719 PD
40 W
4805 1642 PD
40 W
4806 1696 PD
40 W
4809 1504 PD
40 W
4810 1592 PD
40 W
4812 1599 PD
40 W
4813 1643 PD
40 W
4820 1648 PD
40 W
4821 1702 PD
40 W
4828 1888 PD
40 W
4830 1821 PD
40 W
4835 1856 PD
40 W
4838 1846 PD
40 W
4839 1788 PD
40 W
4840 1628 PD
40 W
4842 1717 PD
40 W
4843 1872 PD
40 W
4845 1857 PD
40 W
4849 1889 PD
40 W
4851 2035 PD
40 W
4858 1757 PD
40 W
4861 1863 PD
40 W
4864 1865 PD
40 W
4865 1838 PD
40 W
4866 1802 PD
40 W
4868 1803 PD
40 W
4873 1931 PD
40 W
4874 1927 PD
40 W
4876 1924 PD
40 W
4877 1799 PD
40 W
4879 1832 PD
40 W
4880 1913 PD
40 W
4883 1895 PD
40 W
4884 1924 PD
40 W
4887 1921 PD
40 W
4888 1874 PD
40 W
4889 1871 PD
40 W
4891 1889 PD
40 W
4892 1919 PD
40 W
4894 1940 PD
40 W
4896 1869 PD
40 W
4898 1912 PD
40 W
4899 1924 PD
40 W
4902 1907 PD
40 W
4907 1919 PD
40 W
4917 1948 PD
40 W
4918 1958 PD
40 W
4923 1973 PD
40 W
4925 1973 PD
40 W
4928 1966 PD
40 W
4930 1973 PD
40 W
4934 1975 PD
40 W
4936 1973 PD
40 W
4937 1973 PD
40 W
4938 2015 PD
40 W
4943 2040 PD
40 W
4945 2047 PD
40 W
4947 2161 PD
40 W
4948 2173 PD
40 W
4949 2120 PD
40 W
4952 2315 PD
40 W
4955 2460 PD
40 W
4956 2253 PD
40 W
4958 2154 PD
40 W
4959 2078 PD
40 W
4960 2186 PD
40 W
4964 2545 PD
40 W
4968 2459 PD
40 W
4972 2407 PD
40 W
4975 2437 PD
40 W
4977 2355 PD
40 W
4978 2256 PD
40 W
4987 2265 PD
40 W
4989 2137 PD
40 W
4996 2148 PD
40 W
4997 2060 PD
40 W
5000 2103 PD
40 W
5001 2088 PD
40 W
5004 2088 PD
40 W
5007 2119 PD
40 W
5008 2019 PD
40 W
5009 2082 PD
40 W
5011 1973 PD
40 W
5015 1989 PD
40 W
5019 1973 PD
40 W
5021 1973 PD
40 W
5028 2006 PD
40 W
5030 1973 PD
40 W
5031 1973 PD
40 W
5034 1973 PD
40 W
5038 1986 PD
40 W
5046 2033 PD
40 W
5047 2076 PD
40 W
5050 2165 PD
40 W
5053 2075 PD
40 W
5056 2000 PD
40 W
5057 2013 PD
40 W
5058 2079 PD
40 W
5060 2065 PD
40 W
5061 2008 PD
40 W
5064 1990 PD
40 W
5065 2001 PD
40 W
5068 2074 PD
40 W
5069 1960 PD
40 W
5071 2005 PD
40 W
5076 1973 PD
40 W
5079 2046 PD
40 W
5080 2015 PD
40 W
5081 1973 PD
40 W
5085 1973 PD
40 W
5090 2103 PD
40 W
5091 2076 PD
40 W
5095 1994 PD
40 W
5098 2050 PD
40 W
5102 2010 PD
40 W
5103 2051 PD
40 W
5106 1893 PD
40 W
5107 2085 PD
40 W
5117 2047 PD
40 W
5118 2109 PD
40 W
5121 2106 PD
40 W
5126 2051 PD
40 W
5130 1973 PD
40 W
5132 1973 PD
40 W
5133 2067 PD
40 W
5136 1992 PD
40 W
5137 2063 PD
40 W
5140 2037 PD
40 W
5145 2071 PD
40 W
5147 2133 PD
40 W
5148 2362 PD
40 W
5149 2566 PD
40 W
5154 2686 PD
40 W
5155 2475 PD
40 W
5156 2230 PD
40 W
5159 2255 PD
40 W
5163 2207 PD
40 W
5164 2136 PD
40 W
5166 2129 PD
40 W
5167 2203 PD
40 W
5169 2476 PD
40 W
5170 2451 PD
40 W
5171 2376 PD
40 W
5174 2138 PD
40 W
5175 2026 PD
40 W
5177 2166 PD
40 W
5178 2149 PD
40 W
5181 2259 PD
40 W
5185 1940 PD
40 W
5186 2034 PD
40 W
5189 2025 PD
40 W
5190 2024 PD
40 W
5194 1973 PD
40 W
5197 1973 PD
40 W
5200 1973 PD
40 W
5201 1973 PD
40 W
5203 1973 PD
40 W
5205 2034 PD
40 W
5207 2082 PD
40 W
5208 2061 PD
40 W
5211 2086 PD
40 W
5215 1997 PD
40 W
5219 2024 PD
40 W
5220 2116 PD
40 W
5223 2082 PD
40 W
5224 2144 PD
40 W
5227 2229 PD
40 W
5231 1973 PD
40 W
5233 2030 PD
40 W
5234 2117 PD
40 W
5235 2024 PD
40 W
5238 2068 PD
40 W
5241 1889 PD
40 W
5242 2002 PD
40 W
5243 2005 PD
40 W
5247 1990 PD
40 W
5249 2062 PD
40 W
5250 2035 PD
40 W
5252 2133 PD
40 W
5254 2009 PD
40 W
5256 2014 PD
40 W
5257 2011 PD
40 W
5258 2003 PD
40 W
5262 1973 PD
40 W
5265 2054 PD
40 W
5268 2085 PD
40 W
5269 2071 PD
40 W
5272 2150 PD
40 W
5273 2090 PD
40 W
5277 1987 PD
40 W
5282 2011 PD
40 W
5283 2033 PD
40 W
5284 2010 PD
40 W
5288 2025 PD
40 W
5291 2004 PD
40 W
5294 1973 PD
40 W
5299 2008 PD
40 W
5303 2015 PD
40 W
5305 1973 PD
40 W
5307 1987 PD
40 W
5309 1964 PD
40 W
5311 1969 PD
40 W
5314 1970 PD
40 W
5316 1973 PD
40 W
5317 1973 PD
40 W
5325 1976 PD
40 W
5326 1973 PD
40 W
5331 2154 PD
40 W
5332 2144 PD
40 W
5336 2023 PD
40 W
5337 1980 PD
40 W
5339 1973 PD
40 W
5340 1974 PD
40 W
5343 1973 PD
40 W
5346 1973 PD
40 W
5347 1973 PD
40 W
5350 1973 PD
40 W
5354 2016 PD
40 W
5355 2032 PD
40 W
5356 1973 PD
40 W
5359 2023 PD
40 W
5360 2010 PD
40 W
5363 1971 PD
40 W
5366 2046 PD
40 W
5367 2085 PD
40 W
5370 2026 PD
40 W
5371 2083 PD
40 W
5373 1973 PD
40 W
5374 1992 PD
40 W
5377 2347 PD
40 W
5378 2460 PD
40 W
5380 2531 PD
40 W
5381 2518 PD
40 W
5382 2410 PD
40 W
5385 2098 PD
40 W
5386 2134 PD
40 W
5389 2010 PD
40 W
5390 2055 PD
40 W
5392 2112 PD
40 W
5393 2246 PD
40 W
5395 2272 PD
40 W
5396 2257 PD
40 W
5399 1973 PD
40 W
5400 2028 PD
40 W
5401 1995 PD
40 W
5404 1973 PD
40 W
5405 2063 PD
40 W
5408 2147 PD
40 W
5414 2160 PD
40 W
5415 2217 PD
40 W
5416 2153 PD
40 W
5418 2052 PD
40 W
5419 2070 PD
40 W
5422 2120 PD
40 W
5424 2167 PD
40 W
5426 2299 PD
40 W
5427 2387 PD
40 W
5433 2379 PD
40 W
5435 2485 PD
40 W
5437 2453 PD
40 W
5441 2138 PD
40 W
5445 2183 PD
40 W
5446 2065 PD
40 W
5453 2177 PD
40 W
5454 2121 PD
40 W
5458 2346 PD
40 W
5463 2251 PD
40 W
5464 2402 PD
40 W
5465 2254 PD
40 W
5467 2192 PD
40 W
5468 2164 PD
40 W
5469 2178 PD
40 W
5472 2187 PD
40 W
5475 2256 PD
40 W
5476 2327 PD
40 W
5478 2165 PD
40 W
5479 2237 PD
40 W
5480 2253 PD
40 W
5482 2285 PD
40 W
5483 2189 PD
40 W
5487 2147 PD
40 W
5491 2115 PD
40 W
5495 2160 PD
40 W
5497 2062 PD
40 W
5498 2044 PD
40 W
5502 2135 PD
40 W
5503 2052 PD
40 W
5505 1989 PD
40 W
5506 2066 PD
40 W
5508 2019 PD
40 W
5509 2051 PD
40 W
5510 2036 PD
40 W
5513 2028 PD
40 W
5514 2067 PD
40 W
5518 1990 PD
40 W
5520 2052 PD
40 W
5521 2140 PD
40 W
5524 2188 PD
40 W
5525 2073 PD
40 W
5527 2097 PD
40 W
5528 2269 PD
40 W
5531 2491 PD
40 W
5532 2474 PD
40 W
5533 2311 PD
40 W
5535 2179 PD
40 W
5536 2314 PD
40 W
5537 2261 PD
40 W
5539 2344 PD
40 W
5540 2530 PD
40 W
5542 2458 PD
40 W
5543 2256 PD
40 W
5546 2236 PD
40 W
5547 2327 PD
40 W
5550 2423 PD
40 W
5551 2542 PD
40 W
5554 2406 PD
40 W
5555 2295 PD
40 W
5557 2474 PD
40 W
5561 2228 PD
40 W
5563 2270 PD
40 W
5566 2300 PD
40 W
5569 2179 PD
40 W
5570 2339 PD
40 W
5571 2334 PD
40 W
5573 2311 PD
40 W
5574 2321 PD
40 W
5576 2299 PD
40 W
5577 2209 PD
40 W
5581 2242 PD
40 W
5582 2178 PD
40 W
5585 2095 PD
40 W
5589 2198 PD
40 W
5591 2133 PD
40 W
5593 1994 PD
40 W
5595 2002 PD
40 W
5596 2099 PD
40 W
5601 2043 PD
40 W
5603 2025 PD
40 W
5607 1992 PD
40 W
5611 1992 PD
40 W
5614 1973 PD
40 W
5615 2010 PD
40 W
5616 2030 PD
40 W
5619 2185 PD
40 W
5621 2171 PD
40 W
5622 2226 PD
40 W
5623 2196 PD
40 W
5627 1989 PD
40 W
5629 1982 PD
40 W
5634 1973 PD
40 W
5638 1973 PD
40 W
5640 1973 PD
40 W
5641 1973 PD
40 W
5649 2159 PD
40 W
5650 2158 PD
40 W
5655 1987 PD
40 W
5656 2050 PD
40 W
5659 1992 PD
40 W
5660 1973 PD
40 W
5661 1973 PD
40 W
5663 1973 PD
40 W
5664 2052 PD
40 W
5668 2125 PD
40 W
5671 2028 PD
40 W
5672 2042 PD
40 W
5675 1930 PD
40 W
5676 1956 PD
40 W
5678 2089 PD
40 W
5680 2003 PD
40 W
5682 2093 PD
40 W
5684 2077 PD
40 W
5689 2111 PD
40 W
5691 1973 PD
40 W
5698 2020 PD
40 W
5699 1973 PD
40 W
5702 2071 PD
40 W
5705 2009 PD
40 W
5706 2010 PD
40 W
5708 2037 PD
40 W
5709 2009 PD
40 W
5710 1973 PD
40 W
5712 1995 PD
40 W
5719 2046 PD
40 W
5720 2058 PD
40 W
5721 2065 PD
40 W
5723 2018 PD
40 W
5725 2058 PD
40 W
5727 1987 PD
40 W
5731 1987 PD
40 W
5732 1987 PD
40 W
5734 1987 PD
40 W
5738 1891 PD
40 W
5740 1898 PD
40 W
5742 1850 PD
40 W
5743 1808 PD
40 W
5748 1973 PD
40 W
5751 1973 PD
40 W
5753 1960 PD
40 W
5754 1938 PD
40 W
5757 1938 PD
40 W
5759 1837 PD
40 W
5763 1802 PD
40 W
5768 1791 PD
40 W
5770 1796 PD
40 W
5772 1927 PD
40 W
5774 1895 PD
40 W
5777 1973 PD
40 W
5784 1691 PD
40 W
5788 1885 PD
40 W
5789 1854 PD
40 W
5791 1837 PD
40 W
5795 1973 PD
40 W
5797 1973 PD
40 W
5799 1973 PD
40 W
5800 1973 PD
40 W
5802 1958 PD
40 W
5803 1890 PD
40 W
5806 1926 PD
40 W
5808 1928 PD
40 W
5810 1902 PD
40 W
5814 1973 PD
40 W
5817 1951 PD
40 W
5826 1973 PD
40 W
5827 1973 PD
40 W
5830 1973 PD
40 W
5834 1973 PD
40 W
5836 1973 PD
40 W
5837 1973 PD
40 W
5838 1973 PD
40 W
5840 1973 PD
40 W
5842 1923 PD
40 W
5844 1919 PD
40 W
5846 1929 PD
40 W
5851 1973 PD
40 W
5852 1973 PD
40 W
5853 1973 PD
40 W
5855 1943 PD
40 W
5859 1973 PD
40 W
5866 1786 PD
40 W
5867 1854 PD
40 W
5868 1973 PD
40 W
5870 1958 PD
40 W
5871 1973 PD
40 W
5872 1973 PD
40 W
5878 1866 PD
40 W
5882 1836 PD
40 W
5883 1877 PD
40 W
5885 1973 PD
40 W
5886 1773 PD
40 W
5887 1833 PD
40 W
5893 1708 PD
40 W
5894 1812 PD
40 W
5896 1803 PD
40 W
5897 1752 PD
40 W
5898 1788 PD
40 W
5902 1712 PD
40 W
5908 1697 PD
40 W
5912 1624 PD
40 W
5915 1612 PD
40 W
5924 1647 PD
40 W
5925 1641 PD
40 W
5927 1564 PD
40 W
5928 1547 PD
40 W
5930 1661 PD
40 W
5932 1651 PD
40 W
5934 1760 PD
40 W
5935 1745 PD
40 W
5936 1764 PD
40 W
5939 1725 PD
40 W
5942 1885 PD
40 W
5943 1883 PD
40 W
5947 1928 PD
40 W
5950 1688 PD
40 W
5951 1781 PD
40 W
5953 1872 PD
40 W
5955 1810 PD
40 W
5959 1674 PD
40 W
5961 1758 PD
40 W
5965 1639 PD
40 W
5966 1772 PD
40 W
5968 1805 PD
40 W
5970 1702 PD
40 W
5973 1674 PD
40 W
5976 1664 PD
40 W
5977 1649 PD
40 W
5979 1604 PD
40 W
5981 1702 PD
40 W
5983 1572 PD
40 W
5985 1661 PD
40 W
5987 1760 PD
40 W
5988 1689 PD
40 W
5992 1609 PD
40 W
5994 1691 PD
40 W
5995 1688 PD
40 W
5998 1657 PD
40 W
6000 1715 PD
40 W
6002 1737 PD
40 W
6004 1696 PD
40 W
6009 1740 PD
40 W
6010 1691 PD
40 W
6011 1734 PD
40 W
6017 1730 PD
40 W
6019 1793 PD
40 W
6022 1943 PD
40 W
6023 1941 PD
40 W
6032 1831 PD
40 W
6033 1878 PD
40 W
6034 1836 PD
40 W
6037 1912 PD
40 W
6038 1931 PD
40 W
6040 1900 PD
40 W
6041 1942 PD
40 W
6043 1925 PD
40 W
6045 1957 PD
40 W
6047 1926 PD
40 W
6049 1921 PD
40 W
6051 1912 PD
40 W
6053 1870 PD
40 W
6055 1913 PD
40 W
6058 1853 PD
40 W
6059 1886 PD
40 W
6060 1882 PD
40 W
6066 1958 PD
40 W
6067 1907 PD
40 W
6068 1892 PD
40 W
6070 1922 PD
40 W
6078 1790 PD
40 W
6079 1826 PD
40 W
6083 1973 PD
40 W
6086 1929 PD
40 W
6089 1941 PD
40 W
6092 1953 PD
40 W
6093 1960 PD
40 W
6094 1956 PD
40 W
6096 1973 PD
40 W
6097 1929 PD
40 W
6104 1948 PD
40 W
6107 1961 PD
40 W
6108 1964 PD
40 W
6111 1962 PD
40 W
6112 1950 PD
40 W
6115 1973 PD
40 W
6117 1973 PD
40 W
6122 1973 PD
40 W
6123 1973 PD
40 W
6124 1972 PD
40 W
6126 1973 PD
40 W
6127 1973 PD
40 W
6128 1973 PD
40 W
6130 1973 PD
40 W
6131 1973 PD
40 W
6132 1973 PD
40 W
6134 1963 PD
40 W
6138 1901 PD
40 W
6143 1919 PD
40 W
6146 1876 PD
40 W
6147 1860 PD
40 W
6149 1825 PD
40 W
6151 1750 PD
40 W
6156 1820 PD
40 W
6157 1908 PD
40 W
6161 1920 PD
40 W
6165 1951 PD
40 W
6168 1835 PD
40 W
6169 1799 PD
40 W
6179 1846 PD
40 W
6181 1801 PD
40 W
6183 1839 PD
40 W
6185 1824 PD
40 W
6187 1863 PD
40 W
6190 1801 PD
40 W
6191 1808 PD
40 W
6194 1863 PD
40 W
6198 1762 PD
40 W
6199 1809 PD
40 W
6202 1691 PD
40 W
6206 1627 PD
40 W
6209 1699 PD
40 W
6210 1632 PD
40 W
6211 1674 PD
40 W
6213 1655 PD
40 W
6214 1592 PD
40 W
6221 1651 PD
40 W
6226 1657 PD
40 W
6229 1792 PD
40 W
6230 1762 PD
40 W
6233 1734 PD
40 W
6234 1830 PD
40 W
6237 1896 PD
40 W
6240 1951 PD
40 W
6241 1962 PD
40 W
6243 1962 PD
40 W
6245 1939 PD
40 W
6247 2059 PD
40 W
6248 2017 PD
40 W
6249 1920 PD
40 W
6251 1973 PD
40 W
6252 1936 PD
40 W
6254 1906 PD
40 W
6260 1992 PD
40 W
6263 2000 PD
40 W
6264 2014 PD
40 W
6266 1988 PD
40 W
6267 2027 PD
40 W
6269 2099 PD
40 W
6270 2339 PD
40 W
6273 2019 PD
40 W
6274 1953 PD
40 W
6275 1915 PD
40 W
6278 1994 PD
40 W
6279 2040 PD
40 W
6282 2078 PD
40 W
6286 2115 PD
40 W
6289 2239 PD
40 W
6294 2186 PD
40 W
6296 2367 PD
40 W
6298 2164 PD
40 W
6300 2132 PD
40 W
6303 2318 PD
40 W
6304 2364 PD
40 W
6311 2367 PD
40 W
6312 2322 PD
40 W
6313 2293 PD
40 W
6315 2255 PD
40 W
6318 2392 PD
40 W
6320 2151 PD
40 W
6322 2045 PD
40 W
6326 2002 PD
40 W
6327 2007 PD
40 W
6328 2023 PD
40 W
6333 2050 PD
40 W
6334 2080 PD
40 W
6337 2026 PD
40 W
6338 2118 PD
40 W
6341 2188 PD
40 W
6342 2264 PD
40 W
6347 2228 PD
40 W
6349 2446 PD
40 W
6350 2561 PD
40 W
6352 2378 PD
40 W
6360 2079 PD
40 W
6361 2022 PD
40 W
6362 1997 PD
40 W
6364 2006 PD
40 W
6365 2062 PD
40 W
6367 2103 PD
40 W
6369 2018 PD
40 W
6372 1985 PD
40 W
6373 1985 PD
40 W
6375 1985 PD
40 W
6376 1973 PD
40 W
6379 1973 PD
40 W
6383 1973 PD
40 W
6387 1973 PD
40 W
6388 1973 PD
40 W
6390 1973 PD
40 W
6397 1973 PD
40 W
6398 1973 PD
40 W
6399 1973 PD
40 W
6403 1892 PD
40 W
6405 1941 PD
40 W
6407 1946 PD
40 W
6409 1946 PD
40 W
6410 1946 PD
40 W
6411 1946 PD
40 W
6414 1946 PD
40 W
6417 1973 PD
40 W
6418 1973 PD
40 W
6420 1973 PD
40 W
6421 1973 PD
40 W
6424 1973 PD
40 W
6425 1973 PD
40 W
6426 1973 PD
40 W
6432 1973 PD
40 W
6433 1973 PD
40 W
6435 1973 PD
40 W
6452 1973 PD
40 W
6454 1973 PD
40 W
6456 1950 PD
40 W
6460 1942 PD
40 W
6463 1972 PD
40 W
6466 1973 PD
40 W
6467 1973 PD
40 W
6471 1973 PD
40 W
6473 1971 PD
40 W
6474 1973 PD
40 W
6475 1973 PD
40 W
6477 1973 PD
40 W
6478 1972 PD
40 W
6480 1971 PD
40 W
6482 1973 PD
40 W
6486 1966 PD
40 W
6488 1968 PD
40 W
6490 1958 PD
40 W
6492 1957 PD
40 W
6493 1979 PD
40 W
6495 2110 PD
40 W
6496 2045 PD
40 W
6501 2019 PD
40 W
6504 2052 PD
40 W
6505 2016 PD
40 W
6507 1996 PD
40 W
6514 2296 PD
40 W
6520 2125 PD
40 W
6524 2008 PD
40 W
6526 2130 PD
40 W
6529 2216 PD
40 W
6531 2176 PD
40 W
6533 2286 PD
40 W
6538 2102 PD
40 W
6545 2087 PD
40 W
6549 2173 PD
40 W
6553 2027 PD
40 W
6554 2033 PD
40 W
6561 2197 PD
40 W
6564 2168 PD
40 W
6565 2108 PD
40 W
6568 2020 PD
40 W
6571 2042 PD
40 W
6573 2028 PD
40 W
6575 2039 PD
40 W
6578 2056 PD
40 W
6579 2085 PD
40 W
6580 2076 PD
40 W
6582 2122 PD
40 W
6583 2006 PD
40 W
6584 1973 PD
40 W
6587 2032 PD
40 W
6588 2028 PD
40 W
6590 2013 PD
40 W
6593 2015 PD
40 W
6597 2045 PD
40 W
6598 2044 PD
40 W
6599 1973 PD
40 W
6601 1991 PD
40 W
6602 1991 PD
40 W
6603 1991 PD
40 W
6605 1991 PD
40 W
6608 1973 PD
40 W
6609 2026 PD
40 W
6617 2024 PD
40 W
6622 2066 PD
40 W
6624 2130 PD
40 W
6631 1973 PD
40 W
6635 1988 PD
40 W
6637 1973 PD
40 W
6640 1973 PD
40 W
6642 1973 PD
40 W
6643 1973 PD
40 W
6644 2038 PD
40 W
6646 2038 PD
40 W
6647 1973 PD
40 W
6648 1973 PD
40 W
6650 1973 PD
40 W
6652 2004 PD
40 W
6654 1973 PD
40 W
6657 1973 PD
40 W
6658 1973 PD
40 W
6659 1973 PD
40 W
6661 1973 PD
40 W
6662 1991 PD
40 W
6663 2001 PD
40 W
6666 1973 PD
40 W
6667 2038 PD
40 W
6670 2055 PD
40 W
6672 2086 PD
40 W
6674 2031 PD
40 W
6677 1866 PD
40 W
6678 1893 PD
40 W
6681 1959 PD
40 W
6689 1971 PD
40 W
6691 1971 PD
40 W
6693 1972 PD
40 W
6697 1972 PD
40 W
6699 1972 PD
40 W
6700 1972 PD
40 W
6703 1973 PD
40 W
6704 1973 PD
40 W
6706 1973 PD
40 W
6710 1944 PD
40 W
6714 1964 PD
40 W
6715 1973 PD
40 W
6716 1973 PD
40 W
6719 1973 PD
40 W
6721 2038 PD
40 W
6723 1984 PD
40 W
6725 1969 PD
40 W
6727 1960 PD
40 W
6733 1973 PD
40 W
6734 1953 PD
40 W
6737 1862 PD
40 W
6738 1896 PD
40 W
6746 1951 PD
40 W
6748 1881 PD
40 W
6749 1872 PD
40 W
6750 1906 PD
40 W
6752 1944 PD
40 W
6753 1908 PD
40 W
6756 1892 PD
40 W
6757 1844 PD
40 W
6759 1895 PD
40 W
6760 1894 PD
40 W
6761 1834 PD
40 W
6763 1791 PD
40 W
6764 1842 PD
40 W
6765 1834 PD
40 W
6771 1943 PD
40 W
6772 1888 PD
40 W
6774 1951 PD
40 W
6775 1942 PD
40 W
6778 1924 PD
40 W
6779 1973 PD
40 W
6783 1973 PD
40 W
6785 1890 PD
40 W
6786 1895 PD
40 W
6787 1811 PD
40 W
6790 1802 PD
40 W
6793 1841 PD
40 W
6794 1832 PD
40 W
6797 1799 PD
40 W
6799 1911 PD
40 W
6801 1881 PD
40 W
6802 1761 PD
40 W
6804 1848 PD
40 W
6805 1913 PD
40 W
6806 1973 PD
40 W
6808 1973 PD
40 W
6809 1947 PD
40 W
6810 1949 PD
40 W
6813 1913 PD
40 W
6814 1937 PD
40 W
6816 1956 PD
40 W
6817 1956 PD
40 W
6820 1973 PD
40 W
6825 2105 PD
40 W
6831 2104 PD
40 W
6832 2094 PD
40 W
6834 2131 PD
40 W
6836 2062 PD
40 W
6838 2156 PD
40 W
6853 2034 PD
40 W
6854 2020 PD
40 W
6857 2083 PD
40 W
6859 2022 PD
40 W
6863 2008 PD
40 W
6865 2103 PD
40 W
6866 2105 PD
40 W
6869 2111 PD
40 W
6870 2072 PD
40 W
6872 2114 PD
40 W
6873 2108 PD
40 W
6874 2087 PD
40 W
6878 2197 PD
40 W
6880 2104 PD
40 W
6881 2169 PD
40 W
6884 2291 PD
40 W
6888 2060 PD
40 W
6889 2032 PD
40 W
6892 2026 PD
40 W
6893 2073 PD
40 W
6896 2162 PD
40 W
6897 2165 PD
40 W
6899 2227 PD
40 W
6900 2380 PD
40 W
6902 2326 PD
40 W
6906 2414 PD
40 W
6907 2455 PD
40 W
6908 2319 PD
40 W
6910 2463 PD
40 W
6918 2307 PD
40 W
6919 2346 PD
40 W
6921 2341 PD
40 W
6925 2463 PD
40 W
6926 2435 PD
40 W
6927 2361 PD
40 W
6929 2475 PD
40 W
6932 2280 PD
40 W
6933 2189 PD
40 W
6937 2116 PD
40 W
6938 2045 PD
40 W
6941 2047 PD
40 W
6945 2242 PD
40 W
6948 2247 PD
40 W
6949 2276 PD
40 W
6955 2155 PD
40 W
6957 2087 PD
40 W
6961 2081 PD
40 W
6964 1912 PD
40 W
6971 1880 PD
40 W
6974 1733 PD
40 W
6978 2140 PD
40 W
6979 2270 PD
40 W
6982 2443 PD
40 W
6985 2145 PD
40 W
6986 2015 PD
40 W
6987 1984 PD
40 W
6990 1996 PD
40 W
6991 2009 PD
40 W
6996 1973 PD
40 W
6997 1973 PD
40 W
7000 2005 PD
40 W
7001 1973 PD
40 W
7002 1973 PD
40 W
7004 1973 PD
40 W
7006 1973 PD
40 W
7008 1973 PD
40 W
7009 2044 PD
40 W
7010 2064 PD
40 W
7013 1973 PD
40 W
7016 1973 PD
40 W
7019 1989 PD
40 W
7021 2020 PD
40 W
7023 2075 PD
40 W
7024 2125 PD
40 W
7025 2020 PD
40 W
7027 2014 PD
40 W
7032 2022 PD
40 W
7034 2001 PD
40 W
7036 2041 PD
40 W
7038 2072 PD
40 W
7040 2097 PD
40 W
7042 1995 PD
40 W
7045 2018 PD
40 W
7046 2075 PD
40 W
7047 2066 PD
40 W
7050 1973 PD
40 W
7051 1973 PD
40 W
7054 2041 PD
40 W
7060 1973 PD
40 W
7061 1973 PD
40 W
7064 1973 PD
40 W
7065 1973 PD
40 W
7066 1973 PD
40 W
7070 2017 PD
40 W
7072 1990 PD
40 W
7077 2054 PD
40 W
7079 2049 PD
40 W
7080 2135 PD
40 W
7081 2102 PD
40 W
7085 1990 PD
40 W
7087 2001 PD
40 W
7089 2080 PD
40 W
7092 2099 PD
40 W
7094 2091 PD
40 W
7095 2112 PD
40 W
7096 2068 PD
40 W
7099 2179 PD
40 W
7103 2021 PD
40 W
7104 2039 PD
40 W
7110 2164 PD
40 W
7111 2112 PD
40 W
7114 2066 PD
40 W
7115 2055 PD
40 W
7118 2274 PD
40 W
7119 2539 PD
40 W
7121 2395 PD
40 W
7123 2258 PD
40 W
7125 2291 PD
40 W
7129 2524 PD
40 W
7132 2578 PD
40 W
7134 2497 PD
40 W
7137 2694 PD
40 W
7138 2515 PD
40 W
7140 2575 PD
40 W
7141 2543 PD
40 W
7145 2526 PD
40 W
7148 2464 PD
40 W
7151 2302 PD
40 W
7152 2352 PD
40 W
7153 2279 PD
40 W
7159 2519 PD
40 W
7162 2442 PD
40 W
7164 2647 PD
40 W
7166 2669 PD
40 W
7168 2548 PD
40 W
7170 2657 PD
40 W
7174 2747 PD
40 W
7175 2712 PD
40 W
7178 2652 PD
40 W
7179 2695 PD
40 W
7183 2609 PD
40 W
7185 2542 PD
40 W
7189 2237 PD
40 W
7192 2177 PD
40 W
7193 2309 PD
40 W
7197 2232 PD
40 W
7198 2148 PD
40 W
7201 2193 PD
40 W
7202 2302 PD
40 W
7204 2170 PD
40 W
7207 2028 PD
40 W
7211 2120 PD
40 W
7212 2106 PD
40 W
7213 2120 PD
40 W
7220 2493 PD
40 W
7223 2317 PD
40 W
7226 2212 PD
40 W
7227 2132 PD
40 W
7228 2207 PD
40 W
7230 2169 PD
40 W
7231 2172 PD
40 W
7232 2225 PD
40 W
7234 2268 PD
40 W
7235 2117 PD
40 W
7238 2268 PD
40 W
7242 2349 PD
40 W
7247 2368 PD
40 W
7256 2375 PD
40 W
7257 2454 PD
40 W
7260 2341 PD
40 W
7262 2351 PD
40 W
7269 2300 PD
40 W
7272 2266 PD
40 W
7275 2266 PD
40 W
7277 2269 PD
40 W
7279 2438 PD
40 W
7292 2152 PD
40 W
7296 2101 PD
40 W
7300 2204 PD
40 W
7305 2092 PD
40 W
7306 2125 PD
40 W
7307 2154 PD
40 W
7314 2469 PD
40 W
7318 2350 PD
40 W
7322 2369 PD
40 W
7324 2335 PD
40 W
7328 2257 PD
40 W
7330 2228 PD
40 W
7332 2199 PD
40 W
7339 2181 PD
40 W
7341 2255 PD
40 W
7344 2179 PD
40 W
7345 2154 PD
40 W
7348 2086 PD
40 W
7351 2098 PD
40 W
7355 2011 PD
40 W
7356 2032 PD
40 W
7358 2014 PD
40 W
7360 2045 PD
40 W
7362 2064 PD
40 W
7364 2032 PD
40 W
7366 1973 PD
40 W
7367 2001 PD
40 W
7369 1973 PD
40 W
7373 1973 PD
40 W
7382 2017 PD
40 W
7384 2037 PD
40 W
7390 2100 PD
40 W
7394 2006 PD
40 W
7396 1973 PD
40 W
7397 2007 PD
40 W
7400 1973 PD
40 W
7403 1973 PD
40 W
7405 1973 PD
40 W
7407 1973 PD
40 W
7408 1973 PD
40 W
7412 1973 PD
40 W
7413 1973 PD
gs 1142 399 6808 3150 rc
/c9 { 1.000000 0.000000 0.000000 sr} bdef
c9
1 -2 4 -7 1 -2 2 -3 2 -6 3 -6 3 -5 1 -3 
2 -2 4 -5 6 -1 2 1 9 7 4 -1 2 -2 1 -2 
2 -3 2 -8 2 -5 2 -13 2 -8 1 -9 4 -29 3 -23 
3 -24 1 -13 3 -26 2 -25 7 -54 2 -8 2 -13 4 -8 
2 0 4 9 4 21 7 48 1 9 1 9 5 21 4 9 
4 -4 13 -87 2 -11 2 -21 3 -19 3 -16 7 -22 2 -2 
3 2 1 3 9 30 5 26 4 20 3 12 1 6 2 5 
1 6 1 5 2 6 1 5 1 6 3 11 3 12 7 27 
1 3 1 2 4 -3 3 -12 2 -9 1 -12 3 -32 1 -19 
4 -70 1 -27 3 -55 4 -80 2 -24 4 -60 1 -14 3 -18 
1 -4 4 6 2 7 2 20 2 12 2 25 3 24 6 33 
1 4 1 2 3 -1 3 -6 4 -11 1 -3 2 -1 1 0 
3 6 2 15 3 25 4 53 2 21 2 45 2 23 1 24 
3 45 1 21 3 39 1 17 6 48 1 8 4 14 3 4 
1 1 1 1 2 0 3 1 2 2 2 2 4 9 1 4 
1 4 2 5 5 20 2 5 4 12 1 3 1 2 3 2 
1 0 6 -7 3 -6 1 -4 3 -8 1 -4 1 -4 3 -8 
2 -3 2 -5 2 -1 2 -2 2 0 5 8 2 3 1 4 
1 4 2 4 2 9 3 8 3 7 3 5 1 1 1 0 
2 0 2 -4 2 -3 1 -4 1 -4 3 -10 1 -6 5 -16 
1 -5 3 -8 1 -3 1 -2 3 -2 3 1 1 1 4 6 
3 4 7 -1 3 -5 4 -16 2 -13 6 -35 1 -11 3 -21 
4 -35 3 -25 1 -14 4 -40 1 -14 3 -26 2 -13 1 -12 
1 -10 4 -25 2 -4 1 -3 8 23 2 11 1 12 1 13 
4 44 2 16 1 16 2 15 1 15 3 27 1 12 3 21 
1 8 4 20 3 9 1 3 2 3 4 8 1 3 1 2 
2 3 1 3 3 6 1 3 2 3 4 7 2 3 3 0 
1 0 15 -22 2 0 2 2 2 3 1 4 6 25 5 39 
3 23 1 12 2 12 1 11 3 23 1 10 1 10 2 8 
1 8 1 7 2 6 1 4 2 4 2 3 3 0 1 -2 
3 -5 3 -7 1 -3 1 -4 2 -3 4 -8 1 -1 3 -2 
1 0 2 1 1 1 6 8 1 2 1 2 2 2 1 1 
1 1 2 0 1 0 3 -2 1 -2 2 -2 1 -3 1 -3 
2 -4 8 -28 1 -5 3 -9 1 -5 6 -15 2 -6 2 -2 
2 -4 2 -1 3 -2 1 0 1 0 4 2 4 3 2 2 
1 1 3 3 1 1 2 1 4 2 2 -1 2 0 8 -9 
3 -4 1 -2 3 -4 2 -4 2 -1 3 -3 1 0 3 -1 
1 1 1 0 2 1 6659 1990 300 MP stroke
1 1 1 0 3 2 2 1 2 0 2 0 1 0 1 -1 
2 -1 1 -1 1 -2 2 -2 3 -5 2 -6 4 -9 7 -10 
2 0 5 1 8 10 1 2 3 3 2 1 1 0 1 1 
2 0 1 -1 1 -1 4 -6 3 -5 2 -4 1 -3 3 -8 
1 -4 1 -4 2 -3 1 -4 1 -4 3 -7 2 -4 2 -6 
3 -5 3 -5 1 -2 3 -4 7 -10 1 -3 4 -8 4 -9 
7 -17 5 -9 2 -1 2 -1 3 2 2 2 4 10 6 27 
7 37 2 7 1 8 3 14 5 25 1 6 2 5 1 5 
2 4 2 7 2 3 4 7 2 3 2 1 1 1 2 0 
1 1 1 0 2 1 4 0 1 1 3 0 3 0 4 -1 
2 -1 2 0 17 -7 2 1 1 0 6 4 1 1 1 2 
3 3 1 1 2 2 1 1 3 2 3 2 1 0 1 0 
2 1 2 -1 2 0 4 -1 1 0 1 0 7 2 2 1 
1 0 4 -1 4 -9 3 -12 1 -8 2 -10 1 -11 3 -27 
2 -31 2 -17 1 -18 2 -17 1 -18 1 -16 8 -66 2 -3 
1 0 2 2 5 29 1 11 3 22 1 11 3 19 1 7 
5 7 1 -2 1 -4 4 -27 2 -12 2 -27 3 -27 2 -13 
1 -12 1 -11 7 -23 1 3 3 11 2 8 2 22 2 12 
5 57 3 29 4 38 3 20 1 9 3 14 1 6 1 5 
3 7 1 3 2 3 1 2 2 2 1 1 3 4 6 17 
2 6 1 6 2 7 1 8 1 9 2 11 2 23 2 13 
1 14 3 30 3 33 1 16 3 33 1 15 3 30 5 45 
7 21 1 -1 2 -3 1 -4 1 -6 3 -15 4 -28 3 -21 
1 -11 4 -30 3 -19 1 -8 3 -14 2 -6 2 -10 2 -3 
2 -6 10 -5 1 1 3 1 4 2 4 -1 1 -1 5 -6 
2 -7 2 -5 1 -5 3 -11 5 -25 4 -19 2 -6 1 -5 
1 -5 2 -5 1 -3 1 -3 2 -3 1 -2 1 -1 5 -2 
2 1 3 2 1 2 3 3 1 2 3 4 7 12 1 3 
2 3 1 4 1 3 3 7 3 7 3 7 4 10 1 2 
8 9 2 0 1 0 1 -1 6 -5 1 -2 1 -1 3 -4 
2 -2 2 -3 2 -1 2 -2 2 0 2 0 2 1 1 2 
2 2 1 2 3 7 1 5 1 5 9 41 1 9 3 18 
2 18 6 37 1 9 1 8 5 23 2 14 2 6 2 11 
3 8 1 4 2 4 4 6 1 2 2 0 2 0 2 -1 
2 -5 2 -3 1 -4 3 -11 3 -13 2 -16 2 -9 1 -8 
4 -27 2 -9 4 -21 2 -9 2 -3 1 -1 3 2 4 15 
1 8 3 19 3 22 1 12 1 12 2 11 2 23 2 10 
1 9 2 7 1 7 5924 1657 300 MP stroke
9 4 3 -12 4 -24 6 -42 4 -33 1 -11 1 -10 2 -11 
1 -10 6 -38 1 -9 1 -8 2 -7 1 -8 4 -19 6 -20 
1 -4 1 -3 2 -3 1 -3 1 -3 7 -11 4 -5 2 -1 
1 -2 1 -1 5 -5 2 -2 2 -2 2 -2 2 -1 1 -1 
1 0 2 -1 4 -1 3 0 1 0 9 5 3 3 4 6 
2 2 2 6 3 7 1 4 2 4 1 5 2 5 2 9 
4 16 2 4 1 5 4 12 7 10 3 0 2 -2 2 -1 
2 -4 5 -8 4 -9 2 -6 3 -6 1 -3 2 -3 3 -6 
5 -16 1 -5 2 -5 2 -11 4 -18 2 -6 1 -6 4 -17 
2 -5 2 -9 2 -4 1 -2 1 -3 7 -5 2 0 1 0 
1 1 2 0 1 0 3 1 3 -1 1 0 7 -3 2 -2 
5 -1 2 -1 2 0 2 0 2 1 1 0 3 1 1 0 
3 1 4 2 1 0 2 1 1 0 1 1 3 1 1 0 
5 1 1 0 8 -8 1 -2 2 -3 4 -9 5 -13 2 -2 
4 -5 1 0 1 1 2 1 3 4 1 3 1 3 3 6 
4 7 4 0 2 -2 5 -21 1 -8 2 -9 2 -21 2 -12 
4 -38 3 -27 1 -12 4 -37 1 -11 2 -11 1 -10 2 -10 
1 -9 1 -9 3 -16 3 -15 2 -14 4 -17 2 -6 1 -4 
3 -7 1 -2 3 -1 1 2 3 7 1 5 2 8 1 9 
2 10 1 12 1 14 2 15 1 16 1 17 3 36 1 18 
2 19 1 18 3 35 1 16 2 15 4 35 1 8 3 11 
1 3 1 0 2 -1 1 -3 2 -4 1 -6 4 -26 1 -10 
2 -11 4 -34 4 -34 4 -28 1 -8 2 -7 1 -6 1 -5 
2 -3 1 -3 3 -2 3 2 1 2 1 2 2 3 1 2 
1 3 5 6 4 1 1 -2 7 -21 1 -6 4 -18 4 -12 
2 -2 2 1 6 24 1 10 2 12 2 27 3 30 1 15 
2 14 1 14 1 13 6 34 3 4 1 -2 3 -10 1 -9 
1 -10 3 -24 1 -13 2 -13 1 -13 2 -13 1 -12 3 -18 
1 -7 3 -6 1 1 1 4 2 6 1 8 3 23 1 14 
2 16 1 16 3 35 1 17 3 32 3 28 1 11 3 18 
1 7 1 4 4 4 3 -3 1 -4 3 -8 3 -9 1 -4 
2 -4 1 -3 4 -7 1 -1 5 3 1 1 8 19 1 4 
2 3 3 5 2 4 2 1 2 1 2 -1 4 -4 5 -13 
3 -8 3 -8 4 -13 1 -4 1 -4 5 -10 4 -5 1 -1 
3 0 1 1 3 3 3 5 4 9 1 3 1 2 2 3 
2 4 2 1 1 1 2 0 4 -5 1 -2 1 -4 3 -8 
3 -9 1 -5 1 -4 2 -5 4 -11 3 -4 1 -1 3 2 
1 2 4 11 4 17 5211 2043 300 MP stroke
3 13 1 7 2 6 2 10 2 4 1 3 3 3 3 -3 
4 -15 1 -9 3 -21 1 -13 4 -45 3 -34 1 -18 2 -19 
1 -18 3 -35 1 -16 1 -16 2 -14 1 -13 2 -10 1 -9 
4 -13 3 3 1 6 1 8 5 37 1 15 1 18 2 18 
5 76 3 35 1 16 3 27 1 11 2 10 4 19 5 5 
3 -2 1 -2 10 -14 1 -1 3 0 1 0 4 3 3 3 
4 7 1 2 5 6 4 5 1 1 1 1 3 0 5 -6 
2 -2 1 -3 3 -6 1 -3 3 -7 1 -3 2 -2 1 -3 
1 -2 3 -2 3 1 3 3 1 3 8 24 4 14 3 8 
1 3 2 2 7 1 2 -4 4 -13 4 -18 2 -7 1 -8 
1 -8 3 -18 3 -21 1 -11 3 -24 1 -13 7 -71 2 -15 
9 -93 1 -9 2 -8 3 -11 4 -1 4 15 4 33 1 14 
1 15 2 16 1 17 3 36 3 37 1 18 1 18 2 17 
2 33 5 42 1 11 1 11 2 10 4 22 2 10 3 8 
2 2 5 9 1 1 10 12 5 8 3 5 1 2 2 2 
2 5 2 2 1 2 2 3 1 2 1 2 3 5 1 3 
3 5 1 2 2 3 1 2 2 2 1 3 5 7 2 2 
1 1 1 1 3 2 3 1 7 4 2 3 4 7 2 4 
1 4 2 5 1 5 1 7 3 14 5 36 2 10 7 48 
1 8 7 24 1 1 2 0 1 -2 3 -7 1 -5 4 -19 
1 -7 5 -23 1 -8 3 -13 1 -7 3 -11 2 -9 2 -4 
7 -16 2 -7 2 -3 5 -15 1 -4 2 -4 3 -7 1 -4 
1 -3 2 -3 2 -3 3 -1 4 4 2 3 1 4 1 5 
2 5 1 6 1 6 2 6 2 13 2 6 1 6 1 5 
2 5 1 3 6 6 1 -1 1 -1 2 -3 1 -3 1 -4 
2 -4 4 -12 1 -4 2 -3 1 -3 1 -2 2 -2 8 1 
1 2 2 2 1 3 3 4 1 2 1 2 4 6 6 6 
3 3 4 5 1 2 3 3 1 2 4 4 2 1 11 -2 
1 -1 3 -1 1 1 4 7 1 5 5 22 5 48 1 14 
2 14 1 15 3 29 2 24 2 11 1 8 3 10 1 2 
3 -5 1 -6 2 -8 2 -21 5 -42 1 -14 1 -14 3 -27 
1 -11 2 -9 1 -8 3 -9 1 -1 4 7 3 12 3 15 
1 9 4 23 1 7 2 5 4 9 4 -3 1 -4 2 -4 
1 -5 3 -12 4 -20 1 -7 4 -17 3 -8 3 -5 5 0 
2 2 1 2 1 3 3 8 1 4 2 5 1 6 2 5 
2 13 3 14 5 31 3 17 1 8 2 8 4 24 1 7 
3 13 1 6 2 5 4 10 1 2 3 0 1 -1 2 -2 
1 -3 1 -3 2 -5 4478 1563 300 MP stroke
1 -5 3 -12 1 -7 3 -15 1 -8 4 -24 2 -7 2 -15 
3 -14 1 -7 3 -11 2 -5 1 -5 1 -4 2 -4 1 -3 
1 -2 2 -2 2 -2 2 -1 3 1 4 3 2 4 4 6 
2 2 3 3 2 2 4 -3 3 -6 6 -23 5 -38 1 -11 
2 -12 1 -13 3 -25 4 -35 5 -35 2 -5 1 -3 1 -2 
3 2 3 10 1 7 7 52 3 24 4 33 7 36 1 3 
3 1 1 -1 7 -24 3 -15 2 -17 2 -9 5 -34 1 -9 
2 -8 1 -7 2 -8 2 -14 2 -6 8 -31 1 -3 2 -4 
2 -6 2 -3 1 -2 4 -6 3 -3 4 -4 1 -1 6 -4 
1 -1 1 -2 3 -2 1 -1 5 -3 4 -2 1 -1 3 -1 
1 0 3 0 3 1 1 1 1 0 4 2 7 3 3 0 
1 0 3 -1 3 -1 2 -2 4 -2 2 -1 3 -2 5 0 
1 0 3 1 1 1 2 1 1 1 2 1 4 4 4 2 
1 1 3 0 8 -3 3 -2 2 -3 2 -1 1 -2 1 -1 
2 -2 1 -2 2 -1 1 -2 4 -6 4 -5 1 -2 2 -2 
1 -2 2 -2 1 -1 3 -3 1 -1 5 -2 5 3 1 1 
7 11 2 5 2 3 1 3 2 2 1 2 1 2 3 4 
1 1 2 1 2 1 2 1 5 -1 2 -1 5 -3 4 -2 
3 -1 1 0 3 -1 1 0 7 0 7 1 3 0 1 0 
4 0 1 0 2 0 1 0 1 0 3 0 2 0 1 0 
4 0 1 0 2 0 1 0 3 0 3 0 1 0 1 0 
2 0 1 -1 4 0 3 -1 3 0 2 0 3 -1 1 0 
2 0 1 0 1 0 2 0 7 1 1 0 4 1 1 0 
2 0 1 0 3 0 1 0 4 -1 3 -1 1 -1 3 -3 
3 -2 7 -9 1 -1 1 -2 2 -1 1 -1 3 -2 1 -1 
2 0 5 1 3 2 9 10 2 1 2 2 2 0 1 1 
1 0 2 0 1 0 1 -1 2 0 3 -1 2 -1 2 0 
1 -1 1 0 2 0 1 0 1 0 10 6 1 1 3 2 
1 1 3 2 6 2 2 1 3 0 3 0 1 0 3 -1 
1 0 2 -1 4 -1 1 -1 3 -1 9 -6 2 -1 1 0 
1 -1 3 -1 1 0 3 0 3 2 5 6 2 2 1 3 
1 2 3 6 1 3 2 3 1 3 2 2 6 9 2 0 
2 0 5 -3 1 -2 9 -19 2 -2 1 -3 4 -6 2 -1 
2 -2 6 -1 5 0 2 -1 1 -1 1 -1 2 -1 4 -8 
1 -4 3 -9 1 -6 2 -5 1 -7 5 -27 3 -13 1 -7 
2 -6 1 -6 3 -10 5 -15 7 -8 4 1 3 2 4 7 
1 4 3 8 1 5 2 6 1 6 3 13 1 7 2 8 
5 31 3 16 4 19 3709 1985 300 MP stroke
3 11 9 16 2 0 1 0 1 -1 3 -2 4 -5 5 -5 
2 -1 3 -1 1 0 1 0 2 0 4 1 2 1 2 1 
1 1 7 4 1 0 7 6 2 2 1 2 1 2 6 18 
2 14 2 9 2 21 3 26 4 46 2 18 2 36 2 19 
1 19 1 19 2 19 3 36 1 17 1 15 2 14 1 13 
1 11 3 17 1 5 2 3 3 0 2 -8 2 -7 2 -20 
2 -13 1 -14 1 -16 2 -16 1 -18 2 -18 8 -115 1 -18 
1 -16 4 -45 3 -23 2 -9 4 -19 1 -4 1 -3 2 -1 
1 -1 3 1 1 1 4 5 7 5 1 0 2 -1 1 -2 
2 -1 13 -18 3 3 1 2 2 4 2 9 2 5 2 13 
2 7 1 7 1 7 2 7 1 6 8 21 2 0 2 -4 
2 -4 1 -5 2 -5 2 -13 2 -8 4 -23 2 -14 6 -20 
1 -3 3 -3 5 8 2 4 2 11 2 5 1 7 8 36 
3 9 3 7 1 3 3 4 1 2 4 3 4 4 2 1 
5 7 4 4 2 0 1 0 4 -9 3 -15 3 -23 2 -33 
3 -43 3 -51 1 -28 1 -29 2 -30 1 -30 3 -60 1 -28 
6 -94 1 -16 3 -23 1 -7 3 -2 1 4 3 17 1 12 
2 15 2 36 2 20 4 64 3 43 5 74 1 15 2 14 
2 22 2 9 1 7 2 6 1 4 3 6 1 1 1 0 
2 -1 1 -1 1 -1 3 -3 2 -2 1 -2 4 -5 1 -2 
3 -3 4 -7 7 -13 1 -3 3 -6 5 -10 3 -2 4 2 
3 5 3 8 8 26 5 7 2 -1 2 -6 2 -5 3 -14 
4 -29 1 -11 1 -11 2 -11 1 -11 5 -34 3 -10 2 -2 
4 5 5 28 1 10 3 21 3 22 3 20 9 45 2 2 
6 2 4 -3 3 -2 2 0 1 0 1 0 2 1 1 0 
1 2 3 3 1 2 3 5 4 7 2 2 6 10 2 1 
2 2 2 1 1 0 4 1 3 0 1 0 2 0 4 0 
1 -1 2 0 1 0 1 0 3 -1 1 0 3 0 4 0 
1 1 10 3 1 1 2 1 7 4 2 2 2 0 1 1 
1 1 4 2 2 1 3 1 2 2 4 4 4 6 5 10 
1 4 3 9 1 5 1 5 2 5 1 5 1 6 3 10 
3 10 1 4 2 4 1 3 1 2 2 2 5 2 1 -1 
3 -2 2 -2 1 -1 1 -2 2 -1 1 -1 4 -1 3 2 
4 4 1 2 6 6 2 1 2 -1 4 -6 5 -19 2 -6 
4 -22 1 -7 1 -8 3 -14 2 -7 4 -17 1 -4 1 -4 
2 -3 1 -2 1 -1 2 -1 1 0 2 1 5 7 1 3 
2 2 4 9 1 2 2 3 1 2 8 6 5 -3 5 -3 
1 -2 1 -1 3 -4 2944 1953 300 MP stroke
1 -1 2 -2 2 -3 3 -3 2 -2 4 -6 2 -4 2 -2 
7 -10 1 -2 1 -2 4 -3 2 -1 1 0 1 0 2 0 
4 2 4 3 1 2 2 1 1 1 1 1 2 1 1 0 
1 1 2 0 1 1 2 0 1 0 3 -1 1 0 4 -1 
1 0 2 0 3 1 2 1 2 1 6 5 3 3 1 1 
2 1 4 2 1 0 2 -1 4 -4 1 -2 4 -12 2 -5 
1 -6 1 -6 2 -6 2 -15 2 -7 1 -7 3 -15 1 -6 
4 -17 2 -4 2 -6 2 -2 5 0 2 1 1 2 1 2 
2 2 1 2 1 2 2 2 1 2 3 3 7 5 1 1 
1 1 2 0 2 2 2 1 7 4 4 0 2 -2 2 -2 
1 -2 4 -12 2 -5 1 -5 1 -6 3 -12 3 -11 1 -5 
3 -9 2 -6 5 -1 4 8 1 5 1 5 2 7 1 6 
1 8 2 7 1 8 3 15 3 13 6 18 5 -2 1 -3 
4 -14 1 -5 3 -12 1 -6 2 -5 3 -10 2 -6 2 -1 
1 -1 3 2 2 5 2 3 5 19 4 14 2 4 4 9 
4 4 1 0 3 -1 1 -1 2 -1 1 -2 1 -2 2 -2 
1 -3 6 -13 2 -9 4 -18 2 -8 1 -9 4 -30 4 -38 
2 -13 1 -14 1 -13 6 -52 1 -11 4 -26 3 -10 1 -2 
7 15 22 121 1 -1 3 -6 1 -5 2 -6 1 -6 1 -7 
4 -18 2 -5 4 -7 3 4 1 4 3 15 1 11 4 39 
2 15 4 46 4 43 1 13 1 11 2 9 1 8 3 11 
1 3 4 0 2 -2 5 -16 3 -10 1 -5 6 -14 1 -2 
1 -2 2 0 2 0 2 1 3 4 1 2 4 11 1 5 
3 12 6 32 4 35 1 14 5 65 4 53 5 49 2 27 
4 24 2 2 1 0 1 -3 5 -26 9 -135 1 -23 2 -23 
4 -67 1 -20 2 -20 1 -19 1 -17 2 -16 7 -64 1 -9 
3 -17 1 -8 3 -12 2 -11 2 -4 5 -12 2 -2 1 -2 
1 -3 3 -5 1 -3 2 -4 4 -16 1 -8 3 -17 1 -10 
7 -53 1 -9 3 -15 2 -4 1 -2 1 0 2 2 4 24 
1 12 1 15 3 36 4 62 2 22 2 42 2 21 1 19 
1 18 4 46 3 24 2 10 2 16 4 18 3 9 3 8 
3 6 2 7 2 3 1 2 1 3 2 2 4 6 3 2 
9 4 3 2 1 1 3 4 3 6 1 3 1 5 3 10 
7 36 1 9 2 9 4 28 1 10 3 19 1 10 1 10 
9 53 1 7 1 7 2 6 2 10 3 6 1 2 3 2 
3 -3 1 -2 3 -8 4 -14 3 -11 3 -11 2 -10 2 -4 
2 -8 2 -4 1 -2 7 -12 1 -2 2 -2 2 -5 2 -2 
4 -11 1 -4 1 -4 2193 1810 300 MP stroke
2 -4 3 -9 1 -5 7 -16 1 -2 4 -2 2 1 8 15 
2 6 2 3 1 2 4 6 6 -1 2 -5 3 -7 4 -15 
2 -6 1 -6 4 -20 1 -7 4 -19 5 -17 1 -4 3 -9 
1 -3 1 -3 2 -3 1 -1 1 -2 3 0 11 36 4 30 
3 24 1 13 2 13 2 27 3 26 3 24 1 10 1 9 
2 7 1 6 4 9 6 -12 1 -6 3 -16 3 -19 9 -64 
1 -6 6 -17 4 -2 7 10 1 3 2 3 1 2 4 7 
1 1 3 1 1 -1 2 -1 1 -1 1 -2 7 -15 7 -12 
3 -1 3 2 2 6 4 14 3 12 1 6 3 13 2 6 
2 10 3 6 1 2 2 1 1 -1 3 -6 1 -5 1 -6 
2 -7 3 -18 2 -22 3 -22 1 -12 3 -23 1 -10 5 -26 
1 -7 1 -5 7 -8 3 4 1 4 2 5 1 5 1 6 
4 18 2 6 2 11 6 17 4 7 1 2 2 1 2 3 
2 1 1 1 1 2 3 3 3 5 1 3 2 4 2 8 
2 4 1 5 1 4 2 5 1 5 2 5 2 8 2 3 
1 3 1 2 3 2 3 -2 4 -9 4 -16 1 -7 2 -7 
4 -22 2 -13 3 -12 2 -5 4 -10 5 -2 3 3 4 7 
1 3 3 5 3 4 1 1 11 -14 1 -4 2 -5 2 -9 
11 -40 3 -8 3 -6 1 -3 3 -4 1 -1 4 -1 3 2 
4 7 1 3 3 8 2 5 5 21 1 6 4 17 2 5 
1 5 3 8 3 6 2 4 2 2 4 1 1 0 3 -2 
1 -1 3 -3 1 -2 2 -2 2 -4 3 -3 1 -2 2 -2 
1 -1 2 -2 2 -1 2 0 5 6 3 7 5 22 2 6 
5 22 1 3 2 2 1 -1 3 -8 5 -49 2 -20 1 -23 
1 -25 2 -28 8 -189 5 -111 2 -22 2 -34 2 -12 5 -21 
2 1 4 11 7 27 1 4 1 4 2 3 5 9 3 5 
4 17 1 8 3 21 3 28 1 16 1 18 2 18 1 19 
3 38 4 54 1 17 2 15 5 45 1 7 3 10 3 5 
1 2 3 0 1 -1 2 -1 1 -1 3 -3 2 -2 2 -1 
1 -1 3 0 1 -1 4 0 2 1 2 0 2 0 12 3 
4 1 2 1 2 1 3 1 4 1 1 1 2 0 1 1 
2 0 1 0 1 1 4 0 3 0 7 0 1 0 2 0 
1 0 1 0 2 1 5 1 1 1 2 0 3 1 1 1 
4 0 1 1 2 0 1 0 3 0 3 -1 1 0 3 -1 
1 -1 1 0 2 -1 1 -1 5 -2 2 0 1 -1 2 -1 
1 0 3 -1 1 0 1 0 3 0 1 0 2 0 1 0 
2 0 1 0 1 0 2 0 1 0 1 0 4 1 5 -1 
1 0 3 -1 1 0 1426 1974 300 MP stroke
1 0 2 -1 2 0 2 0 4 1 1 1 3 4 5 13 
2 5 1 4 7 28 1 5 2 6 1 5 3 8 1 4 
1 2 3 4 3 1 4 -4 3 -6 4 -10 4 -12 1 -4 
2 -4 1 -3 3 -7 1 -3 1 -3 2 -2 5 -8 4 -3 
2 -1 1 -1 4 -2 4 -1 4 -1 2 0 2 -1 6 -4 
1 -1 2 -1 2 -2 12 -8 2 -1 4 0 3 0 1 1 
7 3 3 1 2 1 2 0 2 1 3 0 1 -1 3 -1 
3 -2 3 -3 2 -3 4 -7 9 -14 1 -2 1 -2 2 -2 
2 -4 2 -1 2 -2 2 -1 1 -1 3 0 3 1 1 0 
1 1 4 4 3 3 3 3 3 3 1 1 3 2 1 1 
1 0 2 0 4 0 1 0 3 -2 4 -2 3 -1 4 -1 
1 0 2 0 2 1 3 2 3 1 1 1 3 2 5 -1 
2 0 2 -3 2 -3 1 -2 1 -3 2 -3 1 -3 2 -4 
2 -7 3 -6 1 -3 1150 2034 108 MP stroke
gr

c9
0 sg
4107 4014 mt 
(time step) s
 516 2364 mt  -90 rotate
(u) s
90 rotate
%%IncludeResource: font Times-Roman
/Times-Roman /ISOLatin1Encoding 192 FMSR

 636 2244 mt  -90 rotate
(y) s
90 rotate
%%IncludeResource: font Times-Roman
/Times-Roman /ISOLatin1Encoding 240 FMSR

 516 2148 mt  -90 rotate
( \(m/s\)) s
90 rotate
3559  215 mt 
(Oct25-Nov26, 2002) s
1112 3631 mt 
( ) s
7920  481 mt 
( ) s
6 w
1 sg
0 592 1835 0 0 -592 6055 1051 4 MP
PP
-1835 0 0 592 1835 0 0 -592 6055 1051 5 MP stroke
4 w
DO
SO
6 w
0 sg
6055 1051 mt 7890 1051 L
6055  459 mt 7890  459 L
6055 1051 mt 6055  459 L
7890 1051 mt 7890  459 L
6055 1051 mt 7890 1051 L
6055 1051 mt 6055  459 L
6055 1051 mt 7890 1051 L
6055  459 mt 7890  459 L
6055 1051 mt 6055  459 L
7890 1051 mt 7890  459 L
6506  698 mt 
(measurement) s
gs 6055 459 1836 593 rc
48 w
gr

48 w
gs 6127 445 341 341 rc
40 W
c8
6297 615 PD
gr

c8
gs 6055 459 1836 593 rc
gr

0 sg
6506  977 mt 
(regularization) s
gs 6055 459 1836 593 rc
c9
346 0 6124 894 2 MP stroke
6 w
gr

6 w
c9

end %%Color Dict

eplot
%%EndObject

epage
end

showpage

%%Trailer
%%EOF
