%!PS-Adobe-3.0 EPSF-3.0
%%Creator: MATLAB, The MathWorks, Inc. Version 8.1.0.604 (R2013a). Operating System: Darwin 12.5.0 Darwin Kernel Version 12.5.0: Sun Sep 29 13:33:47 PDT 2013; root:xnu-2050.48.12~1/RELEASE_X86_64 x86_64.
%%Title: /Users/bamdadhosseini/Work/Courses/apma990-machinelearning/DATA/wind_Jun_Jul_hist.eps
%%CreationDate: 01/09/2015  14:02:06
%%DocumentNeededFonts: Times-Roman
%%DocumentProcessColors: Cyan Magenta Yellow Black
%%LanguageLevel: 2
%%Pages: 1
%%BoundingBox:    61   246   551   546
%%EndComments

%%BeginProlog
% MathWorks dictionary
/MathWorks 160 dict begin
% definition operators
/bdef {bind def} bind def
/ldef {load def} bind def
/xdef {exch def} bdef
/xstore {exch store} bdef
% operator abbreviations
/c  /clip ldef
/cc /concat ldef
/cp /closepath ldef
/gr /grestore ldef
/gs /gsave ldef
/mt /moveto ldef
/np /newpath ldef
/cm /currentmatrix ldef
/sm /setmatrix ldef
/rm /rmoveto ldef
/rl /rlineto ldef
/s {show newpath} bdef
/sc {setcmykcolor} bdef
/sr /setrgbcolor ldef
/sg /setgray ldef
/w /setlinewidth ldef
/j /setlinejoin ldef
/cap /setlinecap ldef
/rc {rectclip} bdef
/rf {rectfill} bdef
% page state control
/pgsv () def
/bpage {/pgsv save def} bdef
/epage {pgsv restore} bdef
/bplot /gsave ldef
/eplot {stroke grestore} bdef
% orientation switch
/portraitMode 0 def /landscapeMode 1 def /rotateMode 2 def
% coordinate system mappings
/dpi2point 0 def
% font control
/FontSize 0 def
/FMS {/FontSize xstore findfont [FontSize 0 0 FontSize neg 0 0]
  makefont setfont} bdef
/reencode {exch dup where {pop load} {pop StandardEncoding} ifelse
  exch dup 3 1 roll findfont dup length dict begin
  { 1 index /FID ne {def}{pop pop} ifelse } forall
  /Encoding exch def currentdict end definefont pop} bdef
/isroman {findfont /CharStrings get /Agrave known} bdef
/FMSR {3 1 roll 1 index dup isroman {reencode} {pop pop} ifelse
  exch FMS} bdef
/csm {1 dpi2point div -1 dpi2point div scale neg translate
 dup landscapeMode eq {pop -90 rotate}
  {rotateMode eq {90 rotate} if} ifelse} bdef
% line types: solid, dotted, dashed, dotdash
/SO { [] 0 setdash } bdef
/DO { [.5 dpi2point mul 4 dpi2point mul] 0 setdash } bdef
/DA { [6 dpi2point mul] 0 setdash } bdef
/DD { [.5 dpi2point mul 4 dpi2point mul 6 dpi2point mul 4
  dpi2point mul] 0 setdash } bdef
% macros for lines and objects
/L {lineto stroke} bdef
/MP {3 1 roll moveto 1 sub {rlineto} repeat} bdef
/AP {{rlineto} repeat} bdef
/PDlw -1 def
/W {/PDlw currentlinewidth def setlinewidth} def
/PP {closepath eofill} bdef
/DP {closepath stroke} bdef
/MR {4 -2 roll moveto dup  0 exch rlineto exch 0 rlineto
  neg 0 exch rlineto closepath} bdef
/FR {MR stroke} bdef
/PR {MR fill} bdef
/L1i {{currentfile picstr readhexstring pop} image} bdef
/tMatrix matrix def
/MakeOval {newpath tMatrix currentmatrix pop translate scale
0 0 1 0 360 arc tMatrix setmatrix} bdef
/FO {MakeOval stroke} bdef
/PO {MakeOval fill} bdef
/PD {currentlinewidth 2 div 0 360 arc fill
   PDlw -1 eq not {PDlw w /PDlw -1 def} if} def
/FA {newpath tMatrix currentmatrix pop translate scale
  0 0 1 5 -2 roll arc tMatrix setmatrix stroke} bdef
/PA {newpath tMatrix currentmatrix pop	translate 0 0 moveto scale
  0 0 1 5 -2 roll arc closepath tMatrix setmatrix fill} bdef
/FAn {newpath tMatrix currentmatrix pop translate scale
  0 0 1 5 -2 roll arcn tMatrix setmatrix stroke} bdef
/PAn {newpath tMatrix currentmatrix pop translate 0 0 moveto scale
  0 0 1 5 -2 roll arcn closepath tMatrix setmatrix fill} bdef
/vradius 0 def /hradius 0 def /lry 0 def
/lrx 0 def /uly 0 def /ulx 0 def /rad 0 def
/MRR {/vradius xdef /hradius xdef /lry xdef /lrx xdef /uly xdef
  /ulx xdef newpath tMatrix currentmatrix pop ulx hradius add uly
  vradius add translate hradius vradius scale 0 0 1 180 270 arc 
  tMatrix setmatrix lrx hradius sub uly vradius add translate
  hradius vradius scale 0 0 1 270 360 arc tMatrix setmatrix
  lrx hradius sub lry vradius sub translate hradius vradius scale
  0 0 1 0 90 arc tMatrix setmatrix ulx hradius add lry vradius sub
  translate hradius vradius scale 0 0 1 90 180 arc tMatrix setmatrix
  closepath} bdef
/FRR {MRR stroke } bdef
/PRR {MRR fill } bdef
/MlrRR {/lry xdef /lrx xdef /uly xdef /ulx xdef /rad lry uly sub 2 div def
  newpath tMatrix currentmatrix pop ulx rad add uly rad add translate
  rad rad scale 0 0 1 90 270 arc tMatrix setmatrix lrx rad sub lry rad
  sub translate rad rad scale 0 0 1 270 90 arc tMatrix setmatrix
  closepath} bdef
/FlrRR {MlrRR stroke } bdef
/PlrRR {MlrRR fill } bdef
/MtbRR {/lry xdef /lrx xdef /uly xdef /ulx xdef /rad lrx ulx sub 2 div def
  newpath tMatrix currentmatrix pop ulx rad add uly rad add translate
  rad rad scale 0 0 1 180 360 arc tMatrix setmatrix lrx rad sub lry rad
  sub translate rad rad scale 0 0 1 0 180 arc tMatrix setmatrix
  closepath} bdef
/FtbRR {MtbRR stroke } bdef
/PtbRR {MtbRR fill } bdef
/stri 6 array def /dtri 6 array def
/smat 6 array def /dmat 6 array def
/tmat1 6 array def /tmat2 6 array def /dif 3 array def
/asub {/ind2 exch def /ind1 exch def dup dup
  ind1 get exch ind2 get sub exch } bdef
/tri_to_matrix {
  2 0 asub 3 1 asub 4 0 asub 5 1 asub
  dup 0 get exch 1 get 7 -1 roll astore } bdef
/compute_transform {
  dmat dtri tri_to_matrix tmat1 invertmatrix 
  smat stri tri_to_matrix tmat2 concatmatrix } bdef
/ds {stri astore pop} bdef
/dt {dtri astore pop} bdef
/db {2 copy /cols xdef /rows xdef mul dup 3 mul string
  currentfile 
  3 index 0 eq {/ASCIIHexDecode filter}
  {/ASCII85Decode filter 3 index 2 eq {/RunLengthDecode filter} if }
  ifelse exch readstring pop
  dup 0 3 index getinterval /rbmap xdef
  dup 2 index dup getinterval /gbmap xdef
  1 index dup 2 mul exch getinterval /bbmap xdef pop pop}bdef
/it {gs np dtri aload pop moveto lineto lineto cp c
  cols rows 8 compute_transform 
  rbmap gbmap bbmap true 3 colorimage gr}bdef
/il {newpath moveto lineto stroke}bdef
currentdict end def
%%EndProlog

%%BeginSetup
MathWorks begin

0 cap

end
%%EndSetup

%%Page: 1 1
%%BeginPageSetup
%%PageBoundingBox:    61   246   551   546
MathWorks begin
bpage
%%EndPageSetup

%%BeginObject: obj1
bplot

/dpi2point 12 def
portraitMode 0732 6552 csm

    0     0  5880  3600 rc
85 dict begin %Colortable dictionary
/c0 { 0.000000 0.000000 0.000000 sr} bdef
/c1 { 1.000000 1.000000 1.000000 sr} bdef
/c2 { 0.900000 0.000000 0.000000 sr} bdef
/c3 { 0.000000 0.820000 0.000000 sr} bdef
/c4 { 0.000000 0.000000 0.800000 sr} bdef
/c5 { 0.910000 0.820000 0.320000 sr} bdef
/c6 { 1.000000 0.260000 0.820000 sr} bdef
/c7 { 0.000000 0.820000 0.820000 sr} bdef
c0
1 j
1 sg
   0    0 5881 3601 rf
6 w
0 2681 4557 0 0 -2681 764 3080 4 MP
PP
-4557 0 0 2681 4557 0 0 -2681 764 3080 5 MP stroke
4 w
DO
SO
6 w
0 sg
 764 3080 mt 5321 3080 L
 764  399 mt 5321  399 L
 764 3080 mt  764  399 L
5321 3080 mt 5321  399 L
 764 3080 mt 5321 3080 L
 764 3080 mt  764  399 L
 764 3080 mt  764 3034 L
 764  399 mt  764  444 L
%%IncludeResource: font Times-Roman
/Times-Roman /ISOLatin1Encoding 240 FMSR

 704 3329 mt 
(0) s
1903 3080 mt 1903 3034 L
1903  399 mt 1903  444 L
1843 3329 mt 
(2) s
3042 3080 mt 3042 3034 L
3042  399 mt 3042  444 L
2982 3329 mt 
(4) s
4181 3080 mt 4181 3034 L
4181  399 mt 4181  444 L
4121 3329 mt 
(6) s
5321 3080 mt 5321 3034 L
5321  399 mt 5321  444 L
5261 3329 mt 
(8) s
 764 3080 mt  809 3080 L
5321 3080 mt 5275 3080 L
 609 3166 mt 
(0) s
 764 2409 mt  809 2409 L
5321 2409 mt 5275 2409 L
 369 2495 mt 
(200) s
 764 1739 mt  809 1739 L
5321 1739 mt 5275 1739 L
 369 1825 mt 
(400) s
 764 1069 mt  809 1069 L
5321 1069 mt 5275 1069 L
 369 1155 mt 
(600) s
 764  399 mt  809  399 L
5321  399 mt 5275  399 L
 369  485 mt 
(800) s
 764 3080 mt 5321 3080 L
 764  399 mt 5321  399 L
 764 3080 mt  764  399 L
5321 3080 mt 5321  399 L
gs 764 399 4558 2682 rc
/c8 { 0.000000 0.000000 0.562500 sr} bdef
c8
0 2346 141 0 0 -2346 764 3080 4 MP
PP
0 sg
-141 0 0 2346 141 0 0 -2346 764 3080 5 MP stroke
c8
0 1200 142 0 0 -1200 905 3080 4 MP
PP
0 sg
-142 0 0 1200 142 0 0 -1200 905 3080 5 MP stroke
c8
0 1059 142 0 0 -1059 1047 3080 4 MP
PP
0 sg
-142 0 0 1059 142 0 0 -1059 1047 3080 5 MP stroke
c8
0 1056 142 0 0 -1056 1189 3080 4 MP
PP
0 sg
-142 0 0 1056 142 0 0 -1056 1189 3080 5 MP stroke
c8
0 1023 142 0 0 -1023 1331 3080 4 MP
PP
0 sg
-142 0 0 1023 142 0 0 -1023 1331 3080 5 MP stroke
c8
0 932 142 0 0 -932 1473 3080 4 MP
PP
0 sg
-142 0 0 932 142 0 0 -932 1473 3080 5 MP stroke
c8
0 956 141 0 0 -956 1615 3080 4 MP
PP
0 sg
-141 0 0 956 141 0 0 -956 1615 3080 5 MP stroke
c8
0 852 142 0 0 -852 1756 3080 4 MP
PP
0 sg
-142 0 0 852 142 0 0 -852 1756 3080 5 MP stroke
c8
0 765 142 0 0 -765 1898 3080 4 MP
PP
0 sg
-142 0 0 765 142 0 0 -765 1898 3080 5 MP stroke
c8
0 718 142 0 0 -718 2040 3080 4 MP
PP
0 sg
-142 0 0 718 142 0 0 -718 2040 3080 5 MP stroke
c8
0 734 142 0 0 -734 2182 3080 4 MP
PP
0 sg
-142 0 0 734 142 0 0 -734 2182 3080 5 MP stroke
c8
0 627 142 0 0 -627 2324 3080 4 MP
PP
0 sg
-142 0 0 627 142 0 0 -627 2324 3080 5 MP stroke
c8
0 507 141 0 0 -507 2466 3080 4 MP
PP
0 sg
-141 0 0 507 141 0 0 -507 2466 3080 5 MP stroke
c8
0 419 142 0 0 -419 2607 3080 4 MP
PP
0 sg
-142 0 0 419 142 0 0 -419 2607 3080 5 MP stroke
c8
0 292 142 0 0 -292 2749 3080 4 MP
PP
0 sg
-142 0 0 292 142 0 0 -292 2749 3080 5 MP stroke
c8
0 282 142 0 0 -282 2891 3080 4 MP
PP
0 sg
-142 0 0 282 142 0 0 -282 2891 3080 5 MP stroke
c8
0 181 142 0 0 -181 3033 3080 4 MP
PP
0 sg
-142 0 0 181 142 0 0 -181 3033 3080 5 MP stroke
c8
0 151 142 0 0 -151 3175 3080 4 MP
PP
0 sg
-142 0 0 151 142 0 0 -151 3175 3080 5 MP stroke
c8
0 94 141 0 0 -94 3317 3080 4 MP
PP
0 sg
-141 0 0 94 141 0 0 -94 3317 3080 5 MP stroke
c8
0 54 142 0 0 -54 3458 3080 4 MP
PP
0 sg
-142 0 0 54 142 0 0 -54 3458 3080 5 MP stroke
c8
0 74 142 0 0 -74 3600 3080 4 MP
PP
0 sg
-142 0 0 74 142 0 0 -74 3600 3080 5 MP stroke
c8
0 44 142 0 0 -44 3742 3080 4 MP
PP
0 sg
-142 0 0 44 142 0 0 -44 3742 3080 5 MP stroke
c8
0 27 142 0 0 -27 3884 3080 4 MP
PP
0 sg
-142 0 0 27 142 0 0 -27 3884 3080 5 MP stroke
c8
0 14 142 0 0 -14 4026 3080 4 MP
PP
0 sg
-142 0 0 14 142 0 0 -14 4026 3080 5 MP stroke
c8
0 31 141 0 0 -31 4168 3080 4 MP
PP
0 sg
-141 0 0 31 141 0 0 -31 4168 3080 5 MP stroke
c8
0 14 142 0 0 -14 4309 3080 4 MP
PP
0 sg
-142 0 0 14 142 0 0 -14 4309 3080 5 MP stroke
c8
0 7 142 0 0 -7 4451 3080 4 MP
PP
0 sg
-142 0 0 7 142 0 0 -7 4451 3080 5 MP stroke
c8
0 7 142 0 0 -7 4593 3080 4 MP
PP
0 sg
-142 0 0 7 142 0 0 -7 4593 3080 5 MP stroke
c8
0 17 142 0 0 -17 4735 3080 4 MP
PP
0 sg
-142 0 0 17 142 0 0 -17 4735 3080 5 MP stroke
c8
0 7 142 0 0 -7 4877 3080 4 MP
PP
0 sg
-142 0 0 7 142 0 0 -7 4877 3080 5 MP stroke
gr

2484 3546 mt 
(speed \(m/s\)) s
 262 2680 mt  -90 rotate
(Number of samples) s
90 rotate
2248  215 mt 
(Jun3-Jul2, 2002) s

end %%Color Dict

eplot
%%EndObject

epage
end

showpage

%%Trailer
%%EOF
