%!PS-Adobe-3.0 EPSF-3.0
%%Creator: MATLAB, The MathWorks, Inc. Version 8.1.0.604 (R2013a). Operating System: Darwin 12.5.0 Darwin Kernel Version 12.5.0: Sun Sep 29 13:33:47 PDT 2013; root:xnu-2050.48.12~1/RELEASE_X86_64 x86_64.
%%Title: /Users/bamdadhosseini/Work/Courses/apma990-machinelearning/DATA/wind_Jun_Jul_rose.eps
%%CreationDate: 01/09/2015  14:01:40
%%DocumentNeededFonts: Times-Roman
%%DocumentProcessColors: Cyan Magenta Yellow Black
%%LanguageLevel: 2
%%Pages: 1
%%BoundingBox:    25   185   585   605
%%EndComments

%%BeginProlog
% MathWorks dictionary
/MathWorks 160 dict begin
% definition operators
/bdef {bind def} bind def
/ldef {load def} bind def
/xdef {exch def} bdef
/xstore {exch store} bdef
% operator abbreviations
/c  /clip ldef
/cc /concat ldef
/cp /closepath ldef
/gr /grestore ldef
/gs /gsave ldef
/mt /moveto ldef
/np /newpath ldef
/cm /currentmatrix ldef
/sm /setmatrix ldef
/rm /rmoveto ldef
/rl /rlineto ldef
/s {show newpath} bdef
/sc {setcmykcolor} bdef
/sr /setrgbcolor ldef
/sg /setgray ldef
/w /setlinewidth ldef
/j /setlinejoin ldef
/cap /setlinecap ldef
/rc {rectclip} bdef
/rf {rectfill} bdef
% page state control
/pgsv () def
/bpage {/pgsv save def} bdef
/epage {pgsv restore} bdef
/bplot /gsave ldef
/eplot {stroke grestore} bdef
% orientation switch
/portraitMode 0 def /landscapeMode 1 def /rotateMode 2 def
% coordinate system mappings
/dpi2point 0 def
% font control
/FontSize 0 def
/FMS {/FontSize xstore findfont [FontSize 0 0 FontSize neg 0 0]
  makefont setfont} bdef
/reencode {exch dup where {pop load} {pop StandardEncoding} ifelse
  exch dup 3 1 roll findfont dup length dict begin
  { 1 index /FID ne {def}{pop pop} ifelse } forall
  /Encoding exch def currentdict end definefont pop} bdef
/isroman {findfont /CharStrings get /Agrave known} bdef
/FMSR {3 1 roll 1 index dup isroman {reencode} {pop pop} ifelse
  exch FMS} bdef
/csm {1 dpi2point div -1 dpi2point div scale neg translate
 dup landscapeMode eq {pop -90 rotate}
  {rotateMode eq {90 rotate} if} ifelse} bdef
% line types: solid, dotted, dashed, dotdash
/SO { [] 0 setdash } bdef
/DO { [.5 dpi2point mul 4 dpi2point mul] 0 setdash } bdef
/DA { [6 dpi2point mul] 0 setdash } bdef
/DD { [.5 dpi2point mul 4 dpi2point mul 6 dpi2point mul 4
  dpi2point mul] 0 setdash } bdef
% macros for lines and objects
/L {lineto stroke} bdef
/MP {3 1 roll moveto 1 sub {rlineto} repeat} bdef
/AP {{rlineto} repeat} bdef
/PDlw -1 def
/W {/PDlw currentlinewidth def setlinewidth} def
/PP {closepath eofill} bdef
/DP {closepath stroke} bdef
/MR {4 -2 roll moveto dup  0 exch rlineto exch 0 rlineto
  neg 0 exch rlineto closepath} bdef
/FR {MR stroke} bdef
/PR {MR fill} bdef
/L1i {{currentfile picstr readhexstring pop} image} bdef
/tMatrix matrix def
/MakeOval {newpath tMatrix currentmatrix pop translate scale
0 0 1 0 360 arc tMatrix setmatrix} bdef
/FO {MakeOval stroke} bdef
/PO {MakeOval fill} bdef
/PD {currentlinewidth 2 div 0 360 arc fill
   PDlw -1 eq not {PDlw w /PDlw -1 def} if} def
/FA {newpath tMatrix currentmatrix pop translate scale
  0 0 1 5 -2 roll arc tMatrix setmatrix stroke} bdef
/PA {newpath tMatrix currentmatrix pop	translate 0 0 moveto scale
  0 0 1 5 -2 roll arc closepath tMatrix setmatrix fill} bdef
/FAn {newpath tMatrix currentmatrix pop translate scale
  0 0 1 5 -2 roll arcn tMatrix setmatrix stroke} bdef
/PAn {newpath tMatrix currentmatrix pop translate 0 0 moveto scale
  0 0 1 5 -2 roll arcn closepath tMatrix setmatrix fill} bdef
/vradius 0 def /hradius 0 def /lry 0 def
/lrx 0 def /uly 0 def /ulx 0 def /rad 0 def
/MRR {/vradius xdef /hradius xdef /lry xdef /lrx xdef /uly xdef
  /ulx xdef newpath tMatrix currentmatrix pop ulx hradius add uly
  vradius add translate hradius vradius scale 0 0 1 180 270 arc 
  tMatrix setmatrix lrx hradius sub uly vradius add translate
  hradius vradius scale 0 0 1 270 360 arc tMatrix setmatrix
  lrx hradius sub lry vradius sub translate hradius vradius scale
  0 0 1 0 90 arc tMatrix setmatrix ulx hradius add lry vradius sub
  translate hradius vradius scale 0 0 1 90 180 arc tMatrix setmatrix
  closepath} bdef
/FRR {MRR stroke } bdef
/PRR {MRR fill } bdef
/MlrRR {/lry xdef /lrx xdef /uly xdef /ulx xdef /rad lry uly sub 2 div def
  newpath tMatrix currentmatrix pop ulx rad add uly rad add translate
  rad rad scale 0 0 1 90 270 arc tMatrix setmatrix lrx rad sub lry rad
  sub translate rad rad scale 0 0 1 270 90 arc tMatrix setmatrix
  closepath} bdef
/FlrRR {MlrRR stroke } bdef
/PlrRR {MlrRR fill } bdef
/MtbRR {/lry xdef /lrx xdef /uly xdef /ulx xdef /rad lrx ulx sub 2 div def
  newpath tMatrix currentmatrix pop ulx rad add uly rad add translate
  rad rad scale 0 0 1 180 360 arc tMatrix setmatrix lrx rad sub lry rad
  sub translate rad rad scale 0 0 1 0 180 arc tMatrix setmatrix
  closepath} bdef
/FtbRR {MtbRR stroke } bdef
/PtbRR {MtbRR fill } bdef
/stri 6 array def /dtri 6 array def
/smat 6 array def /dmat 6 array def
/tmat1 6 array def /tmat2 6 array def /dif 3 array def
/asub {/ind2 exch def /ind1 exch def dup dup
  ind1 get exch ind2 get sub exch } bdef
/tri_to_matrix {
  2 0 asub 3 1 asub 4 0 asub 5 1 asub
  dup 0 get exch 1 get 7 -1 roll astore } bdef
/compute_transform {
  dmat dtri tri_to_matrix tmat1 invertmatrix 
  smat stri tri_to_matrix tmat2 concatmatrix } bdef
/ds {stri astore pop} bdef
/dt {dtri astore pop} bdef
/db {2 copy /cols xdef /rows xdef mul dup 3 mul string
  currentfile 
  3 index 0 eq {/ASCIIHexDecode filter}
  {/ASCII85Decode filter 3 index 2 eq {/RunLengthDecode filter} if }
  ifelse exch readstring pop
  dup 0 3 index getinterval /rbmap xdef
  dup 2 index dup getinterval /gbmap xdef
  1 index dup 2 mul exch getinterval /bbmap xdef pop pop}bdef
/it {gs np dtri aload pop moveto lineto lineto cp c
  cols rows 8 compute_transform 
  rbmap gbmap bbmap true 3 colorimage gr}bdef
/il {newpath moveto lineto stroke}bdef
currentdict end def
%%EndProlog

%%BeginSetup
MathWorks begin

0 cap

end
%%EndSetup

%%Page: 1 1
%%BeginPageSetup
%%PageBoundingBox:    25   185   585   605
MathWorks begin
bpage
%%EndPageSetup

%%BeginObject: obj1
bplot

/dpi2point 12 def
portraitMode 0300 7260 csm

    0     0  6721  5039 rc
90 dict begin %Colortable dictionary
/c0 { 0.000000 0.000000 0.000000 sr} bdef
/c1 { 1.000000 1.000000 1.000000 sr} bdef
/c2 { 0.900000 0.000000 0.000000 sr} bdef
/c3 { 0.000000 0.820000 0.000000 sr} bdef
/c4 { 0.000000 0.000000 0.800000 sr} bdef
/c5 { 0.910000 0.820000 0.320000 sr} bdef
/c6 { 1.000000 0.260000 0.820000 sr} bdef
/c7 { 0.000000 0.820000 0.820000 sr} bdef
c0
1 j
1 sg
   0    0 6722 5040 rf
6 w
gs 888 399 5181 4087 rc
DO
2.4 w
0 sg
1 -29 1 -29 2 -29 4 -29 4 -29 5 -29 6 -28 7 -28 
7 -29 9 -27 9 -28 11 -27 11 -27 12 -27 13 -26 13 -26 
15 -25 15 -25 16 -24 17 -24 17 -24 18 -22 19 -23 20 -21 
20 -21 21 -20 22 -20 22 -19 23 -18 23 -18 24 -17 24 -16 
25 -15 26 -14 25 -14 27 -13 26 -12 27 -11 27 -10 28 -10 
28 -8 28 -8 28 -7 29 -6 29 -5 29 -4 29 -3 29 -2 
29 -2 29 0 29 0 29 2 29 2 29 3 29 4 29 5 
29 6 28 7 28 8 28 8 28 10 27 10 27 11 26 12 
27 13 25 14 26 14 25 15 24 16 24 17 23 18 23 18 
22 19 22 20 21 20 20 21 20 21 19 23 18 22 17 24 
17 24 16 24 15 25 15 25 13 26 13 26 12 27 11 27 
11 27 9 28 9 27 7 29 7 28 6 28 5 29 4 29 
4 29 2 29 1 29 1 29 -1 30 -1 29 -2 29 -4 29 
-4 29 -5 29 -6 28 -7 28 -7 29 -9 27 -9 28 -11 27 
-11 27 -12 27 -13 26 -13 26 -15 25 -15 25 -16 24 -17 24 
-17 24 -18 22 -19 23 -20 21 -20 21 -21 20 -22 20 -22 19 
-23 18 -23 18 -24 17 -24 16 -25 15 -26 14 -25 14 -27 13 
-26 12 -27 11 -27 10 -28 10 -28 8 -28 8 -28 7 -29 6 
-29 5 -29 4 -29 3 -29 2 -29 2 -29 0 -29 0 -29 -2 
-29 -2 -29 -3 -29 -4 -29 -5 -29 -6 -28 -7 -28 -8 -28 -8 
-28 -10 -27 -10 -27 -11 -26 -12 -27 -13 -25 -14 -26 -14 -25 -15 
-24 -16 -24 -17 -23 -18 -23 -18 -22 -19 -22 -20 -21 -20 -20 -21 
-20 -21 -19 -23 -18 -22 -17 -24 -17 -24 -16 -24 -15 -25 -15 -25 
-13 -26 -13 -26 -12 -27 -11 -27 -11 -27 -9 -28 -9 -27 -7 -29 
-7 -28 -6 -28 -5 -29 -4 -29 -4 -29 -2 -29 -1 -29 -1 -30 
4407 2442 201 MP stroke
1 -58 2 -58 5 -58 6 -58 9 -58 10 -58 11 -57 14 -56 
15 -57 18 -55 19 -56 20 -54 22 -54 24 -53 26 -53 27 -51 
29 -51 31 -50 32 -48 33 -48 35 -47 37 -45 38 -45 39 -43 
41 -42 42 -40 43 -40 44 -38 46 -36 46 -35 48 -34 49 -32 
50 -30 50 -29 52 -27 52 -26 53 -24 54 -22 55 -21 55 -19 
56 -17 56 -15 57 -14 57 -12 57 -10 58 -8 58 -7 58 -4 
59 -3 58 -1 58 1 59 3 58 4 58 7 58 8 57 10 
57 12 57 14 56 15 56 17 55 19 55 21 54 22 53 24 
52 26 52 27 50 29 50 30 49 32 48 34 46 35 46 36 
44 38 43 40 42 40 41 42 39 43 38 45 37 45 35 47 
33 48 32 48 31 50 29 51 27 51 26 53 24 53 22 54 
20 54 19 56 18 55 15 57 14 56 11 57 10 58 9 58 
6 58 5 58 2 58 1 58 -1 59 -2 58 -5 58 -6 58 
-9 58 -10 58 -11 57 -14 56 -15 57 -18 55 -19 56 -20 54 
-22 54 -24 53 -26 53 -27 51 -29 51 -31 50 -32 48 -33 48 
-35 47 -37 45 -38 45 -39 43 -41 42 -42 40 -43 40 -44 38 
-46 36 -46 35 -48 34 -49 32 -50 30 -50 29 -52 27 -52 26 
-53 24 -54 22 -55 21 -55 19 -56 17 -56 15 -57 14 -57 12 
-57 10 -58 8 -58 7 -58 4 -59 3 -58 1 -58 -1 -59 -3 
-58 -4 -58 -7 -58 -8 -57 -10 -57 -12 -57 -14 -56 -15 -56 -17 
-55 -19 -55 -21 -54 -22 -53 -24 -52 -26 -52 -27 -50 -29 -50 -30 
-49 -32 -48 -34 -46 -35 -46 -36 -44 -38 -43 -40 -42 -40 -41 -42 
-39 -43 -38 -45 -37 -45 -35 -47 -33 -48 -32 -48 -31 -50 -29 -51 
-27 -51 -26 -53 -24 -53 -22 -54 -20 -54 -19 -56 -18 -55 -15 -57 
-14 -56 -11 -57 -10 -58 -9 -58 -6 -58 -5 -58 -2 -58 -1 -59 
5335 2442 201 MP stroke
SO
1803 0 1435 2442 2 MP stroke
1803 0 3718 2442 2 MP stroke
0 -1804 3478 4485 2 MP stroke
0 -1803 3478 2202 2 MP stroke
gr

2.4 w
0 sg
%%IncludeResource: font Times-Roman
/Times-Roman /ISOLatin1Encoding 240 FMSR

3404  388 mt 
(N) s
3404 4752 mt 
(S) s
1119 2579 mt 
(W) s
5614 2579 mt 
(E) s
%%IncludeResource: font Times-Roman
/Times-Roman /ISOLatin1Encoding 192 FMSR

5150 2693 mt 
(20%) s
4221  836 mt 
(Max. wind=7.47 m/s) s
%%IncludeResource: font Times-Roman
/Times-Roman /ISOLatin1Encoding 240 FMSR

2683  215 mt 
(Jun3-Jul2, 2002) s
gs 888 399 5181 4087 rc
1 -7 0 -8 1 -7 0 -8 1 -7 2 -7 1 -8 2 -7 
2 -7 2 -8 3 -7 2 -7 3 -7 3 -7 4 -6 3 -7 
4 -6 4 -7 4 -6 4 -6 5 -6 4 -6 5 -6 5 -5 
6 -6 5 -5 6 -5 5 -5 6 -5 6 -4 6 -5 7 -4 
6 -4 7 -3 6 -4 7 -3 7 -3 7 -3 7 -3 7 -2 
7 -3 7 -2 8 -1 7 -2 8 -1 7 -1 7 -1 8 -1 
7 0 8 0 8 0 7 0 8 1 7 1 7 1 8 1 
7 2 8 1 7 2 7 3 7 2 7 3 7 3 7 3 
7 3 6 4 7 3 6 4 7 4 6 5 6 4 6 5 
5 5 6 5 5 5 6 6 5 5 5 6 4 6 5 6 
4 6 4 6 4 7 4 6 3 7 4 6 3 7 3 7 
2 7 3 7 2 8 2 7 2 7 1 8 2 7 1 7 
0 8 1 7 0 8 1 7 -1 8 0 8 -1 7 0 8 
-1 7 -2 7 -1 8 -2 7 -2 7 -2 8 -3 7 -2 7 
-3 7 -3 7 -4 6 -3 7 -4 6 -4 7 -4 6 -4 6 
-5 6 -4 6 -5 6 -5 5 -6 6 -5 5 -6 5 -5 5 
-6 5 -6 4 -6 5 -7 4 -6 4 -7 3 -6 4 -7 3 
-7 3 -7 3 -7 3 -7 2 -7 3 -7 2 -8 1 -7 2 
-8 1 -7 1 -7 1 -8 1 -7 0 -8 0 -8 0 -7 0 
-8 -1 -7 -1 -7 -1 -8 -1 -7 -2 -8 -1 -7 -2 -7 -3 
-7 -2 -7 -3 -7 -3 -7 -3 -7 -3 -6 -4 -7 -3 -6 -4 
-7 -4 -6 -5 -6 -4 -6 -5 -5 -5 -6 -5 -5 -5 -6 -6 
-5 -5 -5 -6 -4 -6 -5 -6 -4 -6 -4 -6 -4 -7 -4 -6 
-3 -7 -4 -6 -3 -7 -3 -7 -2 -7 -3 -7 -2 -8 -2 -7 
-2 -7 -1 -8 -2 -7 -1 -7 0 -8 -1 -7 0 -8 -1 -8 
3718 2442 201 MP stroke
gr

%%IncludeResource: font Times-Roman
/Times-Roman /ISOLatin1Encoding 168 FMSR

3329 2554 mt 
(10%) s
gs 888 399 5181 4087 rc
/c8 { 1.000000 0.187500 0.000000 sr} bdef
c8
0 15 -24 0 0 -15 24 0 3717 2449 5 MP
PP
6 w
0 sg
0 0 0 15 -24 0 0 -15 24 0 3717 2449 6 MP stroke
/c9 { 1.000000 0.562500 0.000000 sr} bdef
c9
0 31 -8 1 0 -33 8 1 3741 2457 5 MP
PP
0 sg
0 0 0 31 -8 1 0 -33 8 1 3741 2457 6 MP stroke
/c10 { 1.000000 0.937500 0.000000 sr} bdef
c10
0 47 -15 2 0 -51 15 2 3749 2465 5 MP
PP
0 sg
0 0 0 47 -15 2 0 -51 15 2 3749 2465 6 MP stroke
/c11 { 0.687500 1.000000 0.312500 sr} bdef
c11
0 67 -2 0 0 -67 2 0 3763 2475 5 MP
PP
0 sg
0 0 0 67 -2 0 0 -67 2 0 3763 2475 6 MP stroke
/c12 { 0.312500 1.000000 0.687500 sr} bdef
c12
0 85 -19 3 0 -91 19 3 3764 2484 5 MP
PP
0 sg
0 0 0 85 -19 3 0 -91 19 3 3764 2484 6 MP stroke
c8
5 13 -17 8 -6 -15 18 -6 3702 2356 5 MP
PP
0 sg
0 0 5 13 -17 8 -6 -15 18 -6 3702 2356 6 MP stroke
c9
12 28 -29 15 -13 -32 30 -11 3723 2357 5 MP
PP
0 sg
0 0 12 28 -29 15 -13 -32 30 -11 3723 2357 6 MP stroke
c10
20 47 -10 5 -20 -49 10 -3 3756 2354 5 MP
PP
0 sg
0 0 20 47 -10 5 -20 -49 10 -3 3756 2354 6 MP stroke
c11
28 66 -15 8 -29 -69 16 -5 3769 2360 5 MP
PP
0 sg
0 0 28 66 -15 8 -29 -69 16 -5 3769 2360 6 MP stroke
c12
36 87 -7 4 -37 -89 8 -2 3788 2364 5 MP
PP
0 sg
0 0 36 87 -7 4 -37 -89 8 -2 3788 2364 6 MP stroke
c8
10 10 -48 50 -12 -13 50 -47 3652 2277 5 MP
PP
0 sg
0 0 10 10 -48 50 -12 -13 50 -47 3652 2277 6 MP stroke
c9
25 26 -17 19 -28 -28 20 -17 3708 2237 5 MP
PP
0 sg
0 0 25 26 -17 19 -28 -28 20 -17 3708 2237 6 MP stroke
c10
41 42 -19 23 -45 -46 23 -19 3734 2227 5 MP
PP
0 sg
0 0 41 42 -19 23 -45 -46 23 -19 3734 2227 6 MP stroke
c11
61 61 -7 8 -62 -62 8 -7 3764 2216 5 MP
PP
0 sg
0 0 61 61 -7 8 -62 -62 8 -7 3764 2216 6 MP stroke
c12
78 78 -4 5 -79 -79 5 -4 3779 2218 5 MP
PP
0 sg
0 0 78 78 -4 5 -79 -79 5 -4 3779 2218 6 MP stroke
c8
13 5 -25 65 -16 -7 28 -63 3576 2223 5 MP
PP
0 sg
0 0 13 5 -25 65 -16 -7 28 -63 3576 2223 6 MP stroke
c9
34 14 -30 87 -44 -18 40 -83 3613 2164 5 MP
PP
0 sg
0 0 34 14 -30 87 -44 -18 40 -83 3613 2164 6 MP stroke
c10
65 27 -18 57 -75 -31 28 -53 3663 2086 5 MP
PP
0 sg
0 0 65 27 -18 57 -75 -31 28 -53 3663 2086 6 MP stroke
c11
100 41 -12 42 -109 -46 21 -37 3703 2039 5 MP
PP
0 sg
0 0 100 41 -12 42 -109 -46 21 -37 3703 2039 6 MP stroke
c12
137 56 -3 11 -140 -58 6 -9 3737 2009 5 MP
PP
0 sg
0 0 137 56 -3 11 -140 -58 6 -9 3737 2009 6 MP stroke
c8
14 0 8 269 -30 0 8 -269 3485 2202 5 MP
PP
0 sg
0 0 14 0 8 269 -30 0 8 -269 3485 2202 6 MP stroke
c9
60 0 17 294 -94 0 17 -294 3508 1934 5 MP
PP
0 sg
0 0 60 0 17 294 -94 0 17 -294 3508 1934 6 MP stroke
c10
142 0 18 204 -178 0 18 -204 3549 1642 5 MP
PP
0 sg
0 0 142 0 18 204 -178 0 18 -204 3549 1642 6 MP stroke
c11
236 0 12 101 -260 0 12 -101 3596 1442 5 MP
PP
0 sg
0 0 236 0 12 101 -260 0 12 -101 3596 1442 6 MP stroke
c12
326 0 8 59 -342 0 8 -59 3641 1345 5 MP
PP
0 sg
0 0 326 0 8 59 -342 0 8 -59 3641 1345 6 MP stroke
c8
13 -5 257 573 -47 19 -223 -587 3393 2218 5 MP
PP
0 sg
0 0 13 -5 257 573 -47 19 -223 -587 3393 2218 6 MP stroke
c9
94 -39 240 493 -154 64 -180 -518 3194 1622 5 MP
PP
0 sg
0 0 94 -39 240 493 -154 64 -180 -518 3194 1622 6 MP stroke
c10
231 -96 182 349 -295 122 -118 -375 3054 1091 5 MP
PP
0 sg
0 0 231 -96 182 349 -295 122 -118 -375 3054 1091 6 MP stroke
c11
393 -162 94 168 -435 181 -52 -187 2987 701 5 MP
PP
0 sg
0 0 393 -162 94 168 -435 181 -52 -187 2987 701 6 MP stroke
c12
542 -225 43 72 -565 234 -20 -81 2991 499 5 MP
PP
0 sg
0 0 542 -225 43 72 -565 234 -20 -81 2991 499 6 MP stroke
c8
10 -10 252 237 -24 25 -238 -252 3314 2267 5 MP
PP
0 sg
0 0 10 -10 252 237 -24 25 -238 -252 3314 2267 6 MP stroke
c9
49 -48 199 177 -71 71 -177 -200 3089 2004 5 MP
PP
0 sg
0 0 49 -48 199 177 -71 71 -177 -200 3089 2004 6 MP stroke
c10
106 -106 210 175 -141 140 -175 -209 2931 1788 5 MP
PP
0 sg
0 0 106 -106 210 175 -141 140 -175 -209 2931 1788 6 MP stroke
c11
187 -187 109 87 -210 210 -86 -110 2781 1558 5 MP
PP
0 sg
0 0 187 -187 109 87 -210 210 -86 -110 2781 1558 6 MP stroke
c12
262 -263 26 19 -269 269 -19 -25 2724 1425 5 MP
PP
0 sg
0 0 262 -263 26 19 -269 269 -19 -25 2724 1425 6 MP stroke
c8
5 -13 203 77 -10 25 -198 -89 3259 2343 5 MP
PP
0 sg
0 0 5 -13 203 77 -10 25 -198 -89 3259 2343 6 MP stroke
c9
20 -50 110 38 -26 62 -104 -50 3067 2242 5 MP
PP
0 sg
0 0 20 -50 110 38 -26 62 -104 -50 3067 2242 6 MP stroke
c10
38 -94 117 37 -47 113 -108 -56 2970 2176 5 MP
PP
0 sg
0 0 38 -94 117 37 -47 113 -108 -56 2970 2176 6 MP stroke
c11
62 -151 50 14 -67 162 -45 -25 2871 2102 5 MP
PP
0 sg
0 0 62 -151 50 14 -67 162 -45 -25 2871 2102 6 MP stroke
c12
83 -202 7 2 -85 204 -5 -4 2837 2058 5 MP
PP
0 sg
0 0 83 -202 7 2 -85 204 -5 -4 2837 2058 6 MP stroke
c8
0 -15 63 -1 0 17 -63 -1 3239 2434 5 MP
PP
0 sg
0 0 0 -15 63 -1 0 17 -63 -1 3239 2434 6 MP stroke
c9
0 -35 35 -2 0 39 -35 -2 3177 2424 5 MP
PP
0 sg
0 0 0 -35 35 -2 0 39 -35 -2 3177 2424 6 MP stroke
c10
0 -59 13 -1 0 61 -13 -1 3143 2412 5 MP
PP
0 sg
0 0 0 -59 13 -1 0 61 -13 -1 3143 2412 6 MP stroke
c11
0 -83 4 0 0 83 -4 0 3131 2400 5 MP
PP
0 sg
0 0 0 -83 4 0 0 83 -4 0 3131 2400 6 MP stroke
c12
0 -103 0 0 0 103 0 0 3128 2390 5 MP
PP
0 sg
0 0 0 -103 0 0 0 103 0 0 3128 2390 6 MP stroke
c8
-5 -13 43 -19 6 16 -44 16 3254 2527 5 MP
PP
0 sg
0 0 -5 -13 43 -19 6 16 -44 16 3254 2527 6 MP stroke
c9
-13 -32 31 -15 15 35 -33 12 3207 2535 5 MP
PP
0 sg
0 0 -13 -32 31 -15 15 35 -33 12 3207 2535 6 MP stroke
c10
-21 -52 7 -4 23 54 -9 2 3172 2538 5 MP
PP
0 sg
0 0 -21 -52 7 -4 23 54 -9 2 3172 2538 6 MP stroke
c11
-29 -72 4 -2 30 73 -5 1 3161 2531 5 MP
PP
0 sg
0 0 -29 -72 4 -2 30 73 -5 1 3161 2531 6 MP stroke
c12
-37 -90 0 0 37 90 0 0 3154 2523 5 MP
PP
0 sg
0 0 -37 -90 0 0 37 90 0 0 3154 2523 6 MP stroke
c8
-10 -10 58 -61 13 14 -61 57 3304 2606 5 MP
PP
0 sg
0 0 -10 -10 58 -61 13 14 -61 57 3304 2606 6 MP stroke
c9
-27 -27 40 -45 32 32 -45 40 3236 2656 5 MP
PP
0 sg
0 0 -27 -27 40 -45 32 32 -45 40 3236 2656 6 MP stroke
c10
-48 -48 21 -24 52 52 -25 20 3184 2688 5 MP
PP
0 sg
0 0 -48 -48 21 -24 52 52 -25 20 3184 2688 6 MP stroke
c11
-70 -69 4 -5 71 70 -5 4 3151 2699 5 MP
PP
0 sg
0 0 -70 -69 4 -5 71 70 -5 4 3151 2699 6 MP stroke
c12
-87 -88 0 0 87 88 0 0 3139 2693 5 MP
PP
0 sg
0 0 -87 -88 0 0 87 88 0 0 3139 2693 6 MP stroke
c8
-13 -5 44 -117 20 8 -51 114 3380 2660 5 MP
PP
0 sg
0 0 -13 -5 44 -117 20 8 -51 114 3380 2660 6 MP stroke
c9
-40 -17 31 -89 50 21 -41 85 3319 2769 5 MP
PP
0 sg
0 0 -40 -17 31 -89 50 21 -41 85 3319 2769 6 MP stroke
c10
-75 -31 12 -37 81 33 -18 35 3266 2848 5 MP
PP
0 sg
0 0 -75 -31 12 -37 81 33 -18 35 3266 2848 6 MP stroke
c11
-108 -44 14 -50 119 49 -25 45 3235 2876 5 MP
PP
0 sg
0 0 -108 -44 14 -50 119 49 -25 45 3235 2876 6 MP stroke
c12
-149 -62 7 -27 157 65 -15 24 3196 2912 5 MP
PP
0 sg
0 0 -149 -62 7 -27 157 65 -15 24 3196 2912 6 MP stroke
c8
-14 0 -5 -174 24 0 -5 174 3471 2681 5 MP
PP
0 sg
0 0 -14 0 -5 -174 24 0 -5 174 3471 2681 6 MP stroke
c9
-48 0 -9 -149 66 0 -9 149 3454 2854 5 MP
PP
0 sg
0 0 -48 0 -9 -149 66 0 -9 149 3454 2854 6 MP stroke
c10
-100 0 -14 -159 128 0 -14 159 3428 3001 5 MP
PP
0 sg
0 0 -100 0 -14 -159 128 0 -14 159 3428 3001 6 MP stroke
c11
-170 0 -14 -119 198 0 -14 119 3393 3158 5 MP
PP
0 sg
0 0 -170 0 -14 -119 198 0 -14 119 3393 3158 6 MP stroke
c12
-246 0 -14 -91 274 0 -14 91 3355 3274 5 MP
PP
0 sg
0 0 -246 0 -14 -91 274 0 -14 91 3355 3274 6 MP stroke
c8
-13 5 -149 -331 33 -14 129 340 3563 2665 5 MP
PP
0 sg
0 0 -13 5 -149 -331 33 -14 129 340 3563 2665 6 MP stroke
c9
-65 27 -198 -408 115 -48 148 429 3676 3011 5 MP
PP
0 sg
0 0 -65 27 -198 -408 115 -48 148 429 3676 3011 6 MP stroke
c10
-172 71 -181 -347 236 -98 117 374 3795 3449 5 MP
PP
0 sg
0 0 -172 71 -181 -347 236 -98 117 374 3795 3449 6 MP stroke
c11
-314 130 -78 -138 349 -145 43 153 3871 3835 5 MP
PP
0 sg
0 0 -314 130 -78 -138 349 -145 43 153 3871 3835 6 MP stroke
c12
-436 180 -33 -55 453 -188 16 63 3868 4000 5 MP
PP
0 sg
0 0 -436 180 -33 -55 453 -188 16 63 3868 4000 6 MP stroke
c8
-10 10 -125 -118 17 -17 118 125 3642 2616 5 MP
PP
0 sg
0 0 -10 10 -125 -118 17 -17 118 125 3642 2616 6 MP stroke
c9
-35 34 -133 -118 49 -49 119 133 3751 2749 5 MP
PP
0 sg
0 0 -35 34 -133 -118 49 -49 119 133 3751 2749 6 MP stroke
c10
-73 74 -46 -39 81 -81 38 46 3857 2894 5 MP
PP
0 sg
0 0 -73 74 -46 -39 81 -81 38 46 3857 2894 6 MP stroke
c11
-109 108 -30 -24 115 -114 24 30 3880 2952 5 MP
PP
0 sg
0 0 -109 108 -30 -24 115 -114 24 30 3880 2952 6 MP stroke
c12
-143 143 -12 -9 146 -146 9 12 3888 2995 5 MP
PP
0 sg
0 0 -143 143 -12 -9 146 -146 9 12 3888 2995 6 MP stroke
c8
-5 13 -38 -14 6 -15 37 16 3697 2540 5 MP
PP
0 sg
0 0 -5 13 -38 -14 6 -15 37 16 3697 2540 6 MP stroke
c9
-13 31 -24 -9 13 -33 24 11 3730 2564 5 MP
PP
0 sg
0 0 -13 31 -24 -9 13 -33 24 11 3730 2564 6 MP stroke
c10
-21 50 -12 -4 21 -52 12 6 3749 2583 5 MP
PP
0 sg
0 0 -21 50 -12 -4 21 -52 12 6 3749 2583 6 MP stroke
c11
-29 69 -13 -4 30 -72 12 7 3756 2597 5 MP
PP
0 sg
0 0 -29 69 -13 -4 30 -72 12 7 3756 2597 6 MP stroke
c12
-37 90 -19 -5 40 -95 16 10 3763 2612 5 MP
PP
0 sg
0 0 -37 90 -19 -5 40 -95 16 10 3763 2612 6 MP stroke
gr

6 w
%%IncludeResource: font Times-Roman
/Times-Roman /ISOLatin1Encoding 240 FMSR

 858 4568 mt 
( ) s
6039  481 mt 
( ) s
1 sg
0 1417 1121 0 0 -1417 948 4427 4 MP
PP
-1121 0 0 1417 1121 0 0 -1417 948 4427 5 MP stroke
4 w
DO
SO
6 w
0 sg
 948 4427 mt 2069 4427 L
 948 3010 mt 2069 3010 L
 948 4427 mt  948 3010 L
2069 4427 mt 2069 3010 L
 948 4427 mt 2069 4427 L
 948 4427 mt  948 3010 L
 948 4427 mt 2069 4427 L
 948 3010 mt 2069 3010 L
 948 4427 mt  948 3010 L
2069 4427 mt 2069 3010 L
1424 3247 mt 
( 0.1-1) s
gs 948 3010 1122 1418 rc
c8
0 212 365 0 0 -212 1021 3271 4 MP
PP
0 sg
-365 0 0 212 365 0 0 -212 1021 3271 5 MP stroke
gr

1424 3524 mt 
(  1-3) s
gs 948 3010 1122 1418 rc
c9
0 213 365 0 0 -213 1021 3548 4 MP
PP
0 sg
-365 0 0 213 365 0 0 -213 1021 3548 5 MP stroke
gr

1424 3801 mt 
(  2-3) s
gs 948 3010 1122 1418 rc
c10
0 212 365 0 0 -212 1021 3824 4 MP
PP
0 sg
-365 0 0 212 365 0 0 -212 1021 3824 5 MP stroke
gr

1424 4078 mt 
(  3-4) s
gs 948 3010 1122 1418 rc
c11
0 213 365 0 0 -213 1021 4101 4 MP
PP
0 sg
-365 0 0 213 365 0 0 -213 1021 4101 5 MP stroke
gr

1424 4355 mt 
(  >4) s
gs 948 3010 1122 1418 rc
c12
0 212 365 0 0 -212 1021 4377 4 MP
PP
0 sg
-365 0 0 212 365 0 0 -212 1021 4377 5 MP stroke
gr


end %%Color Dict

eplot
%%EndObject

epage
end

showpage

%%Trailer
%%EOF
