%!PS-Adobe-3.0 EPSF-3.0
%%Creator: MATLAB, The MathWorks, Inc. Version 8.1.0.604 (R2013a). Operating System: Darwin 12.5.0 Darwin Kernel Version 12.5.0: Sun Sep 29 13:33:47 PDT 2013; root:xnu-2050.48.12~1/RELEASE_X86_64 x86_64.
%%Title: /Users/bamdadhosseini/Work/Courses/apma990-machinelearning/DATA/wind_Jul_Aug_rose.eps
%%CreationDate: 01/12/2015  12:41:04
%%DocumentNeededFonts: Times-Roman
%%DocumentProcessColors: Cyan Magenta Yellow Black
%%LanguageLevel: 2
%%Pages: 1
%%BoundingBox:    25   185   585   605
%%EndComments

%%BeginProlog
% MathWorks dictionary
/MathWorks 160 dict begin
% definition operators
/bdef {bind def} bind def
/ldef {load def} bind def
/xdef {exch def} bdef
/xstore {exch store} bdef
% operator abbreviations
/c  /clip ldef
/cc /concat ldef
/cp /closepath ldef
/gr /grestore ldef
/gs /gsave ldef
/mt /moveto ldef
/np /newpath ldef
/cm /currentmatrix ldef
/sm /setmatrix ldef
/rm /rmoveto ldef
/rl /rlineto ldef
/s {show newpath} bdef
/sc {setcmykcolor} bdef
/sr /setrgbcolor ldef
/sg /setgray ldef
/w /setlinewidth ldef
/j /setlinejoin ldef
/cap /setlinecap ldef
/rc {rectclip} bdef
/rf {rectfill} bdef
% page state control
/pgsv () def
/bpage {/pgsv save def} bdef
/epage {pgsv restore} bdef
/bplot /gsave ldef
/eplot {stroke grestore} bdef
% orientation switch
/portraitMode 0 def /landscapeMode 1 def /rotateMode 2 def
% coordinate system mappings
/dpi2point 0 def
% font control
/FontSize 0 def
/FMS {/FontSize xstore findfont [FontSize 0 0 FontSize neg 0 0]
  makefont setfont} bdef
/reencode {exch dup where {pop load} {pop StandardEncoding} ifelse
  exch dup 3 1 roll findfont dup length dict begin
  { 1 index /FID ne {def}{pop pop} ifelse } forall
  /Encoding exch def currentdict end definefont pop} bdef
/isroman {findfont /CharStrings get /Agrave known} bdef
/FMSR {3 1 roll 1 index dup isroman {reencode} {pop pop} ifelse
  exch FMS} bdef
/csm {1 dpi2point div -1 dpi2point div scale neg translate
 dup landscapeMode eq {pop -90 rotate}
  {rotateMode eq {90 rotate} if} ifelse} bdef
% line types: solid, dotted, dashed, dotdash
/SO { [] 0 setdash } bdef
/DO { [.5 dpi2point mul 4 dpi2point mul] 0 setdash } bdef
/DA { [6 dpi2point mul] 0 setdash } bdef
/DD { [.5 dpi2point mul 4 dpi2point mul 6 dpi2point mul 4
  dpi2point mul] 0 setdash } bdef
% macros for lines and objects
/L {lineto stroke} bdef
/MP {3 1 roll moveto 1 sub {rlineto} repeat} bdef
/AP {{rlineto} repeat} bdef
/PDlw -1 def
/W {/PDlw currentlinewidth def setlinewidth} def
/PP {closepath eofill} bdef
/DP {closepath stroke} bdef
/MR {4 -2 roll moveto dup  0 exch rlineto exch 0 rlineto
  neg 0 exch rlineto closepath} bdef
/FR {MR stroke} bdef
/PR {MR fill} bdef
/L1i {{currentfile picstr readhexstring pop} image} bdef
/tMatrix matrix def
/MakeOval {newpath tMatrix currentmatrix pop translate scale
0 0 1 0 360 arc tMatrix setmatrix} bdef
/FO {MakeOval stroke} bdef
/PO {MakeOval fill} bdef
/PD {currentlinewidth 2 div 0 360 arc fill
   PDlw -1 eq not {PDlw w /PDlw -1 def} if} def
/FA {newpath tMatrix currentmatrix pop translate scale
  0 0 1 5 -2 roll arc tMatrix setmatrix stroke} bdef
/PA {newpath tMatrix currentmatrix pop	translate 0 0 moveto scale
  0 0 1 5 -2 roll arc closepath tMatrix setmatrix fill} bdef
/FAn {newpath tMatrix currentmatrix pop translate scale
  0 0 1 5 -2 roll arcn tMatrix setmatrix stroke} bdef
/PAn {newpath tMatrix currentmatrix pop translate 0 0 moveto scale
  0 0 1 5 -2 roll arcn closepath tMatrix setmatrix fill} bdef
/vradius 0 def /hradius 0 def /lry 0 def
/lrx 0 def /uly 0 def /ulx 0 def /rad 0 def
/MRR {/vradius xdef /hradius xdef /lry xdef /lrx xdef /uly xdef
  /ulx xdef newpath tMatrix currentmatrix pop ulx hradius add uly
  vradius add translate hradius vradius scale 0 0 1 180 270 arc 
  tMatrix setmatrix lrx hradius sub uly vradius add translate
  hradius vradius scale 0 0 1 270 360 arc tMatrix setmatrix
  lrx hradius sub lry vradius sub translate hradius vradius scale
  0 0 1 0 90 arc tMatrix setmatrix ulx hradius add lry vradius sub
  translate hradius vradius scale 0 0 1 90 180 arc tMatrix setmatrix
  closepath} bdef
/FRR {MRR stroke } bdef
/PRR {MRR fill } bdef
/MlrRR {/lry xdef /lrx xdef /uly xdef /ulx xdef /rad lry uly sub 2 div def
  newpath tMatrix currentmatrix pop ulx rad add uly rad add translate
  rad rad scale 0 0 1 90 270 arc tMatrix setmatrix lrx rad sub lry rad
  sub translate rad rad scale 0 0 1 270 90 arc tMatrix setmatrix
  closepath} bdef
/FlrRR {MlrRR stroke } bdef
/PlrRR {MlrRR fill } bdef
/MtbRR {/lry xdef /lrx xdef /uly xdef /ulx xdef /rad lrx ulx sub 2 div def
  newpath tMatrix currentmatrix pop ulx rad add uly rad add translate
  rad rad scale 0 0 1 180 360 arc tMatrix setmatrix lrx rad sub lry rad
  sub translate rad rad scale 0 0 1 0 180 arc tMatrix setmatrix
  closepath} bdef
/FtbRR {MtbRR stroke } bdef
/PtbRR {MtbRR fill } bdef
/stri 6 array def /dtri 6 array def
/smat 6 array def /dmat 6 array def
/tmat1 6 array def /tmat2 6 array def /dif 3 array def
/asub {/ind2 exch def /ind1 exch def dup dup
  ind1 get exch ind2 get sub exch } bdef
/tri_to_matrix {
  2 0 asub 3 1 asub 4 0 asub 5 1 asub
  dup 0 get exch 1 get 7 -1 roll astore } bdef
/compute_transform {
  dmat dtri tri_to_matrix tmat1 invertmatrix 
  smat stri tri_to_matrix tmat2 concatmatrix } bdef
/ds {stri astore pop} bdef
/dt {dtri astore pop} bdef
/db {2 copy /cols xdef /rows xdef mul dup 3 mul string
  currentfile 
  3 index 0 eq {/ASCIIHexDecode filter}
  {/ASCII85Decode filter 3 index 2 eq {/RunLengthDecode filter} if }
  ifelse exch readstring pop
  dup 0 3 index getinterval /rbmap xdef
  dup 2 index dup getinterval /gbmap xdef
  1 index dup 2 mul exch getinterval /bbmap xdef pop pop}bdef
/it {gs np dtri aload pop moveto lineto lineto cp c
  cols rows 8 compute_transform 
  rbmap gbmap bbmap true 3 colorimage gr}bdef
/il {newpath moveto lineto stroke}bdef
currentdict end def
%%EndProlog

%%BeginSetup
MathWorks begin

0 cap

end
%%EndSetup

%%Page: 1 1
%%BeginPageSetup
%%PageBoundingBox:    25   185   585   605
MathWorks begin
bpage
%%EndPageSetup

%%BeginObject: obj1
bplot

/dpi2point 12 def
portraitMode 0300 7260 csm

    0     0  6721  5039 rc
90 dict begin %Colortable dictionary
/c0 { 0.000000 0.000000 0.000000 sr} bdef
/c1 { 1.000000 1.000000 1.000000 sr} bdef
/c2 { 0.900000 0.000000 0.000000 sr} bdef
/c3 { 0.000000 0.820000 0.000000 sr} bdef
/c4 { 0.000000 0.000000 0.800000 sr} bdef
/c5 { 0.910000 0.820000 0.320000 sr} bdef
/c6 { 1.000000 0.260000 0.820000 sr} bdef
/c7 { 0.000000 0.820000 0.820000 sr} bdef
c0
1 j
1 sg
   0    0 6722 5040 rf
6 w
gs 888 399 5181 4087 rc
DO
2.4 w
0 sg
0 -23 1 -11 1 -12 2 -12 2 -11 2 -12 3 -11 3 -11 
4 -11 4 -11 4 -11 4 -11 5 -11 5 -10 5 -10 6 -11 
6 -10 7 -9 6 -10 7 -9 8 -9 7 -9 8 -9 8 -8 
9 -8 8 -8 9 -8 9 -7 10 -7 9 -7 10 -6 10 -6 
10 -6 10 -5 11 -6 10 -4 11 -5 11 -4 11 -4 11 -3 
12 -3 11 -3 11 -2 12 -2 11 -2 12 -1 12 -1 11 -1 
12 0 12 0 11 1 12 1 12 1 11 2 12 2 11 2 
11 3 12 3 11 3 11 4 11 4 11 5 10 4 11 6 
10 5 10 6 10 6 10 6 9 7 10 7 9 7 9 8 
8 8 9 8 8 8 8 9 7 9 8 9 7 9 6 10 
7 9 6 10 6 11 5 10 5 10 5 11 4 11 4 11 
4 11 4 11 3 11 3 11 2 12 2 11 2 12 1 12 
1 11 0 47 -1 11 -1 12 -2 12 -2 11 -2 12 -3 11 
-3 11 -4 11 -4 11 -4 11 -4 11 -5 11 -5 10 -5 10 
-6 11 -6 10 -7 9 -6 10 -7 9 -8 9 -7 9 -8 9 
-8 8 -9 8 -8 8 -9 8 -9 7 -10 7 -9 7 -10 6 
-10 6 -10 6 -10 5 -11 6 -10 4 -11 5 -11 4 -11 4 
-11 3 -12 3 -11 3 -11 2 -12 2 -11 2 -12 1 -12 1 
-11 1 -12 0 -12 0 -11 -1 -12 -1 -12 -1 -11 -2 -12 -2 
-11 -2 -11 -3 -12 -3 -11 -3 -11 -4 -11 -4 -11 -5 -10 -4 
-11 -6 -10 -5 -10 -6 -10 -6 -10 -6 -9 -7 -10 -7 -9 -7 
-9 -8 -8 -8 -9 -8 -8 -8 -8 -9 -7 -9 -8 -9 -7 -9 
-6 -10 -7 -9 -6 -10 -6 -11 -5 -10 -5 -10 -5 -11 -4 -11 
-4 -11 -4 -11 -4 -11 -3 -11 -3 -11 -2 -12 -2 -11 -2 -12 
-1 -12 -1 -11 0 -24 3849 2442 196 MP stroke
0 -23 2 -23 1 -23 3 -24 3 -23 4 -23 5 -23 5 -22 
7 -23 6 -22 8 -22 8 -22 9 -22 10 -21 10 -21 11 -20 
12 -21 12 -20 13 -19 13 -19 14 -19 15 -18 15 -18 15 -17 
17 -17 16 -16 18 -16 17 -15 19 -15 18 -14 19 -13 20 -13 
20 -12 20 -12 21 -10 21 -11 21 -9 22 -9 21 -8 22 -8 
23 -7 22 -6 23 -6 23 -4 23 -4 23 -4 23 -2 23 -2 
24 -1 23 0 23 0 24 1 23 2 23 2 23 4 23 4 
23 4 23 6 22 6 23 7 22 8 21 8 22 9 21 9 
21 11 21 10 20 12 20 12 20 13 19 13 18 14 19 15 
17 15 18 16 16 16 17 17 15 17 15 18 15 18 14 19 
13 19 13 19 12 20 12 21 11 20 10 21 10 21 9 22 
8 22 8 22 6 22 7 23 5 22 5 23 4 23 3 23 
3 24 1 23 2 23 0 47 -2 23 -1 23 -3 24 -3 23 
-4 23 -5 23 -5 22 -7 23 -6 22 -8 22 -8 22 -9 22 
-10 21 -10 21 -11 20 -12 21 -12 20 -13 19 -13 19 -14 19 
-15 18 -15 18 -15 17 -17 17 -16 16 -18 16 -17 15 -19 15 
-18 14 -19 13 -20 13 -20 12 -20 12 -21 10 -21 11 -21 9 
-22 9 -21 8 -22 8 -23 7 -22 6 -23 6 -23 4 -23 4 
-23 4 -23 2 -23 2 -24 1 -23 0 -23 0 -24 -1 -23 -2 
-23 -2 -23 -4 -23 -4 -23 -4 -23 -6 -22 -6 -23 -7 -22 -8 
-21 -8 -22 -9 -21 -9 -21 -11 -21 -10 -20 -12 -20 -12 -20 -13 
-19 -13 -18 -14 -19 -15 -17 -15 -18 -16 -16 -16 -17 -17 -15 -17 
-15 -18 -15 -18 -14 -19 -13 -19 -13 -19 -12 -20 -12 -21 -11 -20 
-10 -21 -10 -21 -9 -22 -8 -22 -8 -22 -6 -22 -7 -23 -5 -22 
-5 -23 -4 -23 -3 -23 -3 -24 -1 -23 -2 -23 0 -24 4221 2442 200 MP stroke
0 -35 2 -34 3 -35 3 -35 5 -35 6 -34 7 -35 9 -34 
9 -33 10 -34 12 -33 12 -33 13 -32 15 -32 15 -31 16 -31 
18 -31 18 -30 19 -29 20 -29 21 -28 22 -27 23 -26 24 -26 
24 -25 25 -25 26 -23 27 -23 27 -22 28 -21 29 -20 29 -19 
30 -19 30 -17 31 -16 32 -16 31 -14 33 -14 33 -12 33 -11 
33 -11 34 -9 34 -8 34 -7 35 -6 34 -5 35 -4 35 -3 
35 -1 35 -1 35 1 35 1 35 3 35 4 34 5 35 6 
34 7 34 8 34 9 33 11 33 11 33 12 33 14 31 14 
32 16 31 16 30 17 30 19 29 19 29 20 28 21 27 22 
27 23 26 23 25 25 24 25 24 26 23 26 22 27 21 28 
20 29 19 29 18 30 18 31 16 31 15 31 15 32 13 32 
12 33 12 33 10 34 9 33 9 34 7 35 6 34 5 35 
3 35 3 35 2 34 0 71 -2 34 -3 35 -3 35 -5 35 
-6 34 -7 35 -9 34 -9 33 -10 34 -12 33 -12 33 -13 32 
-15 32 -15 31 -16 31 -18 31 -18 30 -19 29 -20 29 -21 28 
-22 27 -23 26 -24 26 -24 25 -25 25 -26 23 -27 23 -27 22 
-28 21 -29 20 -29 19 -30 19 -30 17 -31 16 -32 16 -31 14 
-33 14 -33 12 -33 11 -33 11 -34 9 -34 8 -34 7 -35 6 
-34 5 -35 4 -35 3 -35 1 -35 1 -35 -1 -35 -1 -35 -3 
-35 -4 -34 -5 -35 -6 -34 -7 -34 -8 -34 -9 -33 -11 -33 -11 
-33 -12 -33 -14 -31 -14 -32 -16 -31 -16 -30 -17 -30 -19 -29 -19 
-29 -20 -28 -21 -27 -22 -27 -23 -26 -23 -25 -25 -24 -25 -24 -26 
-23 -26 -22 -27 -21 -28 -20 -29 -19 -29 -18 -30 -18 -31 -16 -31 
-15 -31 -15 -32 -13 -32 -12 -33 -12 -33 -10 -34 -9 -33 -9 -34 
-7 -35 -6 -34 -5 -35 -3 -35 -3 -35 -2 -34 0 -36 4592 2442 200 MP stroke
1 -46 2 -47 4 -46 5 -47 6 -46 8 -46 10 -46 11 -45 
12 -45 14 -45 15 -44 17 -43 17 -44 20 -42 20 -42 22 -41 
23 -41 24 -40 26 -39 27 -38 28 -37 29 -37 30 -35 32 -35 
32 -33 34 -33 34 -31 36 -30 36 -30 38 -28 38 -26 39 -26 
40 -24 40 -24 41 -21 42 -21 43 -19 43 -18 44 -16 44 -16 
44 -13 45 -13 46 -11 46 -9 46 -8 46 -7 46 -5 47 -3 
46 -3 47 0 47 0 46 3 47 3 46 5 46 7 46 8 
46 9 46 11 45 13 44 13 44 16 44 16 43 18 43 19 
42 21 41 21 40 24 40 24 39 26 38 26 38 28 36 30 
36 30 34 31 34 33 32 33 32 35 30 35 29 37 28 37 
27 38 26 39 24 40 23 41 22 41 20 42 20 42 17 44 
17 43 15 44 14 45 12 45 11 45 10 46 8 46 6 46 
5 47 4 46 2 47 1 46 -1 47 -2 47 -4 46 -5 47 
-6 46 -8 46 -10 46 -11 45 -12 45 -14 45 -15 44 -17 43 
-17 44 -20 42 -20 42 -22 41 -23 41 -24 40 -26 39 -27 38 
-28 37 -29 37 -30 35 -32 35 -32 33 -34 33 -34 31 -36 30 
-36 30 -38 28 -38 26 -39 26 -40 24 -40 24 -41 21 -42 21 
-43 19 -43 18 -44 16 -44 16 -44 13 -45 13 -46 11 -46 9 
-46 8 -46 7 -46 5 -47 3 -46 3 -47 0 -47 0 -46 -3 
-47 -3 -46 -5 -46 -7 -46 -8 -46 -9 -46 -11 -45 -13 -44 -13 
-44 -16 -44 -16 -43 -18 -43 -19 -42 -21 -41 -21 -40 -24 -40 -24 
-39 -26 -38 -26 -38 -28 -36 -30 -36 -30 -34 -31 -34 -33 -32 -33 
-32 -35 -30 -35 -29 -37 -28 -37 -27 -38 -26 -39 -24 -40 -23 -41 
-22 -41 -20 -42 -20 -42 -17 -44 -17 -43 -15 -44 -14 -45 -12 -45 
-11 -45 -10 -46 -8 -46 -6 -46 -5 -47 -4 -46 -2 -47 -1 -47 
4964 2442 201 MP stroke
1 -58 2 -58 5 -58 6 -58 9 -58 10 -58 11 -57 14 -56 
15 -57 18 -55 19 -56 20 -54 22 -54 24 -53 26 -53 27 -51 
29 -51 31 -50 32 -48 33 -48 35 -47 37 -45 38 -45 39 -43 
41 -42 42 -40 43 -40 44 -38 46 -36 46 -35 48 -34 49 -32 
50 -30 50 -29 52 -27 52 -26 53 -24 54 -22 55 -21 55 -19 
56 -17 56 -15 57 -14 57 -12 57 -10 58 -8 58 -7 58 -4 
59 -3 58 -1 58 1 59 3 58 4 58 7 58 8 57 10 
57 12 57 14 56 15 56 17 55 19 55 21 54 22 53 24 
52 26 52 27 50 29 50 30 49 32 48 34 46 35 46 36 
44 38 43 40 42 40 41 42 39 43 38 45 37 45 35 47 
33 48 32 48 31 50 29 51 27 51 26 53 24 53 22 54 
20 54 19 56 18 55 15 57 14 56 11 57 10 58 9 58 
6 58 5 58 2 58 1 58 -1 59 -2 58 -5 58 -6 58 
-9 58 -10 58 -11 57 -14 56 -15 57 -18 55 -19 56 -20 54 
-22 54 -24 53 -26 53 -27 51 -29 51 -31 50 -32 48 -33 48 
-35 47 -37 45 -38 45 -39 43 -41 42 -42 40 -43 40 -44 38 
-46 36 -46 35 -48 34 -49 32 -50 30 -50 29 -52 27 -52 26 
-53 24 -54 22 -55 21 -55 19 -56 17 -56 15 -57 14 -57 12 
-57 10 -58 8 -58 7 -58 4 -59 3 -58 1 -58 -1 -59 -3 
-58 -4 -58 -7 -58 -8 -57 -10 -57 -12 -57 -14 -56 -15 -56 -17 
-55 -19 -55 -21 -54 -22 -53 -24 -52 -26 -52 -27 -50 -29 -50 -30 
-49 -32 -48 -34 -46 -35 -46 -36 -44 -38 -43 -40 -42 -40 -41 -42 
-39 -43 -38 -45 -37 -45 -35 -47 -33 -48 -32 -48 -31 -50 -29 -51 
-27 -51 -26 -53 -24 -53 -22 -54 -20 -54 -19 -56 -18 -55 -15 -57 
-14 -56 -11 -57 -10 -58 -9 -58 -6 -58 -5 -58 -2 -58 -1 -59 
5335 2442 201 MP stroke
SO
1857 0 1435 2442 2 MP stroke
1857 0 3664 2442 2 MP stroke
0 -1858 3478 4485 2 MP stroke
0 -1857 3478 2256 2 MP stroke
gr

2.4 w
0 sg
%%IncludeResource: font Times-Roman
/Times-Roman /ISOLatin1Encoding 240 FMSR

3404  388 mt 
(N) s
3404 4752 mt 
(S) s
1119 2579 mt 
(W) s
5614 2579 mt 
(E) s
%%IncludeResource: font Times-Roman
/Times-Roman /ISOLatin1Encoding 192 FMSR

5150 2693 mt 
(50%) s
4221  836 mt 
(Max. wind=8.696 m/s) s
%%IncludeResource: font Times-Roman
/Times-Roman /ISOLatin1Encoding 240 FMSR

2523  215 mt 
(Jul20-Aug21, 2013) s
gs 888 399 5181 4087 rc
0 -11 1 -6 1 -6 0 -6 1 -5 2 -6 1 -6 1 -5 
2 -6 2 -5 2 -6 2 -5 3 -6 2 -5 3 -5 3 -5 
3 -5 3 -5 4 -5 3 -4 4 -5 4 -4 3 -5 5 -4 
4 -4 4 -4 5 -4 4 -3 5 -4 5 -3 4 -3 5 -4 
5 -2 6 -3 5 -3 5 -2 6 -2 5 -2 6 -2 5 -2 
6 -2 5 -1 6 -1 6 -1 6 -1 6 -1 5 0 6 0 
6 0 6 0 6 0 5 0 6 1 6 1 6 1 6 1 
5 1 6 2 5 2 6 2 5 2 6 2 5 2 5 3 
6 3 5 2 5 4 4 3 5 3 5 4 4 3 5 4 
4 4 4 4 5 4 3 5 4 4 4 5 3 4 4 5 
3 5 3 5 3 5 3 5 2 5 3 6 2 5 2 6 
2 5 2 6 1 5 1 6 2 6 1 5 0 6 1 6 
1 6 0 23 -1 6 -1 6 0 6 -1 5 -2 6 -1 6 
-1 5 -2 6 -2 5 -2 6 -2 5 -3 6 -2 5 -3 5 
-3 5 -3 5 -3 5 -4 5 -3 4 -4 5 -4 4 -3 5 
-5 4 -4 4 -4 4 -5 4 -4 3 -5 4 -5 3 -4 3 
-5 4 -5 2 -6 3 -5 3 -5 2 -6 2 -5 2 -6 2 
-5 2 -6 2 -5 1 -6 1 -6 1 -6 1 -6 1 -5 0 
-6 0 -6 0 -6 0 -6 0 -5 0 -6 -1 -6 -1 -6 -1 
-6 -1 -5 -1 -6 -2 -5 -2 -6 -2 -5 -2 -6 -2 -5 -2 
-5 -3 -6 -3 -5 -2 -5 -4 -4 -3 -5 -3 -5 -4 -4 -3 
-5 -4 -4 -4 -4 -4 -5 -4 -3 -5 -4 -4 -4 -5 -3 -4 
-4 -5 -3 -5 -3 -5 -3 -5 -3 -5 -2 -5 -3 -6 -2 -5 
-2 -6 -2 -5 -2 -6 -1 -5 -1 -6 -2 -6 -1 -5 0 -6 
-1 -6 -1 -6 0 -12 3664 2442 196 MP stroke
gr

%%IncludeResource: font Times-Roman
/Times-Roman /ISOLatin1Encoding 168 FMSR

3329 2554 mt 
(8.8%) s
gs 888 399 5181 4087 rc
/c8 { 1.000000 0.187500 0.000000 sr} bdef
c8
0 11 -9 0 0 -11 9 0 3664 2447 5 MP
PP
6 w
0 sg
0 0 0 11 -9 0 0 -11 9 0 3664 2447 6 MP stroke
/c9 { 1.000000 0.562500 0.000000 sr} bdef
c9
0 23 -16 1 0 -25 16 1 3673 2453 5 MP
PP
0 sg
0 0 0 23 -16 1 0 -25 16 1 3673 2453 6 MP stroke
/c10 { 1.000000 0.937500 0.000000 sr} bdef
c10
0 37 0 0 0 -37 0 0 3689 2460 5 MP
PP
0 sg
0 0 0 37 0 0 0 -37 0 0 3689 2460 6 MP stroke
/c11 { 0.687500 1.000000 0.312500 sr} bdef
c11
0 49 -1 0 0 -49 1 0 3688 2466 5 MP
PP
0 sg
0 0 0 49 -1 0 0 -49 1 0 3688 2466 6 MP stroke
/c12 { 0.312500 1.000000 0.687500 sr} bdef
c12
0 63 0 0 0 -63 0 0 3688 2473 5 MP
PP
0 sg
0 0 0 63 0 0 0 -63 0 0 3688 2473 6 MP stroke
c8
4 10 -8 4 -5 -11 9 -3 3652 2375 5 MP
PP
0 sg
0 0 4 10 -8 4 -5 -11 9 -3 3652 2375 6 MP stroke
c9
9 21 -1 1 -9 -22 1 0 3663 2377 5 MP
PP
0 sg
0 0 9 21 -1 1 -9 -22 1 0 3663 2377 6 MP stroke
c10
13 32 0 0 -13 -32 0 0 3666 2382 5 MP
PP
0 sg
0 0 13 32 0 0 -13 -32 0 0 3666 2382 6 MP stroke
c11
18 43 0 0 -18 -43 0 0 3668 2388 5 MP
PP
0 sg
0 0 18 43 0 0 -18 -43 0 0 3668 2388 6 MP stroke
c12
22 54 0 0 -22 -54 0 0 3669 2394 5 MP
PP
0 sg
0 0 22 54 0 0 -22 -54 0 0 3669 2394 6 MP stroke
c8
7 8 -4 4 -8 -8 5 -4 3613 2314 5 MP
PP
0 sg
0 0 7 8 -4 4 -8 -8 5 -4 3613 2314 6 MP stroke
c9
16 16 -5 6 -16 -17 5 -5 3622 2314 5 MP
PP
0 sg
0 0 16 16 -5 6 -16 -17 5 -5 3622 2314 6 MP stroke
c10
25 25 -2 1 -25 -25 2 -1 3631 2313 5 MP
PP
0 sg
0 0 25 25 -2 1 -25 -25 2 -1 3631 2313 6 MP stroke
c11
34 33 0 0 -34 -33 0 0 3637 2316 5 MP
PP
0 sg
0 0 34 33 0 0 -34 -33 0 0 3637 2316 6 MP stroke
c12
42 42 -1 1 -43 -42 2 -1 3640 2321 5 MP
PP
0 sg
0 0 42 42 -1 1 -43 -42 2 -1 3640 2321 6 MP stroke
c8
10 4 -3 9 -11 -4 4 -9 3554 2272 5 MP
PP
0 sg
0 0 10 4 -3 9 -11 -4 4 -9 3554 2272 6 MP stroke
c9
21 9 -5 15 -23 -10 7 -14 3563 2266 5 MP
PP
0 sg
0 0 21 9 -5 15 -23 -10 7 -14 3563 2266 6 MP stroke
c10
35 15 -2 6 -36 -15 3 -6 3576 2255 5 MP
PP
0 sg
0 0 35 15 -2 6 -36 -15 3 -6 3576 2255 6 MP stroke
c11
47 20 -1 3 -48 -20 2 -3 3584 2252 5 MP
PP
0 sg
0 0 47 20 -1 3 -48 -20 2 -3 3584 2252 6 MP stroke
c12
59 24 0 2 -60 -25 1 -1 3591 2252 5 MP
PP
0 sg
0 0 59 24 0 2 -60 -25 1 -1 3591 2252 6 MP stroke
c8
10 0 1 29 -12 0 1 -29 3483 2256 5 MP
PP
0 sg
0 0 10 0 1 29 -12 0 1 -29 3483 2256 6 MP stroke
c9
26 0 2 37 -30 0 2 -37 3491 2227 5 MP
PP
0 sg
0 0 26 0 2 37 -30 0 2 -37 3491 2227 6 MP stroke
c10
44 0 2 23 -48 0 2 -23 3500 2191 5 MP
PP
0 sg
0 0 44 0 2 23 -48 0 2 -23 3500 2191 6 MP stroke
c11
64 0 2 15 -68 0 2 -15 3510 2169 5 MP
PP
0 sg
0 0 64 0 2 15 -68 0 2 -15 3510 2169 6 MP stroke
c12
86 0 1 11 -88 0 1 -11 3521 2155 5 MP
PP
0 sg
0 0 86 0 1 11 -88 0 1 -11 3521 2155 6 MP stroke
c8
10 -4 19 42 -13 5 -16 -43 3412 2268 5 MP
PP
0 sg
0 0 10 -4 19 42 -13 5 -16 -43 3412 2268 6 MP stroke
c9
25 -11 36 73 -34 14 -27 -76 3402 2222 5 MP
PP
0 sg
0 0 25 -11 36 73 -34 14 -27 -76 3402 2222 6 MP stroke
c10
51 -21 21 41 -58 24 -14 -44 3384 2143 5 MP
PP
0 sg
0 0 51 -21 21 41 -58 24 -14 -44 3384 2143 6 MP stroke
c11
78 -32 9 15 -82 34 -5 -17 3381 2096 5 MP
PP
0 sg
0 0 78 -32 9 15 -82 34 -5 -17 3381 2096 6 MP stroke
c12
102 -42 6 11 -105 44 -3 -13 3386 2076 5 MP
PP
0 sg
0 0 102 -42 6 11 -105 44 -3 -13 3386 2076 6 MP stroke
c8
7 -8 58 55 -11 11 -54 -58 3350 2306 5 MP
PP
0 sg
0 0 7 -8 58 55 -11 11 -54 -58 3350 2306 6 MP stroke
c9
23 -22 36 32 -26 26 -33 -36 3302 2243 5 MP
PP
0 sg
0 0 23 -22 36 32 -26 26 -33 -36 3302 2243 6 MP stroke
c10
39 -39 13 11 -41 42 -11 -14 3276 2201 5 MP
PP
0 sg
0 0 39 -39 13 11 -41 42 -11 -14 3276 2201 6 MP stroke
c11
56 -55 6 5 -57 56 -5 -6 3273 2181 5 MP
PP
0 sg
0 0 56 -55 6 5 -57 56 -5 -6 3273 2181 6 MP stroke
c12
71 -70 3 2 -72 71 -2 -3 3276 2169 5 MP
PP
0 sg
0 0 71 -70 3 2 -72 71 -2 -3 3276 2169 6 MP stroke
c8
4 -10 63 24 -6 13 -61 -27 3308 2365 5 MP
PP
0 sg
0 0 4 -10 63 24 -6 13 -61 -27 3308 2365 6 MP stroke
c9
12 -27 39 13 -13 32 -38 -18 3250 2331 5 MP
PP
0 sg
0 0 12 -27 39 13 -13 32 -38 -18 3250 2331 6 MP stroke
c10
20 -48 9 3 -20 50 -9 -5 3216 2305 5 MP
PP
0 sg
0 0 20 -48 9 3 -20 50 -9 -5 3216 2305 6 MP stroke
c11
28 -67 3 1 -28 67 -3 -1 3212 2292 5 MP
PP
0 sg
0 0 28 -67 3 1 -28 67 -3 -1 3212 2292 6 MP stroke
c12
34 -84 2 1 -34 84 -2 -1 3213 2283 5 MP
PP
0 sg
0 0 34 -84 2 1 -34 84 -2 -1 3213 2283 6 MP stroke
c8
0 -11 51 -1 0 13 -51 -1 3292 2436 5 MP
PP
0 sg
0 0 0 -11 51 -1 0 13 -51 -1 3292 2436 6 MP stroke
c9
0 -27 28 -2 0 31 -28 -2 3241 2428 5 MP
PP
0 sg
0 0 0 -27 28 -2 0 31 -28 -2 3241 2428 6 MP stroke
c10
0 -47 4 0 0 47 -4 0 3213 2418 5 MP
PP
0 sg
0 0 0 -47 4 0 0 47 -4 0 3213 2418 6 MP stroke
c11
0 -63 2 -1 0 65 -2 -1 3209 2410 5 MP
PP
0 sg
0 0 0 -63 2 -1 0 65 -2 -1 3209 2410 6 MP stroke
c12
0 -81 1 0 0 81 -1 0 3208 2401 5 MP
PP
0 sg
0 0 0 -81 1 0 0 81 -1 0 3208 2401 6 MP stroke
c8
-4 -10 23 -10 5 11 -24 9 3304 2508 5 MP
PP
0 sg
0 0 -4 -10 23 -10 5 11 -24 9 3304 2508 6 MP stroke
c9
-10 -23 14 -7 10 25 -14 5 3278 2511 5 MP
PP
0 sg
0 0 -10 -23 14 -7 10 25 -14 5 3278 2511 6 MP stroke
c10
-16 -37 7 -3 15 38 -6 2 3261 2510 5 MP
PP
0 sg
0 0 -16 -37 7 -3 15 38 -6 2 3261 2510 6 MP stroke
c11
-21 -51 1 0 21 51 -1 0 3253 2505 5 MP
PP
0 sg
0 0 -21 -51 1 0 21 51 -1 0 3253 2505 6 MP stroke
c12
-26 -63 1 -1 27 64 -2 0 3250 2499 5 MP
PP
0 sg
0 0 -26 -63 1 -1 27 64 -2 0 3250 2499 6 MP stroke
c8
-7 -8 10 -11 8 8 -11 11 3343 2569 5 MP
PP
0 sg
0 0 -7 -8 10 -11 8 8 -11 11 3343 2569 6 MP stroke
c9
-16 -17 8 -10 18 18 -10 9 3328 2575 5 MP
PP
0 sg
0 0 -16 -17 8 -10 18 18 -10 9 3328 2575 6 MP stroke
c10
-27 -27 3 -2 27 27 -3 2 3314 2579 5 MP
PP
0 sg
0 0 -27 -27 3 -2 27 27 -3 2 3314 2579 6 MP stroke
c11
-36 -36 2 -3 37 36 -3 3 3307 2576 5 MP
PP
0 sg
0 0 -36 -36 2 -3 37 36 -3 3 3307 2576 6 MP stroke
c12
-46 -46 0 -1 46 46 0 1 3300 2573 5 MP
PP
0 sg
0 0 -46 -46 0 -1 46 46 0 1 3300 2573 6 MP stroke
c8
-10 -4 11 -30 12 5 -13 29 3402 2611 5 MP
PP
0 sg
0 0 -10 -4 11 -30 12 5 -13 29 3402 2611 6 MP stroke
c9
-24 -10 10 -27 27 11 -13 26 3383 2637 5 MP
PP
0 sg
0 0 -24 -10 10 -27 27 11 -13 26 3383 2637 6 MP stroke
c10
-40 -17 2 -7 42 17 -4 7 3364 2660 5 MP
PP
0 sg
0 0 -40 -17 2 -7 42 17 -4 7 3364 2660 6 MP stroke
c11
-55 -23 2 -8 57 24 -4 7 3354 2663 5 MP
PP
0 sg
0 0 -55 -23 2 -8 57 24 -4 7 3354 2663 6 MP stroke
c12
-71 -29 1 -3 72 30 -2 2 3343 2667 5 MP
PP
0 sg
0 0 -71 -29 1 -3 72 30 -2 2 3343 2667 6 MP stroke
c8
-10 0 -2 -39 14 0 -2 39 3473 2627 5 MP
PP
0 sg
0 0 -10 0 -2 -39 14 0 -2 39 3473 2627 6 MP stroke
c9
-26 0 -4 -62 34 0 -4 62 3465 2666 5 MP
PP
0 sg
0 0 -26 0 -4 -62 34 0 -4 62 3465 2666 6 MP stroke
c10
-50 0 -3 -34 56 0 -3 34 3453 2727 5 MP
PP
0 sg
0 0 -50 0 -3 -34 56 0 -3 34 3453 2727 6 MP stroke
c11
-76 0 -1 -11 78 0 -1 11 3440 2760 5 MP
PP
0 sg
0 0 -76 0 -1 -11 78 0 -1 11 3440 2760 6 MP stroke
c12
-98 0 0 -2 98 0 0 2 3429 2770 5 MP
PP
0 sg
0 0 -98 0 0 -2 98 0 0 2 3429 2770 6 MP stroke
c8
-10 4 -20 -44 13 -5 17 45 3544 2615 5 MP
PP
0 sg
0 0 -10 4 -20 -44 13 -5 17 45 3544 2615 6 MP stroke
c9
-25 11 -44 -91 36 -15 33 95 3555 2663 5 MP
PP
0 sg
0 0 -25 11 -44 -91 36 -15 33 95 3555 2663 6 MP stroke
c10
-55 23 -34 -66 66 -28 23 71 3578 2761 5 MP
PP
0 sg
0 0 -55 23 -34 -66 66 -28 23 71 3578 2761 6 MP stroke
c11
-89 37 -16 -29 96 -39 9 31 3589 2835 5 MP
PP
0 sg
0 0 -89 37 -16 -29 96 -39 9 31 3589 2835 6 MP stroke
c12
-120 50 -7 -11 124 -51 3 12 3585 2870 5 MP
PP
0 sg
0 0 -120 50 -7 -11 124 -51 3 12 3585 2870 6 MP stroke
c8
-7 8 -45 -43 10 -10 42 45 3606 2577 5 MP
PP
0 sg
0 0 -7 8 -45 -43 10 -10 42 45 3606 2577 6 MP stroke
c9
-20 21 -106 -94 33 -32 93 105 3643 2627 5 MP
PP
0 sg
0 0 -20 21 -106 -94 33 -32 93 105 3643 2627 6 MP stroke
c10
-48 49 -105 -88 65 -66 88 105 3728 2740 5 MP
PP
0 sg
0 0 -48 49 -105 -88 65 -66 88 105 3728 2740 6 MP stroke
c11
-87 88 -55 -43 99 -99 43 54 3804 2855 5 MP
PP
0 sg
0 0 -87 88 -55 -43 99 -99 43 54 3804 2855 6 MP stroke
c12
-123 124 -28 -21 131 -130 20 27 3833 2920 5 MP
PP
0 sg
0 0 -123 124 -28 -21 131 -130 20 27 3833 2920 6 MP stroke
c8
-4 10 -190 -72 8 -21 186 83 3648 2518 5 MP
PP
0 sg
0 0 -4 10 -190 -72 8 -21 186 83 3648 2518 6 MP stroke
c9
-17 43 -519 -180 42 -102 494 239 3829 2612 5 MP
PP
0 sg
0 0 -17 43 -519 -180 42 -102 494 239 3829 2612 6 MP stroke
c10
-64 153 -473 -149 97 -234 440 230 4310 2876 5 MP
PP
0 sg
0 0 -64 153 -473 -149 97 -234 440 230 4310 2876 6 MP stroke
c11
-129 312 -225 -63 150 -363 204 114 4730 3143 5 MP
PP
0 sg
0 0 -129 312 -225 -63 150 -363 204 114 4730 3143 6 MP stroke
c12
-188 452 -94 -24 198 -479 84 51 4909 3299 5 MP
PP
0 sg
0 0 -188 452 -94 -24 198 -479 84 51 4909 3299 6 MP stroke
gr

6 w
%%IncludeResource: font Times-Roman
/Times-Roman /ISOLatin1Encoding 240 FMSR

 858 4568 mt 
( ) s
6039  481 mt 
( ) s
1 sg
0 1417 1121 0 0 -1417 948 4427 4 MP
PP
-1121 0 0 1417 1121 0 0 -1417 948 4427 5 MP stroke
4 w
DO
SO
6 w
0 sg
 948 4427 mt 2069 4427 L
 948 3010 mt 2069 3010 L
 948 4427 mt  948 3010 L
2069 4427 mt 2069 3010 L
 948 4427 mt 2069 4427 L
 948 4427 mt  948 3010 L
 948 4427 mt 2069 4427 L
 948 3010 mt 2069 3010 L
 948 4427 mt  948 3010 L
2069 4427 mt 2069 3010 L
1424 3247 mt 
( 0.1-1) s
gs 948 3010 1122 1418 rc
c8
0 212 365 0 0 -212 1021 3271 4 MP
PP
0 sg
-365 0 0 212 365 0 0 -212 1021 3271 5 MP stroke
gr

1424 3524 mt 
(  1-2) s
gs 948 3010 1122 1418 rc
c9
0 213 365 0 0 -213 1021 3548 4 MP
PP
0 sg
-365 0 0 213 365 0 0 -213 1021 3548 5 MP stroke
gr

1424 3801 mt 
(  2-3) s
gs 948 3010 1122 1418 rc
c10
0 212 365 0 0 -212 1021 3824 4 MP
PP
0 sg
-365 0 0 212 365 0 0 -212 1021 3824 5 MP stroke
gr

1424 4078 mt 
(  3-4) s
gs 948 3010 1122 1418 rc
c11
0 213 365 0 0 -213 1021 4101 4 MP
PP
0 sg
-365 0 0 213 365 0 0 -213 1021 4101 5 MP stroke
gr

1424 4355 mt 
(  >4) s
gs 948 3010 1122 1418 rc
c12
0 212 365 0 0 -212 1021 4377 4 MP
PP
0 sg
-365 0 0 212 365 0 0 -212 1021 4377 5 MP stroke
gr


end %%Color Dict

eplot
%%EndObject

epage
end

showpage

%%Trailer
%%EOF
