%!PS-Adobe-3.0 EPSF-3.0
%%Creator: MATLAB, The MathWorks, Inc. Version 8.1.0.604 (R2013a). Operating System: Darwin 12.5.0 Darwin Kernel Version 12.5.0: Sun Sep 29 13:33:47 PDT 2013; root:xnu-2050.48.12~1/RELEASE_X86_64 x86_64.
%%Title: /Users/bamdadhosseini/Work/Courses/apma990-machinelearning/DATA/wind_Oct_Dec_rose.eps
%%CreationDate: 01/09/2015  14:03:23
%%DocumentNeededFonts: Times-Roman
%%DocumentProcessColors: Cyan Magenta Yellow Black
%%LanguageLevel: 2
%%Pages: 1
%%BoundingBox:    25   185   585   605
%%EndComments

%%BeginProlog
% MathWorks dictionary
/MathWorks 160 dict begin
% definition operators
/bdef {bind def} bind def
/ldef {load def} bind def
/xdef {exch def} bdef
/xstore {exch store} bdef
% operator abbreviations
/c  /clip ldef
/cc /concat ldef
/cp /closepath ldef
/gr /grestore ldef
/gs /gsave ldef
/mt /moveto ldef
/np /newpath ldef
/cm /currentmatrix ldef
/sm /setmatrix ldef
/rm /rmoveto ldef
/rl /rlineto ldef
/s {show newpath} bdef
/sc {setcmykcolor} bdef
/sr /setrgbcolor ldef
/sg /setgray ldef
/w /setlinewidth ldef
/j /setlinejoin ldef
/cap /setlinecap ldef
/rc {rectclip} bdef
/rf {rectfill} bdef
% page state control
/pgsv () def
/bpage {/pgsv save def} bdef
/epage {pgsv restore} bdef
/bplot /gsave ldef
/eplot {stroke grestore} bdef
% orientation switch
/portraitMode 0 def /landscapeMode 1 def /rotateMode 2 def
% coordinate system mappings
/dpi2point 0 def
% font control
/FontSize 0 def
/FMS {/FontSize xstore findfont [FontSize 0 0 FontSize neg 0 0]
  makefont setfont} bdef
/reencode {exch dup where {pop load} {pop StandardEncoding} ifelse
  exch dup 3 1 roll findfont dup length dict begin
  { 1 index /FID ne {def}{pop pop} ifelse } forall
  /Encoding exch def currentdict end definefont pop} bdef
/isroman {findfont /CharStrings get /Agrave known} bdef
/FMSR {3 1 roll 1 index dup isroman {reencode} {pop pop} ifelse
  exch FMS} bdef
/csm {1 dpi2point div -1 dpi2point div scale neg translate
 dup landscapeMode eq {pop -90 rotate}
  {rotateMode eq {90 rotate} if} ifelse} bdef
% line types: solid, dotted, dashed, dotdash
/SO { [] 0 setdash } bdef
/DO { [.5 dpi2point mul 4 dpi2point mul] 0 setdash } bdef
/DA { [6 dpi2point mul] 0 setdash } bdef
/DD { [.5 dpi2point mul 4 dpi2point mul 6 dpi2point mul 4
  dpi2point mul] 0 setdash } bdef
% macros for lines and objects
/L {lineto stroke} bdef
/MP {3 1 roll moveto 1 sub {rlineto} repeat} bdef
/AP {{rlineto} repeat} bdef
/PDlw -1 def
/W {/PDlw currentlinewidth def setlinewidth} def
/PP {closepath eofill} bdef
/DP {closepath stroke} bdef
/MR {4 -2 roll moveto dup  0 exch rlineto exch 0 rlineto
  neg 0 exch rlineto closepath} bdef
/FR {MR stroke} bdef
/PR {MR fill} bdef
/L1i {{currentfile picstr readhexstring pop} image} bdef
/tMatrix matrix def
/MakeOval {newpath tMatrix currentmatrix pop translate scale
0 0 1 0 360 arc tMatrix setmatrix} bdef
/FO {MakeOval stroke} bdef
/PO {MakeOval fill} bdef
/PD {currentlinewidth 2 div 0 360 arc fill
   PDlw -1 eq not {PDlw w /PDlw -1 def} if} def
/FA {newpath tMatrix currentmatrix pop translate scale
  0 0 1 5 -2 roll arc tMatrix setmatrix stroke} bdef
/PA {newpath tMatrix currentmatrix pop	translate 0 0 moveto scale
  0 0 1 5 -2 roll arc closepath tMatrix setmatrix fill} bdef
/FAn {newpath tMatrix currentmatrix pop translate scale
  0 0 1 5 -2 roll arcn tMatrix setmatrix stroke} bdef
/PAn {newpath tMatrix currentmatrix pop translate 0 0 moveto scale
  0 0 1 5 -2 roll arcn closepath tMatrix setmatrix fill} bdef
/vradius 0 def /hradius 0 def /lry 0 def
/lrx 0 def /uly 0 def /ulx 0 def /rad 0 def
/MRR {/vradius xdef /hradius xdef /lry xdef /lrx xdef /uly xdef
  /ulx xdef newpath tMatrix currentmatrix pop ulx hradius add uly
  vradius add translate hradius vradius scale 0 0 1 180 270 arc 
  tMatrix setmatrix lrx hradius sub uly vradius add translate
  hradius vradius scale 0 0 1 270 360 arc tMatrix setmatrix
  lrx hradius sub lry vradius sub translate hradius vradius scale
  0 0 1 0 90 arc tMatrix setmatrix ulx hradius add lry vradius sub
  translate hradius vradius scale 0 0 1 90 180 arc tMatrix setmatrix
  closepath} bdef
/FRR {MRR stroke } bdef
/PRR {MRR fill } bdef
/MlrRR {/lry xdef /lrx xdef /uly xdef /ulx xdef /rad lry uly sub 2 div def
  newpath tMatrix currentmatrix pop ulx rad add uly rad add translate
  rad rad scale 0 0 1 90 270 arc tMatrix setmatrix lrx rad sub lry rad
  sub translate rad rad scale 0 0 1 270 90 arc tMatrix setmatrix
  closepath} bdef
/FlrRR {MlrRR stroke } bdef
/PlrRR {MlrRR fill } bdef
/MtbRR {/lry xdef /lrx xdef /uly xdef /ulx xdef /rad lrx ulx sub 2 div def
  newpath tMatrix currentmatrix pop ulx rad add uly rad add translate
  rad rad scale 0 0 1 180 360 arc tMatrix setmatrix lrx rad sub lry rad
  sub translate rad rad scale 0 0 1 0 180 arc tMatrix setmatrix
  closepath} bdef
/FtbRR {MtbRR stroke } bdef
/PtbRR {MtbRR fill } bdef
/stri 6 array def /dtri 6 array def
/smat 6 array def /dmat 6 array def
/tmat1 6 array def /tmat2 6 array def /dif 3 array def
/asub {/ind2 exch def /ind1 exch def dup dup
  ind1 get exch ind2 get sub exch } bdef
/tri_to_matrix {
  2 0 asub 3 1 asub 4 0 asub 5 1 asub
  dup 0 get exch 1 get 7 -1 roll astore } bdef
/compute_transform {
  dmat dtri tri_to_matrix tmat1 invertmatrix 
  smat stri tri_to_matrix tmat2 concatmatrix } bdef
/ds {stri astore pop} bdef
/dt {dtri astore pop} bdef
/db {2 copy /cols xdef /rows xdef mul dup 3 mul string
  currentfile 
  3 index 0 eq {/ASCIIHexDecode filter}
  {/ASCII85Decode filter 3 index 2 eq {/RunLengthDecode filter} if }
  ifelse exch readstring pop
  dup 0 3 index getinterval /rbmap xdef
  dup 2 index dup getinterval /gbmap xdef
  1 index dup 2 mul exch getinterval /bbmap xdef pop pop}bdef
/it {gs np dtri aload pop moveto lineto lineto cp c
  cols rows 8 compute_transform 
  rbmap gbmap bbmap true 3 colorimage gr}bdef
/il {newpath moveto lineto stroke}bdef
currentdict end def
%%EndProlog

%%BeginSetup
MathWorks begin

0 cap

end
%%EndSetup

%%Page: 1 1
%%BeginPageSetup
%%PageBoundingBox:    25   185   585   605
MathWorks begin
bpage
%%EndPageSetup

%%BeginObject: obj1
bplot

/dpi2point 12 def
portraitMode 0300 7260 csm

    0     0  6721  5039 rc
90 dict begin %Colortable dictionary
/c0 { 0.000000 0.000000 0.000000 sr} bdef
/c1 { 1.000000 1.000000 1.000000 sr} bdef
/c2 { 0.900000 0.000000 0.000000 sr} bdef
/c3 { 0.000000 0.820000 0.000000 sr} bdef
/c4 { 0.000000 0.000000 0.800000 sr} bdef
/c5 { 0.910000 0.820000 0.320000 sr} bdef
/c6 { 1.000000 0.260000 0.820000 sr} bdef
/c7 { 0.000000 0.820000 0.820000 sr} bdef
c0
1 j
1 sg
   0    0 6722 5040 rf
6 w
gs 888 399 5181 4087 rc
DO
2.4 w
0 sg
1 -29 1 -29 2 -29 4 -29 4 -29 5 -29 6 -28 7 -28 
7 -29 9 -27 9 -28 11 -27 11 -27 12 -27 13 -26 13 -26 
15 -25 15 -25 16 -24 17 -24 17 -24 18 -22 19 -23 20 -21 
20 -21 21 -20 22 -20 22 -19 23 -18 23 -18 24 -17 24 -16 
25 -15 26 -14 25 -14 27 -13 26 -12 27 -11 27 -10 28 -10 
28 -8 28 -8 28 -7 29 -6 29 -5 29 -4 29 -3 29 -2 
29 -2 29 0 29 0 29 2 29 2 29 3 29 4 29 5 
29 6 28 7 28 8 28 8 28 10 27 10 27 11 26 12 
27 13 25 14 26 14 25 15 24 16 24 17 23 18 23 18 
22 19 22 20 21 20 20 21 20 21 19 23 18 22 17 24 
17 24 16 24 15 25 15 25 13 26 13 26 12 27 11 27 
11 27 9 28 9 27 7 29 7 28 6 28 5 29 4 29 
4 29 2 29 1 29 1 29 -1 30 -1 29 -2 29 -4 29 
-4 29 -5 29 -6 28 -7 28 -7 29 -9 27 -9 28 -11 27 
-11 27 -12 27 -13 26 -13 26 -15 25 -15 25 -16 24 -17 24 
-17 24 -18 22 -19 23 -20 21 -20 21 -21 20 -22 20 -22 19 
-23 18 -23 18 -24 17 -24 16 -25 15 -26 14 -25 14 -27 13 
-26 12 -27 11 -27 10 -28 10 -28 8 -28 8 -28 7 -29 6 
-29 5 -29 4 -29 3 -29 2 -29 2 -29 0 -29 0 -29 -2 
-29 -2 -29 -3 -29 -4 -29 -5 -29 -6 -28 -7 -28 -8 -28 -8 
-28 -10 -27 -10 -27 -11 -26 -12 -27 -13 -25 -14 -26 -14 -25 -15 
-24 -16 -24 -17 -23 -18 -23 -18 -22 -19 -22 -20 -21 -20 -20 -21 
-20 -21 -19 -23 -18 -22 -17 -24 -17 -24 -16 -24 -15 -25 -15 -25 
-13 -26 -13 -26 -12 -27 -11 -27 -11 -27 -9 -28 -9 -27 -7 -29 
-7 -28 -6 -28 -5 -29 -4 -29 -4 -29 -2 -29 -1 -29 -1 -30 
4407 2442 201 MP stroke
1 -58 2 -58 5 -58 6 -58 9 -58 10 -58 11 -57 14 -56 
15 -57 18 -55 19 -56 20 -54 22 -54 24 -53 26 -53 27 -51 
29 -51 31 -50 32 -48 33 -48 35 -47 37 -45 38 -45 39 -43 
41 -42 42 -40 43 -40 44 -38 46 -36 46 -35 48 -34 49 -32 
50 -30 50 -29 52 -27 52 -26 53 -24 54 -22 55 -21 55 -19 
56 -17 56 -15 57 -14 57 -12 57 -10 58 -8 58 -7 58 -4 
59 -3 58 -1 58 1 59 3 58 4 58 7 58 8 57 10 
57 12 57 14 56 15 56 17 55 19 55 21 54 22 53 24 
52 26 52 27 50 29 50 30 49 32 48 34 46 35 46 36 
44 38 43 40 42 40 41 42 39 43 38 45 37 45 35 47 
33 48 32 48 31 50 29 51 27 51 26 53 24 53 22 54 
20 54 19 56 18 55 15 57 14 56 11 57 10 58 9 58 
6 58 5 58 2 58 1 58 -1 59 -2 58 -5 58 -6 58 
-9 58 -10 58 -11 57 -14 56 -15 57 -18 55 -19 56 -20 54 
-22 54 -24 53 -26 53 -27 51 -29 51 -31 50 -32 48 -33 48 
-35 47 -37 45 -38 45 -39 43 -41 42 -42 40 -43 40 -44 38 
-46 36 -46 35 -48 34 -49 32 -50 30 -50 29 -52 27 -52 26 
-53 24 -54 22 -55 21 -55 19 -56 17 -56 15 -57 14 -57 12 
-57 10 -58 8 -58 7 -58 4 -59 3 -58 1 -58 -1 -59 -3 
-58 -4 -58 -7 -58 -8 -57 -10 -57 -12 -57 -14 -56 -15 -56 -17 
-55 -19 -55 -21 -54 -22 -53 -24 -52 -26 -52 -27 -50 -29 -50 -30 
-49 -32 -48 -34 -46 -35 -46 -36 -44 -38 -43 -40 -42 -40 -41 -42 
-39 -43 -38 -45 -37 -45 -35 -47 -33 -48 -32 -48 -31 -50 -29 -51 
-27 -51 -26 -53 -24 -53 -22 -54 -20 -54 -19 -56 -18 -55 -15 -57 
-14 -56 -11 -57 -10 -58 -9 -58 -6 -58 -5 -58 -2 -58 -1 -59 
5335 2442 201 MP stroke
SO
1803 0 1435 2442 2 MP stroke
1803 0 3718 2442 2 MP stroke
0 -1803 3478 4485 2 MP stroke
0 -1802 3478 2201 2 MP stroke
gr

2.4 w
0 sg
%%IncludeResource: font Times-Roman
/Times-Roman /ISOLatin1Encoding 240 FMSR

3404  388 mt 
(N) s
3404 4752 mt 
(S) s
1119 2579 mt 
(W) s
5614 2579 mt 
(E) s
%%IncludeResource: font Times-Roman
/Times-Roman /ISOLatin1Encoding 192 FMSR

5150 2693 mt 
(20%) s
4221  836 mt 
(Max. wind=5.909 m/s) s
%%IncludeResource: font Times-Roman
/Times-Roman /ISOLatin1Encoding 240 FMSR

2491  215 mt 
(Oct25-Nov26, 2002) s
gs 888 399 5181 4087 rc
0 -15 1 -7 0 -8 1 -7 2 -8 1 -7 2 -7 2 -8 
2 -7 3 -7 2 -7 3 -7 3 -7 4 -7 3 -6 4 -7 
4 -6 4 -7 4 -6 5 -6 5 -6 5 -6 5 -5 5 -6 
5 -5 6 -5 6 -5 6 -5 6 -4 6 -4 6 -5 7 -3 
6 -4 7 -4 7 -3 6 -3 7 -3 8 -3 7 -2 7 -2 
7 -2 8 -2 7 -2 7 -1 8 -1 7 -1 8 0 7 -1 
8 0 8 0 7 1 8 0 7 1 8 1 7 1 7 2 
8 2 7 2 7 2 7 2 8 3 7 3 6 3 7 3 
7 4 6 4 7 3 6 5 6 4 6 4 6 5 6 5 
6 5 5 5 5 6 5 5 5 6 5 6 5 6 4 6 
4 7 4 6 4 7 3 6 4 7 3 7 3 7 2 7 
3 7 2 7 2 8 2 7 1 7 2 8 1 7 0 8 
1 7 0 31 -1 7 0 8 -1 7 -2 8 -1 7 -2 7 
-2 8 -2 7 -3 7 -2 7 -3 7 -3 7 -4 7 -3 6 
-4 7 -4 6 -4 7 -4 6 -5 6 -5 6 -5 6 -5 5 
-5 6 -5 5 -6 5 -6 5 -6 5 -6 4 -6 4 -6 5 
-7 3 -6 4 -7 4 -7 3 -6 3 -7 3 -8 3 -7 2 
-7 2 -7 2 -8 2 -7 2 -7 1 -8 1 -7 1 -8 0 
-7 1 -8 0 -8 0 -7 -1 -8 0 -7 -1 -8 -1 -7 -1 
-7 -2 -8 -2 -7 -2 -7 -2 -7 -2 -8 -3 -7 -3 -6 -3 
-7 -3 -7 -4 -6 -4 -7 -3 -6 -5 -6 -4 -6 -4 -6 -5 
-6 -5 -6 -5 -5 -5 -5 -6 -5 -5 -5 -6 -5 -6 -5 -6 
-4 -6 -4 -7 -4 -6 -4 -7 -3 -6 -4 -7 -3 -7 -3 -7 
-2 -7 -3 -7 -2 -7 -2 -8 -2 -7 -1 -7 -2 -8 -1 -7 
0 -8 -1 -7 0 -16 3718 2442 196 MP stroke
gr

%%IncludeResource: font Times-Roman
/Times-Roman /ISOLatin1Encoding 168 FMSR

3329 2554 mt 
(23%) s
gs 888 399 5181 4087 rc
/c8 { 1.000000 0.187500 0.000000 sr} bdef
c8
0 15 0 0 0 -15 0 0 3718 2449 5 MP
PP
6 w
0 sg
0 0 0 15 0 0 0 -15 0 0 3718 2449 6 MP stroke
/c9 { 1.000000 0.562500 0.000000 sr} bdef
c9
0 29 0 0 0 -29 0 0 3718 2456 5 MP
PP
0 sg
0 0 0 29 0 0 0 -29 0 0 3718 2456 6 MP stroke
/c10 { 1.000000 0.937500 0.000000 sr} bdef
c10
0 43 0 0 0 -43 0 0 3718 2463 5 MP
PP
0 sg
0 0 0 43 0 0 0 -43 0 0 3718 2463 6 MP stroke
/c11 { 0.687500 1.000000 0.312500 sr} bdef
c11
0 57 0 0 0 -57 0 0 3717 2470 5 MP
PP
0 sg
0 0 0 57 0 0 0 -57 0 0 3717 2470 6 MP stroke
/c12 { 0.312500 1.000000 0.687500 sr} bdef
c12
0 71 0 0 0 -71 0 0 3716 2477 5 MP
PP
0 sg
0 0 0 71 0 0 0 -71 0 0 3716 2477 6 MP stroke
c8
6 13 -15 7 -6 -14 15 -6 3703 2356 5 MP
PP
0 sg
0 0 6 13 -15 7 -6 -14 15 -6 3703 2356 6 MP stroke
c9
11 27 -29 15 -13 -32 31 -10 3720 2357 5 MP
PP
0 sg
0 0 11 27 -29 15 -13 -32 31 -10 3720 2357 6 MP stroke
c10
20 47 0 0 -20 -47 0 0 3754 2355 5 MP
PP
0 sg
0 0 20 47 0 0 -20 -47 0 0 3754 2355 6 MP stroke
c11
26 63 0 0 -26 -63 0 0 3756 2363 5 MP
PP
0 sg
0 0 26 63 0 0 -26 -63 0 0 3756 2363 6 MP stroke
c12
32 78 0 0 -32 -78 0 0 3758 2371 5 MP
PP
0 sg
0 0 32 78 0 0 -32 -78 0 0 3758 2371 6 MP stroke
c8
10 10 -30 33 -12 -12 32 -31 3653 2277 5 MP
PP
0 sg
0 0 10 10 -30 33 -12 -12 32 -31 3653 2277 6 MP stroke
c9
24 23 -4 5 -24 -24 4 -4 3691 2252 5 MP
PP
0 sg
0 0 24 23 -4 5 -24 -24 4 -4 3691 2252 6 MP stroke
c10
36 37 0 0 -36 -37 0 0 3701 2255 5 MP
PP
0 sg
0 0 36 37 0 0 -36 -37 0 0 3701 2255 6 MP stroke
c11
48 48 0 0 -48 -48 0 0 3706 2261 5 MP
PP
0 sg
0 0 48 48 0 0 -48 -48 0 0 3706 2261 6 MP stroke
c12
61 60 0 0 -61 -60 0 0 3712 2268 5 MP
PP
0 sg
0 0 61 60 0 0 -61 -60 0 0 3712 2268 6 MP stroke
c8
14 5 -16 42 -16 -7 18 -40 3577 2222 5 MP
PP
0 sg
0 0 14 5 -16 42 -16 -7 18 -40 3577 2222 6 MP stroke
c9
31 13 -4 9 -32 -13 5 -9 3602 2185 5 MP
PP
0 sg
0 0 31 13 -4 9 -32 -13 5 -9 3602 2185 6 MP stroke
c10
48 20 0 0 -48 -20 0 0 3614 2180 5 MP
PP
0 sg
0 0 48 20 0 0 -48 -20 0 0 3614 2180 6 MP stroke
c11
64 26 -1 4 -65 -27 2 -3 3622 2184 5 MP
PP
0 sg
0 0 64 26 -1 4 -65 -27 2 -3 3622 2184 6 MP stroke
c12
81 33 0 0 -81 -33 0 0 3632 2185 5 MP
PP
0 sg
0 0 81 33 0 0 -81 -33 0 0 3632 2185 6 MP stroke
c8
14 0 5 177 -24 0 5 -177 3485 2201 5 MP
PP
0 sg
0 0 14 0 5 177 -24 0 5 -177 3485 2201 6 MP stroke
c9
50 0 11 195 -72 0 11 -195 3503 2024 5 MP
PP
0 sg
0 0 50 0 11 195 -72 0 11 -195 3503 2024 6 MP stroke
c10
108 0 10 115 -128 0 10 -115 3532 1831 5 MP
PP
0 sg
0 0 108 0 10 115 -128 0 10 -115 3532 1831 6 MP stroke
c11
172 0 3 32 -178 0 3 -32 3564 1718 5 MP
PP
0 sg
0 0 172 0 3 32 -178 0 3 -32 3564 1718 6 MP stroke
c12
224 0 0 4 -224 0 0 -4 3590 1689 5 MP
PP
0 sg
0 0 224 0 0 4 -224 0 0 -4 3590 1689 6 MP stroke
c8
14 -5 270 603 -49 20 -235 -618 3393 2217 5 MP
PP
0 sg
0 0 14 -5 270 603 -49 20 -235 -618 3393 2217 6 MP stroke
c9
98 -40 251 516 -160 67 -189 -543 3183 1590 5 MP
PP
0 sg
0 0 98 -40 251 516 -160 67 -189 -543 3183 1590 6 MP stroke
c10
241 -100 129 246 -286 119 -84 -265 3036 1033 5 MP
PP
0 sg
0 0 241 -100 129 246 -286 119 -84 -265 3036 1033 6 MP stroke
c11
381 -158 20 35 -390 161 -11 -38 3002 753 5 MP
PP
0 sg
0 0 381 -158 20 35 -390 161 -11 -38 3002 753 6 MP stroke
c12
486 -202 1 2 -487 202 0 -2 3042 701 5 MP
PP
0 sg
0 0 486 -202 1 2 -487 202 0 -2 3042 701 6 MP stroke
c8
10 -10 331 313 -29 29 -312 -332 3313 2267 5 MP
PP
0 sg
0 0 10 -10 331 313 -29 29 -312 -332 3313 2267 6 MP stroke
c9
58 -58 247 219 -85 86 -220 -247 3016 1921 5 MP
PP
0 sg
0 0 58 -58 247 219 -85 86 -220 -247 3016 1921 6 MP stroke
c10
128 -129 131 110 -149 150 -110 -131 2819 1654 5 MP
PP
0 sg
0 0 128 -129 131 110 -149 150 -110 -131 2819 1654 6 MP stroke
c11
199 -199 23 19 -204 204 -18 -24 2736 1501 5 MP
PP
0 sg
0 0 199 -199 23 19 -204 204 -18 -24 2736 1501 6 MP stroke
c12
255 -255 2 1 -255 255 -2 -1 2747 1455 5 MP
PP
0 sg
0 0 255 -255 2 1 -255 255 -2 -1 2747 1455 6 MP stroke
c8
6 -13 256 97 -12 28 -250 -112 3259 2343 5 MP
PP
0 sg
0 0 6 -13 256 97 -12 28 -250 -112 3259 2343 6 MP stroke
c9
23 -56 40 14 -25 61 -38 -19 3015 2217 5 MP
PP
0 sg
0 0 23 -56 40 14 -25 61 -38 -19 3015 2217 6 MP stroke
c10
37 -91 6 2 -38 92 -5 -3 2984 2184 5 MP
PP
0 sg
0 0 37 -91 6 2 -38 92 -5 -3 2984 2184 6 MP stroke
c11
51 -123 0 0 -51 123 0 0 2987 2166 5 MP
PP
0 sg
0 0 51 -123 0 0 -51 123 0 0 2987 2166 6 MP stroke
c12
63 -153 0 0 -63 153 0 0 2995 2152 5 MP
PP
0 sg
0 0 63 -153 0 0 -63 153 0 0 2995 2152 6 MP stroke
c8
0 -15 49 -1 0 17 -49 -1 3238 2434 5 MP
PP
0 sg
0 0 0 -15 49 -1 0 17 -49 -1 3238 2434 6 MP stroke
c9
0 -35 2 0 0 35 -2 0 3190 2424 5 MP
PP
0 sg
0 0 0 -35 2 0 0 35 -2 0 3190 2424 6 MP stroke
c10
0 -51 0 0 0 51 0 0 3188 2416 5 MP
PP
0 sg
0 0 0 -51 0 0 0 51 0 0 3188 2416 6 MP stroke
c11
0 -69 2 0 0 69 -2 0 3189 2407 5 MP
PP
0 sg
0 0 0 -69 2 0 0 69 -2 0 3189 2407 6 MP stroke
c12
0 -85 0 0 0 85 0 0 3188 2399 5 MP
PP
0 sg
0 0 0 -85 0 0 0 85 0 0 3188 2399 6 MP stroke
c8
-6 -13 22 -10 6 14 -22 9 3253 2527 5 MP
PP
0 sg
0 0 -6 -13 22 -10 6 14 -22 9 3253 2527 6 MP stroke
c9
-12 -29 4 -2 12 29 -4 2 3228 2528 5 MP
PP
0 sg
0 0 -12 -29 4 -2 12 29 -4 2 3228 2528 6 MP stroke
c10
-18 -44 0 0 18 44 0 0 3222 2522 5 MP
PP
0 sg
0 0 -18 -44 0 0 18 44 0 0 3222 2522 6 MP stroke
c11
-25 -59 0 0 25 59 0 0 3219 2514 5 MP
PP
0 sg
0 0 -25 -59 0 0 25 59 0 0 3219 2514 6 MP stroke
c12
-31 -73 0 0 31 73 0 0 3217 2507 5 MP
PP
0 sg
0 0 -31 -73 0 0 31 73 0 0 3217 2507 6 MP stroke
c8
-10 -10 32 -34 12 12 -34 32 3303 2606 5 MP
PP
0 sg
0 0 -10 -10 32 -34 12 12 -34 32 3303 2606 6 MP stroke
c9
-23 -24 8 -9 24 25 -9 8 3264 2632 5 MP
PP
0 sg
0 0 -23 -24 8 -9 24 25 -9 8 3264 2632 6 MP stroke
c10
-37 -38 0 0 37 38 0 0 3249 2633 5 MP
PP
0 sg
0 0 -37 -38 0 0 37 38 0 0 3249 2633 6 MP stroke
c11
-50 -49 0 0 50 49 0 0 3243 2627 5 MP
PP
0 sg
0 0 -50 -49 0 0 50 49 0 0 3243 2627 6 MP stroke
c12
-62 -62 0 0 62 62 0 0 3238 2620 5 MP
PP
0 sg
0 0 -62 -62 0 0 62 62 0 0 3238 2620 6 MP stroke
c8
-14 -5 27 -70 17 7 -30 68 3379 2661 5 MP
PP
0 sg
0 0 -14 -5 27 -70 17 7 -30 68 3379 2661 6 MP stroke
c9
-34 -14 5 -13 36 14 -7 13 3341 2725 5 MP
PP
0 sg
0 0 -34 -14 5 -13 36 14 -7 13 3341 2725 6 MP stroke
c10
-53 -23 0 0 53 23 0 0 3326 2733 5 MP
PP
0 sg
0 0 -53 -23 0 0 53 23 0 0 3326 2733 6 MP stroke
c11
-72 -29 1 -2 72 30 -1 1 3317 2729 5 MP
PP
0 sg
0 0 -72 -29 1 -2 72 30 -1 1 3317 2729 6 MP stroke
c12
-90 -37 0 0 90 37 0 0 3308 2726 5 MP
PP
0 sg
0 0 -90 -37 0 0 90 37 0 0 3308 2726 6 MP stroke
c8
-14 0 -16 -532 46 0 -16 532 3471 2682 5 MP
PP
0 sg
0 0 -14 0 -16 -532 46 0 -16 532 3471 2682 6 MP stroke
c9
-90 0 -14 -233 118 0 -14 233 3433 3213 5 MP
PP
0 sg
0 0 -90 0 -14 -233 118 0 -14 233 3433 3213 6 MP stroke
c10
-178 0 -13 -148 204 0 -13 148 3389 3444 5 MP
PP
0 sg
0 0 -178 0 -13 -148 204 0 -13 148 3389 3444 6 MP stroke
c11
-272 0 -11 -98 294 0 -11 98 3342 3589 5 MP
PP
0 sg
0 0 -272 0 -11 -98 294 0 -11 98 3342 3589 6 MP stroke
c12
-368 0 -8 -56 384 0 -8 56 3294 3682 5 MP
PP
0 sg
0 0 -368 0 -8 -56 384 0 -8 56 3294 3682 6 MP stroke
c8
-14 5 -369 -822 62 -25 321 842 3563 2666 5 MP
PP
0 sg
0 0 -14 5 -369 -822 62 -25 321 842 3563 2666 6 MP stroke
c9
-124 52 -196 -405 173 -71 147 424 3852 3520 5 MP
PP
0 sg
0 0 -124 52 -196 -405 173 -71 147 424 3852 3520 6 MP stroke
c10
-259 107 -121 -232 302 -125 78 250 3955 3959 5 MP
PP
0 sg
0 0 -259 107 -121 -232 302 -125 78 250 3955 3959 6 MP stroke
c11
-402 167 -84 -149 440 -182 46 164 3981 4225 5 MP
PP
0 sg
0 0 -402 167 -84 -149 440 -182 46 164 3981 4225 6 MP stroke
c12
-549 227 -20 -34 559 -232 10 39 3970 4405 5 MP
PP
0 sg
0 0 -549 227 -20 -34 559 -232 10 39 3970 4405 6 MP stroke
c8
-10 10 -260 -245 25 -25 245 260 3643 2616 5 MP
PP
0 sg
0 0 -10 10 -260 -245 25 -25 245 260 3643 2616 6 MP stroke
c9
-49 50 -65 -58 57 -57 57 65 3875 2888 5 MP
PP
0 sg
0 0 -49 50 -65 -58 57 -57 57 65 3875 2888 6 MP stroke
c10
-85 86 -8 -7 87 -87 6 8 3917 2966 5 MP
PP
0 sg
0 0 -85 86 -8 -7 87 -87 6 8 3917 2966 6 MP stroke
c11
-115 115 -2 -1 116 -116 1 2 3908 2986 5 MP
PP
0 sg
0 0 -115 115 -2 -1 116 -116 1 2 3908 2986 6 MP stroke
c12
-144 144 0 0 144 -144 0 0 3893 3000 5 MP
PP
0 sg
0 0 -144 144 0 0 144 -144 0 0 3893 3000 6 MP stroke
c8
-6 13 -36 -14 7 -15 35 16 3697 2540 5 MP
PP
0 sg
0 0 -6 13 -36 -14 7 -15 35 16 3697 2540 6 MP stroke
c9
-12 30 -4 -1 13 -31 3 2 3729 2563 5 MP
PP
0 sg
0 0 -12 30 -4 -1 13 -31 3 2 3729 2563 6 MP stroke
c10
-19 46 -4 -1 20 -47 3 2 3729 2572 5 MP
PP
0 sg
0 0 -19 46 -4 -1 20 -47 3 2 3729 2572 6 MP stroke
c11
-26 63 0 0 26 -63 0 0 3728 2582 5 MP
PP
0 sg
0 0 -26 63 0 0 26 -63 0 0 3728 2582 6 MP stroke
c12
-32 78 0 0 32 -78 0 0 3724 2589 5 MP
PP
0 sg
0 0 -32 78 0 0 32 -78 0 0 3724 2589 6 MP stroke
gr

6 w
%%IncludeResource: font Times-Roman
/Times-Roman /ISOLatin1Encoding 240 FMSR

 858 4568 mt 
( ) s
6039  481 mt 
( ) s
1 sg
0 1417 1121 0 0 -1417 948 4427 4 MP
PP
-1121 0 0 1417 1121 0 0 -1417 948 4427 5 MP stroke
4 w
DO
SO
6 w
0 sg
 948 4427 mt 2069 4427 L
 948 3010 mt 2069 3010 L
 948 4427 mt  948 3010 L
2069 4427 mt 2069 3010 L
 948 4427 mt 2069 4427 L
 948 4427 mt  948 3010 L
 948 4427 mt 2069 4427 L
 948 3010 mt 2069 3010 L
 948 4427 mt  948 3010 L
2069 4427 mt 2069 3010 L
1424 3247 mt 
( 0.1-1) s
gs 948 3010 1122 1418 rc
c8
0 212 365 0 0 -212 1021 3271 4 MP
PP
0 sg
-365 0 0 212 365 0 0 -212 1021 3271 5 MP stroke
gr

1424 3524 mt 
(  1-3) s
gs 948 3010 1122 1418 rc
c9
0 213 365 0 0 -213 1021 3548 4 MP
PP
0 sg
-365 0 0 213 365 0 0 -213 1021 3548 5 MP stroke
gr

1424 3801 mt 
(  2-3) s
gs 948 3010 1122 1418 rc
c10
0 212 365 0 0 -212 1021 3824 4 MP
PP
0 sg
-365 0 0 212 365 0 0 -212 1021 3824 5 MP stroke
gr

1424 4078 mt 
(  3-4) s
gs 948 3010 1122 1418 rc
c11
0 213 365 0 0 -213 1021 4101 4 MP
PP
0 sg
-365 0 0 213 365 0 0 -213 1021 4101 5 MP stroke
gr

1424 4355 mt 
(  >4) s
gs 948 3010 1122 1418 rc
c12
0 212 365 0 0 -212 1021 4377 4 MP
PP
0 sg
-365 0 0 212 365 0 0 -212 1021 4377 5 MP stroke
gr


end %%Color Dict

eplot
%%EndObject

epage
end

showpage

%%Trailer
%%EOF
