%!PS-Adobe-3.0 EPSF-3.0
%%Creator: MATLAB, The MathWorks, Inc. Version 8.1.0.604 (R2013a). Operating System: Darwin 12.5.0 Darwin Kernel Version 12.5.0: Sun Sep 29 13:33:47 PDT 2013; root:xnu-2050.48.12~1/RELEASE_X86_64 x86_64.
%%Title: /Users/bamdadhosseini/Work/Courses/apma990-machinelearning/DATA/wind_Oct_Dec_hist.eps
%%CreationDate: 01/09/2015  14:04:52
%%DocumentNeededFonts: Times-Roman
%%DocumentProcessColors: Cyan Magenta Yellow Black
%%LanguageLevel: 2
%%Pages: 1
%%BoundingBox:    61   247   550   546
%%EndComments

%%BeginProlog
% MathWorks dictionary
/MathWorks 160 dict begin
% definition operators
/bdef {bind def} bind def
/ldef {load def} bind def
/xdef {exch def} bdef
/xstore {exch store} bdef
% operator abbreviations
/c  /clip ldef
/cc /concat ldef
/cp /closepath ldef
/gr /grestore ldef
/gs /gsave ldef
/mt /moveto ldef
/np /newpath ldef
/cm /currentmatrix ldef
/sm /setmatrix ldef
/rm /rmoveto ldef
/rl /rlineto ldef
/s {show newpath} bdef
/sc {setcmykcolor} bdef
/sr /setrgbcolor ldef
/sg /setgray ldef
/w /setlinewidth ldef
/j /setlinejoin ldef
/cap /setlinecap ldef
/rc {rectclip} bdef
/rf {rectfill} bdef
% page state control
/pgsv () def
/bpage {/pgsv save def} bdef
/epage {pgsv restore} bdef
/bplot /gsave ldef
/eplot {stroke grestore} bdef
% orientation switch
/portraitMode 0 def /landscapeMode 1 def /rotateMode 2 def
% coordinate system mappings
/dpi2point 0 def
% font control
/FontSize 0 def
/FMS {/FontSize xstore findfont [FontSize 0 0 FontSize neg 0 0]
  makefont setfont} bdef
/reencode {exch dup where {pop load} {pop StandardEncoding} ifelse
  exch dup 3 1 roll findfont dup length dict begin
  { 1 index /FID ne {def}{pop pop} ifelse } forall
  /Encoding exch def currentdict end definefont pop} bdef
/isroman {findfont /CharStrings get /Agrave known} bdef
/FMSR {3 1 roll 1 index dup isroman {reencode} {pop pop} ifelse
  exch FMS} bdef
/csm {1 dpi2point div -1 dpi2point div scale neg translate
 dup landscapeMode eq {pop -90 rotate}
  {rotateMode eq {90 rotate} if} ifelse} bdef
% line types: solid, dotted, dashed, dotdash
/SO { [] 0 setdash } bdef
/DO { [.5 dpi2point mul 4 dpi2point mul] 0 setdash } bdef
/DA { [6 dpi2point mul] 0 setdash } bdef
/DD { [.5 dpi2point mul 4 dpi2point mul 6 dpi2point mul 4
  dpi2point mul] 0 setdash } bdef
% macros for lines and objects
/L {lineto stroke} bdef
/MP {3 1 roll moveto 1 sub {rlineto} repeat} bdef
/AP {{rlineto} repeat} bdef
/PDlw -1 def
/W {/PDlw currentlinewidth def setlinewidth} def
/PP {closepath eofill} bdef
/DP {closepath stroke} bdef
/MR {4 -2 roll moveto dup  0 exch rlineto exch 0 rlineto
  neg 0 exch rlineto closepath} bdef
/FR {MR stroke} bdef
/PR {MR fill} bdef
/L1i {{currentfile picstr readhexstring pop} image} bdef
/tMatrix matrix def
/MakeOval {newpath tMatrix currentmatrix pop translate scale
0 0 1 0 360 arc tMatrix setmatrix} bdef
/FO {MakeOval stroke} bdef
/PO {MakeOval fill} bdef
/PD {currentlinewidth 2 div 0 360 arc fill
   PDlw -1 eq not {PDlw w /PDlw -1 def} if} def
/FA {newpath tMatrix currentmatrix pop translate scale
  0 0 1 5 -2 roll arc tMatrix setmatrix stroke} bdef
/PA {newpath tMatrix currentmatrix pop	translate 0 0 moveto scale
  0 0 1 5 -2 roll arc closepath tMatrix setmatrix fill} bdef
/FAn {newpath tMatrix currentmatrix pop translate scale
  0 0 1 5 -2 roll arcn tMatrix setmatrix stroke} bdef
/PAn {newpath tMatrix currentmatrix pop translate 0 0 moveto scale
  0 0 1 5 -2 roll arcn closepath tMatrix setmatrix fill} bdef
/vradius 0 def /hradius 0 def /lry 0 def
/lrx 0 def /uly 0 def /ulx 0 def /rad 0 def
/MRR {/vradius xdef /hradius xdef /lry xdef /lrx xdef /uly xdef
  /ulx xdef newpath tMatrix currentmatrix pop ulx hradius add uly
  vradius add translate hradius vradius scale 0 0 1 180 270 arc 
  tMatrix setmatrix lrx hradius sub uly vradius add translate
  hradius vradius scale 0 0 1 270 360 arc tMatrix setmatrix
  lrx hradius sub lry vradius sub translate hradius vradius scale
  0 0 1 0 90 arc tMatrix setmatrix ulx hradius add lry vradius sub
  translate hradius vradius scale 0 0 1 90 180 arc tMatrix setmatrix
  closepath} bdef
/FRR {MRR stroke } bdef
/PRR {MRR fill } bdef
/MlrRR {/lry xdef /lrx xdef /uly xdef /ulx xdef /rad lry uly sub 2 div def
  newpath tMatrix currentmatrix pop ulx rad add uly rad add translate
  rad rad scale 0 0 1 90 270 arc tMatrix setmatrix lrx rad sub lry rad
  sub translate rad rad scale 0 0 1 270 90 arc tMatrix setmatrix
  closepath} bdef
/FlrRR {MlrRR stroke } bdef
/PlrRR {MlrRR fill } bdef
/MtbRR {/lry xdef /lrx xdef /uly xdef /ulx xdef /rad lrx ulx sub 2 div def
  newpath tMatrix currentmatrix pop ulx rad add uly rad add translate
  rad rad scale 0 0 1 180 360 arc tMatrix setmatrix lrx rad sub lry rad
  sub translate rad rad scale 0 0 1 0 180 arc tMatrix setmatrix
  closepath} bdef
/FtbRR {MtbRR stroke } bdef
/PtbRR {MtbRR fill } bdef
/stri 6 array def /dtri 6 array def
/smat 6 array def /dmat 6 array def
/tmat1 6 array def /tmat2 6 array def /dif 3 array def
/asub {/ind2 exch def /ind1 exch def dup dup
  ind1 get exch ind2 get sub exch } bdef
/tri_to_matrix {
  2 0 asub 3 1 asub 4 0 asub 5 1 asub
  dup 0 get exch 1 get 7 -1 roll astore } bdef
/compute_transform {
  dmat dtri tri_to_matrix tmat1 invertmatrix 
  smat stri tri_to_matrix tmat2 concatmatrix } bdef
/ds {stri astore pop} bdef
/dt {dtri astore pop} bdef
/db {2 copy /cols xdef /rows xdef mul dup 3 mul string
  currentfile 
  3 index 0 eq {/ASCIIHexDecode filter}
  {/ASCII85Decode filter 3 index 2 eq {/RunLengthDecode filter} if }
  ifelse exch readstring pop
  dup 0 3 index getinterval /rbmap xdef
  dup 2 index dup getinterval /gbmap xdef
  1 index dup 2 mul exch getinterval /bbmap xdef pop pop}bdef
/it {gs np dtri aload pop moveto lineto lineto cp c
  cols rows 8 compute_transform 
  rbmap gbmap bbmap true 3 colorimage gr}bdef
/il {newpath moveto lineto stroke}bdef
currentdict end def
%%EndProlog

%%BeginSetup
MathWorks begin

0 cap

end
%%EndSetup

%%Page: 1 1
%%BeginPageSetup
%%PageBoundingBox:    61   247   550   546
MathWorks begin
bpage
%%EndPageSetup

%%BeginObject: obj1
bplot

/dpi2point 12 def
portraitMode 0732 6552 csm

    0     0  5868  3588 rc
85 dict begin %Colortable dictionary
/c0 { 0.000000 0.000000 0.000000 sr} bdef
/c1 { 1.000000 1.000000 1.000000 sr} bdef
/c2 { 0.900000 0.000000 0.000000 sr} bdef
/c3 { 0.000000 0.820000 0.000000 sr} bdef
/c4 { 0.000000 0.000000 0.800000 sr} bdef
/c5 { 0.910000 0.820000 0.320000 sr} bdef
/c6 { 1.000000 0.260000 0.820000 sr} bdef
/c7 { 0.000000 0.820000 0.820000 sr} bdef
c0
1 j
1 sg
   0    0 5869 3589 rf
6 w
0 2669 4471 0 0 -2669 840 3068 4 MP
PP
-4471 0 0 2669 4471 0 0 -2669 840 3068 5 MP stroke
4 w
DO
SO
6 w
0 sg
 840 3068 mt 5311 3068 L
 840  399 mt 5311  399 L
 840 3068 mt  840  399 L
5311 3068 mt 5311  399 L
 840 3068 mt 5311 3068 L
 840 3068 mt  840  399 L
 840 3068 mt  840 3023 L
 840  399 mt  840  443 L
%%IncludeResource: font Times-Roman
/Times-Roman /ISOLatin1Encoding 240 FMSR

 780 3317 mt 
(0) s
1585 3068 mt 1585 3023 L
1585  399 mt 1585  443 L
1525 3317 mt 
(1) s
2330 3068 mt 2330 3023 L
2330  399 mt 2330  443 L
2270 3317 mt 
(2) s
3075 3068 mt 3075 3023 L
3075  399 mt 3075  443 L
3015 3317 mt 
(3) s
3820 3068 mt 3820 3023 L
3820  399 mt 3820  443 L
3760 3317 mt 
(4) s
4565 3068 mt 4565 3023 L
4565  399 mt 4565  443 L
4505 3317 mt 
(5) s
5311 3068 mt 5311 3023 L
5311  399 mt 5311  443 L
5251 3317 mt 
(6) s
 840 3068 mt  884 3068 L
5311 3068 mt 5266 3068 L
 685 3154 mt 
(0) s
 840 2178 mt  884 2178 L
5311 2178 mt 5266 2178 L
 445 2264 mt 
(500) s
 840 1288 mt  884 1288 L
5311 1288 mt 5266 1288 L
 325 1374 mt 
(1000) s
 840  399 mt  884  399 L
5311  399 mt 5266  399 L
 325  485 mt 
(1500) s
 840 3068 mt 5311 3068 L
 840  399 mt 5311  399 L
 840 3068 mt  840  399 L
5311 3068 mt 5311  399 L
gs 840 399 4472 2670 rc
/c8 { 0.000000 0.000000 0.562500 sr} bdef
c8
0 2461 146 0 0 -2461 840 3068 4 MP
PP
0 sg
-146 0 0 2461 146 0 0 -2461 840 3068 5 MP stroke
c8
0 814 147 0 0 -814 986 3068 4 MP
PP
0 sg
-147 0 0 814 147 0 0 -814 986 3068 5 MP stroke
c8
0 632 147 0 0 -632 1133 3068 4 MP
PP
0 sg
-147 0 0 632 147 0 0 -632 1133 3068 5 MP stroke
c8
0 589 147 0 0 -589 1280 3068 4 MP
PP
0 sg
-147 0 0 589 147 0 0 -589 1280 3068 5 MP stroke
c8
0 593 146 0 0 -593 1427 3068 4 MP
PP
0 sg
-146 0 0 593 146 0 0 -593 1427 3068 5 MP stroke
c8
0 444 147 0 0 -444 1573 3068 4 MP
PP
0 sg
-147 0 0 444 147 0 0 -444 1573 3068 5 MP stroke
c8
0 390 147 0 0 -390 1720 3068 4 MP
PP
0 sg
-147 0 0 390 147 0 0 -390 1720 3068 5 MP stroke
c8
0 344 147 0 0 -344 1867 3068 4 MP
PP
0 sg
-147 0 0 344 147 0 0 -344 1867 3068 5 MP stroke
c8
0 356 146 0 0 -356 2014 3068 4 MP
PP
0 sg
-146 0 0 356 146 0 0 -356 2014 3068 5 MP stroke
c8
0 241 147 0 0 -241 2160 3068 4 MP
PP
0 sg
-147 0 0 241 147 0 0 -241 2160 3068 5 MP stroke
c8
0 235 147 0 0 -235 2307 3068 4 MP
PP
0 sg
-147 0 0 235 147 0 0 -235 2307 3068 5 MP stroke
c8
0 209 147 0 0 -209 2454 3068 4 MP
PP
0 sg
-147 0 0 209 147 0 0 -209 2454 3068 5 MP stroke
c8
0 198 146 0 0 -198 2601 3068 4 MP
PP
0 sg
-146 0 0 198 146 0 0 -198 2601 3068 5 MP stroke
c8
0 154 147 0 0 -154 2747 3068 4 MP
PP
0 sg
-147 0 0 154 147 0 0 -154 2747 3068 5 MP stroke
c8
0 97 147 0 0 -97 2894 3068 4 MP
PP
0 sg
-147 0 0 97 147 0 0 -97 2894 3068 5 MP stroke
c8
0 93 147 0 0 -93 3041 3068 4 MP
PP
0 sg
-147 0 0 93 147 0 0 -93 3041 3068 5 MP stroke
c8
0 75 146 0 0 -75 3188 3068 4 MP
PP
0 sg
-146 0 0 75 146 0 0 -75 3188 3068 5 MP stroke
c8
0 81 147 0 0 -81 3334 3068 4 MP
PP
0 sg
-147 0 0 81 147 0 0 -81 3334 3068 5 MP stroke
c8
0 47 147 0 0 -47 3481 3068 4 MP
PP
0 sg
-147 0 0 47 147 0 0 -47 3481 3068 5 MP stroke
c8
0 56 147 0 0 -56 3628 3068 4 MP
PP
0 sg
-147 0 0 56 147 0 0 -56 3628 3068 5 MP stroke
c8
0 24 146 0 0 -24 3775 3068 4 MP
PP
0 sg
-146 0 0 24 146 0 0 -24 3775 3068 5 MP stroke
c8
0 31 147 0 0 -31 3921 3068 4 MP
PP
0 sg
-147 0 0 31 147 0 0 -31 3921 3068 5 MP stroke
c8
0 8 147 0 0 -8 4068 3068 4 MP
PP
0 sg
-147 0 0 8 147 0 0 -8 4068 3068 5 MP stroke
c8
0 15 147 0 0 -15 4215 3068 4 MP
PP
0 sg
-147 0 0 15 147 0 0 -15 4215 3068 5 MP stroke
c8
0 9 147 0 0 -9 4362 3068 4 MP
PP
0 sg
-147 0 0 9 147 0 0 -9 4362 3068 5 MP stroke
c8
0 6 146 0 0 -6 4509 3068 4 MP
PP
0 sg
-146 0 0 6 146 0 0 -6 4509 3068 5 MP stroke
c8
0 11 147 0 0 -11 4655 3068 4 MP
PP
0 sg
-147 0 0 11 147 0 0 -11 4655 3068 5 MP stroke
c8
0 0 147 0 0 0 4802 3068 4 MP
PP
0 sg
-147 0 0 0 147 0 0 0 4802 3068 5 MP stroke
c8
0 0 147 0 0 0 4949 3068 4 MP
PP
0 sg
-147 0 0 0 147 0 0 0 4949 3068 5 MP stroke
c8
0 2 146 0 0 -2 5096 3068 4 MP
PP
0 sg
-146 0 0 2 146 0 0 -2 5096 3068 5 MP stroke
gr

2517 3534 mt 
(speed \(m/s\)) s
 218 2674 mt  -90 rotate
(Number of samples) s
90 rotate
2089  215 mt 
(Oct25-Nov26, 2002) s

end %%Color Dict

eplot
%%EndObject

epage
end

showpage

%%Trailer
%%EOF
