%!PS-Adobe-3.0 EPSF-3.0
%%Creator: MATLAB, The MathWorks, Inc. Version 8.1.0.604 (R2013a). Operating System: Darwin 12.5.0 Darwin Kernel Version 12.5.0: Sun Sep 29 13:33:47 PDT 2013; root:xnu-2050.48.12~1/RELEASE_X86_64 x86_64.
%%Title: /Users/bamdadhosseini/Work/Courses/apma990-machinelearning/DATA/wind_Jul_Aug_hist.eps
%%CreationDate: 01/12/2015  12:44:45
%%DocumentNeededFonts: Times-Roman
%%DocumentProcessColors: Cyan Magenta Yellow Black
%%LanguageLevel: 2
%%Pages: 1
%%BoundingBox:    62   247   549   545
%%EndComments

%%BeginProlog
% MathWorks dictionary
/MathWorks 160 dict begin
% definition operators
/bdef {bind def} bind def
/ldef {load def} bind def
/xdef {exch def} bdef
/xstore {exch store} bdef
% operator abbreviations
/c  /clip ldef
/cc /concat ldef
/cp /closepath ldef
/gr /grestore ldef
/gs /gsave ldef
/mt /moveto ldef
/np /newpath ldef
/cm /currentmatrix ldef
/sm /setmatrix ldef
/rm /rmoveto ldef
/rl /rlineto ldef
/s {show newpath} bdef
/sc {setcmykcolor} bdef
/sr /setrgbcolor ldef
/sg /setgray ldef
/w /setlinewidth ldef
/j /setlinejoin ldef
/cap /setlinecap ldef
/rc {rectclip} bdef
/rf {rectfill} bdef
% page state control
/pgsv () def
/bpage {/pgsv save def} bdef
/epage {pgsv restore} bdef
/bplot /gsave ldef
/eplot {stroke grestore} bdef
% orientation switch
/portraitMode 0 def /landscapeMode 1 def /rotateMode 2 def
% coordinate system mappings
/dpi2point 0 def
% font control
/FontSize 0 def
/FMS {/FontSize xstore findfont [FontSize 0 0 FontSize neg 0 0]
  makefont setfont} bdef
/reencode {exch dup where {pop load} {pop StandardEncoding} ifelse
  exch dup 3 1 roll findfont dup length dict begin
  { 1 index /FID ne {def}{pop pop} ifelse } forall
  /Encoding exch def currentdict end definefont pop} bdef
/isroman {findfont /CharStrings get /Agrave known} bdef
/FMSR {3 1 roll 1 index dup isroman {reencode} {pop pop} ifelse
  exch FMS} bdef
/csm {1 dpi2point div -1 dpi2point div scale neg translate
 dup landscapeMode eq {pop -90 rotate}
  {rotateMode eq {90 rotate} if} ifelse} bdef
% line types: solid, dotted, dashed, dotdash
/SO { [] 0 setdash } bdef
/DO { [.5 dpi2point mul 4 dpi2point mul] 0 setdash } bdef
/DA { [6 dpi2point mul] 0 setdash } bdef
/DD { [.5 dpi2point mul 4 dpi2point mul 6 dpi2point mul 4
  dpi2point mul] 0 setdash } bdef
% macros for lines and objects
/L {lineto stroke} bdef
/MP {3 1 roll moveto 1 sub {rlineto} repeat} bdef
/AP {{rlineto} repeat} bdef
/PDlw -1 def
/W {/PDlw currentlinewidth def setlinewidth} def
/PP {closepath eofill} bdef
/DP {closepath stroke} bdef
/MR {4 -2 roll moveto dup  0 exch rlineto exch 0 rlineto
  neg 0 exch rlineto closepath} bdef
/FR {MR stroke} bdef
/PR {MR fill} bdef
/L1i {{currentfile picstr readhexstring pop} image} bdef
/tMatrix matrix def
/MakeOval {newpath tMatrix currentmatrix pop translate scale
0 0 1 0 360 arc tMatrix setmatrix} bdef
/FO {MakeOval stroke} bdef
/PO {MakeOval fill} bdef
/PD {currentlinewidth 2 div 0 360 arc fill
   PDlw -1 eq not {PDlw w /PDlw -1 def} if} def
/FA {newpath tMatrix currentmatrix pop translate scale
  0 0 1 5 -2 roll arc tMatrix setmatrix stroke} bdef
/PA {newpath tMatrix currentmatrix pop	translate 0 0 moveto scale
  0 0 1 5 -2 roll arc closepath tMatrix setmatrix fill} bdef
/FAn {newpath tMatrix currentmatrix pop translate scale
  0 0 1 5 -2 roll arcn tMatrix setmatrix stroke} bdef
/PAn {newpath tMatrix currentmatrix pop translate 0 0 moveto scale
  0 0 1 5 -2 roll arcn closepath tMatrix setmatrix fill} bdef
/vradius 0 def /hradius 0 def /lry 0 def
/lrx 0 def /uly 0 def /ulx 0 def /rad 0 def
/MRR {/vradius xdef /hradius xdef /lry xdef /lrx xdef /uly xdef
  /ulx xdef newpath tMatrix currentmatrix pop ulx hradius add uly
  vradius add translate hradius vradius scale 0 0 1 180 270 arc 
  tMatrix setmatrix lrx hradius sub uly vradius add translate
  hradius vradius scale 0 0 1 270 360 arc tMatrix setmatrix
  lrx hradius sub lry vradius sub translate hradius vradius scale
  0 0 1 0 90 arc tMatrix setmatrix ulx hradius add lry vradius sub
  translate hradius vradius scale 0 0 1 90 180 arc tMatrix setmatrix
  closepath} bdef
/FRR {MRR stroke } bdef
/PRR {MRR fill } bdef
/MlrRR {/lry xdef /lrx xdef /uly xdef /ulx xdef /rad lry uly sub 2 div def
  newpath tMatrix currentmatrix pop ulx rad add uly rad add translate
  rad rad scale 0 0 1 90 270 arc tMatrix setmatrix lrx rad sub lry rad
  sub translate rad rad scale 0 0 1 270 90 arc tMatrix setmatrix
  closepath} bdef
/FlrRR {MlrRR stroke } bdef
/PlrRR {MlrRR fill } bdef
/MtbRR {/lry xdef /lrx xdef /uly xdef /ulx xdef /rad lrx ulx sub 2 div def
  newpath tMatrix currentmatrix pop ulx rad add uly rad add translate
  rad rad scale 0 0 1 180 360 arc tMatrix setmatrix lrx rad sub lry rad
  sub translate rad rad scale 0 0 1 0 180 arc tMatrix setmatrix
  closepath} bdef
/FtbRR {MtbRR stroke } bdef
/PtbRR {MtbRR fill } bdef
/stri 6 array def /dtri 6 array def
/smat 6 array def /dmat 6 array def
/tmat1 6 array def /tmat2 6 array def /dif 3 array def
/asub {/ind2 exch def /ind1 exch def dup dup
  ind1 get exch ind2 get sub exch } bdef
/tri_to_matrix {
  2 0 asub 3 1 asub 4 0 asub 5 1 asub
  dup 0 get exch 1 get 7 -1 roll astore } bdef
/compute_transform {
  dmat dtri tri_to_matrix tmat1 invertmatrix 
  smat stri tri_to_matrix tmat2 concatmatrix } bdef
/ds {stri astore pop} bdef
/dt {dtri astore pop} bdef
/db {2 copy /cols xdef /rows xdef mul dup 3 mul string
  currentfile 
  3 index 0 eq {/ASCIIHexDecode filter}
  {/ASCII85Decode filter 3 index 2 eq {/RunLengthDecode filter} if }
  ifelse exch readstring pop
  dup 0 3 index getinterval /rbmap xdef
  dup 2 index dup getinterval /gbmap xdef
  1 index dup 2 mul exch getinterval /bbmap xdef pop pop}bdef
/it {gs np dtri aload pop moveto lineto lineto cp c
  cols rows 8 compute_transform 
  rbmap gbmap bbmap true 3 colorimage gr}bdef
/il {newpath moveto lineto stroke}bdef
currentdict end def
%%EndProlog

%%BeginSetup
MathWorks begin

0 cap

end
%%EndSetup

%%Page: 1 1
%%BeginPageSetup
%%PageBoundingBox:    62   247   549   545
MathWorks begin
bpage
%%EndPageSetup

%%BeginObject: obj1
bplot

/dpi2point 12 def
portraitMode 0744 6540 csm

    0     0  5844  3576 rc
85 dict begin %Colortable dictionary
/c0 { 0.000000 0.000000 0.000000 sr} bdef
/c1 { 1.000000 1.000000 1.000000 sr} bdef
/c2 { 0.900000 0.000000 0.000000 sr} bdef
/c3 { 0.000000 0.820000 0.000000 sr} bdef
/c4 { 0.000000 0.000000 0.800000 sr} bdef
/c5 { 0.910000 0.820000 0.320000 sr} bdef
/c6 { 1.000000 0.260000 0.820000 sr} bdef
/c7 { 0.000000 0.820000 0.820000 sr} bdef
c0
1 j
1 sg
   0    0 5845 3577 rf
6 w
0 2657 4529 0 0 -2657 760 3056 4 MP
PP
-4529 0 0 2657 4529 0 0 -2657 760 3056 5 MP stroke
4 w
DO
SO
6 w
0 sg
 760 3056 mt 5289 3056 L
 760  399 mt 5289  399 L
 760 3056 mt  760  399 L
5289 3056 mt 5289  399 L
 760 3056 mt 5289 3056 L
 760 3056 mt  760  399 L
 760 3056 mt  760 3010 L
 760  399 mt  760  444 L
%%IncludeResource: font Times-Roman
/Times-Roman /ISOLatin1Encoding 240 FMSR

 700 3305 mt 
(0) s
1665 3056 mt 1665 3010 L
1665  399 mt 1665  444 L
1605 3305 mt 
(2) s
2571 3056 mt 2571 3010 L
2571  399 mt 2571  444 L
2511 3305 mt 
(4) s
3477 3056 mt 3477 3010 L
3477  399 mt 3477  444 L
3417 3305 mt 
(6) s
4383 3056 mt 4383 3010 L
4383  399 mt 4383  444 L
4323 3305 mt 
(8) s
5289 3056 mt 5289 3010 L
5289  399 mt 5289  444 L
5169 3305 mt 
(10) s
 760 3056 mt  805 3056 L
5289 3056 mt 5243 3056 L
 605 3142 mt 
(0) s
 760 2391 mt  805 2391 L
5289 2391 mt 5243 2391 L
 365 2477 mt 
(200) s
 760 1727 mt  805 1727 L
5289 1727 mt 5243 1727 L
 365 1813 mt 
(400) s
 760 1063 mt  805 1063 L
5289 1063 mt 5243 1063 L
 365 1149 mt 
(600) s
 760  399 mt  805  399 L
5289  399 mt 5243  399 L
 365  485 mt 
(800) s
 760 3056 mt 5289 3056 L
 760  399 mt 5289  399 L
 760 3056 mt  760  399 L
5289 3056 mt 5289  399 L
gs 760 399 4530 2658 rc
/c8 { 0.000000 0.000000 0.562500 sr} bdef
c8
0 2113 131 0 0 -2113 760 3056 4 MP
PP
0 sg
-131 0 0 2113 131 0 0 -2113 760 3056 5 MP stroke
c8
0 744 131 0 0 -744 891 3056 4 MP
PP
0 sg
-131 0 0 744 131 0 0 -744 891 3056 5 MP stroke
c8
0 1053 131 0 0 -1053 1022 3056 4 MP
PP
0 sg
-131 0 0 1053 131 0 0 -1053 1022 3056 5 MP stroke
c8
0 1057 132 0 0 -1057 1153 3056 4 MP
PP
0 sg
-132 0 0 1057 132 0 0 -1057 1153 3056 5 MP stroke
c8
0 1821 131 0 0 -1821 1285 3056 4 MP
PP
0 sg
-131 0 0 1821 131 0 0 -1821 1285 3056 5 MP stroke
c8
0 1309 131 0 0 -1309 1416 3056 4 MP
PP
0 sg
-131 0 0 1309 131 0 0 -1309 1416 3056 5 MP stroke
c8
0 1319 132 0 0 -1319 1547 3056 4 MP
PP
0 sg
-132 0 0 1319 132 0 0 -1319 1547 3056 5 MP stroke
c8
0 1213 131 0 0 -1213 1679 3056 4 MP
PP
0 sg
-131 0 0 1213 131 0 0 -1213 1679 3056 5 MP stroke
c8
0 1010 131 0 0 -1010 1810 3056 4 MP
PP
0 sg
-131 0 0 1010 131 0 0 -1010 1810 3056 5 MP stroke
c8
0 967 131 0 0 -967 1941 3056 4 MP
PP
0 sg
-131 0 0 967 131 0 0 -967 1941 3056 5 MP stroke
c8
0 728 132 0 0 -728 2072 3056 4 MP
PP
0 sg
-132 0 0 728 132 0 0 -728 2072 3056 5 MP stroke
c8
0 578 131 0 0 -578 2204 3056 4 MP
PP
0 sg
-131 0 0 578 131 0 0 -578 2204 3056 5 MP stroke
c8
0 379 131 0 0 -379 2335 3056 4 MP
PP
0 sg
-131 0 0 379 131 0 0 -379 2335 3056 5 MP stroke
c8
0 313 132 0 0 -313 2466 3056 4 MP
PP
0 sg
-132 0 0 313 132 0 0 -313 2466 3056 5 MP stroke
c8
0 210 131 0 0 -210 2598 3056 4 MP
PP
0 sg
-131 0 0 210 131 0 0 -210 2598 3056 5 MP stroke
c8
0 177 131 0 0 -177 2729 3056 4 MP
PP
0 sg
-131 0 0 177 131 0 0 -177 2729 3056 5 MP stroke
c8
0 110 131 0 0 -110 2860 3056 4 MP
PP
0 sg
-131 0 0 110 131 0 0 -110 2860 3056 5 MP stroke
c8
0 70 132 0 0 -70 2991 3056 4 MP
PP
0 sg
-132 0 0 70 132 0 0 -70 2991 3056 5 MP stroke
c8
0 44 131 0 0 -44 3123 3056 4 MP
PP
0 sg
-131 0 0 44 131 0 0 -44 3123 3056 5 MP stroke
c8
0 27 131 0 0 -27 3254 3056 4 MP
PP
0 sg
-131 0 0 27 131 0 0 -27 3254 3056 5 MP stroke
c8
0 30 132 0 0 -30 3385 3056 4 MP
PP
0 sg
-132 0 0 30 132 0 0 -30 3385 3056 5 MP stroke
c8
0 20 131 0 0 -20 3517 3056 4 MP
PP
0 sg
-131 0 0 20 131 0 0 -20 3517 3056 5 MP stroke
c8
0 7 131 0 0 -7 3648 3056 4 MP
PP
0 sg
-131 0 0 7 131 0 0 -7 3648 3056 5 MP stroke
c8
0 0 131 0 0 0 3779 3056 4 MP
PP
0 sg
-131 0 0 0 131 0 0 0 3779 3056 5 MP stroke
c8
0 7 132 0 0 -7 3910 3056 4 MP
PP
0 sg
-132 0 0 7 132 0 0 -7 3910 3056 5 MP stroke
c8
0 0 131 0 0 0 4042 3056 4 MP
PP
0 sg
-131 0 0 0 131 0 0 0 4042 3056 5 MP stroke
c8
0 4 131 0 0 -4 4173 3056 4 MP
PP
0 sg
-131 0 0 4 131 0 0 -4 4173 3056 5 MP stroke
c8
0 7 132 0 0 -7 4304 3056 4 MP
PP
0 sg
-132 0 0 7 132 0 0 -7 4304 3056 5 MP stroke
c8
0 0 131 0 0 0 4436 3056 4 MP
PP
0 sg
-131 0 0 0 131 0 0 0 4436 3056 5 MP stroke
c8
0 4 131 0 0 -4 4567 3056 4 MP
PP
0 sg
-131 0 0 4 131 0 0 -4 4567 3056 5 MP stroke
gr

2466 3522 mt 
(speed \(m/s\)) s
 258 2641 mt  -90 rotate
(number of samples) s
90 rotate
2070  215 mt 
(Jul20-Aug21, 2013) s

end %%Color Dict

eplot
%%EndObject

epage
end

showpage

%%Trailer
%%EOF
